<?xml version="1.0" encoding="UTF-8" standalone="no"?><svg xmlns="http://www.w3.org/2000/svg" xmlns:xlink="http://www.w3.org/1999/xlink" contentScriptType="application/ecmascript" contentStyleType="text/css" height="1228.8px" preserveAspectRatio="none" style="width:2665px;height:1228px;" version="1.1" viewBox="0 0 2665 1228" width="2665.6px" zoomAndPan="magnify"><defs><filter height="300%" id="f11fm86e1rhnq8" width="300%" x="-1" y="-1"><feGaussianBlur result="blurOut" stdDeviation="1.6"/><feColorMatrix in="blurOut" result="blurOut2" type="matrix" values="0 0 0 0 0 0 0 0 0 0 0 0 0 0 0 0 0 0 .4 0"/><feOffset dx="3.2" dy="3.2" in="blurOut2" result="blurOut3"/><feBlend in="SourceGraphic" in2="blurOut3" mode="normal"/></filter></defs><g><rect fill="#FFFFFF" filter="url(#f11fm86e1rhnq8)" height="1067.3609" style="stroke: #A80036; stroke-width: 0.8;" width="8" x="56.8" y="77.1906"/><rect fill="#FFFFFF" filter="url(#f11fm86e1rhnq8)" height="23.4484" style="stroke: #A80036; stroke-width: 0.8;" width="8" x="684" y="94.2391"/><rect fill="#FFFFFF" filter="url(#f11fm86e1rhnq8)" height="210.0234" style="stroke: #A80036; stroke-width: 0.8;" width="8" x="684" y="141.1359"/><rect fill="#FFFFFF" filter="url(#f11fm86e1rhnq8)" height="307.4266" style="stroke: #A80036; stroke-width: 0.8;" width="8" x="684" y="374.6078"/><rect fill="#FFFFFF" filter="url(#f11fm86e1rhnq8)" height="241.0813" style="stroke: #A80036; stroke-width: 0.8;" width="8" x="684" y="705.4828"/><rect fill="#FFFFFF" filter="url(#f11fm86e1rhnq8)" height="174.5391" style="stroke: #A80036; stroke-width: 0.8;" width="8" x="684" y="970.0125"/><rect fill="#FFFFFF" filter="url(#f11fm86e1rhnq8)" height="130.7359" style="stroke: #A80036; stroke-width: 0.8;" width="8" x="1060" y="164.5844"/><rect fill="#FFFFFF" filter="url(#f11fm86e1rhnq8)" height="88.0875" style="stroke: #A80036; stroke-width: 0.8;" width="8" x="1060" y="398.0563"/><rect fill="#FFFFFF" filter="url(#f11fm86e1rhnq8)" height="94.8969" style="stroke: #A80036; stroke-width: 0.8;" width="8" x="1060" y="520.7922"/><rect fill="#FFFFFF" filter="url(#f11fm86e1rhnq8)" height="182.9844" style="stroke: #A80036; stroke-width: 0.8;" width="8" x="1060" y="728.9313"/><rect fill="#FFFFFF" filter="url(#f11fm86e1rhnq8)" height="151.0906" style="stroke: #A80036; stroke-width: 0.8;" width="8" x="1060" y="993.4609"/><rect fill="#FFFFFF" filter="url(#f11fm86e1rhnq8)" height="24" style="stroke: #A80036; stroke-width: 0.8;" width="8" x="1224.8" y="188.0328"/><rect fill="#FFFFFF" filter="url(#f11fm86e1rhnq8)" height="24" style="stroke: #A80036; stroke-width: 0.8;" width="8" x="1224.8" y="544.2406"/><rect fill="#FFFFFF" filter="url(#f11fm86e1rhnq8)" height="59.8391" style="stroke: #A80036; stroke-width: 0.8;" width="8" x="1345.6" y="235.4813"/><rect fill="#FFFFFF" filter="url(#f11fm86e1rhnq8)" height="127.6422" style="stroke: #A80036; stroke-width: 0.8;" width="8" x="1345.6" y="1016.9094"/><rect fill="#FFFFFF" filter="url(#f11fm86e1rhnq8)" height="24" style="stroke: #A80036; stroke-width: 0.8;" width="8" x="1477.6" y="591.6891"/><rect fill="#FFFFFF" filter="url(#f11fm86e1rhnq8)" height="24" style="stroke: #A80036; stroke-width: 0.8;" width="8" x="1477.6" y="752.3797"/><rect fill="#FFFFFF" filter="url(#f11fm86e1rhnq8)" height="28.3906" style="stroke: #A80036; stroke-width: 0.8;" width="8" x="1613.2" y="266.9297"/><rect fill="#FFFFFF" filter="url(#f11fm86e1rhnq8)" height="64.6391" style="stroke: #A80036; stroke-width: 0.8;" width="8" x="1613.2" y="421.5047"/><rect fill="#FFFFFF" filter="url(#f11fm86e1rhnq8)" height="64.6391" style="stroke: #A80036; stroke-width: 0.8;" width="8" x="1613.2" y="847.2766"/><rect fill="#FFFFFF" filter="url(#f11fm86e1rhnq8)" height="24" style="stroke: #A80036; stroke-width: 0.8;" width="8" x="2098" y="799.8281"/><rect fill="#FFFFFF" filter="url(#f11fm86e1rhnq8)" height="177.8813" style="stroke: #000000; stroke-width: 1.6;" width="2040.4" x="10.4" y="320.2625"/><rect fill="#FFFFFF" filter="url(#f11fm86e1rhnq8)" height="272.7781" style="stroke: #000000; stroke-width: 1.6;" width="2531.6" x="10.4" y="651.1375"/><line style="stroke: #A80036; stroke-width: 0.8; stroke-dasharray: 5.0,5.0;" x1="60.8" x2="60.8" y1="69.1906" y2="1158.9516"/><line style="stroke: #A80036; stroke-width: 0.8; stroke-dasharray: 5.0,5.0;" x1="688" x2="688" y1="69.1906" y2="1158.9516"/><line style="stroke: #A80036; stroke-width: 0.8; stroke-dasharray: 5.0,5.0;" x1="1064" x2="1064" y1="69.1906" y2="1158.9516"/><line style="stroke: #A80036; stroke-width: 0.8; stroke-dasharray: 5.0,5.0;" x1="1228.8" x2="1228.8" y1="69.1906" y2="1158.9516"/><line style="stroke: #A80036; stroke-width: 0.8; stroke-dasharray: 5.0,5.0;" x1="1349.6" x2="1349.6" y1="69.1906" y2="1158.9516"/><line style="stroke: #A80036; stroke-width: 0.8; stroke-dasharray: 5.0,5.0;" x1="1481.2" x2="1481.2" y1="69.1906" y2="1158.9516"/><line style="stroke: #A80036; stroke-width: 0.8; stroke-dasharray: 5.0,5.0;" x1="1616.8" x2="1616.8" y1="268.0766" y2="1158.9516"/><line style="stroke: #A80036; stroke-width: 0.8; stroke-dasharray: 5.0,5.0;" x1="1965.2" x2="1965.2" y1="454.1" y2="1158.9516"/><line style="stroke: #A80036; stroke-width: 0.8; stroke-dasharray: 5.0,5.0;" x1="2102" x2="2102" y1="69.1906" y2="1158.9516"/><line style="stroke: #A80036; stroke-width: 0.8; stroke-dasharray: 5.0,5.0;" x1="2223.6" x2="2223.6" y1="69.1906" y2="1158.9516"/><line style="stroke: #A80036; stroke-width: 0.8; stroke-dasharray: 5.0,5.0;" x1="2414" x2="2414" y1="879.8719" y2="1158.9516"/><line style="stroke: #A80036; stroke-width: 0.8; stroke-dasharray: 5.0,5.0;" x1="2601.2" x2="2601.2" y1="304.4672" y2="1158.9516"/><text fill="#000000" font-family="sans-serif" font-size="11.2" lengthAdjust="spacingAndGlyphs" textLength="80" x="18.4" y="66.8281">Administrativo</text><ellipse cx="60.8" cy="10.4" fill="#FEFECE" filter="url(#f11fm86e1rhnq8)" rx="6.4" ry="6.4" style="stroke: #A80036; stroke-width: 1.6;"/><path d="M60.8,16.8 L60.8,38.4 M50.4,23.2 L71.2,23.2 M60.8,38.4 L50.4,50.4 M60.8,38.4 L71.2,50.4 " fill="none" filter="url(#f11fm86e1rhnq8)" style="stroke: #A80036; stroke-width: 1.6;"/><text fill="#000000" font-family="sans-serif" font-size="11.2" lengthAdjust="spacingAndGlyphs" textLength="80" x="18.4" y="1168.9797">Administrativo</text><ellipse cx="60.8" cy="1179.3422" fill="#FEFECE" filter="url(#f11fm86e1rhnq8)" rx="6.4" ry="6.4" style="stroke: #A80036; stroke-width: 1.6;"/><path d="M60.8,1185.7422 L60.8,1207.3422 M50.4,1192.1422 L71.2,1192.1422 M60.8,1207.3422 L50.4,1219.3422 M60.8,1207.3422 L71.2,1219.3422 " fill="none" filter="url(#f11fm86e1rhnq8)" style="stroke: #A80036; stroke-width: 1.6;"/><rect fill="#FEFECE" filter="url(#f11fm86e1rhnq8)" height="24.3906" style="stroke: #A80036; stroke-width: 1.2000000000000002;" width="128" x="622.4" y="40.8"/><text fill="#000000" font-family="sans-serif" font-size="11.2" lengthAdjust="spacingAndGlyphs" textLength="116.8" x="628" y="57.2281">:RegistarFreelancerUI</text><rect fill="#FEFECE" filter="url(#f11fm86e1rhnq8)" height="24.3906" style="stroke: #A80036; stroke-width: 1.2000000000000002;" width="128" x="622.4" y="1158.1516"/><text fill="#000000" font-family="sans-serif" font-size="11.2" lengthAdjust="spacingAndGlyphs" textLength="116.8" x="628" y="1174.5797">:RegistarFreelancerUI</text><rect fill="#FEFECE" filter="url(#f11fm86e1rhnq8)" height="24.3906" style="stroke: #A80036; stroke-width: 1.2000000000000002;" width="172.8" x="976" y="40.8"/><text fill="#000000" font-family="sans-serif" font-size="11.2" lengthAdjust="spacingAndGlyphs" textLength="161.6" x="981.6" y="57.2281">:RegistarFreelancerController</text><rect fill="#FEFECE" filter="url(#f11fm86e1rhnq8)" height="24.3906" style="stroke: #A80036; stroke-width: 1.2000000000000002;" width="172.8" x="976" y="1158.1516"/><text fill="#000000" font-family="sans-serif" font-size="11.2" lengthAdjust="spacingAndGlyphs" textLength="161.6" x="981.6" y="1174.5797">:RegistarFreelancerController</text><rect fill="#FEFECE" filter="url(#f11fm86e1rhnq8)" height="24.3906" style="stroke: #A80036; stroke-width: 1.2000000000000002;" width="73.6" x="1190.4" y="40.8"/><text fill="#000000" font-family="sans-serif" font-size="11.2" lengthAdjust="spacingAndGlyphs" textLength="62.4" x="1196" y="57.2281">:Plataforma</text><rect fill="#FEFECE" filter="url(#f11fm86e1rhnq8)" height="24.3906" style="stroke: #A80036; stroke-width: 1.2000000000000002;" width="73.6" x="1190.4" y="1158.1516"/><text fill="#000000" font-family="sans-serif" font-size="11.2" lengthAdjust="spacingAndGlyphs" textLength="62.4" x="1196" y="1174.5797">:Plataforma</text><rect fill="#FEFECE" filter="url(#f11fm86e1rhnq8)" height="24.3906" style="stroke: #A80036; stroke-width: 1.2000000000000002;" width="129.6" x="1283.2" y="40.8"/><text fill="#000000" font-family="sans-serif" font-size="11.2" lengthAdjust="spacingAndGlyphs" textLength="118.4" x="1288.8" y="57.2281">rfr: RegistoFreelancer</text><rect fill="#FEFECE" filter="url(#f11fm86e1rhnq8)" height="24.3906" style="stroke: #A80036; stroke-width: 1.2000000000000002;" width="129.6" x="1283.2" y="1158.1516"/><text fill="#000000" font-family="sans-serif" font-size="11.2" lengthAdjust="spacingAndGlyphs" textLength="118.4" x="1288.8" y="1174.5797">rfr: RegistoFreelancer</text><rect fill="#FEFECE" filter="url(#f11fm86e1rhnq8)" height="24.3906" style="stroke: #A80036; stroke-width: 1.2000000000000002;" width="93.6" x="1433.2" y="40.8"/><text fill="#000000" font-family="sans-serif" font-size="11.2" lengthAdjust="spacingAndGlyphs" textLength="82.4" x="1438.8" y="57.2281">rcts: RegistoCT</text><rect fill="#FEFECE" filter="url(#f11fm86e1rhnq8)" height="24.3906" style="stroke: #A80036; stroke-width: 1.2000000000000002;" width="93.6" x="1433.2" y="1158.1516"/><text fill="#000000" font-family="sans-serif" font-size="11.2" lengthAdjust="spacingAndGlyphs" textLength="82.4" x="1438.8" y="1174.5797">rcts: RegistoCT</text><rect fill="#FEFECE" filter="url(#f11fm86e1rhnq8)" height="24.3906" style="stroke: #A80036; stroke-width: 1.2000000000000002;" width="84" x="1573.6" y="1158.1516"/><text fill="#000000" font-family="sans-serif" font-size="11.2" lengthAdjust="spacingAndGlyphs" textLength="72.8" x="1579.2" y="1174.5797">fr: Freelancer</text><rect fill="#FEFECE" filter="url(#f11fm86e1rhnq8)" height="24.3906" style="stroke: #A80036; stroke-width: 1.2000000000000002;" width="151.2" x="1888.4" y="1158.1516"/><text fill="#000000" font-family="sans-serif" font-size="11.2" lengthAdjust="spacingAndGlyphs" textLength="140" x="1894" y="1174.5797">ha: HabilitacaoAcademica</text><rect fill="#FEFECE" filter="url(#f11fm86e1rhnq8)" height="37.5813" style="stroke: #A80036; stroke-width: 1.2000000000000002;" width="99.2" x="2050.8" y="27.6094"/><text fill="#000000" font-family="sans-serif" font-size="11.2" lengthAdjust="spacingAndGlyphs" textLength="88" x="2056.4" y="44.0375">ct: Competencia</text><text fill="#000000" font-family="sans-serif" font-size="11.2" lengthAdjust="spacingAndGlyphs" textLength="41.6" x="2079.6" y="57.2281">Tecnica</text><rect fill="#FEFECE" filter="url(#f11fm86e1rhnq8)" height="37.5813" style="stroke: #A80036; stroke-width: 1.2000000000000002;" width="99.2" x="2050.8" y="1158.1516"/><text fill="#000000" font-family="sans-serif" font-size="11.2" lengthAdjust="spacingAndGlyphs" textLength="88" x="2056.4" y="1174.5797">ct: Competencia</text><text fill="#000000" font-family="sans-serif" font-size="11.2" lengthAdjust="spacingAndGlyphs" textLength="41.6" x="2079.6" y="1187.7703">Tecnica</text><rect fill="#FEFECE" filter="url(#f11fm86e1rhnq8)" height="24.3906" style="stroke: #A80036; stroke-width: 1.2000000000000002;" width="121.6" x="2161.2" y="40.8"/><text fill="#000000" font-family="sans-serif" font-size="11.2" lengthAdjust="spacingAndGlyphs" textLength="110.4" x="2166.8" y="57.2281">gp: GrauProficiencia</text><rect fill="#FEFECE" filter="url(#f11fm86e1rhnq8)" height="24.3906" style="stroke: #A80036; stroke-width: 1.2000000000000002;" width="121.6" x="2161.2" y="1158.1516"/><text fill="#000000" font-family="sans-serif" font-size="11.2" lengthAdjust="spacingAndGlyphs" textLength="110.4" x="2166.8" y="1174.5797">gp: GrauProficiencia</text><rect fill="#FEFECE" filter="url(#f11fm86e1rhnq8)" height="24.3906" style="stroke: #A80036; stroke-width: 1.2000000000000002;" width="236.8" x="2294" y="1158.1516"/><text fill="#000000" font-family="sans-serif" font-size="11.2" lengthAdjust="spacingAndGlyphs" textLength="225.6" x="2299.6" y="1174.5797">rct: ReconhecimentoCompetenciaTecnica</text><rect fill="#FEFECE" filter="url(#f11fm86e1rhnq8)" height="24.3906" style="stroke: #A80036; stroke-width: 1.2000000000000002;" width="115.2" x="2542" y="1158.1516"/><text fill="#000000" font-family="sans-serif" font-size="11.2" lengthAdjust="spacingAndGlyphs" textLength="104" x="2547.6" y="1174.5797">ep: EnderecoPostal</text><rect fill="#FFFFFF" filter="url(#f11fm86e1rhnq8)" height="1067.3609" style="stroke: #A80036; stroke-width: 0.8;" width="8" x="56.8" y="77.1906"/><rect fill="#FFFFFF" filter="url(#f11fm86e1rhnq8)" height="23.4484" style="stroke: #A80036; stroke-width: 0.8;" width="8" x="684" y="94.2391"/><rect fill="#FFFFFF" filter="url(#f11fm86e1rhnq8)" height="210.0234" style="stroke: #A80036; stroke-width: 0.8;" width="8" x="684" y="141.1359"/><rect fill="#FFFFFF" filter="url(#f11fm86e1rhnq8)" height="307.4266" style="stroke: #A80036; stroke-width: 0.8;" width="8" x="684" y="374.6078"/><rect fill="#FFFFFF" filter="url(#f11fm86e1rhnq8)" height="241.0813" style="stroke: #A80036; stroke-width: 0.8;" width="8" x="684" y="705.4828"/><rect fill="#FFFFFF" filter="url(#f11fm86e1rhnq8)" height="174.5391" style="stroke: #A80036; stroke-width: 0.8;" width="8" x="684" y="970.0125"/><rect fill="#FFFFFF" filter="url(#f11fm86e1rhnq8)" height="130.7359" style="stroke: #A80036; stroke-width: 0.8;" width="8" x="1060" y="164.5844"/><rect fill="#FFFFFF" filter="url(#f11fm86e1rhnq8)" height="88.0875" style="stroke: #A80036; stroke-width: 0.8;" width="8" x="1060" y="398.0563"/><rect fill="#FFFFFF" filter="url(#f11fm86e1rhnq8)" height="94.8969" style="stroke: #A80036; stroke-width: 0.8;" width="8" x="1060" y="520.7922"/><rect fill="#FFFFFF" filter="url(#f11fm86e1rhnq8)" height="182.9844" style="stroke: #A80036; stroke-width: 0.8;" width="8" x="1060" y="728.9313"/><rect fill="#FFFFFF" filter="url(#f11fm86e1rhnq8)" height="151.0906" style="stroke: #A80036; stroke-width: 0.8;" width="8" x="1060" y="993.4609"/><rect fill="#FFFFFF" filter="url(#f11fm86e1rhnq8)" height="24" style="stroke: #A80036; stroke-width: 0.8;" width="8" x="1224.8" y="188.0328"/><rect fill="#FFFFFF" filter="url(#f11fm86e1rhnq8)" height="24" style="stroke: #A80036; stroke-width: 0.8;" width="8" x="1224.8" y="544.2406"/><rect fill="#FFFFFF" filter="url(#f11fm86e1rhnq8)" height="59.8391" style="stroke: #A80036; stroke-width: 0.8;" width="8" x="1345.6" y="235.4813"/><rect fill="#FFFFFF" filter="url(#f11fm86e1rhnq8)" height="127.6422" style="stroke: #A80036; stroke-width: 0.8;" width="8" x="1345.6" y="1016.9094"/><rect fill="#FFFFFF" filter="url(#f11fm86e1rhnq8)" height="24" style="stroke: #A80036; stroke-width: 0.8;" width="8" x="1477.6" y="591.6891"/><rect fill="#FFFFFF" filter="url(#f11fm86e1rhnq8)" height="24" style="stroke: #A80036; stroke-width: 0.8;" width="8" x="1477.6" y="752.3797"/><rect fill="#FFFFFF" filter="url(#f11fm86e1rhnq8)" height="28.3906" style="stroke: #A80036; stroke-width: 0.8;" width="8" x="1613.2" y="266.9297"/><rect fill="#FFFFFF" filter="url(#f11fm86e1rhnq8)" height="64.6391" style="stroke: #A80036; stroke-width: 0.8;" width="8" x="1613.2" y="421.5047"/><rect fill="#FFFFFF" filter="url(#f11fm86e1rhnq8)" height="64.6391" style="stroke: #A80036; stroke-width: 0.8;" width="8" x="1613.2" y="847.2766"/><rect fill="#FFFFFF" filter="url(#f11fm86e1rhnq8)" height="24" style="stroke: #A80036; stroke-width: 0.8;" width="8" x="2098" y="799.8281"/><polygon fill="#A80036" points="674.4,91.0391,682.4,94.2391,674.4,97.4391,677.6,94.2391" style="stroke: #A80036; stroke-width: 0.8;"/><line style="stroke: #A80036; stroke-width: 0.8;" x1="64.8" x2="679.2" y1="94.2391" y2="94.2391"/><text fill="#000000" font-family="sans-serif" font-size="10.4" font-weight="bold" lengthAdjust="spacingAndGlyphs" textLength="7.2" x="70.4" y="90.4453">1</text><text fill="#000000" font-family="sans-serif" font-size="10.4" lengthAdjust="spacingAndGlyphs" textLength="162.4" x="80.8" y="90.4453">inicia o registo de um freelancer</text><polygon fill="#A80036" points="73.6,114.4875,65.6,117.6875,73.6,120.8875,70.4,117.6875" style="stroke: #A80036; stroke-width: 0.8;"/><line style="stroke: #A80036; stroke-width: 0.8; stroke-dasharray: 2.0,2.0;" x1="68.8" x2="687.2" y1="117.6875" y2="117.6875"/><text fill="#000000" font-family="sans-serif" font-size="10.4" font-weight="bold" lengthAdjust="spacingAndGlyphs" textLength="7.2" x="78.4" y="113.8938">2</text><text fill="#000000" font-family="sans-serif" font-size="10.4" lengthAdjust="spacingAndGlyphs" textLength="514.4" x="88.8" y="113.8938">solicita os dados do freelancer (i.e., o nome, o NIF, o endereço postal, um contacto telefónico e email)</text><polygon fill="#A80036" points="674.4,137.9359,682.4,141.1359,674.4,144.3359,677.6,141.1359" style="stroke: #A80036; stroke-width: 0.8;"/><line style="stroke: #A80036; stroke-width: 0.8;" x1="64.8" x2="679.2" y1="141.1359" y2="141.1359"/><text fill="#000000" font-family="sans-serif" font-size="10.4" font-weight="bold" lengthAdjust="spacingAndGlyphs" textLength="7.2" x="70.4" y="137.3422">3</text><text fill="#000000" font-family="sans-serif" font-size="10.4" lengthAdjust="spacingAndGlyphs" textLength="149.6" x="80.8" y="137.3422">introduz os dados solicitados</text><polygon fill="#A80036" points="1050.4,161.3844,1058.4,164.5844,1050.4,167.7844,1053.6,164.5844" style="stroke: #A80036; stroke-width: 0.8;"/><line style="stroke: #A80036; stroke-width: 0.8;" x1="692" x2="1055.2" y1="164.5844" y2="164.5844"/><text fill="#000000" font-family="sans-serif" font-size="10.4" font-weight="bold" lengthAdjust="spacingAndGlyphs" textLength="7.2" x="697.6" y="160.7906">4</text><text fill="#000000" font-family="sans-serif" font-size="10.4" lengthAdjust="spacingAndGlyphs" textLength="236" x="708" y="160.7906">novoFreelancer(nome, nif, endpost, tele, email)</text><polygon fill="#A80036" points="1215.2,184.8328,1223.2,188.0328,1215.2,191.2328,1218.4,188.0328" style="stroke: #A80036; stroke-width: 0.8;"/><line style="stroke: #A80036; stroke-width: 0.8;" x1="1068" x2="1220" y1="188.0328" y2="188.0328"/><text fill="#000000" font-family="sans-serif" font-size="10.4" font-weight="bold" lengthAdjust="spacingAndGlyphs" textLength="7.2" x="1073.6" y="184.2391">5</text><text fill="#000000" font-family="sans-serif" font-size="10.4" lengthAdjust="spacingAndGlyphs" textLength="131.2" x="1084" y="184.2391">rfr=getRegistoFreelancer()</text><polygon fill="#A80036" points="1336,232.2813,1344,235.4813,1336,238.6813,1339.2,235.4813" style="stroke: #A80036; stroke-width: 0.8;"/><line style="stroke: #A80036; stroke-width: 0.8;" x1="1068" x2="1340.8" y1="235.4813" y2="235.4813"/><text fill="#000000" font-family="sans-serif" font-size="10.4" font-weight="bold" lengthAdjust="spacingAndGlyphs" textLength="7.2" x="1073.6" y="231.6875">6</text><text fill="#000000" font-family="sans-serif" font-size="10.4" lengthAdjust="spacingAndGlyphs" textLength="252" x="1084" y="231.6875">fr=novoFreelancer(nome, nif, endpost, tele, email)</text><polygon fill="#A80036" points="1564,255.7297,1572,258.9297,1564,262.1297,1567.2,258.9297" style="stroke: #A80036; stroke-width: 0.8;"/><line style="stroke: #A80036; stroke-width: 0.8; stroke-dasharray: 2.0,2.0;" x1="1353.6" x2="1568.8" y1="258.9297" y2="258.9297"/><text fill="#000000" font-family="sans-serif" font-size="10.4" font-weight="bold" lengthAdjust="spacingAndGlyphs" textLength="7.2" x="1359.2" y="255.1359">7</text><text fill="#000000" font-family="sans-serif" font-size="10.4" lengthAdjust="spacingAndGlyphs" textLength="190.4" x="1369.6" y="255.1359">create(nome, nif, endpost, tele, email)</text><rect fill="#FEFECE" filter="url(#f11fm86e1rhnq8)" height="24.3906" style="stroke: #A80036; stroke-width: 1.2000000000000002;" width="84" x="1573.6" y="241.8813"/><text fill="#000000" font-family="sans-serif" font-size="11.2" lengthAdjust="spacingAndGlyphs" textLength="72.8" x="1579.2" y="258.3094">fr: Freelancer</text><polygon fill="#A80036" points="2532.4,292.1203,2540.4,295.3203,2532.4,298.5203,2535.6,295.3203" style="stroke: #A80036; stroke-width: 0.8;"/><line style="stroke: #A80036; stroke-width: 0.8; stroke-dasharray: 2.0,2.0;" x1="1617.2" x2="2537.2" y1="295.3203" y2="295.3203"/><text fill="#000000" font-family="sans-serif" font-size="10.4" font-weight="bold" lengthAdjust="spacingAndGlyphs" textLength="7.2" x="1622.8" y="291.5266">8</text><text fill="#000000" font-family="sans-serif" font-size="10.4" lengthAdjust="spacingAndGlyphs" textLength="77.6" x="1633.2" y="291.5266">create(endpost)</text><rect fill="#FEFECE" filter="url(#f11fm86e1rhnq8)" height="24.3906" style="stroke: #A80036; stroke-width: 1.2000000000000002;" width="115.2" x="2542" y="278.2719"/><text fill="#000000" font-family="sans-serif" font-size="11.2" lengthAdjust="spacingAndGlyphs" textLength="104" x="2547.6" y="294.7">ep: EnderecoPostal</text><path d="M10.4,320.2625 L69.6,320.2625 L69.6,325.8625 L61.6,333.8625 L10.4,333.8625 L10.4,320.2625 " fill="#EEEEEE" style="stroke: #000000; stroke-width: 0.8;"/><rect fill="none" height="177.8813" style="stroke: #000000; stroke-width: 1.6;" width="2040.4" x="10.4" y="320.2625"/><text fill="#000000" font-family="sans-serif" font-size="10.4" font-weight="bold" lengthAdjust="spacingAndGlyphs" textLength="23.2" x="22.4" y="331.1172">loop</text><polygon fill="#A80036" points="73.6,347.9594,65.6,351.1594,73.6,354.3594,70.4,351.1594" style="stroke: #A80036; stroke-width: 0.8;"/><line style="stroke: #A80036; stroke-width: 0.8; stroke-dasharray: 2.0,2.0;" x1="68.8" x2="687.2" y1="351.1594" y2="351.1594"/><text fill="#000000" font-family="sans-serif" font-size="10.4" font-weight="bold" lengthAdjust="spacingAndGlyphs" textLength="7.2" x="78.4" y="347.3656">9</text><text fill="#000000" font-family="sans-serif" font-size="10.4" lengthAdjust="spacingAndGlyphs" textLength="549.6" x="88.8" y="347.3656">solicita a introdução de uma habilitação académica (grau, designação do curso, instituição e média do curso)</text><polygon fill="#A80036" points="674.4,371.4078,682.4,374.6078,674.4,377.8078,677.6,374.6078" style="stroke: #A80036; stroke-width: 0.8;"/><line style="stroke: #A80036; stroke-width: 0.8;" x1="64.8" x2="679.2" y1="374.6078" y2="374.6078"/><text fill="#000000" font-family="sans-serif" font-size="10.4" font-weight="bold" lengthAdjust="spacingAndGlyphs" textLength="14.4" x="70.4" y="370.8141">10</text><text fill="#000000" font-family="sans-serif" font-size="10.4" lengthAdjust="spacingAndGlyphs" textLength="149.6" x="88" y="370.8141">introduz os dados solicitados</text><polygon fill="#A80036" points="1050.4,394.8563,1058.4,398.0563,1050.4,401.2563,1053.6,398.0563" style="stroke: #A80036; stroke-width: 0.8;"/><line style="stroke: #A80036; stroke-width: 0.8;" x1="692" x2="1055.2" y1="398.0563" y2="398.0563"/><text fill="#000000" font-family="sans-serif" font-size="10.4" font-weight="bold" lengthAdjust="spacingAndGlyphs" textLength="14.4" x="697.6" y="394.2625">11</text><text fill="#000000" font-family="sans-serif" font-size="10.4" lengthAdjust="spacingAndGlyphs" textLength="335.2" x="715.2" y="394.2625">novaHabilitacaoAcademica(grau, desCurso, instituicao, medCurso)</text><polygon fill="#A80036" points="1603.6,418.3047,1611.6,421.5047,1603.6,424.7047,1606.8,421.5047" style="stroke: #A80036; stroke-width: 0.8;"/><line style="stroke: #A80036; stroke-width: 0.8;" x1="1068" x2="1608.4" y1="421.5047" y2="421.5047"/><text fill="#000000" font-family="sans-serif" font-size="10.4" font-weight="bold" lengthAdjust="spacingAndGlyphs" textLength="14.4" x="1073.6" y="417.7109">12</text><text fill="#000000" font-family="sans-serif" font-size="10.4" lengthAdjust="spacingAndGlyphs" textLength="335.2" x="1091.2" y="417.7109">novaHabilitacaoAcademica(grau, desCurso, instituicao, medCurso)</text><polygon fill="#A80036" points="1878.8,441.7531,1886.8,444.9531,1878.8,448.1531,1882,444.9531" style="stroke: #A80036; stroke-width: 0.8;"/><line style="stroke: #A80036; stroke-width: 0.8;" x1="1621.2" x2="1883.6" y1="444.9531" y2="444.9531"/><text fill="#000000" font-family="sans-serif" font-size="10.4" font-weight="bold" lengthAdjust="spacingAndGlyphs" textLength="14.4" x="1626.8" y="441.1594">13</text><text fill="#000000" font-family="sans-serif" font-size="10.4" lengthAdjust="spacingAndGlyphs" textLength="230.4" x="1644.4" y="441.1594">create(grau, desCurso, instituicao, medCurso)</text><rect fill="#FEFECE" filter="url(#f11fm86e1rhnq8)" height="24.3906" style="stroke: #A80036; stroke-width: 1.2000000000000002;" width="151.2" x="1888.4" y="427.9047"/><text fill="#000000" font-family="sans-serif" font-size="11.2" lengthAdjust="spacingAndGlyphs" textLength="140" x="1894" y="444.3328">ha: HabilitacaoAcademica</text><line style="stroke: #A80036; stroke-width: 0.8;" x1="1621.2" x2="1654.8" y1="485.3438" y2="485.3438"/><line style="stroke: #A80036; stroke-width: 0.8;" x1="1654.8" x2="1654.8" y1="485.3438" y2="495.7438"/><line style="stroke: #A80036; stroke-width: 0.8;" x1="1617.2" x2="1654.8" y1="495.7438" y2="495.7438"/><polygon fill="#A80036" points="1625.2,492.5438,1617.2,495.7438,1625.2,498.9438,1622,495.7438" style="stroke: #A80036; stroke-width: 0.8;"/><text fill="#000000" font-family="sans-serif" font-size="10.4" font-weight="bold" lengthAdjust="spacingAndGlyphs" textLength="14.4" x="1626.8" y="481.55">14</text><text fill="#000000" font-family="sans-serif" font-size="10.4" lengthAdjust="spacingAndGlyphs" textLength="148" x="1644.4" y="481.55">addHabilitacaoAcademica(ha)</text><polygon fill="#A80036" points="1050.4,517.5922,1058.4,520.7922,1050.4,523.9922,1053.6,520.7922" style="stroke: #A80036; stroke-width: 0.8;"/><line style="stroke: #A80036; stroke-width: 0.8; stroke-dasharray: 2.0,2.0;" x1="692" x2="1055.2" y1="520.7922" y2="520.7922"/><text fill="#000000" font-family="sans-serif" font-size="10.4" font-weight="bold" lengthAdjust="spacingAndGlyphs" textLength="14.4" x="697.6" y="516.9984">15</text><text fill="#000000" font-family="sans-serif" font-size="10.4" lengthAdjust="spacingAndGlyphs" textLength="139.2" x="715.2" y="516.9984">lct = getListaCTComGraus()</text><polygon fill="#A80036" points="1215.2,541.0406,1223.2,544.2406,1215.2,547.4406,1218.4,544.2406" style="stroke: #A80036; stroke-width: 0.8;"/><line style="stroke: #A80036; stroke-width: 0.8; stroke-dasharray: 2.0,2.0;" x1="1068" x2="1220" y1="544.2406" y2="544.2406"/><text fill="#000000" font-family="sans-serif" font-size="10.4" font-weight="bold" lengthAdjust="spacingAndGlyphs" textLength="14.4" x="1073.6" y="540.4469">16</text><text fill="#000000" font-family="sans-serif" font-size="10.4" lengthAdjust="spacingAndGlyphs" textLength="107.2" x="1091.2" y="540.4469">rcts = getRegistoCT()</text><polygon fill="#A80036" points="1468,588.4891,1476,591.6891,1468,594.8891,1471.2,591.6891" style="stroke: #A80036; stroke-width: 0.8;"/><line style="stroke: #A80036; stroke-width: 0.8; stroke-dasharray: 2.0,2.0;" x1="1068" x2="1472.8" y1="591.6891" y2="591.6891"/><text fill="#000000" font-family="sans-serif" font-size="10.4" font-weight="bold" lengthAdjust="spacingAndGlyphs" textLength="14.4" x="1073.6" y="587.8953">17</text><text fill="#000000" font-family="sans-serif" font-size="10.4" lengthAdjust="spacingAndGlyphs" textLength="139.2" x="1091.2" y="587.8953">lct = getListaCTComGraus()</text><polygon fill="#A80036" points="73.6,635.9375,65.6,639.1375,73.6,642.3375,70.4,639.1375" style="stroke: #A80036; stroke-width: 0.8;"/><line style="stroke: #A80036; stroke-width: 0.8; stroke-dasharray: 2.0,2.0;" x1="68.8" x2="683.2" y1="639.1375" y2="639.1375"/><text fill="#000000" font-family="sans-serif" font-size="10.4" font-weight="bold" lengthAdjust="spacingAndGlyphs" textLength="14.4" x="78.4" y="635.3438">18</text><text fill="#000000" font-family="sans-serif" font-size="10.4" lengthAdjust="spacingAndGlyphs" textLength="374.4" x="96" y="635.3438">mostra a lista de competências técnicas e respetivos graus de proficiência</text><path d="M10.4,651.1375 L69.6,651.1375 L69.6,656.7375 L61.6,664.7375 L10.4,664.7375 L10.4,651.1375 " fill="#EEEEEE" style="stroke: #000000; stroke-width: 0.8;"/><rect fill="none" height="272.7781" style="stroke: #000000; stroke-width: 1.6;" width="2531.6" x="10.4" y="651.1375"/><text fill="#000000" font-family="sans-serif" font-size="10.4" font-weight="bold" lengthAdjust="spacingAndGlyphs" textLength="23.2" x="22.4" y="661.9922">loop</text><polygon fill="#A80036" points="73.6,678.8344,65.6,682.0344,73.6,685.2344,70.4,682.0344" style="stroke: #A80036; stroke-width: 0.8;"/><line style="stroke: #A80036; stroke-width: 0.8; stroke-dasharray: 2.0,2.0;" x1="68.8" x2="687.2" y1="682.0344" y2="682.0344"/><text fill="#000000" font-family="sans-serif" font-size="10.4" font-weight="bold" lengthAdjust="spacingAndGlyphs" textLength="14.4" x="78.4" y="678.2406">19</text><text fill="#000000" font-family="sans-serif" font-size="10.4" lengthAdjust="spacingAndGlyphs" textLength="582.4" x="96" y="678.2406">solicita a introdução de reconhecimento de competências técnicas (data, competência técnica, grau de proficiência)</text><polygon fill="#A80036" points="674.4,702.2828,682.4,705.4828,674.4,708.6828,677.6,705.4828" style="stroke: #A80036; stroke-width: 0.8;"/><line style="stroke: #A80036; stroke-width: 0.8;" x1="64.8" x2="679.2" y1="705.4828" y2="705.4828"/><text fill="#000000" font-family="sans-serif" font-size="10.4" font-weight="bold" lengthAdjust="spacingAndGlyphs" textLength="14.4" x="70.4" y="701.6891">20</text><text fill="#000000" font-family="sans-serif" font-size="10.4" lengthAdjust="spacingAndGlyphs" textLength="149.6" x="88" y="701.6891">introduz os dados solicitados</text><polygon fill="#A80036" points="1050.4,725.7313,1058.4,728.9313,1050.4,732.1313,1053.6,728.9313" style="stroke: #A80036; stroke-width: 0.8;"/><line style="stroke: #A80036; stroke-width: 0.8;" x1="692" x2="1055.2" y1="728.9313" y2="728.9313"/><text fill="#000000" font-family="sans-serif" font-size="10.4" font-weight="bold" lengthAdjust="spacingAndGlyphs" textLength="14.4" x="697.6" y="725.1375">21</text><text fill="#000000" font-family="sans-serif" font-size="10.4" lengthAdjust="spacingAndGlyphs" textLength="231.2" x="715.2" y="725.1375">novaReconhecimentoCT(data, codCT, valorGP)</text><polygon fill="#A80036" points="1468,749.1797,1476,752.3797,1468,755.5797,1471.2,752.3797" style="stroke: #A80036; stroke-width: 0.8;"/><line style="stroke: #A80036; stroke-width: 0.8;" x1="1068" x2="1472.8" y1="752.3797" y2="752.3797"/><text fill="#000000" font-family="sans-serif" font-size="10.4" font-weight="bold" lengthAdjust="spacingAndGlyphs" textLength="14.4" x="1073.6" y="748.5859">22</text><text fill="#000000" font-family="sans-serif" font-size="10.4" lengthAdjust="spacingAndGlyphs" textLength="85.6" x="1091.2" y="748.5859">ct=getCT(codCT)</text><polygon fill="#A80036" points="2088.4,796.6281,2096.4,799.8281,2088.4,803.0281,2091.6,799.8281" style="stroke: #A80036; stroke-width: 0.8;"/><line style="stroke: #A80036; stroke-width: 0.8;" x1="1068" x2="2093.2" y1="799.8281" y2="799.8281"/><text fill="#000000" font-family="sans-serif" font-size="10.4" font-weight="bold" lengthAdjust="spacingAndGlyphs" textLength="14.4" x="1073.6" y="796.0344">23</text><text fill="#000000" font-family="sans-serif" font-size="10.4" lengthAdjust="spacingAndGlyphs" textLength="165.6" x="1091.2" y="796.0344">gp= getGrauProficiencia(valorGP)</text><polygon fill="#A80036" points="1603.6,844.0766,1611.6,847.2766,1603.6,850.4766,1606.8,847.2766" style="stroke: #A80036; stroke-width: 0.8;"/><line style="stroke: #A80036; stroke-width: 0.8;" x1="1068" x2="1608.4" y1="847.2766" y2="847.2766"/><text fill="#000000" font-family="sans-serif" font-size="10.4" font-weight="bold" lengthAdjust="spacingAndGlyphs" textLength="14.4" x="1073.6" y="843.4828">24</text><text fill="#000000" font-family="sans-serif" font-size="10.4" lengthAdjust="spacingAndGlyphs" textLength="184" x="1091.2" y="843.4828">novaReconhecimentoCT(data, ct, gp)</text><polygon fill="#A80036" points="2284.4,867.525,2292.4,870.725,2284.4,873.925,2287.6,870.725" style="stroke: #A80036; stroke-width: 0.8;"/><line style="stroke: #A80036; stroke-width: 0.8;" x1="1621.2" x2="2289.2" y1="870.725" y2="870.725"/><text fill="#000000" font-family="sans-serif" font-size="10.4" font-weight="bold" lengthAdjust="spacingAndGlyphs" textLength="14.4" x="1626.8" y="866.9313">25</text><text fill="#000000" font-family="sans-serif" font-size="10.4" lengthAdjust="spacingAndGlyphs" textLength="93.6" x="1644.4" y="866.9313">create(data, ct, gp)</text><rect fill="#FEFECE" filter="url(#f11fm86e1rhnq8)" height="24.3906" style="stroke: #A80036; stroke-width: 1.2000000000000002;" width="236.8" x="2294" y="853.6766"/><text fill="#000000" font-family="sans-serif" font-size="11.2" lengthAdjust="spacingAndGlyphs" textLength="225.6" x="2299.6" y="870.1047">rct: ReconhecimentoCompetenciaTecnica</text><line style="stroke: #A80036; stroke-width: 0.8;" x1="1621.2" x2="1654.8" y1="911.1156" y2="911.1156"/><line style="stroke: #A80036; stroke-width: 0.8;" x1="1654.8" x2="1654.8" y1="911.1156" y2="921.5156"/><line style="stroke: #A80036; stroke-width: 0.8;" x1="1617.2" x2="1654.8" y1="921.5156" y2="921.5156"/><polygon fill="#A80036" points="1625.2,918.3156,1617.2,921.5156,1625.2,924.7156,1622,921.5156" style="stroke: #A80036; stroke-width: 0.8;"/><text fill="#000000" font-family="sans-serif" font-size="10.4" font-weight="bold" lengthAdjust="spacingAndGlyphs" textLength="14.4" x="1626.8" y="907.3219">26</text><text fill="#000000" font-family="sans-serif" font-size="10.4" lengthAdjust="spacingAndGlyphs" textLength="121.6" x="1644.4" y="907.3219">addReconhecimento(rct)</text><polygon fill="#A80036" points="73.6,943.3641,65.6,946.5641,73.6,949.7641,70.4,946.5641" style="stroke: #A80036; stroke-width: 0.8;"/><line style="stroke: #A80036; stroke-width: 0.8; stroke-dasharray: 2.0,2.0;" x1="68.8" x2="687.2" y1="946.5641" y2="946.5641"/><text fill="#000000" font-family="sans-serif" font-size="10.4" font-weight="bold" lengthAdjust="spacingAndGlyphs" textLength="14.4" x="78.4" y="942.7703">27</text><text fill="#000000" font-family="sans-serif" font-size="10.4" lengthAdjust="spacingAndGlyphs" textLength="196.8" x="96" y="942.7703">apresenta dados e solicita confirmação</text><polygon fill="#A80036" points="674.4,966.8125,682.4,970.0125,674.4,973.2125,677.6,970.0125" style="stroke: #A80036; stroke-width: 0.8;"/><line style="stroke: #A80036; stroke-width: 0.8;" x1="64.8" x2="679.2" y1="970.0125" y2="970.0125"/><text fill="#000000" font-family="sans-serif" font-size="10.4" font-weight="bold" lengthAdjust="spacingAndGlyphs" textLength="14.4" x="70.4" y="966.2188">28</text><text fill="#000000" font-family="sans-serif" font-size="10.4" lengthAdjust="spacingAndGlyphs" textLength="44.8" x="88" y="966.2188">confirma</text><polygon fill="#A80036" points="1050.4,990.2609,1058.4,993.4609,1050.4,996.6609,1053.6,993.4609" style="stroke: #A80036; stroke-width: 0.8;"/><line style="stroke: #A80036; stroke-width: 0.8;" x1="692" x2="1055.2" y1="993.4609" y2="993.4609"/><text fill="#000000" font-family="sans-serif" font-size="10.4" font-weight="bold" lengthAdjust="spacingAndGlyphs" textLength="14.4" x="697.6" y="989.6672">29</text><text fill="#000000" font-family="sans-serif" font-size="10.4" lengthAdjust="spacingAndGlyphs" textLength="92" x="715.2" y="989.6672">registaFreelancer()</text><polygon fill="#A80036" points="1336,1013.7094,1344,1016.9094,1336,1020.1094,1339.2,1016.9094" style="stroke: #A80036; stroke-width: 0.8;"/><line style="stroke: #A80036; stroke-width: 0.8;" x1="1068" x2="1340.8" y1="1016.9094" y2="1016.9094"/><text fill="#000000" font-family="sans-serif" font-size="10.4" font-weight="bold" lengthAdjust="spacingAndGlyphs" textLength="14.4" x="1073.6" y="1013.1156">30</text><text fill="#000000" font-family="sans-serif" font-size="10.4" lengthAdjust="spacingAndGlyphs" textLength="100" x="1091.2" y="1013.1156">registaFreelancer(fr)</text><line style="stroke: #A80036; stroke-width: 0.8;" x1="1353.6" x2="1387.2" y1="1040.3578" y2="1040.3578"/><line style="stroke: #A80036; stroke-width: 0.8;" x1="1387.2" x2="1387.2" y1="1040.3578" y2="1050.7578"/><line style="stroke: #A80036; stroke-width: 0.8;" x1="1354.4" x2="1387.2" y1="1050.7578" y2="1050.7578"/><polygon fill="#A80036" points="1362.4,1047.5578,1354.4,1050.7578,1362.4,1053.9578,1359.2,1050.7578" style="stroke: #A80036; stroke-width: 0.8;"/><text fill="#000000" font-family="sans-serif" font-size="10.4" font-weight="bold" lengthAdjust="spacingAndGlyphs" textLength="14.4" x="1359.2" y="1036.5641">31</text><text fill="#000000" font-family="sans-serif" font-size="10.4" lengthAdjust="spacingAndGlyphs" textLength="95.2" x="1376.8" y="1036.5641">validaFreelancer(fr)</text><rect fill="#FFFFFF" filter="url(#f11fm86e1rhnq8)" height="32.4969" style="stroke: #000000; stroke-width: 1.6;" width="379.2" x="1280.8" y="1057.1578"/><polygon fill="#EEEEEE" points="1280.8,1057.1578,1332,1057.1578,1332,1062.7578,1324,1070.7578,1280.8,1070.7578,1280.8,1057.1578" style="stroke: #000000; stroke-width: 1.6;"/><text fill="#000000" font-family="sans-serif" font-size="10.4" font-weight="bold" lengthAdjust="spacingAndGlyphs" textLength="15.2" x="1291.2" y="1068.8125">ref</text><text fill="#000000" font-family="sans-serif" font-size="10.4" lengthAdjust="spacingAndGlyphs" textLength="216" x="1364" y="1084.0125">UC7_SD_RegistarFreelancerComoUtilizador</text><line style="stroke: #A80036; stroke-width: 0.8;" x1="1353.6" x2="1387.2" y1="1110.7031" y2="1110.7031"/><line style="stroke: #A80036; stroke-width: 0.8;" x1="1387.2" x2="1387.2" y1="1110.7031" y2="1121.1031"/><line style="stroke: #A80036; stroke-width: 0.8;" x1="1354.4" x2="1387.2" y1="1121.1031" y2="1121.1031"/><polygon fill="#A80036" points="1362.4,1117.9031,1354.4,1121.1031,1362.4,1124.3031,1359.2,1121.1031" style="stroke: #A80036; stroke-width: 0.8;"/><text fill="#000000" font-family="sans-serif" font-size="10.4" font-weight="bold" lengthAdjust="spacingAndGlyphs" textLength="14.4" x="1359.2" y="1106.9094">32</text><text fill="#000000" font-family="sans-serif" font-size="10.4" lengthAdjust="spacingAndGlyphs" textLength="84" x="1376.8" y="1106.9094">addFreelancer(fr)</text><polygon fill="#A80036" points="69.6,1141.3516,61.6,1144.5516,69.6,1147.7516,66.4,1144.5516" style="stroke: #A80036; stroke-width: 0.8;"/><line style="stroke: #A80036; stroke-width: 0.8; stroke-dasharray: 2.0,2.0;" x1="64.8" x2="687.2" y1="1144.5516" y2="1144.5516"/><text fill="#000000" font-family="sans-serif" font-size="10.4" font-weight="bold" lengthAdjust="spacingAndGlyphs" textLength="14.4" x="74.4" y="1140.7578">33</text><text fill="#000000" font-family="sans-serif" font-size="10.4" lengthAdjust="spacingAndGlyphs" textLength="147.2" x="92" y="1140.7578">informa sucesso da operação</text><!--MD5=[3a003188f538563b083bd5b38d99d4e0]
@startuml
autonumber
actor "Administrativo" as ADM

participant ":RegistarFreelancerUI" as UI
participant ":RegistarFreelancerController" as CTRL
participant ":Plataforma" as PLAT
participant "rfr: RegistoFreelancer" as RF
participant "rcts: RegistoCT" as RegistoCT
participant "fr: Freelancer" as FR
participant "ha: HabilitacaoAcademica" as HA
participant "ct: Competencia\nTecnica" as CT
participant "gp: GrauProficiencia" as GP
participant "rct: ReconhecimentoCompetenciaTecnica" as RCT
participant "ep: EnderecoPostal" as EP


activate ADM

ADM -> UI : inicia o registo de um freelancer
activate UI
UI - -> ADM : solicita os dados do freelancer (i.e., o nome, o NIF, o endereço postal, um contacto telefónico e email)
deactivate UI

ADM -> UI : introduz os dados solicitados
activate UI
UI -> CTRL : novoFreelancer(nome, nif, endpost, tele, email)
activate CTRL
CTRL -> PLAT : rfr=getRegistoFreelancer()
activate PLAT
deactivate PLAT
CTRL -> RF : fr=novoFreelancer(nome, nif, endpost, tele, email)
activate RF
RF - -> FR** : create(nome, nif, endpost, tele, email)
activate FR
FR - -> EP** : create(endpost)
deactivate FR
deactivate RF
deactivate CTRL

loop
UI - -> ADM : solicita a introdução de uma habilitação académica (grau, designação do curso, instituição e média do curso)
deactivate UI
ADM -> UI : introduz os dados solicitados
activate UI
UI -> CTRL : novaHabilitacaoAcademica(grau, desCurso, instituicao, medCurso)
activate CTRL
CTRL -> FR : novaHabilitacaoAcademica(grau, desCurso, instituicao, medCurso)

activate FR
FR -> HA** : create(grau, desCurso, instituicao, medCurso)
FR -> FR : addHabilitacaoAcademica(ha)
deactivate FR
deactivate CTRL
end loop

UI - -> CTRL : lct = getListaCTComGraus()
activate CTRL
CTRL - -> PLAT : rcts = getRegistoCT()
activate PLAT
deactivate PLAT

CTRL - -> RegistoCT : lct = getListaCTComGraus()
activate RegistoCT
deactivate RegistoCT
deactivate CTRL

UI - -> ADM : mostra a lista de competências técnicas e respetivos graus de proficiência

loop
UI - -> ADM : solicita a introdução de reconhecimento de competências técnicas (data, competência técnica, grau de proficiência)
deactivate UI
ADM -> UI : introduz os dados solicitados
activate UI
UI -> CTRL : novaReconhecimentoCT(data, codCT, valorGP)
activate CTRL
CTRL -> RegistoCT : ct=getCT(codCT)
activate RegistoCT
deactivate RegistoCT

CTRL -> CT : gp= getGrauProficiencia(valorGP)
activate CT
deactivate CT

CTRL -> FR : novaReconhecimentoCT(data, ct, gp)
activate FR
FR -> RCT** : create(data, ct, gp)
FR -> FR : addReconhecimento(rct)
deactivate FR

deactivate CTRL
end loop

UI - -> ADM : apresenta dados e solicita confirmação
deactivate UI

ADM -> UI : confirma
activate UI
UI -> CTRL : registaFreelancer()
activate CTRL
CTRL -> RF : registaFreelancer(fr)
activate RF
RF -> RF : validaFreelancer(fr)
ref over RF, FR : UC7_SD_RegistarFreelancerComoUtilizador
RF -> RF : addFreelancer(fr)
UI - -> ADM : informa sucesso da operação
deactivate RF
deactivate CTRL
deactivate UI

deactivate ADM

@enduml

PlantUML version 1.2020.03beta6(Unknown compile time)
(GPL source distribution)
Java Runtime: OpenJDK Runtime Environment
JVM: OpenJDK 64-Bit Server VM
Java Version: 11.0.5+10-b520.38
Operating System: Mac OS X
Default Encoding: UTF-8
Language: en
Country: PT
--></g></svg>