@startuml
autonumber
actor "Freelancer" as FRE

participant ":RetirarCandidaturaSubmetidaUI" as UI
participant ":RetirarCandidaturaSubmetidaController" as CTRL
participant ":Plataforma" as PLAT
participant "rFreel:RegistoFreelancers" as RFRE
participant "ra:RegistoAnuncios" as RA
participant "lstAnuncios\n:List<Anuncio>" as LANU
participant "anuncio:Anuncio" as ANU
participant "lc:ListaCandidaturas" as LC
participant "lstCandidaturas\n:List<Candidatura>" as LCAN
participant "lcf\n:List<Candidatura" as LCF
participant "candi:Candidatura" as CAN

activate FRE
FRE -> UI : inicia o retiramento de uma candidatura
activate UI

UI -> CTRL: lcf = getListaCandidaturasFreelancer()
activate CTRL

CTRL -> LCF**: create
CTRL -> PLAT: rFreel = getRegistoFreelancers()
activate PLAT
deactivate PLAT

CTRL -> RFRE : freel=getFreelancerByEmail(email)
note right
O email foi obtido através do objeto
SessaoUtilizador como demonstrado noutros diagramas.
end note
activate RFRE
deactivate RFRE

CTRL -> PLAT: ra = getRegistoAnuncios()
activate PLAT
deactivate PLAT

CTRL -> RA: lstAnuncios = getListaAnuncios()
activate RA
deactivate RA

loop até i < lstAnuncios.size()


CTRL -> LANU: anuncio = get(i)
activate LANU
deactivate LANU

CTRL -> CTRL: periodoCandidatura = false

CTRL -> ANU : periodoCandidatura = isAnuncioPeriodoCandidaturas()
activate ANU
deactivate ANU

opt periodoCandidatura = true

CTRL -> ANU: lc = getListaCandidaturas()
activate ANU
deactivate ANU

CTRL -> LC: lstCandidaturas = getListaCandidaturas()
activate LC
deactivate LC



loop até j < lstCandidaturas.size()


CTRL -> CTRL: candidaturaFreelancer = false

CTRL -> LCAN: candi = get(j)
activate LCAN
deactivate LCAN

CTRL -> CAN: candidaturaFreelancer = isCandidaturaFromFreelancer(freel)
activate CAN
deactivate CAN

opt candidaturaFreelancer = true

CTRL -> LCF: add(candi)
activate LCF
deactivate LCF

end opt
end loop
end opt
end loop

CTRL --> UI: lcf
deactivate CTRL

UI --> FRE: apresenta a lista de candidaturas e solicita a escolha de uma
deactivate UI

FRE -> UI: seleciona a candidatura
activate UI

UI -> CTRL: removerCandidatura(id)
activate CTRL

loop até i < lstAnuncios.size()

CTRL -> LANU: anuncio = get(i)
activate LANU
deactivate LANU

CTRL -> CTRL: periodoCandidatura = false

CTRL -> ANU : periodoCandidatura = isAnuncioPeriodoCandidaturas()
activate ANU
deactivate ANU

opt periodoCandidatura = true

CTRL -> ANU: lc = getListaCandidaturas()
activate ANU
deactivate ANU

CTRL -> CTRL: candiPertenceALista = false

CTRL -> LC: candiPertenceALista = isCandidaturaInList(id)
activate LC
deactivate LC

opt candiPertenceALista = true

CTRL -> LC: candi = getCandidaturaById(id)
activate LC
deactivate LC

CTRL -> LC: removerCandidatura(candi)
activate LC
deactivate LC

end opt
end opt
end loop

deactivate CTRL

UI --> FRE: informa do sucesso da operação
deactivate FRE
@enduml
