<?xml version="1.0" encoding="UTF-8" standalone="no"?><svg xmlns="http://www.w3.org/2000/svg" xmlns:xlink="http://www.w3.org/1999/xlink" contentScriptType="application/ecmascript" contentStyleType="text/css" height="1347px" preserveAspectRatio="none" style="width:361px;height:1347px;" version="1.1" viewBox="0 0 361 1347" width="361px" zoomAndPan="magnify">
    <defs>
        <filter height="300%" id="fgkhhj61jq01x" width="300%" x="-1" y="-1">
            <feGaussianBlur result="blurOut" stdDeviation="2.0" />
            <feColorMatrix in="blurOut" result="blurOut2" type="matrix" values="0 0 0 0 0 0 0 0 0 0 0 0 0 0 0 0 0 0 .4 0" />
            <feOffset dx="4.0" dy="4.0" in="blurOut2" result="blurOut3" />
            <feBlend in="SourceGraphic" in2="blurOut3" mode="normal" />
        </filter>
    </defs>
    <g>
        <!--MD5=[2e5b00156b99bca2b81797457bdc22ba]
class RetirarCandidaturaSubmetidaUI-->
        <rect fill="#FEFECE" filter="url(#fgkhhj61jq01x)" height="48" id="RetirarCandidaturaSubmetidaUI" style="stroke: #A80036; stroke-width: 1.5;" width="209" x="79" y="8" />
        <ellipse cx="94" cy="24" fill="#ADD1B2" rx="11" ry="11" style="stroke: #A80036; stroke-width: 1.0;" />
        <path d="M96.7656,19.875 Q96.9219,19.6563 97.1094,19.5469 Q97.2969,19.4375 97.5156,19.4375 Q97.8906,19.4375 98.125,19.6953 Q98.3594,19.9531 98.3594,20.5625 L98.3594,22.0156 Q98.3594,22.625 98.125,22.8906 Q97.8906,23.1563 97.5156,23.1563 Q97.1719,23.1563 96.9688,22.9531 Q96.7656,22.7656 96.6563,22.25 Q96.6094,21.8906 96.4219,21.7031 Q96.0938,21.3281 95.4844,21.1094 Q94.875,20.8906 94.25,20.8906 Q93.4844,20.8906 92.8516,21.2188 Q92.2188,21.5469 91.7266,22.2969 Q91.2344,23.0469 91.2344,24.0781 L91.2344,25.1719 Q91.2344,26.4063 92.125,27.2266 Q93.0156,28.0469 94.6094,28.0469 Q95.5469,28.0469 96.2031,27.7969 Q96.5938,27.6406 97.0156,27.2031 Q97.2813,26.9375 97.4297,26.8594 Q97.5781,26.7813 97.7813,26.7813 Q98.1094,26.7813 98.3672,27.0391 Q98.625,27.2969 98.625,27.6406 Q98.625,27.9844 98.2813,28.3906 Q97.7813,28.9688 96.9844,29.2969 Q95.9063,29.75 94.6094,29.75 Q93.0938,29.75 91.8906,29.125 Q90.9063,28.625 90.2188,27.5547 Q89.5313,26.4844 89.5313,25.2031 L89.5313,24.0469 Q89.5313,22.7188 90.1484,21.5703 Q90.7656,20.4219 91.8594,19.8047 Q92.9531,19.1875 94.1875,19.1875 Q94.9219,19.1875 95.5703,19.3516 Q96.2188,19.5156 96.7656,19.875 Z " /><text fill="#000000" font-family="sans-serif" font-size="12" lengthAdjust="spacingAndGlyphs" textLength="177" x="108" y="28.9102">RetirarCandidaturaSubmetidaUI</text>
        <line style="stroke: #A80036; stroke-width: 1.5;" x1="80" x2="287" y1="40" y2="40" />
        <line style="stroke: #A80036; stroke-width: 1.5;" x1="80" x2="287" y1="48" y2="48" />
        <!--MD5=[3c496ffde4446f81a80fb3fee87a8ec1]
class RetirarCandidaturaSubmetidaController-->
        <rect fill="#FEFECE" filter="url(#fgkhhj61jq01x)" height="89.5078" id="RetirarCandidaturaSubmetidaController" style="stroke: #A80036; stroke-width: 1.5;" width="251" x="58" y="117" />
        <ellipse cx="73" cy="133" fill="#ADD1B2" rx="11" ry="11" style="stroke: #A80036; stroke-width: 1.0;" />
        <path d="M75.7656,128.875 Q75.9219,128.6563 76.1094,128.5469 Q76.2969,128.4375 76.5156,128.4375 Q76.8906,128.4375 77.125,128.6953 Q77.3594,128.9531 77.3594,129.5625 L77.3594,131.0156 Q77.3594,131.625 77.125,131.8906 Q76.8906,132.1563 76.5156,132.1563 Q76.1719,132.1563 75.9688,131.9531 Q75.7656,131.7656 75.6563,131.25 Q75.6094,130.8906 75.4219,130.7031 Q75.0938,130.3281 74.4844,130.1094 Q73.875,129.8906 73.25,129.8906 Q72.4844,129.8906 71.8516,130.2188 Q71.2188,130.5469 70.7266,131.2969 Q70.2344,132.0469 70.2344,133.0781 L70.2344,134.1719 Q70.2344,135.4063 71.125,136.2266 Q72.0156,137.0469 73.6094,137.0469 Q74.5469,137.0469 75.2031,136.7969 Q75.5938,136.6406 76.0156,136.2031 Q76.2813,135.9375 76.4297,135.8594 Q76.5781,135.7813 76.7813,135.7813 Q77.1094,135.7813 77.3672,136.0391 Q77.625,136.2969 77.625,136.6406 Q77.625,136.9844 77.2813,137.3906 Q76.7813,137.9688 75.9844,138.2969 Q74.9063,138.75 73.6094,138.75 Q72.0938,138.75 70.8906,138.125 Q69.9063,137.625 69.2188,136.5547 Q68.5313,135.4844 68.5313,134.2031 L68.5313,133.0469 Q68.5313,131.7188 69.1484,130.5703 Q69.7656,129.4219 70.8594,128.8047 Q71.9531,128.1875 73.1875,128.1875 Q73.9219,128.1875 74.5703,128.3516 Q75.2188,128.5156 75.7656,128.875 Z " /><text fill="#000000" font-family="sans-serif" font-size="12" lengthAdjust="spacingAndGlyphs" textLength="219" x="87" y="137.9102">RetirarCandidaturaSubmetidaController</text>
        <line style="stroke: #A80036; stroke-width: 1.5;" x1="59" x2="308" y1="149" y2="149" />
        <line style="stroke: #A80036; stroke-width: 1.5;" x1="59" x2="308" y1="157" y2="157" /><text fill="#000000" font-family="sans-serif" font-size="11" lengthAdjust="spacingAndGlyphs" textLength="200" x="64" y="172.4189">+RetirarCandidaturaSubmetidaController()</text><text fill="#000000" font-family="sans-serif" font-size="11" lengthAdjust="spacingAndGlyphs" textLength="203" x="64" y="186.2549">+getListaCandidaturasFreelancer(idCandi)</text><text fill="#000000" font-family="sans-serif" font-size="11" lengthAdjust="spacingAndGlyphs" textLength="112" x="64" y="200.0908">+removerCandidatura()</text>
        <!--MD5=[ecaed46f78f8cfe1e9ce18477649be18]
class Plataforma-->
        <rect fill="#FEFECE" filter="url(#fgkhhj61jq01x)" height="89.5078" id="Plataforma" style="stroke: #A80036; stroke-width: 1.5;" width="129" x="119" y="268" />
        <ellipse cx="150.65" cy="284" fill="#ADD1B2" rx="11" ry="11" style="stroke: #A80036; stroke-width: 1.0;" />
        <path d="M153.4156,279.875 Q153.5719,279.6563 153.7594,279.5469 Q153.9469,279.4375 154.1656,279.4375 Q154.5406,279.4375 154.775,279.6953 Q155.0094,279.9531 155.0094,280.5625 L155.0094,282.0156 Q155.0094,282.625 154.775,282.8906 Q154.5406,283.1563 154.1656,283.1563 Q153.8219,283.1563 153.6188,282.9531 Q153.4156,282.7656 153.3063,282.25 Q153.2594,281.8906 153.0719,281.7031 Q152.7438,281.3281 152.1344,281.1094 Q151.525,280.8906 150.9,280.8906 Q150.1344,280.8906 149.5016,281.2188 Q148.8688,281.5469 148.3766,282.2969 Q147.8844,283.0469 147.8844,284.0781 L147.8844,285.1719 Q147.8844,286.4063 148.775,287.2266 Q149.6656,288.0469 151.2594,288.0469 Q152.1969,288.0469 152.8531,287.7969 Q153.2438,287.6406 153.6656,287.2031 Q153.9313,286.9375 154.0797,286.8594 Q154.2281,286.7813 154.4313,286.7813 Q154.7594,286.7813 155.0172,287.0391 Q155.275,287.2969 155.275,287.6406 Q155.275,287.9844 154.9313,288.3906 Q154.4313,288.9688 153.6344,289.2969 Q152.5563,289.75 151.2594,289.75 Q149.7438,289.75 148.5406,289.125 Q147.5563,288.625 146.8688,287.5547 Q146.1813,286.4844 146.1813,285.2031 L146.1813,284.0469 Q146.1813,282.7188 146.7984,281.5703 Q147.4156,280.4219 148.5094,279.8047 Q149.6031,279.1875 150.8375,279.1875 Q151.5719,279.1875 152.2203,279.3516 Q152.8688,279.5156 153.4156,279.875 Z " /><text fill="#000000" font-family="sans-serif" font-size="12" lengthAdjust="spacingAndGlyphs" textLength="60" x="168.35" y="288.9102">Plataforma</text>
        <line style="stroke: #A80036; stroke-width: 1.5;" x1="120" x2="247" y1="300" y2="300" /><text fill="#000000" font-family="sans-serif" font-size="11" lengthAdjust="spacingAndGlyphs" textLength="91" x="125" y="315.4189">-String designacao</text>
        <line style="stroke: #A80036; stroke-width: 1.5;" x1="120" x2="247" y1="321.8359" y2="321.8359" /><text fill="#000000" font-family="sans-serif" font-size="11" lengthAdjust="spacingAndGlyphs" textLength="111" x="125" y="337.2549">+getRegistoAnuncios()</text><text fill="#000000" font-family="sans-serif" font-size="11" lengthAdjust="spacingAndGlyphs" textLength="117" x="125" y="351.0908">+getRegistoFreelancer()</text>
        <!--MD5=[a7dddfa65532da486ef518ad0cedfd89]
class RegistoAnuncios-->
        <rect fill="#FEFECE" filter="url(#fgkhhj61jq01x)" height="61.8359" id="RegistoAnuncios" style="stroke: #A80036; stroke-width: 1.5;" width="126" x="36.5" y="436" />
        <ellipse cx="51.5" cy="452" fill="#ADD1B2" rx="11" ry="11" style="stroke: #A80036; stroke-width: 1.0;" />
        <path d="M54.2656,447.875 Q54.4219,447.6563 54.6094,447.5469 Q54.7969,447.4375 55.0156,447.4375 Q55.3906,447.4375 55.625,447.6953 Q55.8594,447.9531 55.8594,448.5625 L55.8594,450.0156 Q55.8594,450.625 55.625,450.8906 Q55.3906,451.1563 55.0156,451.1563 Q54.6719,451.1563 54.4688,450.9531 Q54.2656,450.7656 54.1563,450.25 Q54.1094,449.8906 53.9219,449.7031 Q53.5938,449.3281 52.9844,449.1094 Q52.375,448.8906 51.75,448.8906 Q50.9844,448.8906 50.3516,449.2188 Q49.7188,449.5469 49.2266,450.2969 Q48.7344,451.0469 48.7344,452.0781 L48.7344,453.1719 Q48.7344,454.4063 49.625,455.2266 Q50.5156,456.0469 52.1094,456.0469 Q53.0469,456.0469 53.7031,455.7969 Q54.0938,455.6406 54.5156,455.2031 Q54.7813,454.9375 54.9297,454.8594 Q55.0781,454.7813 55.2813,454.7813 Q55.6094,454.7813 55.8672,455.0391 Q56.125,455.2969 56.125,455.6406 Q56.125,455.9844 55.7813,456.3906 Q55.2813,456.9688 54.4844,457.2969 Q53.4063,457.75 52.1094,457.75 Q50.5938,457.75 49.3906,457.125 Q48.4063,456.625 47.7188,455.5547 Q47.0313,454.4844 47.0313,453.2031 L47.0313,452.0469 Q47.0313,450.7188 47.6484,449.5703 Q48.2656,448.4219 49.3594,447.8047 Q50.4531,447.1875 51.6875,447.1875 Q52.4219,447.1875 53.0703,447.3516 Q53.7188,447.5156 54.2656,447.875 Z " /><text fill="#000000" font-family="sans-serif" font-size="12" lengthAdjust="spacingAndGlyphs" textLength="94" x="65.5" y="456.9102">RegistoAnuncios</text>
        <line style="stroke: #A80036; stroke-width: 1.5;" x1="37.5" x2="161.5" y1="468" y2="468" />
        <line style="stroke: #A80036; stroke-width: 1.5;" x1="37.5" x2="161.5" y1="476" y2="476" /><text fill="#000000" font-family="sans-serif" font-size="11" lengthAdjust="spacingAndGlyphs" textLength="98" x="42.5" y="491.4189">+getListaAnuncios()</text>
        <!--MD5=[19db0db7353a4bf63eefc676e5ba9b80]
class Anuncio-->
        <rect fill="#FEFECE" filter="url(#fgkhhj61jq01x)" height="158.6875" id="Anuncio" style="stroke: #A80036; stroke-width: 1.5;" width="134" x="16.5" y="620" />
        <ellipse cx="57.6" cy="636" fill="#ADD1B2" rx="11" ry="11" style="stroke: #A80036; stroke-width: 1.0;" />
        <path d="M60.3656,631.875 Q60.5219,631.6563 60.7094,631.5469 Q60.8969,631.4375 61.1156,631.4375 Q61.4906,631.4375 61.725,631.6953 Q61.9594,631.9531 61.9594,632.5625 L61.9594,634.0156 Q61.9594,634.625 61.725,634.8906 Q61.4906,635.1563 61.1156,635.1563 Q60.7719,635.1563 60.5688,634.9531 Q60.3656,634.7656 60.2563,634.25 Q60.2094,633.8906 60.0219,633.7031 Q59.6938,633.3281 59.0844,633.1094 Q58.475,632.8906 57.85,632.8906 Q57.0844,632.8906 56.4516,633.2188 Q55.8188,633.5469 55.3266,634.2969 Q54.8344,635.0469 54.8344,636.0781 L54.8344,637.1719 Q54.8344,638.4063 55.725,639.2266 Q56.6156,640.0469 58.2094,640.0469 Q59.1469,640.0469 59.8031,639.7969 Q60.1938,639.6406 60.6156,639.2031 Q60.8813,638.9375 61.0297,638.8594 Q61.1781,638.7813 61.3813,638.7813 Q61.7094,638.7813 61.9672,639.0391 Q62.225,639.2969 62.225,639.6406 Q62.225,639.9844 61.8813,640.3906 Q61.3813,640.9688 60.5844,641.2969 Q59.5063,641.75 58.2094,641.75 Q56.6938,641.75 55.4906,641.125 Q54.5063,640.625 53.8188,639.5547 Q53.1313,638.4844 53.1313,637.2031 L53.1313,636.0469 Q53.1313,634.7188 53.7484,633.5703 Q54.3656,632.4219 55.4594,631.8047 Q56.5531,631.1875 57.7875,631.1875 Q58.5219,631.1875 59.1703,631.3516 Q59.8188,631.5156 60.3656,631.875 Z " /><text fill="#000000" font-family="sans-serif" font-size="12" lengthAdjust="spacingAndGlyphs" textLength="44" x="77.4" y="640.9102">Anuncio</text>
        <line style="stroke: #A80036; stroke-width: 1.5;" x1="17.5" x2="149.5" y1="652" y2="652" /><text fill="#000000" font-family="sans-serif" font-size="11" lengthAdjust="spacingAndGlyphs" textLength="119" x="22.5" y="667.4189">-Date dtInicioPublicitacao</text><text fill="#000000" font-family="sans-serif" font-size="11" lengthAdjust="spacingAndGlyphs" textLength="111" x="22.5" y="681.2549">-Date dtFimPublicitacao</text><text fill="#000000" font-family="sans-serif" font-size="11" lengthAdjust="spacingAndGlyphs" textLength="120" x="22.5" y="695.0908">-Date dtInicioCandidatura</text><text fill="#000000" font-family="sans-serif" font-size="11" lengthAdjust="spacingAndGlyphs" textLength="112" x="22.5" y="708.9268">-Date dtFimCandidatura</text><text fill="#000000" font-family="sans-serif" font-size="11" lengthAdjust="spacingAndGlyphs" textLength="105" x="22.5" y="722.7627">-Date dtInicioSeriacao</text><text fill="#000000" font-family="sans-serif" font-size="11" lengthAdjust="spacingAndGlyphs" textLength="97" x="22.5" y="736.5986">-Date dtFimSeriacao</text>
        <line style="stroke: #A80036; stroke-width: 1.5;" x1="17.5" x2="149.5" y1="743.0156" y2="743.0156" /><text fill="#000000" font-family="sans-serif" font-size="11" lengthAdjust="spacingAndGlyphs" textLength="116" x="22.5" y="758.4346">+getListaCandidaturas()</text><text fill="#000000" font-family="sans-serif" font-size="11" lengthAdjust="spacingAndGlyphs" textLength="122" x="22.5" y="772.2705">+isPeriodoCandidaturas()</text>
        <!--MD5=[ced2a86ae8bdfec1c757b7c305a75b1d]
class ListaCandidaturas-->
        <rect fill="#FEFECE" filter="url(#fgkhhj61jq01x)" height="103.3438" id="ListaCandidaturas" style="stroke: #A80036; stroke-width: 1.5;" width="155" x="6" y="857" />
        <ellipse cx="30.45" cy="873" fill="#ADD1B2" rx="11" ry="11" style="stroke: #A80036; stroke-width: 1.0;" />
        <path d="M33.2156,868.875 Q33.3719,868.6563 33.5594,868.5469 Q33.7469,868.4375 33.9656,868.4375 Q34.3406,868.4375 34.575,868.6953 Q34.8094,868.9531 34.8094,869.5625 L34.8094,871.0156 Q34.8094,871.625 34.575,871.8906 Q34.3406,872.1563 33.9656,872.1563 Q33.6219,872.1563 33.4188,871.9531 Q33.2156,871.7656 33.1063,871.25 Q33.0594,870.8906 32.8719,870.7031 Q32.5438,870.3281 31.9344,870.1094 Q31.325,869.8906 30.7,869.8906 Q29.9344,869.8906 29.3016,870.2188 Q28.6688,870.5469 28.1766,871.2969 Q27.6844,872.0469 27.6844,873.0781 L27.6844,874.1719 Q27.6844,875.4063 28.575,876.2266 Q29.4656,877.0469 31.0594,877.0469 Q31.9969,877.0469 32.6531,876.7969 Q33.0438,876.6406 33.4656,876.2031 Q33.7313,875.9375 33.8797,875.8594 Q34.0281,875.7813 34.2313,875.7813 Q34.5594,875.7813 34.8172,876.0391 Q35.075,876.2969 35.075,876.6406 Q35.075,876.9844 34.7313,877.3906 Q34.2313,877.9688 33.4344,878.2969 Q32.3563,878.75 31.0594,878.75 Q29.5438,878.75 28.3406,878.125 Q27.3563,877.625 26.6688,876.5547 Q25.9813,875.4844 25.9813,874.2031 L25.9813,873.0469 Q25.9813,871.7188 26.5984,870.5703 Q27.2156,869.4219 28.3094,868.8047 Q29.4031,868.1875 30.6375,868.1875 Q31.3719,868.1875 32.0203,868.3516 Q32.6688,868.5156 33.2156,868.875 Z " /><text fill="#000000" font-family="sans-serif" font-size="12" lengthAdjust="spacingAndGlyphs" textLength="102" x="46.55" y="877.9102">ListaCandidaturas</text>
        <line style="stroke: #A80036; stroke-width: 1.5;" x1="7" x2="160" y1="889" y2="889" />
        <line style="stroke: #A80036; stroke-width: 1.5;" x1="7" x2="160" y1="897" y2="897" /><text fill="#000000" font-family="sans-serif" font-size="11" lengthAdjust="spacingAndGlyphs" textLength="108" x="12" y="912.4189">+getLstCandidaturas()</text><text fill="#000000" font-family="sans-serif" font-size="11" lengthAdjust="spacingAndGlyphs" textLength="140" x="12" y="926.2549">+isCandidaturaInList(idCandi)</text><text fill="#000000" font-family="sans-serif" font-size="11" lengthAdjust="spacingAndGlyphs" textLength="143" x="12" y="940.0908">+getCandidaturaById(idCandi)</text><text fill="#000000" font-family="sans-serif" font-size="11" lengthAdjust="spacingAndGlyphs" textLength="138" x="12" y="953.9268">+removerCandidatura(candi)</text>
        <!--MD5=[475c5b924ed41035684e2831311827d2]
class Candidatura-->
        <rect fill="#FEFECE" filter="url(#fgkhhj61jq01x)" height="117.1797" id="Candidatura" style="stroke: #A80036; stroke-width: 1.5;" width="128" x="19.5" y="1038" />
        <ellipse cx="47.1" cy="1054" fill="#ADD1B2" rx="11" ry="11" style="stroke: #A80036; stroke-width: 1.0;" />
        <path d="M49.8656,1049.875 Q50.0219,1049.6563 50.2094,1049.5469 Q50.3969,1049.4375 50.6156,1049.4375 Q50.9906,1049.4375 51.225,1049.6953 Q51.4594,1049.9531 51.4594,1050.5625 L51.4594,1052.0156 Q51.4594,1052.625 51.225,1052.8906 Q50.9906,1053.1563 50.6156,1053.1563 Q50.2719,1053.1563 50.0688,1052.9531 Q49.8656,1052.7656 49.7563,1052.25 Q49.7094,1051.8906 49.5219,1051.7031 Q49.1938,1051.3281 48.5844,1051.1094 Q47.975,1050.8906 47.35,1050.8906 Q46.5844,1050.8906 45.9516,1051.2188 Q45.3188,1051.5469 44.8266,1052.2969 Q44.3344,1053.0469 44.3344,1054.0781 L44.3344,1055.1719 Q44.3344,1056.4063 45.225,1057.2266 Q46.1156,1058.0469 47.7094,1058.0469 Q48.6469,1058.0469 49.3031,1057.7969 Q49.6938,1057.6406 50.1156,1057.2031 Q50.3813,1056.9375 50.5297,1056.8594 Q50.6781,1056.7813 50.8813,1056.7813 Q51.2094,1056.7813 51.4672,1057.0391 Q51.725,1057.2969 51.725,1057.6406 Q51.725,1057.9844 51.3813,1058.3906 Q50.8813,1058.9688 50.0844,1059.2969 Q49.0063,1059.75 47.7094,1059.75 Q46.1938,1059.75 44.9906,1059.125 Q44.0063,1058.625 43.3188,1057.5547 Q42.6313,1056.4844 42.6313,1055.2031 L42.6313,1054.0469 Q42.6313,1052.7188 43.2484,1051.5703 Q43.8656,1050.4219 44.9594,1049.8047 Q46.0531,1049.1875 47.2875,1049.1875 Q48.0219,1049.1875 48.6703,1049.3516 Q49.3188,1049.5156 49.8656,1049.875 Z " /><text fill="#000000" font-family="sans-serif" font-size="12" lengthAdjust="spacingAndGlyphs" textLength="68" x="63.9" y="1058.9102">Candidatura</text>
        <line style="stroke: #A80036; stroke-width: 1.5;" x1="20.5" x2="146.5" y1="1070" y2="1070" /><text fill="#000000" font-family="sans-serif" font-size="11" lengthAdjust="spacingAndGlyphs" textLength="108" x="25.5" y="1085.4189">-Date dataCandidatura</text><text fill="#000000" font-family="sans-serif" font-size="11" lengthAdjust="spacingAndGlyphs" textLength="115" x="25.5" y="1099.2549">-Double valorPretendido</text><text fill="#000000" font-family="sans-serif" font-size="11" lengthAdjust="spacingAndGlyphs" textLength="71" x="25.5" y="1113.0908">-Integer nrDias</text><text fill="#000000" font-family="sans-serif" font-size="11" lengthAdjust="spacingAndGlyphs" textLength="116" x="25.5" y="1126.9268">-String txtApresentacao</text><text fill="#000000" font-family="sans-serif" font-size="11" lengthAdjust="spacingAndGlyphs" textLength="96" x="25.5" y="1140.7627">-String txtMotivacao</text>
        <line style="stroke: #A80036; stroke-width: 1.5;" x1="20.5" x2="146.5" y1="1147.1797" y2="1147.1797" />
        <!--MD5=[1f687b5315377fe49fca59b457947463]
class Freelancer-->
        <rect fill="#FEFECE" filter="url(#fgkhhj61jq01x)" height="103.3438" id="Freelancer" style="stroke: #A80036; stroke-width: 1.5;" width="91" x="127" y="1233" />
        <ellipse cx="142" cy="1249" fill="#ADD1B2" rx="11" ry="11" style="stroke: #A80036; stroke-width: 1.0;" />
        <path d="M144.7656,1244.875 Q144.9219,1244.6563 145.1094,1244.5469 Q145.2969,1244.4375 145.5156,1244.4375 Q145.8906,1244.4375 146.125,1244.6953 Q146.3594,1244.9531 146.3594,1245.5625 L146.3594,1247.0156 Q146.3594,1247.625 146.125,1247.8906 Q145.8906,1248.1563 145.5156,1248.1563 Q145.1719,1248.1563 144.9688,1247.9531 Q144.7656,1247.7656 144.6563,1247.25 Q144.6094,1246.8906 144.4219,1246.7031 Q144.0938,1246.3281 143.4844,1246.1094 Q142.875,1245.8906 142.25,1245.8906 Q141.4844,1245.8906 140.8516,1246.2188 Q140.2188,1246.5469 139.7266,1247.2969 Q139.2344,1248.0469 139.2344,1249.0781 L139.2344,1250.1719 Q139.2344,1251.4063 140.125,1252.2266 Q141.0156,1253.0469 142.6094,1253.0469 Q143.5469,1253.0469 144.2031,1252.7969 Q144.5938,1252.6406 145.0156,1252.2031 Q145.2813,1251.9375 145.4297,1251.8594 Q145.5781,1251.7813 145.7813,1251.7813 Q146.1094,1251.7813 146.3672,1252.0391 Q146.625,1252.2969 146.625,1252.6406 Q146.625,1252.9844 146.2813,1253.3906 Q145.7813,1253.9688 144.9844,1254.2969 Q143.9063,1254.75 142.6094,1254.75 Q141.0938,1254.75 139.8906,1254.125 Q138.9063,1253.625 138.2188,1252.5547 Q137.5313,1251.4844 137.5313,1250.2031 L137.5313,1249.0469 Q137.5313,1247.7188 138.1484,1246.5703 Q138.7656,1245.4219 139.8594,1244.8047 Q140.9531,1244.1875 142.1875,1244.1875 Q142.9219,1244.1875 143.5703,1244.3516 Q144.2188,1244.5156 144.7656,1244.875 Z " /><text fill="#000000" font-family="sans-serif" font-size="12" lengthAdjust="spacingAndGlyphs" textLength="59" x="156" y="1253.9102">Freelancer</text>
        <line style="stroke: #A80036; stroke-width: 1.5;" x1="128" x2="217" y1="1265" y2="1265" /><text fill="#000000" font-family="sans-serif" font-size="11" lengthAdjust="spacingAndGlyphs" textLength="61" x="133" y="1280.4189">-String nome</text><text fill="#000000" font-family="sans-serif" font-size="11" lengthAdjust="spacingAndGlyphs" textLength="50" x="133" y="1294.2549">-String NIF</text><text fill="#000000" font-family="sans-serif" font-size="11" lengthAdjust="spacingAndGlyphs" textLength="74" x="133" y="1308.0908">-String telefone</text><text fill="#000000" font-family="sans-serif" font-size="11" lengthAdjust="spacingAndGlyphs" textLength="59" x="133" y="1321.9268">-String email</text>
        <line style="stroke: #A80036; stroke-width: 1.5;" x1="128" x2="217" y1="1328.3438" y2="1328.3438" />
        <!--MD5=[d80d860a6feeb717bbe1a8b47b9b8a39]
class RegistoFreelancers-->
        <rect fill="#FEFECE" filter="url(#fgkhhj61jq01x)" height="61.8359" id="RegistoFreelancers" style="stroke: #A80036; stroke-width: 1.5;" width="172" x="176.5" y="528" />
        <ellipse cx="205.45" cy="544" fill="#ADD1B2" rx="11" ry="11" style="stroke: #A80036; stroke-width: 1.0;" />
        <path d="M208.2156,539.875 Q208.3719,539.6563 208.5594,539.5469 Q208.7469,539.4375 208.9656,539.4375 Q209.3406,539.4375 209.575,539.6953 Q209.8094,539.9531 209.8094,540.5625 L209.8094,542.0156 Q209.8094,542.625 209.575,542.8906 Q209.3406,543.1563 208.9656,543.1563 Q208.6219,543.1563 208.4188,542.9531 Q208.2156,542.7656 208.1063,542.25 Q208.0594,541.8906 207.8719,541.7031 Q207.5438,541.3281 206.9344,541.1094 Q206.325,540.8906 205.7,540.8906 Q204.9344,540.8906 204.3016,541.2188 Q203.6688,541.5469 203.1766,542.2969 Q202.6844,543.0469 202.6844,544.0781 L202.6844,545.1719 Q202.6844,546.4063 203.575,547.2266 Q204.4656,548.0469 206.0594,548.0469 Q206.9969,548.0469 207.6531,547.7969 Q208.0438,547.6406 208.4656,547.2031 Q208.7313,546.9375 208.8797,546.8594 Q209.0281,546.7813 209.2313,546.7813 Q209.5594,546.7813 209.8172,547.0391 Q210.075,547.2969 210.075,547.6406 Q210.075,547.9844 209.7313,548.3906 Q209.2313,548.9688 208.4344,549.2969 Q207.3563,549.75 206.0594,549.75 Q204.5438,549.75 203.3406,549.125 Q202.3563,548.625 201.6688,547.5547 Q200.9813,546.4844 200.9813,545.2031 L200.9813,544.0469 Q200.9813,542.7188 201.5984,541.5703 Q202.2156,540.4219 203.3094,539.8047 Q204.4031,539.1875 205.6375,539.1875 Q206.3719,539.1875 207.0203,539.3516 Q207.6688,539.5156 208.2156,539.875 Z " /><text fill="#000000" font-family="sans-serif" font-size="12" lengthAdjust="spacingAndGlyphs" textLength="109" x="222.55" y="548.9102">RegistoFreelancers</text>
        <line style="stroke: #A80036; stroke-width: 1.5;" x1="177.5" x2="347.5" y1="560" y2="560" />
        <line style="stroke: #A80036; stroke-width: 1.5;" x1="177.5" x2="347.5" y1="568" y2="568" /><text fill="#000000" font-family="sans-serif" font-size="11" lengthAdjust="spacingAndGlyphs" textLength="160" x="182.5" y="583.4189">+getFreelancerByEmailUtlz(email)</text>
        <!--MD5=[fb3f7a06593044cec85e75722e723c79]
link RetirarCandidaturaSubmetidaUI to RetirarCandidaturaSubmetidaController-->
        <path d="M183.5,56.18 C183.5,71.59 183.5,92.42 183.5,111.45 " fill="none" id="RetirarCandidaturaSubmetidaUI-&gt;RetirarCandidaturaSubmetidaController" style="stroke: #A80036; stroke-width: 1.0; stroke-dasharray: 7.0,7.0;" />
        <polygon fill="#A80036" points="183.5,116.76,187.5,107.76,183.5,111.76,179.5,107.76,183.5,116.76" style="stroke: #A80036; stroke-width: 1.0;" />
        <!--MD5=[19cf2e40850d68e00702ab8c2eecddb8]
link RetirarCandidaturaSubmetidaController to Plataforma-->
        <path d="M183.5,207.3 C183.5,224.64 183.5,244.6 183.5,262.41 " fill="none" id="RetirarCandidaturaSubmetidaController-&gt;Plataforma" style="stroke: #A80036; stroke-width: 1.0; stroke-dasharray: 7.0,7.0;" />
        <polygon fill="#A80036" points="183.5,267.87,187.5,258.87,183.5,262.87,179.5,258.87,183.5,267.87" style="stroke: #A80036; stroke-width: 1.0;" />
        <!--MD5=[463821f61fd53759657c2ac769a7e835]
link Plataforma to RegistoAnuncios-->
        <path d="M158.978,358.373 C146.138,381.607 130.647,409.64 118.693,431.271 " fill="none" id="Plataforma-&gt;RegistoAnuncios" style="stroke: #A80036; stroke-width: 1.0;" />
        <polygon fill="#A80036" points="116.198,435.785,124.0526,429.8431,118.6167,431.409,117.0509,425.9731,116.198,435.785" style="stroke: #A80036; stroke-width: 1.0;" /><text fill="#000000" font-family="sans-serif" font-size="13" lengthAdjust="spacingAndGlyphs" textLength="22" x="142.5" y="402.4951">tem</text><text fill="#000000" font-family="sans-serif" font-size="13" lengthAdjust="spacingAndGlyphs" textLength="7" x="148.2125" y="379.0968">1</text><text fill="#000000" font-family="sans-serif" font-size="13" lengthAdjust="spacingAndGlyphs" textLength="7" x="111.9201" y="425.2452">1</text>
        <!--MD5=[76c5a2dc2d3d748ed224cc0a1b260a50]
link Plataforma to RegistoFreelancers-->
        <path d="M197.806,358.187 C213.134,405.527 237.147,479.696 251.203,523.108 " fill="none" id="Plataforma-&gt;RegistoFreelancers" style="stroke: #A80036; stroke-width: 1.0;" />
        <polygon fill="#A80036" points="252.783,527.987,253.8158,518.1924,251.2426,523.2302,246.2049,520.657,252.783,527.987" style="stroke: #A80036; stroke-width: 1.0;" /><text fill="#000000" font-family="sans-serif" font-size="13" lengthAdjust="spacingAndGlyphs" textLength="22" x="214.5" y="402.4951">tem</text><text fill="#000000" font-family="sans-serif" font-size="13" lengthAdjust="spacingAndGlyphs" textLength="7" x="192.2581" y="378.8858">1</text><text fill="#000000" font-family="sans-serif" font-size="13" lengthAdjust="spacingAndGlyphs" textLength="7" x="242.8918" y="517.0044">1</text>
        <!--MD5=[2903b91671052adea6f5e59eb6d59b42]
link RegistoAnuncios to Anuncio-->
        <path d="M81.6645,498.164 C77.0986,507.421 72.8243,517.85 70.5,528 C64.137,555.787 64.3764,586.717 67.1605,614.522 " fill="none" id="RegistoAnuncios-&gt;Anuncio" style="stroke: #A80036; stroke-width: 1.0;" />
        <polygon fill="#A80036" points="67.7089,619.677,70.7324,610.3037,67.1789,614.7052,62.7774,611.1517,67.7089,619.677" style="stroke: #A80036; stroke-width: 1.0;" /><text fill="#000000" font-family="sans-serif" font-size="13" lengthAdjust="spacingAndGlyphs" textLength="86" x="71.5" y="564.4951">tem registados</text><text fill="#000000" font-family="sans-serif" font-size="13" lengthAdjust="spacingAndGlyphs" textLength="7" x="70.4641" y="519.4203">1</text><text fill="#000000" font-family="sans-serif" font-size="13" lengthAdjust="spacingAndGlyphs" textLength="5" x="61.0227" y="609.1065">*</text>
        <!--MD5=[936379bbb1fbe67f1148bc2fdcd3e3c1]
link Anuncio to ListaCandidaturas-->
        <path d="M83.5,779.053 C83.5,803.296 83.5,829.482 83.5,851.846 " fill="none" id="Anuncio-&gt;ListaCandidaturas" style="stroke: #A80036; stroke-width: 1.0;" />
        <polygon fill="#A80036" points="83.5,856.852,87.5,847.852,83.5,851.852,79.5,847.852,83.5,856.852" style="stroke: #A80036; stroke-width: 1.0;" /><text fill="#000000" font-family="sans-serif" font-size="13" lengthAdjust="spacingAndGlyphs" textLength="22" x="84.5" y="823.4951">tem</text><text fill="#000000" font-family="sans-serif" font-size="13" lengthAdjust="spacingAndGlyphs" textLength="7" x="76.1992" y="800.1007">1</text><text fill="#000000" font-family="sans-serif" font-size="13" lengthAdjust="spacingAndGlyphs" textLength="7" x="76.0078" y="845.9597">1</text>
        <!--MD5=[b3c62d3bd372a34b7ee6d6af17619677]
link ListaCandidaturas to Candidatura-->
        <path d="M83.5,960.325 C83.5,982.625 83.5,1009.029 83.5,1032.557 " fill="none" id="ListaCandidaturas-&gt;Candidatura" style="stroke: #A80036; stroke-width: 1.0;" />
        <polygon fill="#A80036" points="83.5,1037.843,87.5,1028.843,83.5,1032.843,79.5,1028.843,83.5,1037.843" style="stroke: #A80036; stroke-width: 1.0;" /><text fill="#000000" font-family="sans-serif" font-size="13" lengthAdjust="spacingAndGlyphs" textLength="71" x="84.5" y="1004.4951">tem listadas</text><text fill="#000000" font-family="sans-serif" font-size="13" lengthAdjust="spacingAndGlyphs" textLength="7" x="76.0297" y="981.8596">1</text><text fill="#000000" font-family="sans-serif" font-size="13" lengthAdjust="spacingAndGlyphs" textLength="5" x="78.1953" y="1027.2248">*</text>
        <!--MD5=[f40b2c56b47eefeac2cb51ff84c8cfeb]
link RegistoFreelancers to Freelancer-->
        <path d="M262.5,590.07 C262.5,638.054 262.5,734.903 262.5,817 C262.5,817 262.5,817 262.5,1097.5 C262.5,1145.071 238.35,1193.268 215.07,1228.676 " fill="none" id="RegistoFreelancers-&gt;Freelancer" style="stroke: #A80036; stroke-width: 1.0;" />
        <polygon fill="#A80036" points="212.237,1232.93,220.555,1227.6564,215.0085,1228.7684,213.8965,1223.222,212.237,1232.93" style="stroke: #A80036; stroke-width: 1.0;" /><text fill="#000000" font-family="sans-serif" font-size="13" lengthAdjust="spacingAndGlyphs" textLength="86" x="263.5" y="913.9951">tem registados</text><text fill="#000000" font-family="sans-serif" font-size="13" lengthAdjust="spacingAndGlyphs" textLength="7" x="254.8109" y="611.3078">1</text><text fill="#000000" font-family="sans-serif" font-size="13" lengthAdjust="spacingAndGlyphs" textLength="5" x="212.4735" y="1222.0486">*</text>
        <!--MD5=[a66e767a4304f5fa76db98d7839a7a61]
link Candidatura to Freelancer-->
        <path d="M51.5465,1155.049 C46.7326,1171.108 45.643,1188.199 53.5,1203 C68.088,1230.481 96.7122,1250.2933 122.231,1263.3859 " fill="none" id="Candidatura-&gt;Freelancer" style="stroke: #A80036; stroke-width: 1.0;" />
        <polygon fill="#A80036" points="126.956,1265.7528,120.7015,1258.1448,122.4858,1263.5129,117.1177,1265.2972,126.956,1265.7528" style="stroke: #A80036; stroke-width: 1.0;" /><text fill="#000000" font-family="sans-serif" font-size="13" lengthAdjust="spacingAndGlyphs" textLength="74" x="54.5" y="1199.4951">realizada por</text><text fill="#000000" font-family="sans-serif" font-size="13" lengthAdjust="spacingAndGlyphs" textLength="5" x="42.3475" y="1176.6653">*</text><text fill="#000000" font-family="sans-serif" font-size="13" lengthAdjust="spacingAndGlyphs" textLength="7" x="112.1396" y="1258.9857">1</text>
        <!--MD5=[a66e767a4304f5fa76db98d7839a7a61]
link Candidatura to Freelancer-->
        <path d="M118.026,1155.245 C123.445,1165.05 128.8,1175.223 133.5,1185 C140.086,1198.702 146.485,1213.824 152.131,1228.021 " fill="none" id="Candidatura-&gt;Freelancer-1" style="stroke: #A80036; stroke-width: 1.0;" />
        <polygon fill="#A80036" points="154.016,1232.797,154.4328,1222.957,152.1805,1228.1461,146.9914,1225.8938,154.016,1232.797" style="stroke: #A80036; stroke-width: 1.0;" /><text fill="#000000" font-family="sans-serif" font-size="13" lengthAdjust="spacingAndGlyphs" textLength="65" x="142.5" y="1199.4951">retirada por</text><text fill="#000000" font-family="sans-serif" font-size="13" lengthAdjust="spacingAndGlyphs" textLength="5" x="116.729" y="1176.4674">*</text><text fill="#000000" font-family="sans-serif" font-size="13" lengthAdjust="spacingAndGlyphs" textLength="7" x="144.0619" y="1222.2701">1</text>
        <!--MD5=[6a12acc683d10d72d73662b4e210c0f7]
@startuml
skinparam classAttributeIconSize 0

class RetirarCandidaturaSubmetidaUI
{

}

class RetirarCandidaturaSubmetidaController
{
    +RetirarCandidaturaSubmetidaController()
    +getListaCandidaturasFreelancer(idCandi)
    +removerCandidatura()
}

class Plataforma {
    -String designacao
    +getRegistoAnuncios()
    +getRegistoFreelancer()
}

class RegistoAnuncios
{
    +getListaAnuncios()
}

class Anuncio
{
    -Date dtInicioPublicitacao
    -Date dtFimPublicitacao
    -Date dtInicioCandidatura
    -Date dtFimCandidatura
    -Date dtInicioSeriacao
    -Date dtFimSeriacao
    +getListaCandidaturas()
    +isPeriodoCandidaturas()
}

class ListaCandidaturas
{
    +getLstCandidaturas()
    +isCandidaturaInList(idCandi)
    +getCandidaturaById(idCandi)
    +removerCandidatura(candi)
}

class Candidatura
{
    -Date dataCandidatura
    -Double valorPretendido
    -Integer nrDias
    -String txtApresentacao
    -String txtMotivacao

}

class Freelancer
{
    -String nome
    -String NIF
    -String telefone
    -String email
}

class RegistoFreelancers
{
    +getFreelancerByEmailUtlz(email)
}

RetirarCandidaturaSubmetidaUI ..> RetirarCandidaturaSubmetidaController
RetirarCandidaturaSubmetidaController ..> Plataforma

Plataforma "1" - -> "1" RegistoAnuncios : tem
Plataforma "1" - -> "1" RegistoFreelancers : tem

RegistoAnuncios "1" - -> "*" Anuncio: tem registados

Anuncio "1" - -> "1" ListaCandidaturas: tem

ListaCandidaturas "1" - -> "*" Candidatura: tem listadas

RegistoFreelancers "1" - -> "*" Freelancer: tem registados

Candidatura "*" - -> "1" Freelancer: realizada por
Candidatura "*" - -> "1" Freelancer: retirada por

@enduml

PlantUML version 1.2020.02(Sun Mar 01 10:22:07 GMT 2020)
(GPL source distribution)
Java Runtime: Java(TM) SE Runtime Environment
JVM: Java HotSpot(TM) Client VM
Java Version: 1.8.0_201-b09
Operating System: Windows 10
Default Encoding: Cp1252
Language: pt
Country: PT
-->
    </g>
</svg>