<?xml version="1.0" encoding="UTF-8" standalone="no"?><svg xmlns="http://www.w3.org/2000/svg" xmlns:xlink="http://www.w3.org/1999/xlink" contentScriptType="application/ecmascript" contentStyleType="text/css" height="1233px" preserveAspectRatio="none" style="width:3078px;height:1233px;" version="1.1" viewBox="0 0 3078 1233" width="3078px" zoomAndPan="magnify"><defs><filter height="300%" id="f3j9zrbjl9eej" width="300%" x="-1" y="-1"><feGaussianBlur result="blurOut" stdDeviation="2.0"/><feColorMatrix in="blurOut" result="blurOut2" type="matrix" values="0 0 0 0 0 0 0 0 0 0 0 0 0 0 0 0 0 0 .4 0"/><feOffset dx="4.0" dy="4.0" in="blurOut2" result="blurOut3"/><feBlend in="SourceGraphic" in2="blurOut3" mode="normal"/></filter></defs><g><!--MD5=[ecaed46f78f8cfe1e9ce18477649be18]
class Plataforma--><rect fill="#FEFECE" filter="url(#f3j9zrbjl9eej)" height="52.9551" id="Plataforma" style="stroke: #A80036; stroke-width: 1.5;" width="114" x="6" y="299.8"/><ellipse cx="30" cy="315.8" fill="#ADD1B2" rx="11" ry="11" style="stroke: #A80036; stroke-width: 1.0;"/><path d="M32.4731,321.9431 Q31.8921,322.2419 31.2529,322.3913 Q30.6138,322.5407 29.9082,322.5407 Q27.4014,322.5407 26.0815,320.8889 Q24.7617,319.237 24.7617,316.1159 Q24.7617,312.9865 26.0815,311.3347 Q27.4014,309.6828 29.9082,309.6828 Q30.6138,309.6828 31.2612,309.8322 Q31.9087,309.9816 32.4731,310.2805 L32.4731,313.0031 Q31.8423,312.4221 31.2488,312.1523 Q30.6553,311.8825 30.0244,311.8825 Q28.6797,311.8825 27.9949,312.9492 Q27.3101,314.0158 27.3101,316.1159 Q27.3101,318.2077 27.9949,319.2744 Q28.6797,320.341 30.0244,320.341 Q30.6553,320.341 31.2488,320.0712 Q31.8423,319.8015 32.4731,319.2204 Z "/><text fill="#000000" font-family="sans-serif" font-size="12" lengthAdjust="spacingAndGlyphs" textLength="62" x="46" y="320.3352">Plataforma</text><line style="stroke: #A80036; stroke-width: 1.5;" x1="7" x2="119" y1="331.8" y2="331.8"/><text fill="#000000" font-family="sans-serif" font-size="11" lengthAdjust="spacingAndGlyphs" textLength="102" x="12" y="346.4348">-String designacao</text><!--MD5=[02456e6632d968d6f68141e5893c6991]
class AreaAtividade--><rect fill="#FEFECE" filter="url(#f3j9zrbjl9eej)" height="78.8652" id="AreaAtividade" style="stroke: #A80036; stroke-width: 1.5;" width="131" x="2750" y="153.8"/><ellipse cx="2773.1" cy="169.8" fill="#ADD1B2" rx="11" ry="11" style="stroke: #A80036; stroke-width: 1.0;"/><path d="M2775.5731,175.9431 Q2774.9921,176.2419 2774.3529,176.3913 Q2773.7138,176.5407 2773.0082,176.5407 Q2770.5014,176.5407 2769.1815,174.8889 Q2767.8617,173.237 2767.8617,170.1159 Q2767.8617,166.9865 2769.1815,165.3347 Q2770.5014,163.6828 2773.0082,163.6828 Q2773.7138,163.6828 2774.3612,163.8322 Q2775.0087,163.9816 2775.5731,164.2805 L2775.5731,167.0031 Q2774.9423,166.4221 2774.3488,166.1523 Q2773.7553,165.8825 2773.1244,165.8825 Q2771.7797,165.8825 2771.0949,166.9492 Q2770.4101,168.0158 2770.4101,170.1159 Q2770.4101,172.2077 2771.0949,173.2744 Q2771.7797,174.341 2773.1244,174.341 Q2773.7553,174.341 2774.3488,174.0712 Q2774.9423,173.8015 2775.5731,173.2204 Z "/><text fill="#000000" font-family="sans-serif" font-size="12" lengthAdjust="spacingAndGlyphs" textLength="81" x="2788.9" y="174.3352">AreaAtividade</text><line style="stroke: #A80036; stroke-width: 1.5;" x1="2751" x2="2880" y1="185.8" y2="185.8"/><text fill="#000000" font-family="sans-serif" font-size="11" lengthAdjust="spacingAndGlyphs" textLength="78" x="2756" y="200.4348">-String codigo</text><text fill="#000000" font-family="sans-serif" font-size="11" lengthAdjust="spacingAndGlyphs" textLength="95" x="2756" y="213.3898">-String descBreve</text><text fill="#000000" font-family="sans-serif" font-size="11" lengthAdjust="spacingAndGlyphs" textLength="119" x="2756" y="226.3449">-String descDetalhada</text><!--MD5=[a322db5a7ec64d2ff8f2d6cf1831dcec]
class CompetenciaTecnica--><rect fill="#FEFECE" filter="url(#f3j9zrbjl9eej)" height="78.8652" id="CompetenciaTecnica" style="stroke: #A80036; stroke-width: 1.5;" width="151" x="2311" y="186.8"/><ellipse cx="2326" cy="202.8" fill="#ADD1B2" rx="11" ry="11" style="stroke: #A80036; stroke-width: 1.0;"/><path d="M2328.4731,208.9431 Q2327.8921,209.2419 2327.2529,209.3913 Q2326.6138,209.5407 2325.9082,209.5407 Q2323.4014,209.5407 2322.0815,207.8889 Q2320.7617,206.237 2320.7617,203.1159 Q2320.7617,199.9865 2322.0815,198.3347 Q2323.4014,196.6828 2325.9082,196.6828 Q2326.6138,196.6828 2327.2612,196.8322 Q2327.9087,196.9816 2328.4731,197.2805 L2328.4731,200.0031 Q2327.8423,199.4221 2327.2488,199.1523 Q2326.6553,198.8825 2326.0244,198.8825 Q2324.6797,198.8825 2323.9949,199.9492 Q2323.3101,201.0158 2323.3101,203.1159 Q2323.3101,205.2077 2323.9949,206.2744 Q2324.6797,207.341 2326.0244,207.341 Q2326.6553,207.341 2327.2488,207.0712 Q2327.8423,206.8015 2328.4731,206.2204 Z "/><text fill="#000000" font-family="sans-serif" font-size="12" lengthAdjust="spacingAndGlyphs" textLength="119" x="2340" y="207.3352">CompetenciaTecnica</text><line style="stroke: #A80036; stroke-width: 1.5;" x1="2312" x2="2461" y1="218.8" y2="218.8"/><text fill="#000000" font-family="sans-serif" font-size="11" lengthAdjust="spacingAndGlyphs" textLength="78" x="2317" y="233.4348">-String codigo</text><text fill="#000000" font-family="sans-serif" font-size="11" lengthAdjust="spacingAndGlyphs" textLength="95" x="2317" y="246.3898">-String descBreve</text><text fill="#000000" font-family="sans-serif" font-size="11" lengthAdjust="spacingAndGlyphs" textLength="119" x="2317" y="259.3449">-String descDetalhada</text><!--MD5=[0d4fe674cc1d46ec0fc990086e50801a]
class GrauProficiencia--><rect fill="#FEFECE" filter="url(#f3j9zrbjl9eej)" height="65.9102" id="GrauProficiencia" style="stroke: #A80036; stroke-width: 1.5;" width="125" x="2942" y="364.3"/><ellipse cx="2957" cy="380.3" fill="#ADD1B2" rx="11" ry="11" style="stroke: #A80036; stroke-width: 1.0;"/><path d="M2959.4731,386.4431 Q2958.8921,386.7419 2958.2529,386.8913 Q2957.6138,387.0407 2956.9082,387.0407 Q2954.4014,387.0407 2953.0815,385.3889 Q2951.7617,383.737 2951.7617,380.6159 Q2951.7617,377.4865 2953.0815,375.8347 Q2954.4014,374.1828 2956.9082,374.1828 Q2957.6138,374.1828 2958.2612,374.3322 Q2958.9087,374.4816 2959.4731,374.7805 L2959.4731,377.5031 Q2958.8423,376.9221 2958.2488,376.6523 Q2957.6553,376.3825 2957.0244,376.3825 Q2955.6797,376.3825 2954.9949,377.4492 Q2954.3101,378.5158 2954.3101,380.6159 Q2954.3101,382.7077 2954.9949,383.7744 Q2955.6797,384.841 2957.0244,384.841 Q2957.6553,384.841 2958.2488,384.5712 Q2958.8423,384.3015 2959.4731,383.7204 Z "/><text fill="#000000" font-family="sans-serif" font-size="12" lengthAdjust="spacingAndGlyphs" textLength="93" x="2971" y="384.8352">GrauProficiencia</text><line style="stroke: #A80036; stroke-width: 1.5;" x1="2943" x2="3066" y1="396.3" y2="396.3"/><text fill="#000000" font-family="sans-serif" font-size="11" lengthAdjust="spacingAndGlyphs" textLength="74" x="2948" y="410.9348">-Integer valor</text><text fill="#000000" font-family="sans-serif" font-size="11" lengthAdjust="spacingAndGlyphs" textLength="102" x="2948" y="423.8898">-String designacao</text><!--MD5=[7e1ce8ab2bf669717f28e918f4971b9a]
class Categoria--><rect fill="#FEFECE" filter="url(#f3j9zrbjl9eej)" height="65.9102" id="Categoria" style="stroke: #A80036; stroke-width: 1.5;" width="105" x="1180" y="258.3"/><ellipse cx="1203.1" cy="274.3" fill="#ADD1B2" rx="11" ry="11" style="stroke: #A80036; stroke-width: 1.0;"/><path d="M1205.5731,280.4431 Q1204.9921,280.7419 1204.3529,280.8913 Q1203.7138,281.0407 1203.0082,281.0407 Q1200.5014,281.0407 1199.1815,279.3889 Q1197.8617,277.737 1197.8617,274.6159 Q1197.8617,271.4865 1199.1815,269.8347 Q1200.5014,268.1828 1203.0082,268.1828 Q1203.7138,268.1828 1204.3612,268.3322 Q1205.0087,268.4816 1205.5731,268.7805 L1205.5731,271.5031 Q1204.9423,270.9221 1204.3488,270.6523 Q1203.7553,270.3825 1203.1244,270.3825 Q1201.7797,270.3825 1201.0949,271.4492 Q1200.4101,272.5158 1200.4101,274.6159 Q1200.4101,276.7077 1201.0949,277.7744 Q1201.7797,278.841 1203.1244,278.841 Q1203.7553,278.841 1204.3488,278.5712 Q1204.9423,278.3015 1205.5731,277.7204 Z "/><text fill="#000000" font-family="sans-serif" font-size="12" lengthAdjust="spacingAndGlyphs" textLength="55" x="1218.9" y="278.8352">Categoria</text><line style="stroke: #A80036; stroke-width: 1.5;" x1="1181" x2="1284" y1="290.3" y2="290.3"/><text fill="#000000" font-family="sans-serif" font-size="11" lengthAdjust="spacingAndGlyphs" textLength="51" x="1186" y="304.9348">-String id</text><text fill="#000000" font-family="sans-serif" font-size="11" lengthAdjust="spacingAndGlyphs" textLength="93" x="1186" y="317.8898">-String descricao</text><!--MD5=[b0f240be72c8ea8a063442502d85fc08]
class CaraterCT--><rect fill="#FEFECE" filter="url(#f3j9zrbjl9eej)" height="52.9551" id="CaraterCT" style="stroke: #A80036; stroke-width: 1.5;" width="123" x="2078" y="249.8"/><ellipse cx="2107.4" cy="265.8" fill="#ADD1B2" rx="11" ry="11" style="stroke: #A80036; stroke-width: 1.0;"/><path d="M2109.8731,271.9431 Q2109.2921,272.2419 2108.6529,272.3913 Q2108.0138,272.5407 2107.3082,272.5407 Q2104.8014,272.5407 2103.4815,270.8889 Q2102.1617,269.237 2102.1617,266.1159 Q2102.1617,262.9865 2103.4815,261.3347 Q2104.8014,259.6828 2107.3082,259.6828 Q2108.0138,259.6828 2108.6612,259.8322 Q2109.3087,259.9816 2109.8731,260.2805 L2109.8731,263.0031 Q2109.2423,262.4221 2108.6488,262.1523 Q2108.0553,261.8825 2107.4244,261.8825 Q2106.0797,261.8825 2105.3949,262.9492 Q2104.7101,264.0158 2104.7101,266.1159 Q2104.7101,268.2077 2105.3949,269.2744 Q2106.0797,270.341 2107.4244,270.341 Q2108.0553,270.341 2108.6488,270.0712 Q2109.2423,269.8015 2109.8731,269.2204 Z "/><text fill="#000000" font-family="sans-serif" font-size="12" lengthAdjust="spacingAndGlyphs" textLength="59" x="2124.6" y="270.3352">CaraterCT</text><line style="stroke: #A80036; stroke-width: 1.5;" x1="2079" x2="2200" y1="281.8" y2="281.8"/><text fill="#000000" font-family="sans-serif" font-size="11" lengthAdjust="spacingAndGlyphs" textLength="111" x="2084" y="296.4348">-Boolean obrigatoria</text><!--MD5=[807977ceb130c090ed5febfb6de2bdea]
class Organizacao--><rect fill="#FEFECE" filter="url(#f3j9zrbjl9eej)" height="104.7754" id="Organizacao" style="stroke: #A80036; stroke-width: 1.5;" width="104" x="311.5" y="830.8"/><ellipse cx="326.5" cy="846.8" fill="#ADD1B2" rx="11" ry="11" style="stroke: #A80036; stroke-width: 1.0;"/><path d="M328.9731,852.9431 Q328.3921,853.2419 327.7529,853.3913 Q327.1138,853.5407 326.4082,853.5407 Q323.9014,853.5407 322.5815,851.8889 Q321.2617,850.237 321.2617,847.1159 Q321.2617,843.9865 322.5815,842.3347 Q323.9014,840.6828 326.4082,840.6828 Q327.1138,840.6828 327.7612,840.8322 Q328.4087,840.9816 328.9731,841.2805 L328.9731,844.0031 Q328.3423,843.4221 327.7488,843.1523 Q327.1553,842.8825 326.5244,842.8825 Q325.1797,842.8825 324.4949,843.9492 Q323.8101,845.0158 323.8101,847.1159 Q323.8101,849.2077 324.4949,850.2744 Q325.1797,851.341 326.5244,851.341 Q327.1553,851.341 327.7488,851.0712 Q328.3423,850.8015 328.9731,850.2204 Z "/><text fill="#000000" font-family="sans-serif" font-size="12" lengthAdjust="spacingAndGlyphs" textLength="72" x="340.5" y="851.3352">Organizacao</text><line style="stroke: #A80036; stroke-width: 1.5;" x1="312.5" x2="414.5" y1="862.8" y2="862.8"/><text fill="#000000" font-family="sans-serif" font-size="11" lengthAdjust="spacingAndGlyphs" textLength="71" x="317.5" y="877.4348">-String nome</text><text fill="#000000" font-family="sans-serif" font-size="11" lengthAdjust="spacingAndGlyphs" textLength="58" x="317.5" y="890.3898">-String NIF</text><text fill="#000000" font-family="sans-serif" font-size="11" lengthAdjust="spacingAndGlyphs" textLength="81" x="317.5" y="903.3449">-String website</text><text fill="#000000" font-family="sans-serif" font-size="11" lengthAdjust="spacingAndGlyphs" textLength="84" x="317.5" y="916.3">-String telefone</text><text fill="#000000" font-family="sans-serif" font-size="11" lengthAdjust="spacingAndGlyphs" textLength="69" x="317.5" y="929.2551">-String email</text><!--MD5=[ac8682ea5466d223e49472789fb200d2]
class Colaborador--><rect fill="#FEFECE" filter="url(#f3j9zrbjl9eej)" height="91.8203" id="Colaborador" style="stroke: #A80036; stroke-width: 1.5;" width="104" x="1027" y="815.3"/><ellipse cx="1042" cy="831.3" fill="#ADD1B2" rx="11" ry="11" style="stroke: #A80036; stroke-width: 1.0;"/><path d="M1044.4731,837.4431 Q1043.8921,837.7419 1043.2529,837.8913 Q1042.6138,838.0407 1041.9082,838.0407 Q1039.4014,838.0407 1038.0815,836.3889 Q1036.7617,834.737 1036.7617,831.6159 Q1036.7617,828.4865 1038.0815,826.8347 Q1039.4014,825.1828 1041.9082,825.1828 Q1042.6138,825.1828 1043.2612,825.3322 Q1043.9087,825.4816 1044.4731,825.7805 L1044.4731,828.5031 Q1043.8423,827.9221 1043.2488,827.6523 Q1042.6553,827.3825 1042.0244,827.3825 Q1040.6797,827.3825 1039.9949,828.4492 Q1039.3101,829.5158 1039.3101,831.6159 Q1039.3101,833.7077 1039.9949,834.7744 Q1040.6797,835.841 1042.0244,835.841 Q1042.6553,835.841 1043.2488,835.5712 Q1043.8423,835.3015 1044.4731,834.7204 Z "/><text fill="#000000" font-family="sans-serif" font-size="12" lengthAdjust="spacingAndGlyphs" textLength="72" x="1056" y="835.8352">Colaborador</text><line style="stroke: #A80036; stroke-width: 1.5;" x1="1028" x2="1130" y1="847.3" y2="847.3"/><text fill="#000000" font-family="sans-serif" font-size="11" lengthAdjust="spacingAndGlyphs" textLength="71" x="1033" y="861.9348">-String nome</text><text fill="#000000" font-family="sans-serif" font-size="11" lengthAdjust="spacingAndGlyphs" textLength="78" x="1033" y="874.8898">-String funcao</text><text fill="#000000" font-family="sans-serif" font-size="11" lengthAdjust="spacingAndGlyphs" textLength="84" x="1033" y="887.8449">-String telefone</text><text fill="#000000" font-family="sans-serif" font-size="11" lengthAdjust="spacingAndGlyphs" textLength="69" x="1033" y="900.8">-String email</text><!--MD5=[dcda844062f930f807532403427d3023]
class EnderecoPostal--><rect fill="#FEFECE" filter="url(#f3j9zrbjl9eej)" height="78.8652" id="EnderecoPostal" style="stroke: #A80036; stroke-width: 1.5;" width="120" x="1908.5" y="919.8"/><ellipse cx="1923.5" cy="935.8" fill="#ADD1B2" rx="11" ry="11" style="stroke: #A80036; stroke-width: 1.0;"/><path d="M1925.9731,941.9431 Q1925.3921,942.2419 1924.7529,942.3913 Q1924.1138,942.5407 1923.4082,942.5407 Q1920.9014,942.5407 1919.5815,940.8889 Q1918.2617,939.237 1918.2617,936.1159 Q1918.2617,932.9865 1919.5815,931.3347 Q1920.9014,929.6828 1923.4082,929.6828 Q1924.1138,929.6828 1924.7612,929.8322 Q1925.4087,929.9816 1925.9731,930.2805 L1925.9731,933.0031 Q1925.3423,932.4221 1924.7488,932.1523 Q1924.1553,931.8825 1923.5244,931.8825 Q1922.1797,931.8825 1921.4949,932.9492 Q1920.8101,934.0158 1920.8101,936.1159 Q1920.8101,938.2077 1921.4949,939.2744 Q1922.1797,940.341 1923.5244,940.341 Q1924.1553,940.341 1924.7488,940.0712 Q1925.3423,939.8015 1925.9731,939.2204 Z "/><text fill="#000000" font-family="sans-serif" font-size="12" lengthAdjust="spacingAndGlyphs" textLength="88" x="1937.5" y="940.3352">EnderecoPostal</text><line style="stroke: #A80036; stroke-width: 1.5;" x1="1909.5" x2="2027.5" y1="951.8" y2="951.8"/><text fill="#000000" font-family="sans-serif" font-size="11" lengthAdjust="spacingAndGlyphs" textLength="66" x="1914.5" y="966.4348">-String local</text><text fill="#000000" font-family="sans-serif" font-size="11" lengthAdjust="spacingAndGlyphs" textLength="93" x="1914.5" y="979.3898">-String codPostal</text><text fill="#000000" font-family="sans-serif" font-size="11" lengthAdjust="spacingAndGlyphs" textLength="95" x="1914.5" y="992.3449">-String localidade</text><!--MD5=[27c2d4bbe9f7b9d3b0ea2797cc54308a]
class Tarefa--><rect fill="#FEFECE" filter="url(#f3j9zrbjl9eej)" height="117.7305" id="Tarefa" style="stroke: #A80036; stroke-width: 1.5;" width="123" x="617" y="555.3"/><ellipse cx="655.85" cy="571.3" fill="#ADD1B2" rx="11" ry="11" style="stroke: #A80036; stroke-width: 1.0;"/><path d="M658.3231,577.4431 Q657.7421,577.7419 657.1029,577.8913 Q656.4638,578.0407 655.7582,578.0407 Q653.2514,578.0407 651.9315,576.3889 Q650.6117,574.737 650.6117,571.6159 Q650.6117,568.4865 651.9315,566.8347 Q653.2514,565.1828 655.7582,565.1828 Q656.4638,565.1828 657.1112,565.3322 Q657.7587,565.4816 658.3231,565.7805 L658.3231,568.5031 Q657.6923,567.9221 657.0988,567.6523 Q656.5053,567.3825 655.8744,567.3825 Q654.5297,567.3825 653.8449,568.4492 Q653.1601,569.5158 653.1601,571.6159 Q653.1601,573.7077 653.8449,574.7744 Q654.5297,575.841 655.8744,575.841 Q656.5053,575.841 657.0988,575.5712 Q657.6923,575.3015 658.3231,574.7204 Z "/><text fill="#000000" font-family="sans-serif" font-size="12" lengthAdjust="spacingAndGlyphs" textLength="38" x="675.15" y="575.8352">Tarefa</text><line style="stroke: #A80036; stroke-width: 1.5;" x1="618" x2="739" y1="587.3" y2="587.3"/><text fill="#000000" font-family="sans-serif" font-size="11" lengthAdjust="spacingAndGlyphs" textLength="95" x="623" y="601.9348">-String referencia</text><text fill="#000000" font-family="sans-serif" font-size="11" lengthAdjust="spacingAndGlyphs" textLength="102" x="623" y="614.8898">-String designacao</text><text fill="#000000" font-family="sans-serif" font-size="11" lengthAdjust="spacingAndGlyphs" textLength="111" x="623" y="627.8449">-String descInformal</text><text fill="#000000" font-family="sans-serif" font-size="11" lengthAdjust="spacingAndGlyphs" textLength="107" x="623" y="640.8">-String descTecnica</text><text fill="#000000" font-family="sans-serif" font-size="11" lengthAdjust="spacingAndGlyphs" textLength="107" x="623" y="653.7551">-Integer duracaoEst</text><text fill="#000000" font-family="sans-serif" font-size="11" lengthAdjust="spacingAndGlyphs" textLength="93" x="623" y="666.7102">-Double custoEst</text><!--MD5=[d0e9f237fb3c72e1245c36c562ad52c4]
class TipoRegimento--><rect fill="#FEFECE" filter="url(#f3j9zrbjl9eej)" height="65.9102" id="TipoRegimento" style="stroke: #A80036; stroke-width: 1.5;" width="142" x="1008" y="363.3"/><ellipse cx="1033.35" cy="379.3" fill="#ADD1B2" rx="11" ry="11" style="stroke: #A80036; stroke-width: 1.0;"/><path d="M1035.8231,385.4431 Q1035.2421,385.7419 1034.6029,385.8913 Q1033.9638,386.0407 1033.2582,386.0407 Q1030.7514,386.0407 1029.4315,384.3889 Q1028.1117,382.737 1028.1117,379.6159 Q1028.1117,376.4865 1029.4315,374.8347 Q1030.7514,373.1828 1033.2582,373.1828 Q1033.9638,373.1828 1034.6112,373.3322 Q1035.2587,373.4816 1035.8231,373.7805 L1035.8231,376.5031 Q1035.1923,375.9221 1034.5988,375.6523 Q1034.0053,375.3825 1033.3744,375.3825 Q1032.0297,375.3825 1031.3449,376.4492 Q1030.6601,377.5158 1030.6601,379.6159 Q1030.6601,381.7077 1031.3449,382.7744 Q1032.0297,383.841 1033.3744,383.841 Q1034.0053,383.841 1034.5988,383.5712 Q1035.1923,383.3015 1035.8231,382.7204 Z "/><text fill="#000000" font-family="sans-serif" font-size="12" lengthAdjust="spacingAndGlyphs" textLength="87" x="1049.65" y="383.8352">TipoRegimento</text><line style="stroke: #A80036; stroke-width: 1.5;" x1="1009" x2="1149" y1="395.3" y2="395.3"/><text fill="#000000" font-family="sans-serif" font-size="11" lengthAdjust="spacingAndGlyphs" textLength="102" x="1014" y="409.9348">-String designacao</text><text fill="#000000" font-family="sans-serif" font-size="11" lengthAdjust="spacingAndGlyphs" textLength="130" x="1014" y="422.8898">-String descricaoRegras</text><!--MD5=[7bb95b5cb1c5d9061d1eedf13c97b467]
class Administrativo--><rect fill="#FEFECE" filter="url(#f3j9zrbjl9eej)" height="40" id="Administrativo" style="stroke: #A80036; stroke-width: 1.5;" width="114" x="469" y="1095.3"/><ellipse cx="484" cy="1111.3" fill="#ADD1B2" rx="11" ry="11" style="stroke: #A80036; stroke-width: 1.0;"/><path d="M486.4731,1117.4431 Q485.8921,1117.7419 485.2529,1117.8913 Q484.6138,1118.0407 483.9082,1118.0407 Q481.4014,1118.0407 480.0815,1116.3889 Q478.7617,1114.737 478.7617,1111.6159 Q478.7617,1108.4865 480.0815,1106.8347 Q481.4014,1105.1828 483.9082,1105.1828 Q484.6138,1105.1828 485.2612,1105.3322 Q485.9087,1105.4816 486.4731,1105.7805 L486.4731,1108.5031 Q485.8423,1107.9221 485.2488,1107.6523 Q484.6553,1107.3825 484.0244,1107.3825 Q482.6797,1107.3825 481.9949,1108.4492 Q481.3101,1109.5158 481.3101,1111.6159 Q481.3101,1113.7077 481.9949,1114.7744 Q482.6797,1115.841 484.0244,1115.841 Q484.6553,1115.841 485.2488,1115.5712 Q485.8423,1115.3015 486.4731,1114.7204 Z "/><text fill="#000000" font-family="sans-serif" font-size="12" lengthAdjust="spacingAndGlyphs" textLength="82" x="498" y="1115.8352">Administrativo</text><line style="stroke: #A80036; stroke-width: 1.5;" x1="470" x2="582" y1="1127.3" y2="1127.3"/><!--MD5=[1f687b5315377fe49fca59b457947463]
class Freelancer--><rect fill="#FEFECE" filter="url(#f3j9zrbjl9eej)" height="91.8203" id="Freelancer" style="stroke: #A80036; stroke-width: 1.5;" width="96" x="1615" y="630.3"/><ellipse cx="1631.8" cy="646.3" fill="#ADD1B2" rx="11" ry="11" style="stroke: #A80036; stroke-width: 1.0;"/><path d="M1634.2731,652.4431 Q1633.6921,652.7419 1633.0529,652.8913 Q1632.4138,653.0407 1631.7082,653.0407 Q1629.2014,653.0407 1627.8815,651.3889 Q1626.5617,649.737 1626.5617,646.6159 Q1626.5617,643.4865 1627.8815,641.8347 Q1629.2014,640.1828 1631.7082,640.1828 Q1632.4138,640.1828 1633.0612,640.3322 Q1633.7087,640.4816 1634.2731,640.7805 L1634.2731,643.5031 Q1633.6423,642.9221 1633.0488,642.6523 Q1632.4553,642.3825 1631.8244,642.3825 Q1630.4797,642.3825 1629.7949,643.4492 Q1629.1101,644.5158 1629.1101,646.6159 Q1629.1101,648.7077 1629.7949,649.7744 Q1630.4797,650.841 1631.8244,650.841 Q1632.4553,650.841 1633.0488,650.5712 Q1633.6423,650.3015 1634.2731,649.7204 Z "/><text fill="#000000" font-family="sans-serif" font-size="12" lengthAdjust="spacingAndGlyphs" textLength="60" x="1646.2" y="650.8352">Freelancer</text><line style="stroke: #A80036; stroke-width: 1.5;" x1="1616" x2="1710" y1="662.3" y2="662.3"/><text fill="#000000" font-family="sans-serif" font-size="11" lengthAdjust="spacingAndGlyphs" textLength="71" x="1621" y="676.9348">-String nome</text><text fill="#000000" font-family="sans-serif" font-size="11" lengthAdjust="spacingAndGlyphs" textLength="58" x="1621" y="689.8898">-String NIF</text><text fill="#000000" font-family="sans-serif" font-size="11" lengthAdjust="spacingAndGlyphs" textLength="84" x="1621" y="702.8449">-String telefone</text><text fill="#000000" font-family="sans-serif" font-size="11" lengthAdjust="spacingAndGlyphs" textLength="69" x="1621" y="715.8">-String email</text><!--MD5=[df9f144f4e207f6ab4cd6fad6014a9df]
class ReconhecimentoCT--><rect fill="#FEFECE" filter="url(#f3j9zrbjl9eej)" height="52.9551" id="ReconhecimentoCT" style="stroke: #A80036; stroke-width: 1.5;" width="157" x="1890" y="441.8"/><ellipse cx="1911.75" cy="457.8" fill="#ADD1B2" rx="11" ry="11" style="stroke: #A80036; stroke-width: 1.0;"/><path d="M1914.2231,463.9431 Q1913.6421,464.2419 1913.0029,464.3913 Q1912.3638,464.5407 1911.6582,464.5407 Q1909.1514,464.5407 1907.8315,462.8889 Q1906.5117,461.237 1906.5117,458.1159 Q1906.5117,454.9865 1907.8315,453.3347 Q1909.1514,451.6828 1911.6582,451.6828 Q1912.3638,451.6828 1913.0112,451.8322 Q1913.6587,451.9816 1914.2231,452.2805 L1914.2231,455.0031 Q1913.5923,454.4221 1912.9988,454.1523 Q1912.4053,453.8825 1911.7744,453.8825 Q1910.4297,453.8825 1909.7449,454.9492 Q1909.0601,456.0158 1909.0601,458.1159 Q1909.0601,460.2077 1909.7449,461.2744 Q1910.4297,462.341 1911.7744,462.341 Q1912.4053,462.341 1912.9988,462.0712 Q1913.5923,461.8015 1914.2231,461.2204 Z "/><text fill="#000000" font-family="sans-serif" font-size="12" lengthAdjust="spacingAndGlyphs" textLength="110" x="1927.25" y="462.3352">ReconhecimentoCT</text><line style="stroke: #A80036; stroke-width: 1.5;" x1="1891" x2="2046" y1="473.8" y2="473.8"/><text fill="#000000" font-family="sans-serif" font-size="11" lengthAdjust="spacingAndGlyphs" textLength="145" x="1896" y="488.4348">-Date dataReconhecimento</text><!--MD5=[87602f047bdeda361e6d6669da197818]
class HabilitacaoAcademica--><rect fill="#FEFECE" filter="url(#f3j9zrbjl9eej)" height="91.8203" id="HabilitacaoAcademica" style="stroke: #A80036; stroke-width: 1.5;" width="159" x="1889" y="630.3"/><ellipse cx="1904" cy="646.3" fill="#ADD1B2" rx="11" ry="11" style="stroke: #A80036; stroke-width: 1.0;"/><path d="M1906.4731,652.4431 Q1905.8921,652.7419 1905.2529,652.8913 Q1904.6138,653.0407 1903.9082,653.0407 Q1901.4014,653.0407 1900.0815,651.3889 Q1898.7617,649.737 1898.7617,646.6159 Q1898.7617,643.4865 1900.0815,641.8347 Q1901.4014,640.1828 1903.9082,640.1828 Q1904.6138,640.1828 1905.2612,640.3322 Q1905.9087,640.4816 1906.4731,640.7805 L1906.4731,643.5031 Q1905.8423,642.9221 1905.2488,642.6523 Q1904.6553,642.3825 1904.0244,642.3825 Q1902.6797,642.3825 1901.9949,643.4492 Q1901.3101,644.5158 1901.3101,646.6159 Q1901.3101,648.7077 1901.9949,649.7744 Q1902.6797,650.841 1904.0244,650.841 Q1904.6553,650.841 1905.2488,650.5712 Q1905.8423,650.3015 1906.4731,649.7204 Z "/><text fill="#000000" font-family="sans-serif" font-size="12" lengthAdjust="spacingAndGlyphs" textLength="127" x="1918" y="650.8352">HabilitacaoAcademica</text><line style="stroke: #A80036; stroke-width: 1.5;" x1="1890" x2="2047" y1="662.3" y2="662.3"/><text fill="#000000" font-family="sans-serif" font-size="11" lengthAdjust="spacingAndGlyphs" textLength="66" x="1895" y="676.9348">-String grau</text><text fill="#000000" font-family="sans-serif" font-size="11" lengthAdjust="spacingAndGlyphs" textLength="135" x="1895" y="689.8898">-String designacaoCurso</text><text fill="#000000" font-family="sans-serif" font-size="11" lengthAdjust="spacingAndGlyphs" textLength="127" x="1895" y="702.8449">-String nomeInstituicao</text><text fill="#000000" font-family="sans-serif" font-size="11" lengthAdjust="spacingAndGlyphs" textLength="112" x="1895" y="715.8">-Double mediaCurso</text><path d="M2231,640.8 L2231,672.3 L2048.24,676.3 L2231,680.3 L2231,712.0422 A0,0 0 0 0 2231,712.0422 L2542,712.0422 A0,0 0 0 0 2542,712.0422 L2542,650.8 L2532,640.8 L2231,640.8 A0,0 0 0 0 2231,640.8 " fill="#FBFB77" filter="url(#f3j9zrbjl9eej)" style="stroke: #A80036; stroke-width: 1.0;"/><path d="M2532,640.8 L2532,650.8 L2542,650.8 L2532,640.8 " fill="#FBFB77" style="stroke: #A80036; stroke-width: 1.0;"/><text fill="#000000" font-family="sans-serif" font-size="13" lengthAdjust="spacingAndGlyphs" textLength="231" x="2237" y="658.3684">Por simplificação, não se considerou</text><text fill="#000000" font-family="sans-serif" font-size="13" lengthAdjust="spacingAndGlyphs" textLength="264" x="2237" y="673.6789">Instituição, Curso e Grau como conceitos.</text><text fill="#000000" font-family="sans-serif" font-size="13" lengthAdjust="spacingAndGlyphs" textLength="251" x="2237" y="688.9895">Contudo, tal poderá ser feito mais tarde</text><text fill="#000000" font-family="sans-serif" font-size="13" lengthAdjust="spacingAndGlyphs" textLength="290" x="2237" y="704.3">se se vier a revelar importante para o negócio.</text><!--MD5=[19db0db7353a4bf63eefc676e5ba9b80]
class Anuncio--><rect fill="#FEFECE" filter="url(#f3j9zrbjl9eej)" height="117.7305" id="Anuncio" style="stroke: #A80036; stroke-width: 1.5;" width="151" x="288" y="498.3"/><ellipse cx="336.75" cy="514.3" fill="#ADD1B2" rx="11" ry="11" style="stroke: #A80036; stroke-width: 1.0;"/><path d="M339.2231,520.4431 Q338.6421,520.7419 338.0029,520.8913 Q337.3638,521.0407 336.6582,521.0407 Q334.1514,521.0407 332.8315,519.3889 Q331.5117,517.737 331.5117,514.6159 Q331.5117,511.4865 332.8315,509.8347 Q334.1514,508.1828 336.6582,508.1828 Q337.3638,508.1828 338.0112,508.3322 Q338.6587,508.4816 339.2231,508.7805 L339.2231,511.5031 Q338.5923,510.9221 337.9988,510.6523 Q337.4053,510.3825 336.7744,510.3825 Q335.4297,510.3825 334.7449,511.4492 Q334.0601,512.5158 334.0601,514.6159 Q334.0601,516.7077 334.7449,517.7744 Q335.4297,518.841 336.7744,518.841 Q337.4053,518.841 337.9988,518.5712 Q338.5923,518.3015 339.2231,517.7204 Z "/><text fill="#000000" font-family="sans-serif" font-size="12" lengthAdjust="spacingAndGlyphs" textLength="45" x="357.25" y="518.8352">Anuncio</text><line style="stroke: #A80036; stroke-width: 1.5;" x1="289" x2="438" y1="530.3" y2="530.3"/><text fill="#000000" font-family="sans-serif" font-size="11" lengthAdjust="spacingAndGlyphs" textLength="137" x="294" y="544.9348">-Date dtInicioPublicitacao</text><text fill="#000000" font-family="sans-serif" font-size="11" lengthAdjust="spacingAndGlyphs" textLength="127" x="294" y="557.8898">-Date dtFimPublicitacao</text><text fill="#000000" font-family="sans-serif" font-size="11" lengthAdjust="spacingAndGlyphs" textLength="139" x="294" y="570.8449">-Date dtInicioCandidatura</text><text fill="#000000" font-family="sans-serif" font-size="11" lengthAdjust="spacingAndGlyphs" textLength="129" x="294" y="583.8">-Date dtFimCandidatura</text><text fill="#000000" font-family="sans-serif" font-size="11" lengthAdjust="spacingAndGlyphs" textLength="118" x="294" y="596.7551">-Date dtInicioSeriacao</text><text fill="#000000" font-family="sans-serif" font-size="11" lengthAdjust="spacingAndGlyphs" textLength="108" x="294" y="609.7102">-Date dtFimSeriacao</text><!--MD5=[475c5b924ed41035684e2831311827d2]
class Candidatura--><rect fill="#FEFECE" filter="url(#f3j9zrbjl9eej)" height="104.7754" id="Candidatura" style="stroke: #A80036; stroke-width: 1.5;" width="144" x="1315" y="623.8"/><ellipse cx="1348.45" cy="639.8" fill="#ADD1B2" rx="11" ry="11" style="stroke: #A80036; stroke-width: 1.0;"/><path d="M1350.9231,645.9431 Q1350.3421,646.2419 1349.7029,646.3913 Q1349.0638,646.5407 1348.3582,646.5407 Q1345.8514,646.5407 1344.5315,644.8889 Q1343.2117,643.237 1343.2117,640.1159 Q1343.2117,636.9865 1344.5315,635.3347 Q1345.8514,633.6828 1348.3582,633.6828 Q1349.0638,633.6828 1349.7112,633.8322 Q1350.3587,633.9816 1350.9231,634.2805 L1350.9231,637.0031 Q1350.2923,636.4221 1349.6988,636.1523 Q1349.1053,635.8825 1348.4744,635.8825 Q1347.1297,635.8825 1346.4449,636.9492 Q1345.7601,638.0158 1345.7601,640.1159 Q1345.7601,642.2077 1346.4449,643.2744 Q1347.1297,644.341 1348.4744,644.341 Q1349.1053,644.341 1349.6988,644.0712 Q1350.2923,643.8015 1350.9231,643.2204 Z "/><text fill="#000000" font-family="sans-serif" font-size="12" lengthAdjust="spacingAndGlyphs" textLength="71" x="1366.55" y="644.3352">Candidatura</text><line style="stroke: #A80036; stroke-width: 1.5;" x1="1316" x2="1458" y1="655.8" y2="655.8"/><text fill="#000000" font-family="sans-serif" font-size="11" lengthAdjust="spacingAndGlyphs" textLength="122" x="1321" y="670.4348">-Date dataCandidatura</text><text fill="#000000" font-family="sans-serif" font-size="11" lengthAdjust="spacingAndGlyphs" textLength="132" x="1321" y="683.3898">-Double valorPretendido</text><text fill="#000000" font-family="sans-serif" font-size="11" lengthAdjust="spacingAndGlyphs" textLength="82" x="1321" y="696.3449">-Integer nrDias</text><text fill="#000000" font-family="sans-serif" font-size="11" lengthAdjust="spacingAndGlyphs" textLength="130" x="1321" y="709.3">-String txtApresentacao</text><text fill="#000000" font-family="sans-serif" font-size="11" lengthAdjust="spacingAndGlyphs" textLength="110" x="1321" y="722.2551">-String txtMotivacao</text><!--MD5=[716bba0e94eea125d5a66a891f2c3c34]
class Classificacao--><rect fill="#FEFECE" filter="url(#f3j9zrbjl9eej)" height="52.9551" id="Classificacao" style="stroke: #A80036; stroke-width: 1.5;" width="105" x="1026.5" y="614.8"/><ellipse cx="1041.5" cy="630.8" fill="#ADD1B2" rx="11" ry="11" style="stroke: #A80036; stroke-width: 1.0;"/><path d="M1043.9731,636.9431 Q1043.3921,637.2419 1042.7529,637.3913 Q1042.1138,637.5407 1041.4082,637.5407 Q1038.9014,637.5407 1037.5815,635.8889 Q1036.2617,634.237 1036.2617,631.1159 Q1036.2617,627.9865 1037.5815,626.3347 Q1038.9014,624.6828 1041.4082,624.6828 Q1042.1138,624.6828 1042.7612,624.8322 Q1043.4087,624.9816 1043.9731,625.2805 L1043.9731,628.0031 Q1043.3423,627.4221 1042.7488,627.1523 Q1042.1553,626.8825 1041.5244,626.8825 Q1040.1797,626.8825 1039.4949,627.9492 Q1038.8101,629.0158 1038.8101,631.1159 Q1038.8101,633.2077 1039.4949,634.2744 Q1040.1797,635.341 1041.5244,635.341 Q1042.1553,635.341 1042.7488,635.0712 Q1043.3423,634.8015 1043.9731,634.2204 Z "/><text fill="#000000" font-family="sans-serif" font-size="12" lengthAdjust="spacingAndGlyphs" textLength="73" x="1055.5" y="635.3352">Classificacao</text><line style="stroke: #A80036; stroke-width: 1.5;" x1="1027.5" x2="1130.5" y1="646.8" y2="646.8"/><text fill="#000000" font-family="sans-serif" font-size="11" lengthAdjust="spacingAndGlyphs" textLength="75" x="1032.5" y="661.4348">-Integer lugar</text><!--MD5=[aca0f236260d30190baee83e33cc7802]
class ProcessoSeriacao--><rect fill="#FEFECE" filter="url(#f3j9zrbjl9eej)" height="52.9551" id="ProcessoSeriacao" style="stroke: #A80036; stroke-width: 1.5;" width="131" x="613" y="466.8"/><ellipse cx="628" cy="482.8" fill="#ADD1B2" rx="11" ry="11" style="stroke: #A80036; stroke-width: 1.0;"/><path d="M630.4731,488.9431 Q629.8921,489.2419 629.2529,489.3913 Q628.6138,489.5407 627.9082,489.5407 Q625.4014,489.5407 624.0815,487.8889 Q622.7617,486.237 622.7617,483.1159 Q622.7617,479.9865 624.0815,478.3347 Q625.4014,476.6828 627.9082,476.6828 Q628.6138,476.6828 629.2612,476.8322 Q629.9087,476.9816 630.4731,477.2805 L630.4731,480.0031 Q629.8423,479.4221 629.2488,479.1523 Q628.6553,478.8825 628.0244,478.8825 Q626.6797,478.8825 625.9949,479.9492 Q625.3101,481.0158 625.3101,483.1159 Q625.3101,485.2077 625.9949,486.2744 Q626.6797,487.341 628.0244,487.341 Q628.6553,487.341 629.2488,487.0712 Q629.8423,486.8015 630.4731,486.2204 Z "/><text fill="#000000" font-family="sans-serif" font-size="12" lengthAdjust="spacingAndGlyphs" textLength="99" x="642" y="487.3352">ProcessoSeriacao</text><line style="stroke: #A80036; stroke-width: 1.5;" x1="614" x2="743" y1="498.8" y2="498.8"/><text fill="#000000" font-family="sans-serif" font-size="11" lengthAdjust="spacingAndGlyphs" textLength="112" x="619" y="513.4348">-Date dataRealizacao</text><!--MD5=[5dd1d6732c071e710b9290b531f2fa3b]
class Utilizador--><rect fill="#FEFECE" filter="url(#f3j9zrbjl9eej)" height="78.8652" id="Utilizador" style="stroke: #A80036; stroke-width: 1.5;" width="105" x="1916" y="1047.8"/><ellipse cx="1939.1" cy="1063.8" fill="#ADD1B2" rx="11" ry="11" style="stroke: #A80036; stroke-width: 1.0;"/><path d="M1941.5731,1069.9431 Q1940.9921,1070.2419 1940.3529,1070.3913 Q1939.7138,1070.5407 1939.0082,1070.5407 Q1936.5014,1070.5407 1935.1815,1068.8889 Q1933.8617,1067.237 1933.8617,1064.1159 Q1933.8617,1060.9865 1935.1815,1059.3347 Q1936.5014,1057.6828 1939.0082,1057.6828 Q1939.7138,1057.6828 1940.3612,1057.8322 Q1941.0087,1057.9816 1941.5731,1058.2805 L1941.5731,1061.0031 Q1940.9423,1060.4221 1940.3488,1060.1523 Q1939.7553,1059.8825 1939.1244,1059.8825 Q1937.7797,1059.8825 1937.0949,1060.9492 Q1936.4101,1062.0158 1936.4101,1064.1159 Q1936.4101,1066.2077 1937.0949,1067.2744 Q1937.7797,1068.341 1939.1244,1068.341 Q1939.7553,1068.341 1940.3488,1068.0712 Q1940.9423,1067.8015 1941.5731,1067.2204 Z "/><text fill="#000000" font-family="sans-serif" font-size="12" lengthAdjust="spacingAndGlyphs" textLength="55" x="1954.9" y="1068.3352">Utilizador</text><line style="stroke: #A80036; stroke-width: 1.5;" x1="1917" x2="2020" y1="1079.8" y2="1079.8"/><text fill="#000000" font-family="sans-serif" font-size="11" lengthAdjust="spacingAndGlyphs" textLength="71" x="1922" y="1094.4348">-String nome</text><text fill="#000000" font-family="sans-serif" font-size="11" lengthAdjust="spacingAndGlyphs" textLength="69" x="1922" y="1107.3898">-String email</text><text fill="#000000" font-family="sans-serif" font-size="11" lengthAdjust="spacingAndGlyphs" textLength="93" x="1922" y="1120.3449">-String password</text><!--MD5=[37bf6c08f758502d5d1a5531d651ab43]
class AlgoritmoGeradorPasswords--><rect fill="#FEFECE" filter="url(#f3j9zrbjl9eej)" height="40" id="AlgoritmoGeradorPasswords" style="stroke: #A80036; stroke-width: 1.5;" width="196" x="778" y="1180.3"/><ellipse cx="793" cy="1196.3" fill="#ADD1B2" rx="11" ry="11" style="stroke: #A80036; stroke-width: 1.0;"/><path d="M795.4731,1202.4431 Q794.8921,1202.7419 794.2529,1202.8913 Q793.6138,1203.0407 792.9082,1203.0407 Q790.4014,1203.0407 789.0815,1201.3889 Q787.7617,1199.737 787.7617,1196.6159 Q787.7617,1193.4865 789.0815,1191.8347 Q790.4014,1190.1828 792.9082,1190.1828 Q793.6138,1190.1828 794.2612,1190.3322 Q794.9087,1190.4816 795.4731,1190.7805 L795.4731,1193.5031 Q794.8423,1192.9221 794.2488,1192.6523 Q793.6553,1192.3825 793.0244,1192.3825 Q791.6797,1192.3825 790.9949,1193.4492 Q790.3101,1194.5158 790.3101,1196.6159 Q790.3101,1198.7077 790.9949,1199.7744 Q791.6797,1200.841 793.0244,1200.841 Q793.6553,1200.841 794.2488,1200.5712 Q794.8423,1200.3015 795.4731,1199.7204 Z "/><text fill="#000000" font-family="sans-serif" font-size="12" lengthAdjust="spacingAndGlyphs" textLength="164" x="807" y="1200.8352">AlgoritmoGeradorPasswords</text><line style="stroke: #A80036; stroke-width: 1.5;" x1="779" x2="973" y1="1212.3" y2="1212.3"/><ellipse cx="1968.5" cy="255.3" fill="#000000" rx="2" ry="2" style="stroke: none; stroke-width: 1.0;"/><!--MD5=[718b46c9a1975c175f4073d63ce5ccba]
link Plataforma to AreaAtividade--><path d="M70.56,299.52 C81.32,260.38 106.04,187.11 150,140.3 C223.51,62.01 255.11,25.3 362.5,25.3 C362.5,25.3 362.5,25.3 2387.5,25.3 C2527.11,25.3 2675.68,104.03 2755.52,153.7 " fill="none" id="Plataforma-AreaAtividade" style="stroke: #A80036; stroke-width: 1.0;"/><text fill="#000000" font-family="sans-serif" font-size="13" lengthAdjust="spacingAndGlyphs" textLength="42" x="1359.5" y="21.8684">possui</text><polygon fill="#000000" points="1404.5,15.4553,1410.5,18.4553,1404.5,21.4553,1404.5,15.4553" style="stroke: #000000; stroke-width: 1.0;"/><text fill="#000000" font-family="sans-serif" font-size="13" lengthAdjust="spacingAndGlyphs" textLength="8" x="63.3833" y="289.2022">1</text><text fill="#000000" font-family="sans-serif" font-size="13" lengthAdjust="spacingAndGlyphs" textLength="6" x="2738.3017" y="142.9183">*</text><!--MD5=[a77d152358ce76c19672aacd9fb0ada1]
link Plataforma to CompetenciaTecnica--><path d="M76.46,299.75 C90.73,271.87 116.52,228.4 150,201.3 C229.46,136.99 260.28,113.3 362.5,113.3 C362.5,113.3 362.5,113.3 1969.5,113.3 C2092.42,113.3 2228.86,159.82 2310.87,193.16 " fill="none" id="Plataforma-CompetenciaTecnica" style="stroke: #A80036; stroke-width: 1.0;"/><text fill="#000000" font-family="sans-serif" font-size="13" lengthAdjust="spacingAndGlyphs" textLength="42" x="1205" y="109.8684">possui</text><polygon fill="#000000" points="1250,103.4553,1256,106.4553,1250,109.4553,1250,103.4553" style="stroke: #000000; stroke-width: 1.0;"/><text fill="#000000" font-family="sans-serif" font-size="13" lengthAdjust="spacingAndGlyphs" textLength="8" x="80.7159" y="289.062">1</text><text fill="#000000" font-family="sans-serif" font-size="13" lengthAdjust="spacingAndGlyphs" textLength="6" x="2296.7613" y="203.1072">*</text><!--MD5=[cb8556493ec2c94f9603162dd119feba]
link Plataforma to Categoria--><path d="M120,304.71 C179.29,283.82 276.07,255.3 362.5,255.3 C362.5,255.3 362.5,255.3 877,255.3 C985.1,255.3 1110.81,272.08 1179.71,282.72 " fill="none" id="Plataforma-Categoria" style="stroke: #A80036; stroke-width: 1.0;"/><text fill="#000000" font-family="sans-serif" font-size="13" lengthAdjust="spacingAndGlyphs" textLength="42" x="498.5" y="251.8684">possui</text><polygon fill="#000000" points="543.5,245.4553,549.5,248.4553,543.5,251.4553,543.5,245.4553" style="stroke: #000000; stroke-width: 1.0;"/><text fill="#000000" font-family="sans-serif" font-size="13" lengthAdjust="spacingAndGlyphs" textLength="8" x="127.8156" y="315.4959">1</text><text fill="#000000" font-family="sans-serif" font-size="13" lengthAdjust="spacingAndGlyphs" textLength="6" x="1165.8645" y="295.1646">*</text><!--MD5=[1c2ad462e362697fcdc859a6327d55c7]
link Plataforma to Organizacao--><path d="M76.55,352.9 C92.94,387.38 122.76,449.26 150,501.3 C212.29,620.31 290.03,757.36 332.08,830.62 " fill="none" id="Plataforma-Organizacao" style="stroke: #A80036; stroke-width: 1.0;"/><text fill="#000000" font-family="sans-serif" font-size="13" lengthAdjust="spacingAndGlyphs" textLength="93" x="151" y="497.8684">tem registadas</text><polygon fill="#000000" points="193,506.6105,196,512.6105,199,506.6105,193,506.6105" style="stroke: #000000; stroke-width: 1.0;"/><text fill="#000000" font-family="sans-serif" font-size="13" lengthAdjust="spacingAndGlyphs" textLength="8" x="70.7584" y="373.3951">1</text><text fill="#000000" font-family="sans-serif" font-size="13" lengthAdjust="spacingAndGlyphs" textLength="6" x="321.4548" y="820.1376">*</text><!--MD5=[956ecced288de5de0c5f024757c210bf]
link Plataforma to TipoRegimento--><path d="M120.15,326.59 C263.6,327.93 655,335.38 978,376.3 C987.66,377.52 997.79,379.15 1007.73,380.94 " fill="none" id="Plataforma-TipoRegimento" style="stroke: #A80036; stroke-width: 1.0;"/><text fill="#000000" font-family="sans-serif" font-size="13" lengthAdjust="spacingAndGlyphs" textLength="48" x="495.5" y="332.8684">suporta</text><polygon fill="#000000" points="546.5,326.4553,552.5,329.4553,546.5,332.4553,546.5,326.4553" style="stroke: #000000; stroke-width: 1.0;"/><text fill="#000000" font-family="sans-serif" font-size="13" lengthAdjust="spacingAndGlyphs" textLength="8" x="127.9848" y="340.1792">1</text><text fill="#000000" font-family="sans-serif" font-size="13" lengthAdjust="spacingAndGlyphs" textLength="6" x="994.0709" y="392.7184">*</text><!--MD5=[3d9e8e0d764359bffb897b36dc4b633a]
link Plataforma to Anuncio--><path d="M98.53,353.03 C144.57,388.65 227.29,452.66 287.89,499.56 " fill="none" id="Plataforma-Anuncio" style="stroke: #A80036; stroke-width: 1.0;"/><text fill="#000000" font-family="sans-serif" font-size="13" lengthAdjust="spacingAndGlyphs" textLength="55" x="170" y="391.8684">publicita</text><polygon fill="#000000" points="228,385.4553,234,388.4553,228,391.4553,228,385.4553" style="stroke: #000000; stroke-width: 1.0;"/><text fill="#000000" font-family="sans-serif" font-size="13" lengthAdjust="spacingAndGlyphs" textLength="8" x="97.4272" y="373.1251">1</text><text fill="#000000" font-family="sans-serif" font-size="13" lengthAdjust="spacingAndGlyphs" textLength="6" x="273.7833" y="506.9773">*</text><!--MD5=[39c0de7668d8063a4eb96c23050b3de2]
link Plataforma to Freelancer--><path d="M90.29,299.74 C106.38,284.7 128.05,266.51 150,254.3 C236.9,205.96 263.06,184.3 362.5,184.3 C362.5,184.3 362.5,184.3 1233.5,184.3 C1468.54,184.3 1604.08,507.54 1647,630.01 " fill="none" id="Plataforma-Freelancer" style="stroke: #A80036; stroke-width: 1.0;"/><text fill="#000000" font-family="sans-serif" font-size="13" lengthAdjust="spacingAndGlyphs" textLength="53" x="843" y="180.8684">tem/usa</text><polygon fill="#000000" points="899,174.4553,905,177.4553,899,180.4553,899,174.4553" style="stroke: #000000; stroke-width: 1.0;"/><text fill="#000000" font-family="sans-serif" font-size="13" lengthAdjust="spacingAndGlyphs" textLength="8" x="97.9169" y="289.0496">1</text><text fill="#000000" font-family="sans-serif" font-size="13" lengthAdjust="spacingAndGlyphs" textLength="6" x="1638.2094" y="619.714">*</text><!--MD5=[b585ec1f109bee2e6a0accf9e50b3199]
link Plataforma to Administrativo--><path d="M67.01,353.14 C74.85,417.61 98.94,585.51 150,716.3 C194.32,829.85 206.19,862.94 288,953.3 C345.7,1017.03 433.25,1068.43 484.22,1095.18 " fill="none" id="Plataforma-Administrativo" style="stroke: #A80036; stroke-width: 1.0;"/><text fill="#000000" font-family="sans-serif" font-size="13" lengthAdjust="spacingAndGlyphs" textLength="24" x="185.5" y="712.8684">tem</text><polygon fill="#000000" points="193,721.6105,196,727.6105,199,721.6105,193,721.6105" style="stroke: #000000; stroke-width: 1.0;"/><text fill="#000000" font-family="sans-serif" font-size="13" lengthAdjust="spacingAndGlyphs" textLength="8" x="59.0122" y="373.2591">1</text><text fill="#000000" font-family="sans-serif" font-size="13" lengthAdjust="spacingAndGlyphs" textLength="6" x="465.0659" y="1084.6806">*</text><!--MD5=[49996cf4319f45f78007483382b2a228]
link Plataforma to AlgoritmoGeradorPasswords--><path d="M65.92,352.92 C73.56,454.83 103.65,819.72 150,925.3 C188.98,1014.09 208,1039.5 288,1094.3 C436.34,1195.91 653.48,1208.45 777.86,1206 " fill="none" id="Plataforma-AlgoritmoGeradorPasswords" style="stroke: #A80036; stroke-width: 1.0;"/><text fill="#000000" font-family="sans-serif" font-size="13" lengthAdjust="spacingAndGlyphs" textLength="55" x="329.5" y="1090.8684">recorre a</text><polygon fill="#000000" points="352.5,1099.6105,355.5,1105.6105,358.5,1099.6105,352.5,1099.6105" style="stroke: #000000; stroke-width: 1.0;"/><text fill="#000000" font-family="sans-serif" font-size="13" lengthAdjust="spacingAndGlyphs" textLength="8" x="57.6703" y="373.4197">1</text><text fill="#000000" font-family="sans-serif" font-size="13" lengthAdjust="spacingAndGlyphs" textLength="8" x="762.0399" y="1219.5909">1</text><!--MD5=[567db691f9836c63f305bad1024cbc66]
link Organizacao to Colaborador--><path d="M415.72,899.52 C465.51,914.37 543.57,935.22 613,943.3 C774.83,962.15 822.16,956.81 978,909.3 C994.39,904.3 1011.48,896.98 1026.79,889.55 " fill="none" id="Organizacao-Colaborador" style="stroke: #A80036; stroke-width: 1.0;"/><text fill="#000000" font-family="sans-serif" font-size="13" lengthAdjust="spacingAndGlyphs" textLength="24" x="660" y="939.8684">tem</text><polygon fill="#000000" points="687,933.4553,693,936.4553,687,939.4553,687,933.4553" style="stroke: #000000; stroke-width: 1.0;"/><text fill="#000000" font-family="sans-serif" font-size="13" lengthAdjust="spacingAndGlyphs" textLength="8" x="423.6259" y="915.4616">1</text><text fill="#000000" font-family="sans-serif" font-size="13" lengthAdjust="spacingAndGlyphs" textLength="22" x="997.0863" y="906.5053">1..*</text><!--MD5=[567db691f9836c63f305bad1024cbc66]
link Organizacao to Colaborador--><path d="M415.53,881.73 C546.78,877.68 894.98,866.94 1026.62,862.89 " fill="none" id="Organizacao-Colaborador-1" style="stroke: #A80036; stroke-width: 1.0;"/><text fill="#000000" font-family="sans-serif" font-size="13" lengthAdjust="spacingAndGlyphs" textLength="68" x="638" y="867.8684">tem gestor</text><polygon fill="#000000" points="709,861.4553,715,864.4553,709,867.4553,709,861.4553" style="stroke: #000000; stroke-width: 1.0;"/><text fill="#000000" font-family="sans-serif" font-size="13" lengthAdjust="spacingAndGlyphs" textLength="8" x="423.4092" y="895.1699">1</text><text fill="#000000" font-family="sans-serif" font-size="13" lengthAdjust="spacingAndGlyphs" textLength="8" x="1011.0439" y="876.7128">1</text><!--MD5=[ca49ec1e86bb5e8c049c02c54bfc3088]
link Organizacao to EnderecoPostal--><path d="M415.73,920.28 C432.03,930.34 450.62,940.15 469,946.3 C530.02,966.73 548.75,957.85 613,961.3 C1113.61,988.19 1239.66,964.41 1741,965.3 C1793.44,965.39 1806.58,966.75 1859,965.3 C1875.03,964.86 1892.38,964.05 1908.4,963.16 " fill="none" id="Organizacao-EnderecoPostal" style="stroke: #A80036; stroke-width: 1.0;"/><text fill="#000000" font-family="sans-serif" font-size="13" lengthAdjust="spacingAndGlyphs" textLength="86" x="1183" y="966.8684">localizada em</text><polygon fill="#000000" points="1272,960.4553,1278,963.4553,1272,966.4553,1272,960.4553" style="stroke: #000000; stroke-width: 1.0;"/><text fill="#000000" font-family="sans-serif" font-size="13" lengthAdjust="spacingAndGlyphs" textLength="24" x="423.558" y="938.302">0..1</text><text fill="#000000" font-family="sans-serif" font-size="13" lengthAdjust="spacingAndGlyphs" textLength="8" x="1892.5878" y="977.14">1</text><!--MD5=[cf2deab2ed1f09cef5b70f58ef028e55]
link Organizacao to Tarefa--><path d="M415.84,839.18 C470.9,791.86 558.29,716.75 616.75,666.51 " fill="none" id="Organizacao-Tarefa" style="stroke: #A80036; stroke-width: 1.0;"/><text fill="#000000" font-family="sans-serif" font-size="13" lengthAdjust="spacingAndGlyphs" textLength="42" x="498.5" y="697.8684">possui</text><polygon fill="#000000" points="543.5,691.4553,549.5,694.4553,543.5,697.4553,543.5,691.4553" style="stroke: #000000; stroke-width: 1.0;"/><text fill="#000000" font-family="sans-serif" font-size="13" lengthAdjust="spacingAndGlyphs" textLength="8" x="423.4107" y="846.8635">1</text><text fill="#000000" font-family="sans-serif" font-size="13" lengthAdjust="spacingAndGlyphs" textLength="6" x="602.8586" y="686.3909">*</text><!--MD5=[e538c9efa8de58386edc6206f3c58807]
link CompetenciaTecnica to AreaAtividade--><path d="M2462.37,220.51 C2543.81,214.22 2672.67,204.26 2749.85,198.3 " fill="none" id="CompetenciaTecnica-AreaAtividade" style="stroke: #A80036; stroke-width: 1.0;"/><text fill="#000000" font-family="sans-serif" font-size="13" lengthAdjust="spacingAndGlyphs" textLength="67" x="2606" y="197.8684">referente a</text><polygon fill="#000000" points="2676,191.4553,2682,194.4553,2676,197.4553,2676,191.4553" style="stroke: #000000; stroke-width: 1.0;"/><text fill="#000000" font-family="sans-serif" font-size="13" lengthAdjust="spacingAndGlyphs" textLength="6" x="2469.8873" y="233.2626">*</text><text fill="#000000" font-family="sans-serif" font-size="13" lengthAdjust="spacingAndGlyphs" textLength="8" x="2733.7967" y="212.3394">1</text><!--MD5=[0d731ff285a62a08178b23be6cceb109]
link CompetenciaTecnica to GrauProficiencia--><path d="M2462.24,246.78 C2564.03,274.72 2751.9,326.42 2912,371.3 C2921.7,374.02 2931.97,376.92 2941.99,379.76 " fill="none" id="CompetenciaTecnica-GrauProficiencia" style="stroke: #A80036; stroke-width: 1.0;"/><text fill="#000000" font-family="sans-serif" font-size="13" lengthAdjust="spacingAndGlyphs" textLength="37" x="2790.5" y="323.8684">aplica</text><polygon fill="#000000" points="2830.5,317.4553,2836.5,320.4553,2830.5,323.4553,2830.5,317.4553" style="stroke: #000000; stroke-width: 1.0;"/><text fill="#000000" font-family="sans-serif" font-size="13" lengthAdjust="spacingAndGlyphs" textLength="8" x="2470.0894" y="262.1246">1</text><text fill="#000000" font-family="sans-serif" font-size="13" lengthAdjust="spacingAndGlyphs" textLength="6" x="2928.006" y="374.301">*</text><!--MD5=[333932e5e4606ec9852f0cecc179b212]
link Categoria to AreaAtividade--><path d="M1285.21,300.96 C1345.27,311.32 1447.45,326.3 1536,326.3 C1536,326.3 1536,326.3 2387.5,326.3 C2521.05,326.3 2667.9,266.26 2749.89,226.86 " fill="none" id="Categoria-AreaAtividade" style="stroke: #A80036; stroke-width: 1.0;"/><text fill="#000000" font-family="sans-serif" font-size="13" lengthAdjust="spacingAndGlyphs" textLength="103" x="1742" y="322.8684">enquadra-se em</text><polygon fill="#000000" points="1848,316.4553,1854,319.4553,1848,322.4553,1848,316.4553" style="stroke: #000000; stroke-width: 1.0;"/><text fill="#000000" font-family="sans-serif" font-size="13" lengthAdjust="spacingAndGlyphs" textLength="6" x="1293.0442" y="315.9696">*</text><text fill="#000000" font-family="sans-serif" font-size="13" lengthAdjust="spacingAndGlyphs" textLength="8" x="2733.8413" y="244.2017">1</text><!--MD5=[809dbf15b08fd64c67894f5c1e36e89a]
link Categoria to apoint14475--><path d="M1285.11,288.77 C1446.97,280.83 1935.63,256.86 1966.02,255.37 " fill="none" id="Categoria-apoint14475" style="stroke: #A80036; stroke-width: 1.0;"/><text fill="#000000" font-family="sans-serif" font-size="13" lengthAdjust="spacingAndGlyphs" textLength="40" x="1510.5" y="270.8684">requer</text><polygon fill="#000000" points="1553.5,264.4553,1559.5,267.4553,1553.5,270.4553,1553.5,264.4553" style="stroke: #000000; stroke-width: 1.0;"/><text fill="#000000" font-family="sans-serif" font-size="13" lengthAdjust="spacingAndGlyphs" textLength="6" x="1292.9302" y="284.956">*</text><!--MD5=[19f0733833e16a41ccf8d99d29d47260]
link apoint14475 to CompetenciaTecnica--><path d="M1970.69,255.22 C1988.28,253.99 2195.97,239.51 2310.62,231.52 " fill="none" id="apoint14475-CompetenciaTecnica" style="stroke: #A80036; stroke-width: 1.0;"/><text fill="#000000" font-family="sans-serif" font-size="13" lengthAdjust="spacingAndGlyphs" textLength="6" x="2297.1018" y="245.322">*</text><!--MD5=[0492bf8b177b5525707be8364ea3998e]
link apoint14475 to CaraterCT--><path d="M1970.58,255.43 C1978.84,256.46 2032.99,263.19 2077.59,268.73 " fill="none" id="apoint14475-CaraterCT" style="stroke: #A80036; stroke-width: 1.0; stroke-dasharray: 7.0,7.0;"/><!--MD5=[8c0835971d966be6a8d860f4ee2f4601]
link CaraterCT to GrauProficiencia--><path d="M2201.34,286.87 C2310.83,305.64 2548.46,345.28 2750,371.3 C2815.38,379.74 2890.53,387.17 2941.93,391.9 " fill="none" id="CaraterCT-GrauProficiencia" style="stroke: #A80036; stroke-width: 1.0;"/><text fill="#000000" font-family="sans-serif" font-size="13" lengthAdjust="spacingAndGlyphs" textLength="133" x="2573" y="343.8684">exige (como mínimo)</text><polygon fill="#000000" points="2709,337.4553,2715,340.4553,2709,343.4553,2709,337.4553" style="stroke: #000000; stroke-width: 1.0;"/><text fill="#000000" font-family="sans-serif" font-size="13" lengthAdjust="spacingAndGlyphs" textLength="6" x="2208.8371" y="301.5483">*</text><text fill="#000000" font-family="sans-serif" font-size="13" lengthAdjust="spacingAndGlyphs" textLength="8" x="2925.8168" y="387.9206">1</text><!--MD5=[cc2561a0285988b367253361d2d1973d]
link Tarefa to Categoria--><path d="M740.18,601.1 C751.41,598.76 763.05,596.4 774,594.3 C864.35,577 892.42,593.05 978,559.3 C1063.09,525.75 1088.54,514.04 1150,446.3 C1182.89,410.05 1206.65,358.09 1219.75,324.52 " fill="none" id="Tarefa-Categoria" style="stroke: #A80036; stroke-width: 1.0;"/><text fill="#000000" font-family="sans-serif" font-size="13" lengthAdjust="spacingAndGlyphs" textLength="103" x="818" y="555.8684">enquadra-se em</text><polygon fill="#000000" points="924,549.4553,930,552.4553,924,555.4553,924,549.4553" style="stroke: #000000; stroke-width: 1.0;"/><text fill="#000000" font-family="sans-serif" font-size="13" lengthAdjust="spacingAndGlyphs" textLength="6" x="748.0629" y="613.009">*</text><text fill="#000000" font-family="sans-serif" font-size="13" lengthAdjust="spacingAndGlyphs" textLength="8" x="1208.557" y="344.8888">1</text><!--MD5=[ebe0b2adceebb6ee2636cb1948c7c8a9]
link Tarefa to Colaborador--><path d="M697.51,673.36 C712.09,711 736.46,757.55 774,784.3 C848.98,837.72 889.57,794.69 978,820.3 C994.22,825 1011.4,831.46 1026.85,837.87 " fill="none" id="Tarefa-Colaborador" style="stroke: #A80036; stroke-width: 1.0;"/><text fill="#000000" font-family="sans-serif" font-size="13" lengthAdjust="spacingAndGlyphs" textLength="103" x="818" y="780.8684">especificada por</text><polygon fill="#000000" points="924,774.4553,930,777.4553,924,780.4553,924,774.4553" style="stroke: #000000; stroke-width: 1.0;"/><text fill="#000000" font-family="sans-serif" font-size="13" lengthAdjust="spacingAndGlyphs" textLength="6" x="693.3612" y="693.6579">*</text><text fill="#000000" font-family="sans-serif" font-size="13" lengthAdjust="spacingAndGlyphs" textLength="8" x="1010.9539" y="848.2327">1</text><!--MD5=[439a6ad1de0b5aa57a973cae1bf36ce5]
link Anuncio to Tarefa--><path d="M439.26,606.23 C448.95,610.75 458.99,614.63 469,617.3 C517.45,630.22 574.5,628.28 616.67,623.78 " fill="none" id="Anuncio-Tarefa" style="stroke: #A80036; stroke-width: 1.0;"/><text fill="#000000" font-family="sans-serif" font-size="13" lengthAdjust="spacingAndGlyphs" textLength="55" x="492" y="613.8684">publicita</text><polygon fill="#000000" points="550,607.4553,556,610.4553,550,613.4553,550,607.4553" style="stroke: #000000; stroke-width: 1.0;"/><text fill="#000000" font-family="sans-serif" font-size="13" lengthAdjust="spacingAndGlyphs" textLength="24" x="447.0761" y="623.85">0..1</text><text fill="#000000" font-family="sans-serif" font-size="13" lengthAdjust="spacingAndGlyphs" textLength="8" x="601.0584" y="638.3452">1</text><!--MD5=[439a6ad1de0b5aa57a973cae1bf36ce5]
link Anuncio to Tarefa--><path d="M439.12,570.4 C481.36,577.87 535.16,587.48 583,596.3 C593.92,598.32 605.55,600.5 616.77,602.63 " fill="none" id="Anuncio-Tarefa-1" style="stroke: #A80036; stroke-width: 1.0;"/><polygon fill="#000000" points="495,566.4553,489,569.4553,495,572.4553,495,566.4553" style="stroke: #000000; stroke-width: 1.0;"/><text fill="#000000" font-family="sans-serif" font-size="13" lengthAdjust="spacingAndGlyphs" textLength="63" x="501" y="572.8684">dá origem</text><text fill="#000000" font-family="sans-serif" font-size="13" lengthAdjust="spacingAndGlyphs" textLength="24" x="446.9237" y="584.8289">0..1</text><text fill="#000000" font-family="sans-serif" font-size="13" lengthAdjust="spacingAndGlyphs" textLength="8" x="601.17" y="614.7497">1</text><!--MD5=[3fb03004f687adcfc695220fdd65ad26]
link Anuncio to TipoRegimento--><path d="M439.14,504.89 C448.94,499.17 459.04,493.8 469,489.3 C650.81,407.25 890.94,395.39 1007.92,395 " fill="none" id="Anuncio-TipoRegimento" style="stroke: #A80036; stroke-width: 1.0;"/><text fill="#000000" font-family="sans-serif" font-size="13" lengthAdjust="spacingAndGlyphs" textLength="74" x="635" y="411.8684">rege-se por</text><polygon fill="#000000" points="712,405.4553,718,408.4553,712,411.4553,712,405.4553" style="stroke: #000000; stroke-width: 1.0;"/><text fill="#000000" font-family="sans-serif" font-size="13" lengthAdjust="spacingAndGlyphs" textLength="6" x="446.8811" y="513.0661">*</text><text fill="#000000" font-family="sans-serif" font-size="13" lengthAdjust="spacingAndGlyphs" textLength="8" x="992.1774" y="408.2284">1</text><!--MD5=[0a535575571876f6213287bf563a867d]
link Anuncio to Colaborador--><path d="M376.7,616.56 C390.31,666.84 417.55,736.63 469,774.3 C557.55,839.13 896.36,855.94 1026.59,860.05 " fill="none" id="Anuncio-Colaborador" style="stroke: #A80036; stroke-width: 1.0;"/><text fill="#000000" font-family="sans-serif" font-size="13" lengthAdjust="spacingAndGlyphs" textLength="87" x="628.5" y="818.8684">publicado por</text><polygon fill="#000000" points="718.5,812.4553,724.5,815.4553,718.5,818.4553,718.5,812.4553" style="stroke: #000000; stroke-width: 1.0;"/><text fill="#000000" font-family="sans-serif" font-size="13" lengthAdjust="spacingAndGlyphs" textLength="6" x="371.8156" y="636.462">*</text><text fill="#000000" font-family="sans-serif" font-size="13" lengthAdjust="spacingAndGlyphs" textLength="8" x="1011.0099" y="856.4755">1</text><!--MD5=[27b52c98fcb5387c047ce09b42fcb62d]
link Anuncio to Candidatura--><path d="M438.46,616.34 C448.45,623.16 458.79,629.68 469,635.3 C529.02,668.33 547.28,670.94 613,690.3 C683.15,710.97 701.26,716.7 774,724.3 C969.3,744.7 1200.5,710.87 1314.75,690.31 " fill="none" id="Anuncio-Candidatura" style="stroke: #A80036; stroke-width: 1.0;"/><text fill="#000000" font-family="sans-serif" font-size="13" lengthAdjust="spacingAndGlyphs" textLength="41" x="849" y="720.8684">recebe</text><polygon fill="#000000" points="893,714.4553,899,717.4553,893,720.4553,893,714.4553" style="stroke: #000000; stroke-width: 1.0;"/><text fill="#000000" font-family="sans-serif" font-size="13" lengthAdjust="spacingAndGlyphs" textLength="8" x="438.6647" y="636.6356">1</text><text fill="#000000" font-family="sans-serif" font-size="13" lengthAdjust="spacingAndGlyphs" textLength="6" x="1300.9898" y="705.1242">*</text><!--MD5=[02d330b3691aaed85c2b7230cc23c1df]
link Anuncio to ProcessoSeriacao--><path d="M439.07,542.05 C491.96,531.24 562.24,516.87 612.77,506.54 " fill="none" id="Anuncio-ProcessoSeriacao" style="stroke: #A80036; stroke-width: 1.0;"/><text fill="#000000" font-family="sans-serif" font-size="13" lengthAdjust="spacingAndGlyphs" textLength="53" x="493" y="510.8684">espoleta</text><polygon fill="#000000" points="549,504.4553,555,507.4553,549,510.4553,549,504.4553" style="stroke: #000000; stroke-width: 1.0;"/><text fill="#000000" font-family="sans-serif" font-size="13" lengthAdjust="spacingAndGlyphs" textLength="8" x="446.9027" y="553.884">1</text><text fill="#000000" font-family="sans-serif" font-size="13" lengthAdjust="spacingAndGlyphs" textLength="24" x="581.1185" y="521.1674">0..1</text><!--MD5=[a66e767a4304f5fa76db98d7839a7a61]
link Candidatura to Freelancer--><path d="M1459.28,676.3 C1508.27,676.3 1571.97,676.3 1614.77,676.3 " fill="none" id="Candidatura-Freelancer" style="stroke: #A80036; stroke-width: 1.0;"/><text fill="#000000" font-family="sans-serif" font-size="13" lengthAdjust="spacingAndGlyphs" textLength="81" x="1490" y="672.8684">realizada por</text><polygon fill="#000000" points="1574,666.4553,1580,669.4553,1574,672.4553,1574,666.4553" style="stroke: #000000; stroke-width: 1.0;"/><text fill="#000000" font-family="sans-serif" font-size="13" lengthAdjust="spacingAndGlyphs" textLength="6" x="1467.0433" y="689.6694">*</text><text fill="#000000" font-family="sans-serif" font-size="13" lengthAdjust="spacingAndGlyphs" textLength="8" x="1599.0987" y="690.0059">1</text><!--MD5=[577fefe1351fe0f89ea5388d9641a019]
link ProcessoSeriacao to TipoRegimento--><path d="M744.25,481.63 C831.62,465.88 976.59,439.72 978,439.3 C987.86,436.33 998.06,432.68 1008,428.76 " fill="none" id="ProcessoSeriacao-TipoRegimento" style="stroke: #A80036; stroke-width: 1.0;"/><text fill="#000000" font-family="sans-serif" font-size="13" lengthAdjust="spacingAndGlyphs" textLength="189" x="775" y="435.8684">decorre em concordância com</text><polygon fill="#000000" points="967,429.4553,973,432.4553,967,435.4553,967,429.4553" style="stroke: #000000; stroke-width: 1.0;"/><text fill="#000000" font-family="sans-serif" font-size="13" lengthAdjust="spacingAndGlyphs" textLength="6" x="752.1992" y="493.7368">*</text><text fill="#000000" font-family="sans-serif" font-size="13" lengthAdjust="spacingAndGlyphs" textLength="8" x="991.7969" y="445.7209">1</text><!--MD5=[d8cba5363504d1c2665cc78c5e9b9c32]
link ProcessoSeriacao to Colaborador--><path d="M726.15,519.97 C732.73,525.12 738.95,530.92 744,537.3 C767.05,566.42 748.05,588.73 774,615.3 C842.52,685.44 903.27,635.82 978,699.3 C1014.9,730.65 1042.32,779.17 1059.02,814.95 " fill="none" id="ProcessoSeriacao-Colaborador" style="stroke: #A80036; stroke-width: 1.0;"/><text fill="#000000" font-family="sans-serif" font-size="13" lengthAdjust="spacingAndGlyphs" textLength="82" x="828.5" y="611.8684">realizado por</text><polygon fill="#000000" points="913.5,605.4553,919.5,608.4553,913.5,611.4553,913.5,605.4553" style="stroke: #000000; stroke-width: 1.0;"/><text fill="#000000" font-family="sans-serif" font-size="13" lengthAdjust="spacingAndGlyphs" textLength="8" x="728.2441" y="540.4813">1</text><text fill="#000000" font-family="sans-serif" font-size="13" lengthAdjust="spacingAndGlyphs" textLength="22" x="1032.4698" y="804.6451">1..*</text><!--MD5=[52bd50d7906bad09d4dfcc260d1229dc]
link ProcessoSeriacao to Classificacao--><path d="M744.14,499.86 C825.65,508.48 957.68,523.78 978,534.3 C1013.67,552.78 1043.4,589.2 1060.94,614.39 " fill="none" id="ProcessoSeriacao-Classificacao" style="stroke: #A80036; stroke-width: 1.0;"/><text fill="#000000" font-family="sans-serif" font-size="13" lengthAdjust="spacingAndGlyphs" textLength="43" x="848" y="499.8684">resulta</text><polygon fill="#000000" points="894,493.4553,900,496.4553,894,499.4553,894,493.4553" style="stroke: #000000; stroke-width: 1.0;"/><text fill="#000000" font-family="sans-serif" font-size="13" lengthAdjust="spacingAndGlyphs" textLength="8" x="752.1921" y="514.0746">1</text><text fill="#000000" font-family="sans-serif" font-size="13" lengthAdjust="spacingAndGlyphs" textLength="6" x="1050.0699" y="604.0421">*</text><!--MD5=[471b8c6ff5fcf31b4b6fb9b4f947344d]
link Classificacao to Candidatura--><path d="M1131.56,647.2 C1181.89,652.96 1258.88,661.76 1314.99,668.18 " fill="none" id="Classificacao-Candidatura" style="stroke: #A80036; stroke-width: 1.0;"/><text fill="#000000" font-family="sans-serif" font-size="13" lengthAdjust="spacingAndGlyphs" textLength="67" x="1192.5" y="650.8684">referente a</text><polygon fill="#000000" points="1262.5,644.4553,1268.5,647.4553,1262.5,650.4553,1262.5,644.4553" style="stroke: #000000; stroke-width: 1.0;"/><text fill="#000000" font-family="sans-serif" font-size="13" lengthAdjust="spacingAndGlyphs" textLength="24" x="1139.4283" y="661.4231">0..1</text><text fill="#000000" font-family="sans-serif" font-size="13" lengthAdjust="spacingAndGlyphs" textLength="8" x="1299.1515" y="680.712">1</text><!--MD5=[83793280d21cff2204dcf19c1386ed48]
link Administrativo to Utilizador--><path d="M583.03,1118.94 C651.77,1123.09 771.91,1129.3 875,1129.3 C875,1129.3 875,1129.3 1664,1129.3 C1753.23,1129.3 1855.84,1111.27 1915.98,1098.83 " fill="none" id="Administrativo-Utilizador" style="stroke: #A80036; stroke-width: 1.0;"/><text fill="#000000" font-family="sans-serif" font-size="13" lengthAdjust="spacingAndGlyphs" textLength="66" x="1193" y="1125.8684">atua como</text><polygon fill="#000000" points="1262,1119.4553,1268,1122.4553,1262,1125.4553,1262,1119.4553" style="stroke: #000000; stroke-width: 1.0;"/><text fill="#000000" font-family="sans-serif" font-size="13" lengthAdjust="spacingAndGlyphs" textLength="24" x="591.0116" y="1132.8144">0..1</text><text fill="#000000" font-family="sans-serif" font-size="13" lengthAdjust="spacingAndGlyphs" textLength="8" x="1900.0319" y="1114.1058">1</text><!--MD5=[bcb5794e8184ce78d304f04a5beabbc0]
link Colaborador to Utilizador--><path d="M1092.66,907.31 C1106.69,948.73 1133.7,1007.39 1180,1036.3 C1302.97,1113.08 1760.78,1097.77 1915.8,1090.16 " fill="none" id="Colaborador-Utilizador" style="stroke: #A80036; stroke-width: 1.0;"/><text fill="#000000" font-family="sans-serif" font-size="13" lengthAdjust="spacingAndGlyphs" textLength="66" x="1497.5" y="1089.8684">atua como</text><polygon fill="#000000" points="1566.5,1083.4553,1572.5,1086.4553,1566.5,1089.4553,1566.5,1083.4553" style="stroke: #000000; stroke-width: 1.0;"/><text fill="#000000" font-family="sans-serif" font-size="13" lengthAdjust="spacingAndGlyphs" textLength="24" x="1068.9038" y="927.7736">0..1</text><text fill="#000000" font-family="sans-serif" font-size="13" lengthAdjust="spacingAndGlyphs" textLength="8" x="1899.8266" y="1104.2165">1</text><!--MD5=[6a7c57800a31452a20aa2f5037e36afb]
link Freelancer to Utilizador--><path d="M1675.39,722.35 C1687.3,764.77 1708.79,828.24 1741,876.3 C1788.71,947.51 1864.9,1011.89 1915.55,1050.31 " fill="none" id="Freelancer-Utilizador" style="stroke: #A80036; stroke-width: 1.0;"/><text fill="#000000" font-family="sans-serif" font-size="13" lengthAdjust="spacingAndGlyphs" textLength="66" x="1760.5" y="872.8684">atua como</text><polygon fill="#000000" points="1789,881.6105,1792,887.6105,1795,881.6105,1789,881.6105" style="stroke: #000000; stroke-width: 1.0;"/><text fill="#000000" font-family="sans-serif" font-size="13" lengthAdjust="spacingAndGlyphs" textLength="24" x="1651.4473" y="742.8195">0..1</text><text fill="#000000" font-family="sans-serif" font-size="13" lengthAdjust="spacingAndGlyphs" textLength="8" x="1899.8973" y="1058.9456">1</text><!--MD5=[b8422db8e85907663c841d4c41f19cc1]
link Freelancer to EnderecoPostal--><path d="M1711.09,720.21 C1769.53,774.7 1868.35,866.85 1924.72,919.41 " fill="none" id="Freelancer-EnderecoPostal" style="stroke: #A80036; stroke-width: 1.0;"/><text fill="#000000" font-family="sans-serif" font-size="13" lengthAdjust="spacingAndGlyphs" textLength="24" x="1781.5" y="747.8684">tem</text><polygon fill="#000000" points="1808.5,741.4553,1814.5,744.4553,1808.5,747.4553,1808.5,741.4553" style="stroke: #000000; stroke-width: 1.0;"/><text fill="#000000" font-family="sans-serif" font-size="13" lengthAdjust="spacingAndGlyphs" textLength="24" x="1719.1646" y="739.7195">0..1</text><text fill="#000000" font-family="sans-serif" font-size="13" lengthAdjust="spacingAndGlyphs" textLength="8" x="1908.8064" y="909.1663">1</text><!--MD5=[7a59ad2cb29ff6e914b8672ce881fef8]
link Freelancer to HabilitacaoAcademica--><path d="M1711.09,676.3 C1758.54,676.3 1832.61,676.3 1888.97,676.3 " fill="none" id="Freelancer-HabilitacaoAcademica" style="stroke: #A80036; stroke-width: 1.0;"/><text fill="#000000" font-family="sans-serif" font-size="13" lengthAdjust="spacingAndGlyphs" textLength="24" x="1781.5" y="672.8684">tem</text><polygon fill="#000000" points="1808.5,666.4553,1814.5,669.4553,1808.5,672.4553,1808.5,666.4553" style="stroke: #000000; stroke-width: 1.0;"/><text fill="#000000" font-family="sans-serif" font-size="13" lengthAdjust="spacingAndGlyphs" textLength="8" x="1719.0663" y="690.0543">1</text><text fill="#000000" font-family="sans-serif" font-size="13" lengthAdjust="spacingAndGlyphs" textLength="6" x="1875.1039" y="689.6066">*</text><!--MD5=[d8cdfe47acc319ba7387450f2c7628f2]
link Freelancer to ReconhecimentoCT--><path d="M1711.09,644.03 C1770.86,603.06 1872.88,533.15 1928.51,495.02 " fill="none" id="Freelancer-ReconhecimentoCT" style="stroke: #A80036; stroke-width: 1.0;"/><text fill="#000000" font-family="sans-serif" font-size="13" lengthAdjust="spacingAndGlyphs" textLength="57" x="1765" y="544.8684">recebe(u)</text><polygon fill="#000000" points="1825,538.4553,1831,541.4553,1825,544.4553,1825,538.4553" style="stroke: #000000; stroke-width: 1.0;"/><text fill="#000000" font-family="sans-serif" font-size="13" lengthAdjust="spacingAndGlyphs" textLength="8" x="1719.0663" y="652.843">1</text><text fill="#000000" font-family="sans-serif" font-size="13" lengthAdjust="spacingAndGlyphs" textLength="6" x="1913.1059" y="515.1129">*</text><!--MD5=[f49a2ed7e599b0b3feae4bc7e03654d4]
link ReconhecimentoCT to CompetenciaTecnica--><path d="M2017.6,441.58 C2064.57,415.36 2137.98,374.08 2201,337.3 C2240.87,314.03 2285.21,287.38 2320.43,266.03 " fill="none" id="ReconhecimentoCT-CompetenciaTecnica" style="stroke: #A80036; stroke-width: 1.0;"/><text fill="#000000" font-family="sans-serif" font-size="13" lengthAdjust="spacingAndGlyphs" textLength="57" x="2104.5" y="333.8684">relativa a</text><polygon fill="#000000" points="2164.5,327.4553,2170.5,330.4553,2164.5,333.4553,2164.5,327.4553" style="stroke: #000000; stroke-width: 1.0;"/><text fill="#000000" font-family="sans-serif" font-size="13" lengthAdjust="spacingAndGlyphs" textLength="6" x="2022.8369" y="430.8506">*</text><text fill="#000000" font-family="sans-serif" font-size="13" lengthAdjust="spacingAndGlyphs" textLength="8" x="2301.2626" y="286.1611">1</text><!--MD5=[4c83f560ef7c82f9519d7b4f6acd253e]
link ReconhecimentoCT to GrauProficiencia--><path d="M2047.22,462.96 C2244.71,449.4 2762.83,413.83 2941.71,401.54 " fill="none" id="ReconhecimentoCT-GrauProficiencia" style="stroke: #A80036; stroke-width: 1.0;"/><text fill="#000000" font-family="sans-serif" font-size="13" lengthAdjust="spacingAndGlyphs" textLength="50" x="2614.5" y="413.8684">reconhe</text><polygon fill="#000000" points="2667.5,407.4553,2673.5,410.4553,2667.5,413.4553,2667.5,407.4553" style="stroke: #000000; stroke-width: 1.0;"/><text fill="#000000" font-family="sans-serif" font-size="13" lengthAdjust="spacingAndGlyphs" textLength="6" x="2055.0089" y="475.7512">*</text><text fill="#000000" font-family="sans-serif" font-size="13" lengthAdjust="spacingAndGlyphs" textLength="8" x="2925.9874" y="415.4889">1</text><!--MD5=[4aa6a936df4ad7b844bdcf1457a2ad73]
link AlgoritmoGeradorPasswords to Utilizador--><path d="M974.05,1200.3 C1045.29,1200.3 1144.41,1200.3 1231.5,1200.3 C1231.5,1200.3 1231.5,1200.3 1664,1200.3 C1752.94,1200.3 1776.85,1189.39 1859,1155.3 C1878.51,1147.21 1898.48,1135.76 1915.88,1124.55 " fill="none" id="AlgoritmoGeradorPasswords-Utilizador" style="stroke: #A80036; stroke-width: 1.0;"/><text fill="#000000" font-family="sans-serif" font-size="13" lengthAdjust="spacingAndGlyphs" textLength="91" x="1335" y="1196.8684">gera password</text><polygon fill="#000000" points="1429,1190.4553,1435,1193.4553,1429,1196.4553,1429,1190.4553" style="stroke: #000000; stroke-width: 1.0;"/><text fill="#000000" font-family="sans-serif" font-size="13" lengthAdjust="spacingAndGlyphs" textLength="8" x="981.8632" y="1213.4545">1</text><text fill="#000000" font-family="sans-serif" font-size="13" lengthAdjust="spacingAndGlyphs" textLength="6" x="1902.0584" y="1143.4426">*</text><!--MD5=[c7c978f0e07f087ec6552a1ed6302eb6]
@startuml
skinparam classAttributeIconSize 0
hide methods
left to right direction

class Plataforma {
  -String designacao
}

class AreaAtividade {
  -String codigo
  -String descBreve
  -String descDetalhada

}

class CompetenciaTecnica {
  -String codigo
  -String descBreve
  -String descDetalhada
}

class GrauProficiencia {
  -Integer valor
  -String designacao
}

class Categoria {
  -String id
  -String descricao
}

class CaraterCT {
  -Boolean obrigatoria
}

class Organizacao {
  -String nome
  -String NIF
  -String website
  -String telefone
  -String email
}

class Colaborador {
  -String nome
  -String funcao
  -String telefone
  -String email
}

class EnderecoPostal {
  -String local
  -String codPostal
  -String localidade
}

class Tarefa {
  -String referencia
  -String designacao
  -String descInformal
  -String descTecnica
  -Integer duracaoEst
  -Double custoEst
}

class TipoRegimento
{
    -String designacao
    -String descricaoRegras
}

class Administrativo {

}

class Freelancer {
    -String nome
    -String NIF
    -String telefone
    -String email
}

class ReconhecimentoCT {
    -Date dataReconhecimento
}

class HabilitacaoAcademica {
    -String grau
    -String designacaoCurso
    -String nomeInstituicao
    -Double mediaCurso
}

note right
Por simplificação, não se considerou
Instituição, Curso e Grau como conceitos.
Contudo, tal poderá ser feito mais tarde
se se vier a revelar importante para o negócio.
end note



class Anuncio
{
    -Date dtInicioPublicitacao
    -Date dtFimPublicitacao
    -Date dtInicioCandidatura
    -Date dtFimCandidatura
    -Date dtInicioSeriacao
    -Date dtFimSeriacao
}

class Candidatura
{
    -Date dataCandidatura
    -Double valorPretendido
    -Integer nrDias
    -String txtApresentacao
    -String txtMotivacao
}

class Classificacao
{
    -Integer lugar
}

class ProcessoSeriacao
{
    -Date dataRealizacao
}

class Utilizador {
  -String nome
  -String email
  -String password
}

class AlgoritmoGeradorPasswords {
}

Plataforma "1" - - "*" AreaAtividade : possui >
Plataforma "1" - - "*" CompetenciaTecnica : possui >
Plataforma "1" - - "*" Categoria : possui >
Plataforma "1" - - "*" Organizacao : tem registadas >
Plataforma "1" - - "*" TipoRegimento : suporta >
Plataforma "1" - - "*" Anuncio : publicita >
Plataforma "1" - - "*" Freelancer : tem/usa  >
Plataforma "1" - - "*" Administrativo : tem  >
Plataforma "1" - - "1" AlgoritmoGeradorPasswords : recorre a >

Organizacao "1" - - "1..*" Colaborador: tem >
Organizacao "1" - - "1" Colaborador: tem gestor >
Organizacao "0..1" - - "1" EnderecoPostal: localizada em >
Organizacao "1" - - "*" Tarefa: possui >

CompetenciaTecnica "*" - - "1" AreaAtividade : referente a >
CompetenciaTecnica "1" - - - "*" GrauProficiencia : aplica  >

Categoria "*" - - "1" AreaAtividade: enquadra-se em >
Categoria "*" - - "*" CompetenciaTecnica: requer >
(Categoria, CompetenciaTecnica) .. CaraterCT
CaraterCT "*" - - "1" GrauProficiencia: exige (como mínimo)  >

Tarefa "*" - - "1" Categoria: enquadra-se em >
Tarefa "*" - - "1" Colaborador: especificada por >


Anuncio "0..1" - - "1" Tarefa: publicita >
Anuncio "0..1" - - "1" Tarefa: dá origem <
Anuncio "*" - - "1" TipoRegimento: rege-se por >
Anuncio "*" - - "1" Colaborador: publicado por >
Anuncio "1" - - "*" Candidatura: recebe >
Anuncio "1" - - "0..1" ProcessoSeriacao: espoleta >

Candidatura "*" - - "1"  Freelancer: realizada por >

ProcessoSeriacao "*" - - "1" TipoRegimento: decorre em concordância com >
ProcessoSeriacao "1" - - "1..*" Colaborador: realizado por >
ProcessoSeriacao "1" - - "*" Classificacao: resulta >

Classificacao "0..1" - - "1" Candidatura: referente a >

Administrativo "0..1" - - "1" Utilizador: atua como >

Colaborador "0..1" - - "1" Utilizador: atua como >

Freelancer "0..1" - - "1" Utilizador: atua como >
Freelancer "0..1" - - "1" EnderecoPostal: tem >
Freelancer "1" - - "*" HabilitacaoAcademica: tem >
Freelancer "1" - - "*" ReconhecimentoCT : recebe(u) >


ReconhecimentoCT "*" - - "1" CompetenciaTecnica: relativa a >
ReconhecimentoCT "*" - - "1" GrauProficiencia: reconhe >



AlgoritmoGeradorPasswords "1" - - "*" Utilizador : gera password >

@enduml

PlantUML version 1.2020.03beta6(Unknown compile time)
(GPL source distribution)
Java Runtime: OpenJDK Runtime Environment
JVM: OpenJDK 64-Bit Server VM
Java Version: 11.0.5+10-b520.38
Operating System: Mac OS X
Default Encoding: UTF-8
Language: en
Country: PT
--></g></svg>