@startuml
autonumber

title SD_Criação_TimerTask_Timer

participant "Plataforma" as PLAT
participant "task:SeriarAnuncioCandidaturaTask" as TASK
participant "timer:Timer" as TIMER

[o-> PLAT : agendarSeriacao()
activate PLAT

PLAT -> PLAT : info =  getInfoAboutTask()
PLAT --> TASK ** : create(info)

PLAT -> PLAT : delay = getDelay()
PLAT -> PLAT : intervalo = getIntervalo();

PLAT --> TIMER ** : create()

PLAT -> TIMER : schedule(task, delay, intervalo)
activate TIMER
deactivate TIMER

TIMER -> TASK : run()
activate TASK

TASK -> TASK : seriarCandidaturasSubmetidas()

ref over TASK : SD_SeriarCandidaturasSubmetidas




@enduml
