@startuml
autonumber


actor "Timer" as TIME

participant ":Sistema" as SIST

TIME -> SIST : espoleta os processos de seriação e atribuição de anúncio
activate TIME
activate SIST
deactivate TIME
deactivate SIST

@enduml
