<?xml version="1.0" encoding="UTF-8" standalone="no"?><svg xmlns="http://www.w3.org/2000/svg" xmlns:xlink="http://www.w3.org/1999/xlink" contentScriptType="application/ecmascript" contentStyleType="text/css" height="1935px" preserveAspectRatio="none" style="width:1113px;height:1935px;" version="1.1" viewBox="0 0 1113 1935" width="1113px" zoomAndPan="magnify">
    <defs>
        <filter height="300%" id="f1cv3vdpxy1z4h" width="300%" x="-1" y="-1">
            <feGaussianBlur result="blurOut" stdDeviation="2.0" />
            <feColorMatrix in="blurOut" result="blurOut2" type="matrix" values="0 0 0 0 0 0 0 0 0 0 0 0 0 0 0 0 0 0 .4 0" />
            <feOffset dx="4.0" dy="4.0" in="blurOut2" result="blurOut3" />
            <feBlend in="SourceGraphic" in2="blurOut3" mode="normal" />
        </filter>
    </defs>
    <g>
        <!--MD5=[1b844c90688aafb95cd8c95626c3b83a]
class Timer-->
        <rect fill="#FEFECE" filter="url(#f1cv3vdpxy1z4h)" height="73.9102" id="Timer" style="stroke: #A80036; stroke-width: 1.5;" width="186" x="221" y="8" />
        <ellipse cx="292.75" cy="24" fill="#ADD1B2" rx="11" ry="11" style="stroke: #A80036; stroke-width: 1.0;" />
        <path d="M295.2231,30.1431 Q294.6421,30.4419 294.0029,30.5913 Q293.3638,30.7407 292.6582,30.7407 Q290.1514,30.7407 288.8315,29.0889 Q287.5117,27.437 287.5117,24.3159 Q287.5117,21.1865 288.8315,19.5347 Q290.1514,17.8828 292.6582,17.8828 Q293.3638,17.8828 294.0112,18.0322 Q294.6587,18.1816 295.2231,18.4805 L295.2231,21.2031 Q294.5923,20.6221 293.9988,20.3523 Q293.4053,20.0825 292.7744,20.0825 Q291.4297,20.0825 290.7449,21.1492 Q290.0601,22.2158 290.0601,24.3159 Q290.0601,26.4077 290.7449,27.4744 Q291.4297,28.541 292.7744,28.541 Q293.4053,28.541 293.9988,28.2712 Q294.5923,28.0015 295.2231,27.4204 Z " /><text fill="#000000" font-family="sans-serif" font-size="12" lengthAdjust="spacingAndGlyphs" textLength="34" x="313.25" y="28.5352">Timer</text>
        <line style="stroke: #A80036; stroke-width: 1.5;" x1="222" x2="406" y1="40" y2="40" />
        <line style="stroke: #A80036; stroke-width: 1.5;" x1="222" x2="406" y1="48" y2="48" /><text fill="#000000" font-family="sans-serif" font-size="11" lengthAdjust="spacingAndGlyphs" textLength="48" x="227" y="62.6348">+Timer()</text><text fill="#000000" font-family="sans-serif" font-size="11" lengthAdjust="spacingAndGlyphs" textLength="174" x="227" y="75.5898">+schedule(task, delay, intervalo)</text>
        <!--MD5=[74054751ba3b9eca75fda5044dcc84d9]
class TimerTask-->
        <rect fill="#FEFECE" filter="url(#f1cv3vdpxy1z4h)" height="60.9551" id="TimerTask" style="stroke: #A80036; stroke-width: 1.5;" width="94" x="442" y="14.5" />
        <ellipse cx="457" cy="30.5" fill="#A9DCDF" rx="11" ry="11" style="stroke: #A80036; stroke-width: 1.0;" />
        <path d="M457.1133,26.0981 L455.9595,31.1699 L458.2754,31.1699 Z M455.6191,23.8569 L458.6157,23.8569 L461.9609,36.25 L459.5122,36.25 L458.7485,33.187 L455.4697,33.187 L454.7227,36.25 L452.2739,36.25 Z " /><text fill="#000000" font-family="sans-serif" font-size="12" font-style="italic" lengthAdjust="spacingAndGlyphs" textLength="62" x="471" y="35.0352">TimerTask</text>
        <line style="stroke: #A80036; stroke-width: 1.5;" x1="443" x2="535" y1="46.5" y2="46.5" />
        <line style="stroke: #A80036; stroke-width: 1.5;" x1="443" x2="535" y1="54.5" y2="54.5" /><text fill="#000000" font-family="sans-serif" font-size="11" lengthAdjust="spacingAndGlyphs" textLength="36" x="448" y="69.1348">+run()</text>
        <!--MD5=[82e930ea31036689c9654dd461e530d2]
class SeriarAnuncioCandidaturaTask-->
        <rect fill="#FEFECE" filter="url(#f1cv3vdpxy1z4h)" height="164.5957" id="SeriarAnuncioCandidaturaTask" style="stroke: #A80036; stroke-width: 1.5;" width="235" x="283.5" y="143" />
        <ellipse cx="310.2" cy="159" fill="#ADD1B2" rx="11" ry="11" style="stroke: #A80036; stroke-width: 1.0;" />
        <path d="M312.6731,165.1431 Q312.0921,165.4419 311.4529,165.5913 Q310.8138,165.7407 310.1082,165.7407 Q307.6014,165.7407 306.2815,164.0889 Q304.9617,162.437 304.9617,159.3159 Q304.9617,156.1865 306.2815,154.5347 Q307.6014,152.8828 310.1082,152.8828 Q310.8138,152.8828 311.4612,153.0322 Q312.1087,153.1816 312.6731,153.4805 L312.6731,156.2031 Q312.0423,155.6221 311.4488,155.3523 Q310.8553,155.0825 310.2244,155.0825 Q308.8797,155.0825 308.1949,156.1492 Q307.5101,157.2158 307.5101,159.3159 Q307.5101,161.4077 308.1949,162.4744 Q308.8797,163.541 310.2244,163.541 Q310.8553,163.541 311.4488,163.2712 Q312.0423,163.0015 312.6731,162.4204 Z " /><text fill="#000000" font-family="sans-serif" font-size="12" lengthAdjust="spacingAndGlyphs" textLength="177" x="326.8" y="163.5352">SeriarAnuncioCandidaturaTask</text>
        <line style="stroke: #A80036; stroke-width: 1.5;" x1="284.5" x2="517.5" y1="175" y2="175" />
        <line style="stroke: #A80036; stroke-width: 1.5;" x1="284.5" x2="517.5" y1="183" y2="183" /><text fill="#000000" font-family="sans-serif" font-size="11" lengthAdjust="spacingAndGlyphs" textLength="205" x="289.5" y="197.6348">+SeriarAnuncioCandidaturaTask(info)</text><text fill="#000000" font-family="sans-serif" font-size="11" lengthAdjust="spacingAndGlyphs" textLength="36" x="289.5" y="210.5898">+run()</text><text fill="#000000" font-family="sans-serif" font-size="11" lengthAdjust="spacingAndGlyphs" textLength="179" x="289.5" y="223.5449">-seriarCandidaturasSubmetidas()</text><text fill="#000000" font-family="sans-serif" font-size="11" lengthAdjust="spacingAndGlyphs" textLength="223" x="289.5" y="236.5">+getAnunciosPorSeriarNaoAutomaticos()</text><text fill="#000000" font-family="sans-serif" font-size="11" lengthAdjust="spacingAndGlyphs" textLength="159" x="289.5" y="249.4551">+getCandidaturas(anuncioId)</text><text fill="#000000" font-family="sans-serif" font-size="11" lengthAdjust="spacingAndGlyphs" textLength="143" x="289.5" y="262.4102">+classifica(candId, ordem)</text><text fill="#000000" font-family="sans-serif" font-size="11" lengthAdjust="spacingAndGlyphs" textLength="114" x="289.5" y="275.3652">+getColaboradores()</text><text fill="#000000" font-family="sans-serif" font-size="11" lengthAdjust="spacingAndGlyphs" textLength="149" x="289.5" y="288.3203">+addParticipante(emailPart)</text><text fill="#000000" font-family="sans-serif" font-size="11" lengthAdjust="spacingAndGlyphs" textLength="148" x="289.5" y="301.2754">+registaProcessoSeriacao()</text>
        <!--MD5=[ecaed46f78f8cfe1e9ce18477649be18]
class Plataforma-->
        <rect fill="#FEFECE" filter="url(#f1cv3vdpxy1z4h)" height="112.7754" id="Plataforma" style="stroke: #A80036; stroke-width: 1.5;" width="137" x="332.5" y="369" />
        <ellipse cx="366.85" cy="385" fill="#ADD1B2" rx="11" ry="11" style="stroke: #A80036; stroke-width: 1.0;" />
        <path d="M369.3231,391.1431 Q368.7421,391.4419 368.1029,391.5913 Q367.4638,391.7407 366.7582,391.7407 Q364.2514,391.7407 362.9315,390.0889 Q361.6117,388.437 361.6117,385.3159 Q361.6117,382.1865 362.9315,380.5347 Q364.2514,378.8828 366.7582,378.8828 Q367.4638,378.8828 368.1112,379.0322 Q368.7587,379.1816 369.3231,379.4805 L369.3231,382.2031 Q368.6923,381.6221 368.0988,381.3523 Q367.5053,381.0825 366.8744,381.0825 Q365.5297,381.0825 364.8449,382.1492 Q364.1601,383.2158 364.1601,385.3159 Q364.1601,387.4077 364.8449,388.4744 Q365.5297,389.541 366.8744,389.541 Q367.5053,389.541 368.0988,389.2712 Q368.6923,389.0015 369.3231,388.4204 Z " /><text fill="#000000" font-family="sans-serif" font-size="12" lengthAdjust="spacingAndGlyphs" textLength="62" x="385.15" y="389.5352">Plataforma</text>
        <line style="stroke: #A80036; stroke-width: 1.5;" x1="333.5" x2="468.5" y1="401" y2="401" /><text fill="#000000" font-family="sans-serif" font-size="11" lengthAdjust="spacingAndGlyphs" textLength="102" x="338.5" y="415.6348">-String designacao</text>
        <line style="stroke: #A80036; stroke-width: 1.5;" x1="333.5" x2="468.5" y1="421.9551" y2="421.9551" /><text fill="#000000" font-family="sans-serif" font-size="11" lengthAdjust="spacingAndGlyphs" textLength="125" x="338.5" y="436.5898">+getRegistoAnuncios()</text><text fill="#000000" font-family="sans-serif" font-size="11" lengthAdjust="spacingAndGlyphs" textLength="113" x="338.5" y="449.5449">+getInfoAboutTask()</text><text fill="#000000" font-family="sans-serif" font-size="11" lengthAdjust="spacingAndGlyphs" textLength="63" x="338.5" y="462.5">+getDelay()</text><text fill="#000000" font-family="sans-serif" font-size="11" lengthAdjust="spacingAndGlyphs" textLength="81" x="338.5" y="475.4551">+getIntervalo()</text>
        <!--MD5=[548bd8e9f0dc9261535ca7b7174ac939]
class RegistoOrganizacoes-->
        <rect fill="#FEFECE" filter="url(#f1cv3vdpxy1z4h)" height="60.9551" id="RegistoOrganizacoes" style="stroke: #A80036; stroke-width: 1.5;" width="191" x="272.5" y="598" />
        <ellipse cx="305.05" cy="614" fill="#ADD1B2" rx="11" ry="11" style="stroke: #A80036; stroke-width: 1.0;" />
        <path d="M307.5231,620.1431 Q306.9421,620.4419 306.3029,620.5913 Q305.6638,620.7407 304.9582,620.7407 Q302.4514,620.7407 301.1315,619.0889 Q299.8117,617.437 299.8117,614.3159 Q299.8117,611.1865 301.1315,609.5347 Q302.4514,607.8828 304.9582,607.8828 Q305.6638,607.8828 306.3112,608.0322 Q306.9587,608.1816 307.5231,608.4805 L307.5231,611.2031 Q306.8923,610.6221 306.2988,610.3523 Q305.7053,610.0825 305.0744,610.0825 Q303.7297,610.0825 303.0449,611.1492 Q302.3601,612.2158 302.3601,614.3159 Q302.3601,616.4077 303.0449,617.4744 Q303.7297,618.541 305.0744,618.541 Q305.7053,618.541 306.2988,618.2712 Q306.8923,618.0015 307.5231,617.4204 Z " /><text fill="#000000" font-family="sans-serif" font-size="12" lengthAdjust="spacingAndGlyphs" textLength="120" x="322.95" y="618.5352">RegistoOrganizacoes</text>
        <line style="stroke: #A80036; stroke-width: 1.5;" x1="273.5" x2="462.5" y1="630" y2="630" />
        <line style="stroke: #A80036; stroke-width: 1.5;" x1="273.5" x2="462.5" y1="638" y2="638" /><text fill="#000000" font-family="sans-serif" font-size="11" lengthAdjust="spacingAndGlyphs" textLength="179" x="278.5" y="652.6348">+getOrganizacaoByTarefa(tarefa)</text>
        <!--MD5=[a7dddfa65532da486ef518ad0cedfd89]
class RegistoAnuncios-->
        <rect fill="#FEFECE" filter="url(#f1cv3vdpxy1z4h)" height="60.9551" id="RegistoAnuncios" style="stroke: #A80036; stroke-width: 1.5;" width="125" x="498.5" y="598" />
        <ellipse cx="513.5" cy="614" fill="#ADD1B2" rx="11" ry="11" style="stroke: #A80036; stroke-width: 1.0;" />
        <path d="M515.9731,620.1431 Q515.3921,620.4419 514.7529,620.5913 Q514.1138,620.7407 513.4082,620.7407 Q510.9014,620.7407 509.5815,619.0889 Q508.2617,617.437 508.2617,614.3159 Q508.2617,611.1865 509.5815,609.5347 Q510.9014,607.8828 513.4082,607.8828 Q514.1138,607.8828 514.7612,608.0322 Q515.4087,608.1816 515.9731,608.4805 L515.9731,611.2031 Q515.3423,610.6221 514.7488,610.3523 Q514.1553,610.0825 513.5244,610.0825 Q512.1797,610.0825 511.4949,611.1492 Q510.8101,612.2158 510.8101,614.3159 Q510.8101,616.4077 511.4949,617.4744 Q512.1797,618.541 513.5244,618.541 Q514.1553,618.541 514.7488,618.2712 Q515.3423,618.0015 515.9731,617.4204 Z " /><text fill="#000000" font-family="sans-serif" font-size="12" lengthAdjust="spacingAndGlyphs" textLength="93" x="527.5" y="618.5352">RegistoAnuncios</text>
        <line style="stroke: #A80036; stroke-width: 1.5;" x1="499.5" x2="622.5" y1="630" y2="630" />
        <line style="stroke: #A80036; stroke-width: 1.5;" x1="499.5" x2="622.5" y1="638" y2="638" /><text fill="#000000" font-family="sans-serif" font-size="11" lengthAdjust="spacingAndGlyphs" textLength="110" x="504.5" y="652.6348">+getListaAnuncios()</text>
        <!--MD5=[d0e9f237fb3c72e1245c36c562ad52c4]
class TipoRegimento-->
        <rect fill="#FEFECE" filter="url(#f1cv3vdpxy1z4h)" height="86.8652" id="TipoRegimento" style="stroke: #A80036; stroke-width: 1.5;" width="144" x="489" y="1438.5" />
        <ellipse cx="515.25" cy="1454.5" fill="#B4A7E5" rx="11" ry="11" style="stroke: #A80036; stroke-width: 1.0;" />
        <path d="M511.6777,1450.7651 L511.6777,1448.6069 L519.0571,1448.6069 L519.0571,1450.7651 L516.5918,1450.7651 L516.5918,1458.8418 L519.0571,1458.8418 L519.0571,1461 L511.6777,1461 L511.6777,1458.8418 L514.1431,1458.8418 L514.1431,1450.7651 Z " /><text fill="#000000" font-family="sans-serif" font-size="12" font-style="italic" lengthAdjust="spacingAndGlyphs" textLength="87" x="531.75" y="1459.0352">TipoRegimento</text>
        <line style="stroke: #A80036; stroke-width: 1.5;" x1="490" x2="632" y1="1470.5" y2="1470.5" /><text fill="#000000" font-family="sans-serif" font-size="11" lengthAdjust="spacingAndGlyphs" textLength="102" x="495" y="1485.1348">-String designacao</text><text fill="#000000" font-family="sans-serif" font-size="11" lengthAdjust="spacingAndGlyphs" textLength="130" x="495" y="1498.0898">-String descricaoRegras</text>
        <line style="stroke: #A80036; stroke-width: 1.5;" x1="490" x2="632" y1="1504.4102" y2="1504.4102" /><text fill="#000000" font-family="sans-serif" font-size="11" lengthAdjust="spacingAndGlyphs" textLength="132" x="495" y="1519.0449">+areCriteriosObjetivos()</text>
        <!--MD5=[1f687b5315377fe49fca59b457947463]
class Freelancer-->
        <rect fill="#FEFECE" filter="url(#f1cv3vdpxy1z4h)" height="99.8203" id="Freelancer" style="stroke: #A80036; stroke-width: 1.5;" width="96" x="98" y="1825" />
        <ellipse cx="114.8" cy="1841" fill="#ADD1B2" rx="11" ry="11" style="stroke: #A80036; stroke-width: 1.0;" />
        <path d="M117.2731,1847.1431 Q116.6921,1847.4419 116.0529,1847.5913 Q115.4138,1847.7407 114.7082,1847.7407 Q112.2014,1847.7407 110.8815,1846.0889 Q109.5617,1844.437 109.5617,1841.3159 Q109.5617,1838.1865 110.8815,1836.5347 Q112.2014,1834.8828 114.7082,1834.8828 Q115.4138,1834.8828 116.0612,1835.0322 Q116.7087,1835.1816 117.2731,1835.4805 L117.2731,1838.2031 Q116.6423,1837.6221 116.0488,1837.3523 Q115.4553,1837.0825 114.8244,1837.0825 Q113.4797,1837.0825 112.7949,1838.1492 Q112.1101,1839.2158 112.1101,1841.3159 Q112.1101,1843.4077 112.7949,1844.4744 Q113.4797,1845.541 114.8244,1845.541 Q115.4553,1845.541 116.0488,1845.2712 Q116.6423,1845.0015 117.2731,1844.4204 Z " /><text fill="#000000" font-family="sans-serif" font-size="12" lengthAdjust="spacingAndGlyphs" textLength="60" x="129.2" y="1845.5352">Freelancer</text>
        <line style="stroke: #A80036; stroke-width: 1.5;" x1="99" x2="193" y1="1857" y2="1857" /><text fill="#000000" font-family="sans-serif" font-size="11" lengthAdjust="spacingAndGlyphs" textLength="71" x="104" y="1871.6348">-String nome</text><text fill="#000000" font-family="sans-serif" font-size="11" lengthAdjust="spacingAndGlyphs" textLength="58" x="104" y="1884.5898">-String NIF</text><text fill="#000000" font-family="sans-serif" font-size="11" lengthAdjust="spacingAndGlyphs" textLength="84" x="104" y="1897.5449">-String telefone</text><text fill="#000000" font-family="sans-serif" font-size="11" lengthAdjust="spacingAndGlyphs" textLength="69" x="104" y="1910.5">-String email</text>
        <line style="stroke: #A80036; stroke-width: 1.5;" x1="99" x2="193" y1="1916.8203" y2="1916.8203" />
        <!--MD5=[19db0db7353a4bf63eefc676e5ba9b80]
class Anuncio-->
        <rect fill="#FEFECE" filter="url(#f1cv3vdpxy1z4h)" height="281.1914" id="Anuncio" style="stroke: #A80036; stroke-width: 1.5;" width="184" x="469" y="775" />
        <ellipse cx="534.25" cy="791" fill="#ADD1B2" rx="11" ry="11" style="stroke: #A80036; stroke-width: 1.0;" />
        <path d="M536.7231,797.1431 Q536.1421,797.4419 535.5029,797.5913 Q534.8638,797.7407 534.1582,797.7407 Q531.6514,797.7407 530.3315,796.0889 Q529.0117,794.437 529.0117,791.3159 Q529.0117,788.1865 530.3315,786.5347 Q531.6514,784.8828 534.1582,784.8828 Q534.8638,784.8828 535.5112,785.0322 Q536.1587,785.1816 536.7231,785.4805 L536.7231,788.2031 Q536.0923,787.6221 535.4988,787.3523 Q534.9053,787.0825 534.2744,787.0825 Q532.9297,787.0825 532.2449,788.1492 Q531.5601,789.2158 531.5601,791.3159 Q531.5601,793.4077 532.2449,794.4744 Q532.9297,795.541 534.2744,795.541 Q534.9053,795.541 535.4988,795.2712 Q536.0923,795.0015 536.7231,794.4204 Z " /><text fill="#000000" font-family="sans-serif" font-size="12" lengthAdjust="spacingAndGlyphs" textLength="45" x="554.75" y="795.5352">Anuncio</text>
        <line style="stroke: #A80036; stroke-width: 1.5;" x1="470" x2="652" y1="807" y2="807" /><text fill="#000000" font-family="sans-serif" font-size="11" lengthAdjust="spacingAndGlyphs" textLength="137" x="475" y="821.6348">-Date dtInicioPublicitacao</text><text fill="#000000" font-family="sans-serif" font-size="11" lengthAdjust="spacingAndGlyphs" textLength="127" x="475" y="834.5898">-Date dtFimPublicitacao</text><text fill="#000000" font-family="sans-serif" font-size="11" lengthAdjust="spacingAndGlyphs" textLength="139" x="475" y="847.5449">-Date dtInicioCandidatura</text><text fill="#000000" font-family="sans-serif" font-size="11" lengthAdjust="spacingAndGlyphs" textLength="129" x="475" y="860.5">-Date dtFimCandidatura</text><text fill="#000000" font-family="sans-serif" font-size="11" lengthAdjust="spacingAndGlyphs" textLength="118" x="475" y="873.4551">-Date dtInicioSeriacao</text><text fill="#000000" font-family="sans-serif" font-size="11" lengthAdjust="spacingAndGlyphs" textLength="108" x="475" y="886.4102">-Date dtFimSeriacao</text>
        <line style="stroke: #A80036; stroke-width: 1.5;" x1="470" x2="652" y1="892.7305" y2="892.7305" /><text fill="#000000" font-family="sans-serif" font-size="11" lengthAdjust="spacingAndGlyphs" textLength="131" x="475" y="907.3652">+getListaCandidaturas()</text><text fill="#000000" font-family="sans-serif" font-size="11" lengthAdjust="spacingAndGlyphs" textLength="167" x="475" y="920.3203">+novoProcessoSeriacao(colab)</text><text fill="#000000" font-family="sans-serif" font-size="11" lengthAdjust="spacingAndGlyphs" textLength="161" x="475" y="933.2754">+registaProcessoSeriacao(ps)</text><text fill="#000000" font-family="sans-serif" font-size="11" lengthAdjust="spacingAndGlyphs" textLength="152" x="475" y="946.2305">-validaProcessoSeriacao(ps)</text><text fill="#000000" font-family="sans-serif" font-size="11" lengthAdjust="spacingAndGlyphs" textLength="137" x="475" y="959.1855">-setProcessoSeriacao(ps)</text><text fill="#000000" font-family="sans-serif" font-size="11" lengthAdjust="spacingAndGlyphs" textLength="162" x="475" y="972.1406">+novoProcessoAtribuicao(pa)</text><text fill="#000000" font-family="sans-serif" font-size="11" lengthAdjust="spacingAndGlyphs" textLength="172" x="475" y="985.0957">+registaProcessoAtribuicao(pa)</text><text fill="#000000" font-family="sans-serif" font-size="11" lengthAdjust="spacingAndGlyphs" textLength="148" x="475" y="998.0508">-setProcessoAtribuicao(pa)</text><text fill="#000000" font-family="sans-serif" font-size="11" lengthAdjust="spacingAndGlyphs" textLength="115" x="475" y="1011.0059">+getTipoRegimento()</text><text fill="#000000" font-family="sans-serif" font-size="11" lengthAdjust="spacingAndGlyphs" textLength="131" x="475" y="1023.9609">+temProcessoSeriacao()</text><text fill="#000000" font-family="sans-serif" font-size="11" lengthAdjust="spacingAndGlyphs" textLength="125" x="475" y="1036.916">+estaPeriodoSeriacao()</text><text fill="#000000" font-family="sans-serif" font-size="11" lengthAdjust="spacingAndGlyphs" textLength="68" x="475" y="1049.8711">+getTarefa()</text>
        <!--MD5=[ced2a86ae8bdfec1c757b7c305a75b1d]
class ListaCandidaturas-->
        <rect fill="#FEFECE" filter="url(#f1cv3vdpxy1z4h)" height="73.9102" id="ListaCandidaturas" style="stroke: #A80036; stroke-width: 1.5;" width="216" x="6" y="1302" />
        <ellipse cx="58.25" cy="1318" fill="#ADD1B2" rx="11" ry="11" style="stroke: #A80036; stroke-width: 1.0;" />
        <path d="M60.7231,1324.1431 Q60.1421,1324.4419 59.5029,1324.5913 Q58.8638,1324.7407 58.1582,1324.7407 Q55.6514,1324.7407 54.3315,1323.0889 Q53.0117,1321.437 53.0117,1318.3159 Q53.0117,1315.1865 54.3315,1313.5347 Q55.6514,1311.8828 58.1582,1311.8828 Q58.8638,1311.8828 59.5112,1312.0322 Q60.1587,1312.1816 60.7231,1312.4805 L60.7231,1315.2031 Q60.0923,1314.6221 59.4988,1314.3523 Q58.9053,1314.0825 58.2744,1314.0825 Q56.9297,1314.0825 56.2449,1315.1492 Q55.5601,1316.2158 55.5601,1318.3159 Q55.5601,1320.4077 56.2449,1321.4744 Q56.9297,1322.541 58.2744,1322.541 Q58.9053,1322.541 59.4988,1322.2712 Q60.0923,1322.0015 60.7231,1321.4204 Z " /><text fill="#000000" font-family="sans-serif" font-size="12" lengthAdjust="spacingAndGlyphs" textLength="103" x="78.75" y="1322.5352">ListaCandidaturas</text>
        <line style="stroke: #A80036; stroke-width: 1.5;" x1="7" x2="221" y1="1334" y2="1334" />
        <line style="stroke: #A80036; stroke-width: 1.5;" x1="7" x2="221" y1="1342" y2="1342" /><text fill="#000000" font-family="sans-serif" font-size="11" lengthAdjust="spacingAndGlyphs" textLength="106" x="12" y="1356.6348">+getCandidaturas()</text><text fill="#000000" font-family="sans-serif" font-size="11" lengthAdjust="spacingAndGlyphs" textLength="204" x="12" y="1369.5898">+temCandidaturasEfetuadas(anuncio)</text>
        <!--MD5=[475c5b924ed41035684e2831311827d2]
class Candidatura-->
        <rect fill="#FEFECE" filter="url(#f1cv3vdpxy1z4h)" height="112.7754" id="Candidatura" style="stroke: #A80036; stroke-width: 1.5;" width="144" x="74" y="1635" />
        <ellipse cx="107.45" cy="1651" fill="#ADD1B2" rx="11" ry="11" style="stroke: #A80036; stroke-width: 1.0;" />
        <path d="M109.9231,1657.1431 Q109.3421,1657.4419 108.7029,1657.5913 Q108.0638,1657.7407 107.3582,1657.7407 Q104.8514,1657.7407 103.5315,1656.0889 Q102.2117,1654.437 102.2117,1651.3159 Q102.2117,1648.1865 103.5315,1646.5347 Q104.8514,1644.8828 107.3582,1644.8828 Q108.0638,1644.8828 108.7112,1645.0322 Q109.3587,1645.1816 109.9231,1645.4805 L109.9231,1648.2031 Q109.2923,1647.6221 108.6988,1647.3523 Q108.1053,1647.0825 107.4744,1647.0825 Q106.1297,1647.0825 105.4449,1648.1492 Q104.7601,1649.2158 104.7601,1651.3159 Q104.7601,1653.4077 105.4449,1654.4744 Q106.1297,1655.541 107.4744,1655.541 Q108.1053,1655.541 108.6988,1655.2712 Q109.2923,1655.0015 109.9231,1654.4204 Z " /><text fill="#000000" font-family="sans-serif" font-size="12" lengthAdjust="spacingAndGlyphs" textLength="71" x="125.55" y="1655.5352">Candidatura</text>
        <line style="stroke: #A80036; stroke-width: 1.5;" x1="75" x2="217" y1="1667" y2="1667" /><text fill="#000000" font-family="sans-serif" font-size="11" lengthAdjust="spacingAndGlyphs" textLength="122" x="80" y="1681.6348">-Date dataCandidatura</text><text fill="#000000" font-family="sans-serif" font-size="11" lengthAdjust="spacingAndGlyphs" textLength="132" x="80" y="1694.5898">-Double valorPretendido</text><text fill="#000000" font-family="sans-serif" font-size="11" lengthAdjust="spacingAndGlyphs" textLength="82" x="80" y="1707.5449">-Integer nrDias</text><text fill="#000000" font-family="sans-serif" font-size="11" lengthAdjust="spacingAndGlyphs" textLength="130" x="80" y="1720.5">-String txtApresentacao</text><text fill="#000000" font-family="sans-serif" font-size="11" lengthAdjust="spacingAndGlyphs" textLength="110" x="80" y="1733.4551">-String txtMotivacao</text>
        <line style="stroke: #A80036; stroke-width: 1.5;" x1="75" x2="217" y1="1739.7754" y2="1739.7754" />
        <!--MD5=[716bba0e94eea125d5a66a891f2c3c34]
class Classificacao-->
        <rect fill="#FEFECE" filter="url(#f1cv3vdpxy1z4h)" height="73.9102" id="Classificacao" style="stroke: #A80036; stroke-width: 1.5;" width="154" x="180" y="1445" />
        <ellipse cx="217.05" cy="1461" fill="#ADD1B2" rx="11" ry="11" style="stroke: #A80036; stroke-width: 1.0;" />
        <path d="M219.5231,1467.1431 Q218.9421,1467.4419 218.3029,1467.5913 Q217.6638,1467.7407 216.9582,1467.7407 Q214.4514,1467.7407 213.1315,1466.0889 Q211.8117,1464.437 211.8117,1461.3159 Q211.8117,1458.1865 213.1315,1456.5347 Q214.4514,1454.8828 216.9582,1454.8828 Q217.6638,1454.8828 218.3112,1455.0322 Q218.9587,1455.1816 219.5231,1455.4805 L219.5231,1458.2031 Q218.8923,1457.6221 218.2988,1457.3523 Q217.7053,1457.0825 217.0744,1457.0825 Q215.7297,1457.0825 215.0449,1458.1492 Q214.3601,1459.2158 214.3601,1461.3159 Q214.3601,1463.4077 215.0449,1464.4744 Q215.7297,1465.541 217.0744,1465.541 Q217.7053,1465.541 218.2988,1465.2712 Q218.8923,1465.0015 219.5231,1464.4204 Z " /><text fill="#000000" font-family="sans-serif" font-size="12" lengthAdjust="spacingAndGlyphs" textLength="73" x="235.95" y="1465.5352">Classificacao</text>
        <line style="stroke: #A80036; stroke-width: 1.5;" x1="181" x2="333" y1="1477" y2="1477" /><text fill="#000000" font-family="sans-serif" font-size="11" lengthAdjust="spacingAndGlyphs" textLength="75" x="186" y="1491.6348">-Integer lugar</text>
        <line style="stroke: #A80036; stroke-width: 1.5;" x1="181" x2="333" y1="1497.9551" y2="1497.9551" /><text fill="#000000" font-family="sans-serif" font-size="11" lengthAdjust="spacingAndGlyphs" textLength="142" x="186" y="1512.5898">Classificacao(cand,ordem)</text>
        <!--MD5=[aca0f236260d30190baee83e33cc7802]
class ProcessoSeriacao-->
        <rect fill="#FEFECE" filter="url(#f1cv3vdpxy1z4h)" height="138.6855" id="ProcessoSeriacao" style="stroke: #A80036; stroke-width: 1.5;" width="199" x="247.5" y="1133" />
        <ellipse cx="293.25" cy="1149" fill="#ADD1B2" rx="11" ry="11" style="stroke: #A80036; stroke-width: 1.0;" />
        <path d="M295.7231,1155.1431 Q295.1421,1155.4419 294.5029,1155.5913 Q293.8638,1155.7407 293.1582,1155.7407 Q290.6514,1155.7407 289.3315,1154.0889 Q288.0117,1152.437 288.0117,1149.3159 Q288.0117,1146.1865 289.3315,1144.5347 Q290.6514,1142.8828 293.1582,1142.8828 Q293.8638,1142.8828 294.5112,1143.0322 Q295.1587,1143.1816 295.7231,1143.4805 L295.7231,1146.2031 Q295.0923,1145.6221 294.4988,1145.3523 Q293.9053,1145.0825 293.2744,1145.0825 Q291.9297,1145.0825 291.2449,1146.1492 Q290.5601,1147.2158 290.5601,1149.3159 Q290.5601,1151.4077 291.2449,1152.4744 Q291.9297,1153.541 293.2744,1153.541 Q293.9053,1153.541 294.4988,1153.2712 Q295.0923,1153.0015 295.7231,1152.4204 Z " /><text fill="#000000" font-family="sans-serif" font-size="12" lengthAdjust="spacingAndGlyphs" textLength="99" x="313.75" y="1153.5352">ProcessoSeriacao</text>
        <line style="stroke: #A80036; stroke-width: 1.5;" x1="248.5" x2="445.5" y1="1165" y2="1165" /><text fill="#000000" font-family="sans-serif" font-size="11" lengthAdjust="spacingAndGlyphs" textLength="112" x="253.5" y="1179.6348">-Date dataRealizacao</text>
        <line style="stroke: #A80036; stroke-width: 1.5;" x1="248.5" x2="445.5" y1="1185.9551" y2="1185.9551" /><text fill="#000000" font-family="sans-serif" font-size="11" lengthAdjust="spacingAndGlyphs" textLength="187" x="253.5" y="1200.5898">+ProcessoSeriacao(tipoReg, colab)</text><text fill="#000000" font-family="sans-serif" font-size="11" lengthAdjust="spacingAndGlyphs" textLength="171" x="253.5" y="1213.5449">+addClassificacao(cand,ordem)</text><text fill="#000000" font-family="sans-serif" font-size="11" lengthAdjust="spacingAndGlyphs" textLength="142" x="253.5" y="1226.5">-validaClassificacao(class)</text><text fill="#000000" font-family="sans-serif" font-size="11" lengthAdjust="spacingAndGlyphs" textLength="131" x="253.5" y="1239.4551">-addClassificacao(class)</text><text fill="#000000" font-family="sans-serif" font-size="11" lengthAdjust="spacingAndGlyphs" textLength="122" x="253.5" y="1252.4102">+addParticipante(part)</text><text fill="#000000" font-family="sans-serif" font-size="11" lengthAdjust="spacingAndGlyphs" textLength="48" x="253.5" y="1265.3652">+valida()</text>
        <!--MD5=[8bc17582e55ad67b52a8caaa08816a5d]
class ProcessoAtribuicao-->
        <rect fill="#FEFECE" filter="url(#f1cv3vdpxy1z4h)" height="99.8203" id="ProcessoAtribuicao" style="stroke: #A80036; stroke-width: 1.5;" width="175" x="672.5" y="1152.5" />
        <ellipse cx="702.8" cy="1168.5" fill="#ADD1B2" rx="11" ry="11" style="stroke: #A80036; stroke-width: 1.0;" />
        <path d="M705.2731,1174.6431 Q704.6921,1174.9419 704.0529,1175.0913 Q703.4138,1175.2407 702.7082,1175.2407 Q700.2014,1175.2407 698.8815,1173.5889 Q697.5617,1171.937 697.5617,1168.8159 Q697.5617,1165.6865 698.8815,1164.0347 Q700.2014,1162.3828 702.7082,1162.3828 Q703.4138,1162.3828 704.0612,1162.5322 Q704.7087,1162.6816 705.2731,1162.9805 L705.2731,1165.7031 Q704.6423,1165.1221 704.0488,1164.8523 Q703.4553,1164.5825 702.8244,1164.5825 Q701.4797,1164.5825 700.7949,1165.6492 Q700.1101,1166.7158 700.1101,1168.8159 Q700.1101,1170.9077 700.7949,1171.9744 Q701.4797,1173.041 702.8244,1173.041 Q703.4553,1173.041 704.0488,1172.7712 Q704.6423,1172.5015 705.2731,1171.9204 Z " /><text fill="#000000" font-family="sans-serif" font-size="12" lengthAdjust="spacingAndGlyphs" textLength="109" x="720.2" y="1173.0352">ProcessoAtribuicao</text>
        <line style="stroke: #A80036; stroke-width: 1.5;" x1="673.5" x2="846.5" y1="1184.5" y2="1184.5" /><text fill="#000000" font-family="sans-serif" font-size="11" lengthAdjust="spacingAndGlyphs" textLength="112" x="678.5" y="1199.1348">-Date dataRealizacao</text>
        <line style="stroke: #A80036; stroke-width: 1.5;" x1="673.5" x2="846.5" y1="1205.4551" y2="1205.4551" /><text fill="#000000" font-family="sans-serif" font-size="11" lengthAdjust="spacingAndGlyphs" textLength="163" x="678.5" y="1220.0898">+ProcessoAtribuicao(tipoReg)</text><text fill="#000000" font-family="sans-serif" font-size="11" lengthAdjust="spacingAndGlyphs" textLength="119" x="678.5" y="1233.0449">+addAdjudicacao(adj)</text><text fill="#000000" font-family="sans-serif" font-size="11" lengthAdjust="spacingAndGlyphs" textLength="48" x="678.5" y="1246">+valida()</text>
        <!--MD5=[27c2d4bbe9f7b9d3b0ea2797cc54308a]
class Tarefa-->
        <rect fill="#FEFECE" filter="url(#f1cv3vdpxy1z4h)" height="138.6855" id="Tarefa" style="stroke: #A80036; stroke-width: 1.5;" width="140" x="766" y="559" />
        <ellipse cx="812.75" cy="575" fill="#ADD1B2" rx="11" ry="11" style="stroke: #A80036; stroke-width: 1.0;" />
        <path d="M815.2231,581.1431 Q814.6421,581.4419 814.0029,581.5913 Q813.3638,581.7407 812.6582,581.7407 Q810.1514,581.7407 808.8315,580.0889 Q807.5117,578.437 807.5117,575.3159 Q807.5117,572.1865 808.8315,570.5347 Q810.1514,568.8828 812.6582,568.8828 Q813.3638,568.8828 814.0112,569.0322 Q814.6587,569.1816 815.2231,569.4805 L815.2231,572.2031 Q814.5923,571.6221 813.9988,571.3523 Q813.4053,571.0825 812.7744,571.0825 Q811.4297,571.0825 810.7449,572.1492 Q810.0601,573.2158 810.0601,575.3159 Q810.0601,577.4077 810.7449,578.4744 Q811.4297,579.541 812.7744,579.541 Q813.4053,579.541 813.9988,579.2712 Q814.5923,579.0015 815.2231,578.4204 Z " /><text fill="#000000" font-family="sans-serif" font-size="12" lengthAdjust="spacingAndGlyphs" textLength="38" x="833.25" y="579.5352">Tarefa</text>
        <line style="stroke: #A80036; stroke-width: 1.5;" x1="767" x2="905" y1="591" y2="591" /><text fill="#000000" font-family="sans-serif" font-size="11" lengthAdjust="spacingAndGlyphs" textLength="95" x="772" y="605.6348">-String referencia</text><text fill="#000000" font-family="sans-serif" font-size="11" lengthAdjust="spacingAndGlyphs" textLength="102" x="772" y="618.5898">-String designacao</text><text fill="#000000" font-family="sans-serif" font-size="11" lengthAdjust="spacingAndGlyphs" textLength="111" x="772" y="631.5449">-String descInformal</text><text fill="#000000" font-family="sans-serif" font-size="11" lengthAdjust="spacingAndGlyphs" textLength="107" x="772" y="644.5">-String descTecnica</text><text fill="#000000" font-family="sans-serif" font-size="11" lengthAdjust="spacingAndGlyphs" textLength="107" x="772" y="657.4551">-Integer duracaoEst</text><text fill="#000000" font-family="sans-serif" font-size="11" lengthAdjust="spacingAndGlyphs" textLength="93" x="772" y="670.4102">-Double custoEst</text>
        <line style="stroke: #A80036; stroke-width: 1.5;" x1="767" x2="905" y1="676.7305" y2="676.7305" /><text fill="#000000" font-family="sans-serif" font-size="11" lengthAdjust="spacingAndGlyphs" textLength="128" x="772" y="691.3652">+getDescricaoTecnica()</text>
        <!--MD5=[5d1ab724c50d81e7fd2e67537350aa20]
class Adjudicacao-->
        <rect fill="#FEFECE" filter="url(#f1cv3vdpxy1z4h)" height="151.6406" id="Adjudicacao" style="stroke: #A80036; stroke-width: 1.5;" width="412" x="690" y="1406" />
        <ellipse cx="856.25" cy="1422" fill="#ADD1B2" rx="11" ry="11" style="stroke: #A80036; stroke-width: 1.0;" />
        <path d="M858.7231,1428.1431 Q858.1421,1428.4419 857.5029,1428.5913 Q856.8638,1428.7407 856.1582,1428.7407 Q853.6514,1428.7407 852.3315,1427.0889 Q851.0117,1425.437 851.0117,1422.3159 Q851.0117,1419.1865 852.3315,1417.5347 Q853.6514,1415.8828 856.1582,1415.8828 Q856.8638,1415.8828 857.5112,1416.0322 Q858.1587,1416.1816 858.7231,1416.4805 L858.7231,1419.2031 Q858.0923,1418.6221 857.4988,1418.3523 Q856.9053,1418.0825 856.2744,1418.0825 Q854.9297,1418.0825 854.2449,1419.1492 Q853.5601,1420.2158 853.5601,1422.3159 Q853.5601,1424.4077 854.2449,1425.4744 Q854.9297,1426.541 856.2744,1426.541 Q856.9053,1426.541 857.4988,1426.2712 Q858.0923,1426.0015 858.7231,1425.4204 Z " /><text fill="#000000" font-family="sans-serif" font-size="12" lengthAdjust="spacingAndGlyphs" textLength="71" x="876.75" y="1426.5352">Adjudicacao</text>
        <line style="stroke: #A80036; stroke-width: 1.5;" x1="691" x2="1101" y1="1438" y2="1438" /><text fill="#000000" font-family="sans-serif" font-size="11" lengthAdjust="spacingAndGlyphs" textLength="107" x="696" y="1452.6348">-Double valorAceite</text><text fill="#000000" font-family="sans-serif" font-size="11" lengthAdjust="spacingAndGlyphs" textLength="122" x="696" y="1465.5898">-Date dataAdjudicacao</text><text fill="#000000" font-family="sans-serif" font-size="11" lengthAdjust="spacingAndGlyphs" textLength="119" x="696" y="1478.5449">-Date dataInicioTarefa</text><text fill="#000000" font-family="sans-serif" font-size="11" lengthAdjust="spacingAndGlyphs" textLength="90" x="696" y="1491.5">-Integer numSeq</text><text fill="#000000" font-family="sans-serif" font-size="11" lengthAdjust="spacingAndGlyphs" textLength="147" x="696" y="1504.4551">-Integer nrDiasNecessarios</text><text fill="#000000" font-family="sans-serif" font-size="11" lengthAdjust="spacingAndGlyphs" textLength="88" x="696" y="1517.4102">-String dsTarefa</text>
        <line style="stroke: #A80036; stroke-width: 1.5;" x1="691" x2="1101" y1="1523.7305" y2="1523.7305" /><text fill="#000000" font-family="sans-serif" font-size="11" lengthAdjust="spacingAndGlyphs" textLength="400" x="696" y="1538.3652">+Adjudicacao(org,freelancer,dsTarefa,dataInicioTarefa,nrDiasNecessarios,</text><text fill="#000000" font-family="sans-serif" font-size="11" lengthAdjust="spacingAndGlyphs" textLength="248" x="696" y="1551.3203">valorAceite,anuncio,numSeq,dataAdjudicacao)</text>
        <!--MD5=[e6127d010c7015b5dfe7deea7506a2ca]
link Timer to SeriarAnuncioCandidaturaTask-->
        <path d="M331.61,82.12 C339.48,98.28 349.13,118.08 358.7,137.72 " fill="none" id="Timer-&gt;SeriarAnuncioCandidaturaTask" style="stroke: #A80036; stroke-width: 1.0; stroke-dasharray: 7.0,7.0;" />
        <polygon fill="#A80036" points="361.14,142.71,360.8059,132.8668,358.9555,138.2125,353.6098,136.362,361.14,142.71" style="stroke: #A80036; stroke-width: 1.0;" />
        <!--MD5=[ccd52616bfaacc9644ef8bb4775fafcb]
reverse link TimerTask to SeriarAnuncioCandidaturaTask-->
        <path d="M465.32,94.03 C457.89,109.11 449.46,126.19 441.22,142.92 " fill="none" id="TimerTask&lt;-SeriarAnuncioCandidaturaTask" style="stroke: #A80036; stroke-width: 1.0;" />
        <polygon fill="none" points="459.15,90.72,474.27,75.88,471.71,96.91,459.15,90.72" style="stroke: #A80036; stroke-width: 1.0;" />
        <!--MD5=[5ca115079e356fcf6736629af49cf0ff]
link SeriarAnuncioCandidaturaTask to Plataforma-->
        <path d="M401,308.18 C401,326.71 401,346.08 401,363.58 " fill="none" id="SeriarAnuncioCandidaturaTask-&gt;Plataforma" style="stroke: #A80036; stroke-width: 1.0; stroke-dasharray: 7.0,7.0;" />
        <polygon fill="#A80036" points="401,368.95,405,359.95,401,363.95,397,359.95,401,368.95" style="stroke: #A80036; stroke-width: 1.0;" />
        <!--MD5=[463821f61fd53759657c2ac769a7e835]
link Plataforma to RegistoAnuncios-->
        <path d="M445.36,482.22 C473.86,518.03 509.94,563.36 534.16,593.78 " fill="none" id="Plataforma-&gt;RegistoAnuncios" style="stroke: #A80036; stroke-width: 1.0;" />
        <polygon fill="#A80036" points="537.35,597.79,534.8767,588.2567,534.237,593.8773,528.6164,593.2376,537.35,597.79" style="stroke: #A80036; stroke-width: 1.0;" /><text fill="#000000" font-family="sans-serif" font-size="13" lengthAdjust="spacingAndGlyphs" textLength="24" x="482" y="525.5684">tem</text><text fill="#000000" font-family="sans-serif" font-size="13" lengthAdjust="spacingAndGlyphs" textLength="8" x="442.0266" y="502.2447">1</text><text fill="#000000" font-family="sans-serif" font-size="13" lengthAdjust="spacingAndGlyphs" textLength="8" x="523.3016" y="587.0388">1</text>
        <!--MD5=[f474418f0299e5a3deeeaebedb6f44d3]
link Plataforma to RegistoOrganizacoes-->
        <path d="M391.85,482.22 C386.05,517.59 378.71,562.25 373.72,592.66 " fill="none" id="Plataforma-&gt;RegistoOrganizacoes" style="stroke: #A80036; stroke-width: 1.0;" />
        <polygon fill="#A80036" points="372.88,597.79,378.2666,589.5447,373.6789,592.8542,370.3693,588.2665,372.88,597.79" style="stroke: #A80036; stroke-width: 1.0;" /><text fill="#000000" font-family="sans-serif" font-size="13" lengthAdjust="spacingAndGlyphs" textLength="24" x="388" y="525.5684">tem</text><text fill="#000000" font-family="sans-serif" font-size="13" lengthAdjust="spacingAndGlyphs" textLength="8" x="382.3295" y="502.2447">1</text><text fill="#000000" font-family="sans-serif" font-size="13" lengthAdjust="spacingAndGlyphs" textLength="8" x="365.0725" y="587.0388">1</text>
        <!--MD5=[2903b91671052adea6f5e59eb6d59b42]
link RegistoAnuncios to Anuncio-->
        <path d="M561,659.19 C561,686.05 561,727.69 561,769.61 " fill="none" id="RegistoAnuncios-&gt;Anuncio" style="stroke: #A80036; stroke-width: 1.0;" />
        <polygon fill="#A80036" points="561,774.72,565,765.72,561,769.72,557,765.72,561,774.72" style="stroke: #A80036; stroke-width: 1.0;" /><text fill="#000000" font-family="sans-serif" font-size="13" lengthAdjust="spacingAndGlyphs" textLength="55" x="562" y="741.5684">publicita</text><text fill="#000000" font-family="sans-serif" font-size="13" lengthAdjust="spacingAndGlyphs" textLength="8" x="552.175" y="679.6717">1</text><text fill="#000000" font-family="sans-serif" font-size="13" lengthAdjust="spacingAndGlyphs" textLength="6" x="554.8359" y="764.1826">*</text>
        <!--MD5=[3fb03004f687adcfc695220fdd65ad26]
link Anuncio to TipoRegimento-->
        <path d="M561,1056.04 C561,1178.88 561,1350.66 561,1433.12 " fill="none" id="Anuncio-&gt;TipoRegimento" style="stroke: #A80036; stroke-width: 1.0;" />
        <polygon fill="#A80036" points="561,1438.42,565,1429.42,561,1433.42,557,1429.42,561,1438.42" style="stroke: #A80036; stroke-width: 1.0;" /><text fill="#000000" font-family="sans-serif" font-size="13" lengthAdjust="spacingAndGlyphs" textLength="74" x="562" y="1207.5684">rege-se por</text><text fill="#000000" font-family="sans-serif" font-size="13" lengthAdjust="spacingAndGlyphs" textLength="6" x="554.8359" y="1076.7076">*</text><text fill="#000000" font-family="sans-serif" font-size="13" lengthAdjust="spacingAndGlyphs" textLength="8" x="552.3625" y="1427.883">1</text>
        <!--MD5=[936379bbb1fbe67f1148bc2fdcd3e3c1]
link Anuncio to ListaCandidaturas-->
        <path d="M468.9,961.17 C397.26,999.32 298.81,1059.62 230,1133 C183.99,1182.07 149.21,1252.73 130.23,1296.97 " fill="none" id="Anuncio-&gt;ListaCandidaturas" style="stroke: #A80036; stroke-width: 1.0;" />
        <polygon fill="#A80036" points="128.22,1301.69,135.4242,1294.9744,130.1775,1297.0891,128.0628,1291.8424,128.22,1301.69" style="stroke: #A80036; stroke-width: 1.0;" /><text fill="#000000" font-family="sans-serif" font-size="13" lengthAdjust="spacingAndGlyphs" textLength="49" x="276" y="1099.5684">recebeu</text><text fill="#000000" font-family="sans-serif" font-size="13" lengthAdjust="spacingAndGlyphs" textLength="8" x="452.9417" y="961.9042">1</text><text fill="#000000" font-family="sans-serif" font-size="13" lengthAdjust="spacingAndGlyphs" textLength="8" x="122.0404" y="1291.3122">1</text>
        <!--MD5=[b3c62d3bd372a34b7ee6d6af17619677]
link ListaCandidaturas to Candidatura-->
        <path d="M117.3,1376.19 C122.77,1436.06 133.75,1556.35 140.43,1629.52 " fill="none" id="ListaCandidaturas-&gt;Candidatura" style="stroke: #A80036; stroke-width: 1.0;" />
        <polygon fill="#A80036" points="140.91,1634.71,144.0691,1625.3815,140.4522,1629.731,136.1027,1626.1141,140.91,1634.71" style="stroke: #A80036; stroke-width: 1.0;" /><text fill="#000000" font-family="sans-serif" font-size="13" lengthAdjust="spacingAndGlyphs" textLength="24" x="135" y="1487.0684">tem</text><text fill="#000000" font-family="sans-serif" font-size="13" lengthAdjust="spacingAndGlyphs" textLength="8" x="109.1797" y="1396.4739">1</text><text fill="#000000" font-family="sans-serif" font-size="13" lengthAdjust="spacingAndGlyphs" textLength="6" x="133.8735" y="1624.0755">*</text>
        <!--MD5=[02d330b3691aaed85c2b7230cc23c1df]
link Anuncio to ProcessoSeriacao-->
        <path d="M468.69,1039.43 C445.93,1069.75 422.26,1101.27 401.91,1128.37 " fill="none" id="Anuncio-&gt;ProcessoSeriacao" style="stroke: #A80036; stroke-width: 1.0;" />
        <polygon fill="#A80036" points="398.68,1132.68,407.28,1127.88,401.68,1128.68,400.88,1123.08,398.68,1132.68" style="stroke: #A80036; stroke-width: 1.0;" /><text fill="#000000" font-family="sans-serif" font-size="13" lengthAdjust="spacingAndGlyphs" textLength="53" x="430" y="1099.5684">espoleta</text><text fill="#000000" font-family="sans-serif" font-size="13" lengthAdjust="spacingAndGlyphs" textLength="8" x="453.0153" y="1046.2811">1</text><text fill="#000000" font-family="sans-serif" font-size="13" lengthAdjust="spacingAndGlyphs" textLength="24" x="378.772" y="1122.307">0..1</text>
        <!--MD5=[b6f7c6f48377175abd4e6e8cc5d4c110]
link Anuncio to ProcessoAtribuicao-->
        <path d="M653.22,1048.57 C677.83,1083.82 703.04,1119.93 722.78,1148.2 " fill="none" id="Anuncio-&gt;ProcessoAtribuicao" style="stroke: #A80036; stroke-width: 1.0;" />
        <polygon fill="#A80036" points="725.66,1152.31,723.7735,1142.6435,722.7917,1148.2145,717.2207,1147.2327,725.66,1152.31" style="stroke: #A80036; stroke-width: 1.0;" /><text fill="#000000" font-family="sans-serif" font-size="13" lengthAdjust="spacingAndGlyphs" textLength="53" x="691" y="1099.5684">espoleta</text><text fill="#000000" font-family="sans-serif" font-size="13" lengthAdjust="spacingAndGlyphs" textLength="8" x="660.8875" y="1056.1495">1</text><text fill="#000000" font-family="sans-serif" font-size="13" lengthAdjust="spacingAndGlyphs" textLength="24" x="695.1434" y="1141.8002">0..1</text>
        <!--MD5=[35fae5763b5ac085aad1a803f88e2b95]
link Tarefa to Anuncio-->
        <path d="M769.78,698.13 C735.91,733.23 694.06,776.6 656.74,815.27 " fill="none" id="Tarefa-&gt;Anuncio" style="stroke: #A80036; stroke-width: 1.0;" />
        <polygon fill="#A80036" points="653.15,819,662.2766,815.2979,656.6207,815.4008,656.5178,809.7449,653.15,819" style="stroke: #A80036; stroke-width: 1.0;" /><text fill="#000000" font-family="sans-serif" font-size="13" lengthAdjust="spacingAndGlyphs" textLength="44" x="741" y="741.5684">origina</text><text fill="#000000" font-family="sans-serif" font-size="13" lengthAdjust="spacingAndGlyphs" textLength="8" x="754.8677" y="718.3216">1</text><text fill="#000000" font-family="sans-serif" font-size="13" lengthAdjust="spacingAndGlyphs" textLength="24" x="661.124" y="808.6104">0..1</text>
        <!--MD5=[a66e767a4304f5fa76db98d7839a7a61]
link Candidatura to Freelancer-->
        <path d="M146,1748.44 C146,1772.81 146,1801.13 146,1824.7 " fill="none" id="Candidatura-Freelancer" style="stroke: #A80036; stroke-width: 1.0;" /><text fill="#000000" font-family="sans-serif" font-size="13" lengthAdjust="spacingAndGlyphs" textLength="81" x="147" y="1791.5684">realizada por</text><text fill="#000000" font-family="sans-serif" font-size="13" lengthAdjust="spacingAndGlyphs" textLength="6" x="139.6531" y="1768.4902">*</text><text fill="#000000" font-family="sans-serif" font-size="13" lengthAdjust="spacingAndGlyphs" textLength="8" x="137.4375" y="1814.1747">1</text>
        <!--MD5=[577fefe1351fe0f89ea5388d9641a019]
link ProcessoSeriacao to TipoRegimento-->
        <path d="M329.19,1272.04 C324.37,1305.74 324.91,1345.55 344,1376 C374.47,1424.59 434.5,1451.25 483.72,1465.53 " fill="none" id="ProcessoSeriacao-&gt;TipoRegimento" style="stroke: #A80036; stroke-width: 1.0;" />
        <polygon fill="#A80036" points="488.75,1466.96,481.1902,1460.6473,483.9413,1465.5902,478.9985,1468.3413,488.75,1466.96" style="stroke: #A80036; stroke-width: 1.0;" /><text fill="#000000" font-family="sans-serif" font-size="13" lengthAdjust="spacingAndGlyphs" textLength="189" x="345" y="1344.0684">decorre em concordância com</text><text fill="#000000" font-family="sans-serif" font-size="13" lengthAdjust="spacingAndGlyphs" textLength="6" x="321.1415" y="1292.2227">*</text><text fill="#000000" font-family="sans-serif" font-size="13" lengthAdjust="spacingAndGlyphs" textLength="8" x="472.8867" y="1462.2269">1</text>
        <!--MD5=[52bd50d7906bad09d4dfcc260d1229dc]
link ProcessoSeriacao to Classificacao-->
        <path d="M275.41,1272.01 C268.8,1281.45 263.06,1291.52 259,1302 C241.69,1346.6 244.48,1402.28 249.45,1439.59 " fill="none" id="ProcessoSeriacao-&gt;Classificacao" style="stroke: #A80036; stroke-width: 1.0;" />
        <polygon fill="#A80036" points="250.19,1444.96,252.9191,1435.4968,249.5049,1440.0072,244.9945,1436.593,250.19,1444.96" style="stroke: #A80036; stroke-width: 1.0;" /><text fill="#000000" font-family="sans-serif" font-size="13" lengthAdjust="spacingAndGlyphs" textLength="43" x="260" y="1344.0684">resulta</text><text fill="#000000" font-family="sans-serif" font-size="13" lengthAdjust="spacingAndGlyphs" textLength="8" x="259.9691" y="1292.1898">1</text><text fill="#000000" font-family="sans-serif" font-size="13" lengthAdjust="spacingAndGlyphs" textLength="6" x="242.3813" y="1434.3532">*</text>
        <!--MD5=[5b004714f110506f35a1f92cf330b1c6]
link ProcessoAtribuicao to TipoRegimento-->
        <path d="M675.44,1252.73 C647.66,1270.35 621.46,1289.04 612,1302 C596.74,1322.9 580.61,1387.71 570.68,1433.31 " fill="none" id="ProcessoAtribuicao-&gt;TipoRegimento" style="stroke: #A80036; stroke-width: 1.0;" />
        <polygon fill="#A80036" points="569.61,1438.22,575.4229,1430.2695,570.6674,1433.3331,567.6038,1428.5776,569.61,1438.22" style="stroke: #A80036; stroke-width: 1.0;" /><text fill="#000000" font-family="sans-serif" font-size="13" lengthAdjust="spacingAndGlyphs" textLength="189" x="613" y="1344.0684">decorre em concordância com</text><text fill="#000000" font-family="sans-serif" font-size="13" lengthAdjust="spacingAndGlyphs" textLength="6" x="658.7686" y="1272.3641">*</text><text fill="#000000" font-family="sans-serif" font-size="13" lengthAdjust="spacingAndGlyphs" textLength="8" x="562.3447" y="1427.6511">1</text>
        <!--MD5=[7d06a2927183570e13ebe5ea47997a17]
link ProcessoAtribuicao to Adjudicacao-->
        <path d="M785.89,1252.68 C794.04,1268.38 803,1285.87 811,1302 C827.03,1334.31 844.19,1370.18 858.86,1401.27 " fill="none" id="ProcessoAtribuicao-&gt;Adjudicacao" style="stroke: #A80036; stroke-width: 1.0;" />
        <polygon fill="#A80036" points="861.01,1405.82,860.7762,1395.9739,858.8714,1401.3004,853.5449,1399.3957,861.01,1405.82" style="stroke: #A80036; stroke-width: 1.0;" /><text fill="#000000" font-family="sans-serif" font-size="13" lengthAdjust="spacingAndGlyphs" textLength="43" x="847" y="1344.0684">resulta</text><text fill="#000000" font-family="sans-serif" font-size="13" lengthAdjust="spacingAndGlyphs" textLength="8" x="780.8315" y="1273.032">1</text><text fill="#000000" font-family="sans-serif" font-size="13" lengthAdjust="spacingAndGlyphs" textLength="6" x="851.2704" y="1395.1841">*</text>
        <!--MD5=[471b8c6ff5fcf31b4b6fb9b4f947344d]
link Classificacao to Candidatura-->
        <path d="M237.67,1519.14 C221.32,1549.7 197.56,1594.12 178.32,1630.08 " fill="none" id="Classificacao-&gt;Candidatura" style="stroke: #A80036; stroke-width: 1.0;" />
        <polygon fill="#A80036" points="175.76,1634.87,183.5359,1628.8256,178.1211,1630.4626,176.4841,1625.0478,175.76,1634.87" style="stroke: #A80036; stroke-width: 1.0;" /><text fill="#000000" font-family="sans-serif" font-size="13" lengthAdjust="spacingAndGlyphs" textLength="67" x="200" y="1601.5684">referente a</text><text fill="#000000" font-family="sans-serif" font-size="13" lengthAdjust="spacingAndGlyphs" textLength="24" x="208.2852" y="1539.4153">0..1</text><text fill="#000000" font-family="sans-serif" font-size="13" lengthAdjust="spacingAndGlyphs" textLength="8" x="171.0605" y="1624.256">1</text>
        <!--MD5=[edd794cc4cf7d2aa05c846e86d1ea2d8]
link Tarefa to Adjudicacao-->
        <path d="M844.15,698.1 C858.14,819.6 886.15,1080.68 896,1302 C897.43,1334.14 897.7,1369.55 897.52,1400.34 " fill="none" id="Tarefa-&gt;Adjudicacao" style="stroke: #A80036; stroke-width: 1.0;" />
        <polygon fill="#A80036" points="897.49,1405.63,901.5414,1396.653,897.5186,1400.6301,893.5415,1396.6073,897.49,1405.63" style="stroke: #A80036; stroke-width: 1.0;" /><text fill="#000000" font-family="sans-serif" font-size="13" lengthAdjust="spacingAndGlyphs" textLength="24" x="884" y="1099.5684">tem</text><text fill="#000000" font-family="sans-serif" font-size="13" lengthAdjust="spacingAndGlyphs" textLength="8" x="836.5585" y="718.2887">1</text><text fill="#000000" font-family="sans-serif" font-size="13" lengthAdjust="spacingAndGlyphs" textLength="24" x="872.4883" y="1395.2364">0..1</text>
        <!--MD5=[2a9d211ce83a6f4919b08b5e61884309]
@startuml
skinparam classAttributeIconSize 0

class Timer {
  +Timer()
  +schedule(task, delay, intervalo)
}

abstract class TimerTask {
  +run()
}

class SeriarAnuncioCandidaturaTask
{
+SeriarAnuncioCandidaturaTask(info)
+run()
-seriarCandidaturasSubmetidas()
+getAnunciosPorSeriarNaoAutomaticos()
+getCandidaturas(anuncioId)
+classifica(candId, ordem)
+getColaboradores()
+addParticipante(emailPart)
+registaProcessoSeriacao()
}

class Plataforma {
  -String designacao
  +getRegistoAnuncios()
  +getInfoAboutTask()
  +getDelay()
  +getIntervalo()
}

class RegistoOrganizacoes{
  +getOrganizacaoByTarefa(tarefa)
}

class RegistoAnuncios {

  +getListaAnuncios()
}

interface TipoRegimento
{
    -String designacao
    -String descricaoRegras
    +areCriteriosObjetivos()
}


class Freelancer {
    -String nome
    -String NIF
    -String telefone
    -String email
}

class Anuncio
{
    -Date dtInicioPublicitacao
    -Date dtFimPublicitacao
    -Date dtInicioCandidatura
    -Date dtFimCandidatura
    -Date dtInicioSeriacao
    -Date dtFimSeriacao
    +getListaCandidaturas()
    +novoProcessoSeriacao(colab)
    +registaProcessoSeriacao(ps)
    -validaProcessoSeriacao(ps)
    -setProcessoSeriacao(ps)
    +novoProcessoAtribuicao(pa)
    +registaProcessoAtribuicao(pa)
    -setProcessoAtribuicao(pa)
    +getTipoRegimento()
    +temProcessoSeriacao()
    +estaPeriodoSeriacao()
    +getTarefa()
}

class ListaCandidaturas
{
    +getCandidaturas()
    +temCandidaturasEfetuadas(anuncio)
}
class Candidatura
{
    -Date dataCandidatura
    -Double valorPretendido
    -Integer nrDias
    -String txtApresentacao
    -String txtMotivacao
}

class Classificacao
{
    -Integer lugar
    Classificacao(cand,ordem)
}

class ProcessoSeriacao
{
    -Date dataRealizacao
    +ProcessoSeriacao(tipoReg, colab)
    +addClassificacao(cand,ordem)
    -validaClassificacao(class)
    -addClassificacao(class)
    +addParticipante(part)
    +valida()
}

class ProcessoAtribuicao{
  -Date dataRealizacao
  +ProcessoAtribuicao(tipoReg)
  +addAdjudicacao(adj)
  +valida()
}

class Tarefa {
  -String referencia
  -String designacao
  -String descInformal
  -String descTecnica
  -Integer duracaoEst
  -Double custoEst
  +getDescricaoTecnica()
}

class Adjudicacao {
-Double valorAceite
-Date dataAdjudicacao
-Date dataInicioTarefa
-Integer numSeq
-Integer nrDiasNecessarios
-String dsTarefa
+Adjudicacao(org,freelancer,dsTarefa,dataInicioTarefa,nrDiasNecessarios,
 valorAceite,anuncio,numSeq,dataAdjudicacao)
}

Timer ..> SeriarAnuncioCandidaturaTask
TimerTask <|- - SeriarAnuncioCandidaturaTask
SeriarAnuncioCandidaturaTask ..> Plataforma
Plataforma "1" - -> "1" RegistoAnuncios : tem
Plataforma "1" - -> "1" RegistoOrganizacoes : tem

RegistoAnuncios "1" - -> "*" Anuncio : publicita



Anuncio "*" - -> "1" TipoRegimento: rege-se por
Anuncio "1" - -> "1" ListaCandidaturas: recebeu
ListaCandidaturas "1" - -> "*" Candidatura: tem
Anuncio "1" - -> "0..1" ProcessoSeriacao: espoleta
Anuncio "1" - -> "0..1" ProcessoAtribuicao: espoleta
Tarefa "1" - -> "0..1" Anuncio : origina

Candidatura "*" - - "1"  Freelancer: realizada por

ProcessoSeriacao "*" - -> "1" TipoRegimento: decorre em concordância com
ProcessoSeriacao "1" - -> "*" Classificacao: resulta

ProcessoAtribuicao "*" - -> "1" TipoRegimento: decorre em concordância com
ProcessoAtribuicao "1" - -> "*" Adjudicacao: resulta

Classificacao "0..1" - -> "1" Candidatura: referente a

Tarefa "1" - -> "0..1" Adjudicacao : tem


@enduml

PlantUML version 1.2020.02(Sun Mar 01 10:22:07 WET 2020)
(GPL source distribution)
Java Runtime: Java(TM) SE Runtime Environment
JVM: Java HotSpot(TM) 64-Bit Server VM
Java Version: 13.0.2+8
Operating System: Mac OS X
Default Encoding: UTF-8
Language: pt
Country: PT
-->
    </g>
</svg>