@startuml
skinparam classAttributeIconSize 0

class Timer {
  +Timer()
  +schedule(task, delay, intervalo)
}

abstract class TimerTask {
  +run()
}

class SeriarAnuncioCandidaturaTask
{
+SeriarAnuncioCandidaturaTask(info)
+run()
-seriarCandidaturasSubmetidas()
+getAnunciosPorSeriarNaoAutomaticos()
+getCandidaturas(anuncioId)
+classifica(candId, ordem)
+getColaboradores()
+addParticipante(emailPart)
+registaProcessoSeriacao()
}

class Plataforma {
  -String designacao
  +getRegistoAnuncios()
  +getInfoAboutTask()
  +getDelay()
  +getIntervalo()
}

class RegistoOrganizacoes{
  +getOrganizacaoByTarefa(tarefa)
}

class RegistoAnuncios {

  +getListaAnuncios()
}

interface TipoRegimento
{
    -String designacao
    -String descricaoRegras
    +areCriteriosObjetivos()
}


class Freelancer {
    -String nome
    -String NIF
    -String telefone
    -String email
}

class Anuncio
{
    -Date dtInicioPublicitacao
    -Date dtFimPublicitacao
    -Date dtInicioCandidatura
    -Date dtFimCandidatura
    -Date dtInicioSeriacao
    -Date dtFimSeriacao
    +getListaCandidaturas()
    +novoProcessoSeriacao(colab)
    +registaProcessoSeriacao(ps)
    -validaProcessoSeriacao(ps)
    -setProcessoSeriacao(ps)
    +novoProcessoAtribuicao(pa)
    +registaProcessoAtribuicao(pa)
    -setProcessoAtribuicao(pa)
    +getTipoRegimento()
    +temProcessoSeriacao()
    +estaPeriodoSeriacao()
    +getTarefa()
}

class ListaCandidaturas
{
    +getCandidaturas()
    +temCandidaturasEfetuadas(anuncio)
}
class Candidatura
{
    -Date dataCandidatura
    -Double valorPretendido
    -Integer nrDias
    -String txtApresentacao
    -String txtMotivacao
}

class Classificacao
{
    -Integer lugar
    Classificacao(cand,ordem)
}

class ProcessoSeriacao
{
    -Date dataRealizacao
    +ProcessoSeriacao(tipoReg, colab)
    +addClassificacao(cand,ordem)
    -validaClassificacao(class)
    -addClassificacao(class)
    +addParticipante(part)
    +valida()
}

class ProcessoAtribuicao{
  -Date dataRealizacao
  +ProcessoAtribuicao(tipoReg)
  +addAdjudicacao(adj)
  +valida()
}

class Tarefa {
  -String referencia
  -String designacao
  -String descInformal
  -String descTecnica
  -Integer duracaoEst
  -Double custoEst
  +getDescricaoTecnica()
}

class Adjudicacao {
-Double valorAceite
-Date dataAdjudicacao
-Date dataInicioTarefa
-Integer numSeq
-Integer nrDiasNecessarios
-String dsTarefa
+Adjudicacao(org,freelancer,dsTarefa,dataInicioTarefa,nrDiasNecessarios,
 valorAceite,anuncio,numSeq,dataAdjudicacao)
}

Timer ..> SeriarAnuncioCandidaturaTask
TimerTask <|-- SeriarAnuncioCandidaturaTask
SeriarAnuncioCandidaturaTask ..> Plataforma
Plataforma "1" --> "1" RegistoAnuncios : tem
Plataforma "1" --> "1" RegistoOrganizacoes : tem

RegistoAnuncios "1" --> "*" Anuncio : publicita



Anuncio "*" --> "1" TipoRegimento: rege-se por
Anuncio "1" --> "1" ListaCandidaturas: recebeu
ListaCandidaturas "1" --> "*" Candidatura: tem
Anuncio "1" --> "0..1" ProcessoSeriacao: espoleta
Anuncio "1" --> "0..1" ProcessoAtribuicao: espoleta
Tarefa "1" --> "0..1" Anuncio : origina

Candidatura "*" -- "1"  Freelancer: realizada por

ProcessoSeriacao "*" --> "1" TipoRegimento: decorre em concordância com
ProcessoSeriacao "1" --> "*" Classificacao: resulta

ProcessoAtribuicao "*" --> "1" TipoRegimento: decorre em concordância com
ProcessoAtribuicao "1" --> "*" Adjudicacao: resulta

Classificacao "0..1" --> "1" Candidatura: referente a

Tarefa "1" --> "0..1" Adjudicacao : tem


@enduml
