<?xml version="1.0" encoding="UTF-8" standalone="no"?><svg xmlns="http://www.w3.org/2000/svg" xmlns:xlink="http://www.w3.org/1999/xlink" contentScriptType="application/ecmascript" contentStyleType="text/css" height="557px" preserveAspectRatio="none" style="width:695px;height:557px;" version="1.1" viewBox="0 0 695 557" width="695px" zoomAndPan="magnify">
    <defs>
        <filter height="300%" id="f61i1j56m3xq9" width="300%" x="-1" y="-1">
            <feGaussianBlur result="blurOut" stdDeviation="2.0" />
            <feColorMatrix in="blurOut" result="blurOut2" type="matrix" values="0 0 0 0 0 0 0 0 0 0 0 0 0 0 0 0 0 0 .4 0" />
            <feOffset dx="4.0" dy="4.0" in="blurOut2" result="blurOut3" />
            <feBlend in="SourceGraphic" in2="blurOut3" mode="normal" />
        </filter>
    </defs>
    <g><text fill="#000000" font-family="sans-serif" font-size="18" lengthAdjust="spacingAndGlyphs" textLength="255" x="220.5" y="27.4023">SD_Criação_TimerTask_Timer</text>
        <rect fill="#FFFFFF" filter="url(#f61i1j56m3xq9)" height="403.4609" style="stroke: #A80036; stroke-width: 1.0;" width="10" x="153" y="104.998" />
        <rect fill="#FFFFFF" filter="url(#f61i1j56m3xq9)" height="96.9316" style="stroke: #A80036; stroke-width: 1.0;" width="10" x="398" y="411.5273" />
        <rect fill="#FFFFFF" filter="url(#f61i1j56m3xq9)" height="30" style="stroke: #A80036; stroke-width: 1.0;" width="10" x="634" y="352.2168" />
        <line style="stroke: #A80036; stroke-width: 1.0; stroke-dasharray: 5.0,5.0;" x1="158" x2="158" y1="73.6875" y2="517.459" />
        <line style="stroke: #A80036; stroke-width: 1.0; stroke-dasharray: 5.0,5.0;" x1="403" x2="403" y1="188.0527" y2="517.459" />
        <line style="stroke: #A80036; stroke-width: 1.0; stroke-dasharray: 5.0,5.0;" x1="639" x2="639" y1="318.1621" y2="517.459" />
        <rect fill="#FEFECE" filter="url(#f61i1j56m3xq9)" height="30.4883" style="stroke: #A80036; stroke-width: 1.5;" width="88" x="112" y="38.1992" /><text fill="#000000" font-family="sans-serif" font-size="14" lengthAdjust="spacingAndGlyphs" textLength="74" x="119" y="58.7344">Plataforma</text>
        <rect fill="#FEFECE" filter="url(#f61i1j56m3xq9)" height="30.4883" style="stroke: #A80036; stroke-width: 1.5;" width="88" x="112" y="516.459" /><text fill="#000000" font-family="sans-serif" font-size="14" lengthAdjust="spacingAndGlyphs" textLength="74" x="119" y="536.9941">Plataforma</text>
        <rect fill="#FEFECE" filter="url(#f61i1j56m3xq9)" height="30.4883" style="stroke: #A80036; stroke-width: 1.5;" width="260" x="271" y="516.459" /><text fill="#000000" font-family="sans-serif" font-size="14" lengthAdjust="spacingAndGlyphs" textLength="246" x="278" y="536.9941">task:SeriarAnuncioCandidaturaTask</text>
        <rect fill="#FEFECE" filter="url(#f61i1j56m3xq9)" height="30.4883" style="stroke: #A80036; stroke-width: 1.5;" width="94" x="590" y="516.459" /><text fill="#000000" font-family="sans-serif" font-size="14" lengthAdjust="spacingAndGlyphs" textLength="80" x="597" y="536.9941">timer:Timer</text>
        <rect fill="#FFFFFF" filter="url(#f61i1j56m3xq9)" height="403.4609" style="stroke: #A80036; stroke-width: 1.0;" width="10" x="153" y="104.998" />
        <rect fill="#FFFFFF" filter="url(#f61i1j56m3xq9)" height="96.9316" style="stroke: #A80036; stroke-width: 1.0;" width="10" x="398" y="411.5273" />
        <rect fill="#FFFFFF" filter="url(#f61i1j56m3xq9)" height="30" style="stroke: #A80036; stroke-width: 1.0;" width="10" x="634" y="352.2168" />
        <ellipse cx="10.5" cy="104.248" fill="none" rx="4" ry="4" style="stroke: #A80036; stroke-width: 1.5;" />
        <polygon fill="#A80036" points="141,100.998,151,104.998,141,108.998,145,104.998" style="stroke: #A80036; stroke-width: 1.0;" />
        <line style="stroke: #A80036; stroke-width: 1.0;" x1="15" x2="147" y1="104.998" y2="104.998" /><text fill="#000000" font-family="sans-serif" font-size="13" font-weight="bold" lengthAdjust="spacingAndGlyphs" textLength="9" x="18" y="100.2559">1</text><text fill="#000000" font-family="sans-serif" font-size="13" lengthAdjust="spacingAndGlyphs" textLength="110" x="31" y="100.2559">agendarSeriacao()</text>
        <line style="stroke: #A80036; stroke-width: 1.0;" x1="163" x2="205" y1="134.3086" y2="134.3086" />
        <line style="stroke: #A80036; stroke-width: 1.0;" x1="205" x2="205" y1="134.3086" y2="147.3086" />
        <line style="stroke: #A80036; stroke-width: 1.0;" x1="164" x2="205" y1="147.3086" y2="147.3086" />
        <polygon fill="#A80036" points="174,143.3086,164,147.3086,174,151.3086,170,147.3086" style="stroke: #A80036; stroke-width: 1.0;" /><text fill="#000000" font-family="sans-serif" font-size="13" font-weight="bold" lengthAdjust="spacingAndGlyphs" textLength="9" x="170" y="129.5664">2</text><text fill="#000000" font-family="sans-serif" font-size="13" lengthAdjust="spacingAndGlyphs" textLength="168" x="183" y="129.5664">info = getInfoAboutTask()</text>
        <polygon fill="#A80036" points="259,172.6191,269,176.6191,259,180.6191,263,176.6191" style="stroke: #A80036; stroke-width: 1.0;" />
        <line style="stroke: #A80036; stroke-width: 1.0; stroke-dasharray: 2.0,2.0;" x1="163" x2="265" y1="176.6191" y2="176.6191" /><text fill="#000000" font-family="sans-serif" font-size="13" font-weight="bold" lengthAdjust="spacingAndGlyphs" textLength="9" x="170" y="171.877">3</text><text fill="#000000" font-family="sans-serif" font-size="13" lengthAdjust="spacingAndGlyphs" textLength="71" x="183" y="171.877">create(info)</text>
        <rect fill="#FEFECE" filter="url(#f61i1j56m3xq9)" height="30.4883" style="stroke: #A80036; stroke-width: 1.5;" width="260" x="271" y="155.3086" /><text fill="#000000" font-family="sans-serif" font-size="14" lengthAdjust="spacingAndGlyphs" textLength="246" x="278" y="175.8438">task:SeriarAnuncioCandidaturaTask</text>
        <line style="stroke: #A80036; stroke-width: 1.0;" x1="163" x2="205" y1="222.1074" y2="222.1074" />
        <line style="stroke: #A80036; stroke-width: 1.0;" x1="205" x2="205" y1="222.1074" y2="235.1074" />
        <line style="stroke: #A80036; stroke-width: 1.0;" x1="164" x2="205" y1="235.1074" y2="235.1074" />
        <polygon fill="#A80036" points="174,231.1074,164,235.1074,174,239.1074,170,235.1074" style="stroke: #A80036; stroke-width: 1.0;" /><text fill="#000000" font-family="sans-serif" font-size="13" font-weight="bold" lengthAdjust="spacingAndGlyphs" textLength="9" x="170" y="217.3652">4</text><text fill="#000000" font-family="sans-serif" font-size="13" lengthAdjust="spacingAndGlyphs" textLength="114" x="183" y="217.3652">delay = getDelay()</text>
        <line style="stroke: #A80036; stroke-width: 1.0;" x1="163" x2="205" y1="264.418" y2="264.418" />
        <line style="stroke: #A80036; stroke-width: 1.0;" x1="205" x2="205" y1="264.418" y2="277.418" />
        <line style="stroke: #A80036; stroke-width: 1.0;" x1="164" x2="205" y1="277.418" y2="277.418" />
        <polygon fill="#A80036" points="174,273.418,164,277.418,174,281.418,170,277.418" style="stroke: #A80036; stroke-width: 1.0;" /><text fill="#000000" font-family="sans-serif" font-size="13" font-weight="bold" lengthAdjust="spacingAndGlyphs" textLength="9" x="170" y="259.6758">5</text><text fill="#000000" font-family="sans-serif" font-size="13" lengthAdjust="spacingAndGlyphs" textLength="160" x="183" y="259.6758">intervalo = getIntervalo();</text>
        <polygon fill="#A80036" points="578,302.7285,588,306.7285,578,310.7285,582,306.7285" style="stroke: #A80036; stroke-width: 1.0;" />
        <line style="stroke: #A80036; stroke-width: 1.0; stroke-dasharray: 2.0,2.0;" x1="163" x2="584" y1="306.7285" y2="306.7285" /><text fill="#000000" font-family="sans-serif" font-size="13" font-weight="bold" lengthAdjust="spacingAndGlyphs" textLength="9" x="170" y="301.9863">6</text><text fill="#000000" font-family="sans-serif" font-size="13" lengthAdjust="spacingAndGlyphs" textLength="46" x="183" y="301.9863">create()</text>
        <rect fill="#FEFECE" filter="url(#f61i1j56m3xq9)" height="30.4883" style="stroke: #A80036; stroke-width: 1.5;" width="94" x="590" y="285.418" /><text fill="#000000" font-family="sans-serif" font-size="14" lengthAdjust="spacingAndGlyphs" textLength="80" x="597" y="305.9531">timer:Timer</text>
        <polygon fill="#A80036" points="622,348.2168,632,352.2168,622,356.2168,626,352.2168" style="stroke: #A80036; stroke-width: 1.0;" />
        <line style="stroke: #A80036; stroke-width: 1.0;" x1="163" x2="628" y1="352.2168" y2="352.2168" /><text fill="#000000" font-family="sans-serif" font-size="13" font-weight="bold" lengthAdjust="spacingAndGlyphs" textLength="9" x="170" y="347.4746">7</text><text fill="#000000" font-family="sans-serif" font-size="13" lengthAdjust="spacingAndGlyphs" textLength="195" x="183" y="347.4746">schedule(task, delay, intervalo)</text>
        <polygon fill="#A80036" points="419,407.5273,409,411.5273,419,415.5273,415,411.5273" style="stroke: #A80036; stroke-width: 1.0;" />
        <line style="stroke: #A80036; stroke-width: 1.0;" x1="413" x2="638" y1="411.5273" y2="411.5273" /><text fill="#000000" font-family="sans-serif" font-size="13" font-weight="bold" lengthAdjust="spacingAndGlyphs" textLength="9" x="425" y="406.7852">8</text><text fill="#000000" font-family="sans-serif" font-size="13" lengthAdjust="spacingAndGlyphs" textLength="29" x="438" y="406.7852">run()</text>
        <line style="stroke: #A80036; stroke-width: 1.0;" x1="408" x2="450" y1="440.8379" y2="440.8379" />
        <line style="stroke: #A80036; stroke-width: 1.0;" x1="450" x2="450" y1="440.8379" y2="453.8379" />
        <line style="stroke: #A80036; stroke-width: 1.0;" x1="409" x2="450" y1="453.8379" y2="453.8379" />
        <polygon fill="#A80036" points="419,449.8379,409,453.8379,419,457.8379,415,453.8379" style="stroke: #A80036; stroke-width: 1.0;" /><text fill="#000000" font-family="sans-serif" font-size="13" font-weight="bold" lengthAdjust="spacingAndGlyphs" textLength="9" x="415" y="436.0957">9</text><text fill="#000000" font-family="sans-serif" font-size="13" lengthAdjust="spacingAndGlyphs" textLength="199" x="428" y="436.0957">seriarCandidaturasSubmetidas()</text>
        <rect fill="#FFFFFF" filter="url(#f61i1j56m3xq9)" height="40.6211" style="stroke: #000000; stroke-width: 2.0;" width="266" x="268" y="461.8379" />
        <polygon fill="#EEEEEE" points="268,461.8379,332,461.8379,332,468.8379,322,478.8379,268,478.8379,268,461.8379" style="stroke: #000000; stroke-width: 2.0;" /><text fill="#000000" font-family="sans-serif" font-size="13" font-weight="bold" lengthAdjust="spacingAndGlyphs" textLength="19" x="281" y="476.4063">ref</text><text fill="#000000" font-family="sans-serif" font-size="13" lengthAdjust="spacingAndGlyphs" textLength="215" x="295.5" y="495.4063">SD_SeriarCandidaturasSubmetidas</text>
        <!--MD5=[09395a879876521b869f2b23bc093b25]
@startuml
autonumber

title SD_Criação_TimerTask_Timer

participant "Plataforma" as PLAT
participant "task:SeriarAnuncioCandidaturaTask" as TASK
participant "timer:Timer" as TIMER

[o-> PLAT : agendarSeriacao()
activate PLAT

PLAT -> PLAT : info =  getInfoAboutTask()
PLAT - -> TASK ** : create(info)

PLAT -> PLAT : delay = getDelay()
PLAT -> PLAT : intervalo = getIntervalo();

PLAT - -> TIMER ** : create()

PLAT -> TIMER : schedule(task, delay, intervalo)
activate TIMER
deactivate TIMER

TIMER -> TASK : run()
activate TASK

TASK -> TASK : seriarCandidaturasSubmetidas()

ref over TASK : SD_SeriarCandidaturasSubmetidas




@enduml

PlantUML version 1.2020.02(Sun Mar 01 10:22:07 WET 2020)
(GPL source distribution)
Java Runtime: Java(TM) SE Runtime Environment
JVM: Java HotSpot(TM) 64-Bit Server VM
Java Version: 13.0.2+8
Operating System: Mac OS X
Default Encoding: UTF-8
Language: pt
Country: PT
-->
    </g>
</svg>