@startuml

skinparam classAttributeIconSize 0
hide methods
left to right direction

class Plataforma {
  -String designacao
}

class Organizacao {
  -String nome
  -String NIF
  -String website
  -String telefone
  -String email
}

class TipoRegimento
{
    -String designacao
    -String descricaoRegras
}


class Freelancer {
    -String nome
    -String NIF
    -String telefone
    -String email
}

class Anuncio
{
    -Date dtInicioPublicitacao
    -Date dtFimPublicitacao
    -Date dtInicioCandidatura
    -Date dtFimCandidatura
    -Date dtInicioSeriacao
    -Date dtFimSeriacao
}

class Candidatura
{
    -Date dataCandidatura
    -Double valorPretendido
    -Integer nrDias
    -String txtApresentacao
    -String txtMotivacao
}

class Classificacao
{
    -Integer lugar
}

class ProcessoSeriacao
{
    -Date dataRealizacao
}

class ProcessoAtribuicao{
    -Date dataRealizacao
}

class Adjudicacao{
-Double valorAceite
-Date dataAdjudicacao
-Date dataInicioTarefa
-Integer numSeq
-Integer nrDiasNecessarios
-String dsTarefa
}

 class Tarefa {
 -String referencia
 -String designacao
 -String descInformal
 -String descTecnica
 -Integer duracaoEst
 -Double custoEst
 }

 class Timer {
 }



Plataforma "1" -- "*" TipoRegimento : suporta >
Plataforma "1" -- "*" Anuncio : publicita >
Plataforma "1" -- "*" Freelancer : tem/usa  >
Plataforma "1" -- "*" Organizacao : tem registadas >

Plataforma "1" -- "1" Timer : usa >

Organizacao "1" -- "*" Tarefa : possui >

Timer "1" -- "*" ProcessoSeriacao : espoleta >

Anuncio "*" -- "1" TipoRegimento: rege-se por >
Anuncio "1" -- "*" Candidatura: recebe >
Anuncio "1" -- "0..1" ProcessoSeriacao: espoleta >
Anuncio "1" -- "0..1" ProcessoAtribuicao : espoleta >
Anuncio "0..1" -- "1" Tarefa: publicita >
Anuncio "0..1" -- "1" Tarefa: dá origem <

Candidatura "*" -- "1"  Freelancer: realizada por >

ProcessoSeriacao "*" -- "1" TipoRegimento: decorre em concordância com >
ProcessoSeriacao "1" -- "*" Classificacao: resulta >


Classificacao "0..1" -- "1" Candidatura: referente a >

ProcessoAtribuicao "*" -- "1" TipoRegimento: decorre em concordância com >
ProcessoAtribuicao "1" -- "1" Adjudicacao : resulta >

Adjudicacao "1" -- "1" Tarefa : referente a >
Adjudicacao "1" -- "1" Anuncio : referente a >
Adjudicacao "*" -- "1" Freelancer : atribuida a >
Adjudicacao "*" -- "1" Organizacao : referente a >


@enduml
