<?xml version="1.0" encoding="UTF-8" standalone="no"?><svg xmlns="http://www.w3.org/2000/svg" xmlns:xlink="http://www.w3.org/1999/xlink" contentScriptType="application/ecmascript" contentStyleType="text/css" height="380px" preserveAspectRatio="none" style="width:422px;height:380px;" version="1.1" viewBox="0 0 422 380" width="422.4px" zoomAndPan="magnify"><defs><filter height="300%" id="f1a4ez1yzcp77d" width="300%" x="-1" y="-1"><feGaussianBlur result="blurOut" stdDeviation="1.6"/><feColorMatrix in="blurOut" result="blurOut2" type="matrix" values="0 0 0 0 0 0 0 0 0 0 0 0 0 0 0 0 0 0 .4 0"/><feOffset dx="3.2" dy="3.2" in="blurOut2" result="blurOut3"/><feBlend in="SourceGraphic" in2="blurOut3" mode="normal"/></filter></defs><g><rect fill="#FFFFFF" filter="url(#f1a4ez1yzcp77d)" height="218.4844" style="stroke: #A80036; stroke-width: 0.8;" width="8" x="56.8" y="77.1906"/><rect fill="#FFFFFF" filter="url(#f1a4ez1yzcp77d)" height="35.6969" style="stroke: #A80036; stroke-width: 0.8;" width="8" x="372" y="94.2391"/><rect fill="#FFFFFF" filter="url(#f1a4ez1yzcp77d)" height="42.8969" style="stroke: #A80036; stroke-width: 0.8;" width="8" x="372" y="153.3844"/><rect fill="#FFFFFF" filter="url(#f1a4ez1yzcp77d)" height="29.0484" style="stroke: #A80036; stroke-width: 0.8;" width="8" x="372" y="219.7297"/><rect fill="#FFFFFF" filter="url(#f1a4ez1yzcp77d)" height="23.4484" style="stroke: #A80036; stroke-width: 0.8;" width="8" x="372" y="272.2266"/><rect fill="#FFFFFF" filter="url(#f1a4ez1yzcp77d)" height="60.7453" style="stroke: #000000; stroke-width: 1.6;" width="403.6" x="10.4" y="165.3844"/><line style="stroke: #A80036; stroke-width: 0.8; stroke-dasharray: 5.0,5.0;" x1="60.8" x2="60.8" y1="69.1906" y2="310.075"/><line style="stroke: #A80036; stroke-width: 0.8; stroke-dasharray: 5.0,5.0;" x1="375.6" x2="375.6" y1="69.1906" y2="310.075"/><text fill="#000000" font-family="sans-serif" font-size="11.2" lengthAdjust="spacingAndGlyphs" textLength="80" x="18.4" y="66.8281">Administrativo</text><ellipse cx="60.8" cy="10.4" fill="#FEFECE" filter="url(#f1a4ez1yzcp77d)" rx="6.4" ry="6.4" style="stroke: #A80036; stroke-width: 1.6;"/><path d="M60.8,16.8 L60.8,38.4 M50.4,23.2 L71.2,23.2 M60.8,38.4 L50.4,50.4 M60.8,38.4 L71.2,50.4 " fill="none" filter="url(#f1a4ez1yzcp77d)" style="stroke: #A80036; stroke-width: 1.6;"/><text fill="#000000" font-family="sans-serif" font-size="11.2" lengthAdjust="spacingAndGlyphs" textLength="80" x="18.4" y="320.1031">Administrativo</text><ellipse cx="60.8" cy="330.4656" fill="#FEFECE" filter="url(#f1a4ez1yzcp77d)" rx="6.4" ry="6.4" style="stroke: #A80036; stroke-width: 1.6;"/><path d="M60.8,336.8656 L60.8,358.4656 M50.4,343.2656 L71.2,343.2656 M60.8,358.4656 L50.4,370.4656 M60.8,358.4656 L71.2,370.4656 " fill="none" filter="url(#f1a4ez1yzcp77d)" style="stroke: #A80036; stroke-width: 1.6;"/><rect fill="#FEFECE" filter="url(#f1a4ez1yzcp77d)" height="24.3906" style="stroke: #A80036; stroke-width: 1.2000000000000002;" width="56.8" x="346" y="40.8"/><text fill="#000000" font-family="sans-serif" font-size="11.2" lengthAdjust="spacingAndGlyphs" textLength="45.6" x="351.6" y="57.2281">:Sistema</text><rect fill="#FEFECE" filter="url(#f1a4ez1yzcp77d)" height="24.3906" style="stroke: #A80036; stroke-width: 1.2000000000000002;" width="56.8" x="346" y="309.275"/><text fill="#000000" font-family="sans-serif" font-size="11.2" lengthAdjust="spacingAndGlyphs" textLength="45.6" x="351.6" y="325.7031">:Sistema</text><rect fill="#FFFFFF" filter="url(#f1a4ez1yzcp77d)" height="218.4844" style="stroke: #A80036; stroke-width: 0.8;" width="8" x="56.8" y="77.1906"/><rect fill="#FFFFFF" filter="url(#f1a4ez1yzcp77d)" height="35.6969" style="stroke: #A80036; stroke-width: 0.8;" width="8" x="372" y="94.2391"/><rect fill="#FFFFFF" filter="url(#f1a4ez1yzcp77d)" height="42.8969" style="stroke: #A80036; stroke-width: 0.8;" width="8" x="372" y="153.3844"/><rect fill="#FFFFFF" filter="url(#f1a4ez1yzcp77d)" height="29.0484" style="stroke: #A80036; stroke-width: 0.8;" width="8" x="372" y="219.7297"/><rect fill="#FFFFFF" filter="url(#f1a4ez1yzcp77d)" height="23.4484" style="stroke: #A80036; stroke-width: 0.8;" width="8" x="372" y="272.2266"/><polygon fill="#A80036" points="362.4,91.0391,370.4,94.2391,362.4,97.4391,365.6,94.2391" style="stroke: #A80036; stroke-width: 0.8;"/><line style="stroke: #A80036; stroke-width: 0.8;" x1="64.8" x2="367.2" y1="94.2391" y2="94.2391"/><text fill="#000000" font-family="sans-serif" font-size="10.4" font-weight="bold" lengthAdjust="spacingAndGlyphs" textLength="7.2" x="70.4" y="90.4453">1</text><text fill="#000000" font-family="sans-serif" font-size="10.4" lengthAdjust="spacingAndGlyphs" textLength="253.6" x="80.8" y="90.4453">inicia a especificação de uma competência técnica</text><polygon fill="#A80036" points="73.6,126.7359,65.6,129.9359,73.6,133.1359,70.4,129.9359" style="stroke: #A80036; stroke-width: 0.8;"/><line style="stroke: #A80036; stroke-width: 0.8; stroke-dasharray: 2.0,2.0;" x1="68.8" x2="375.2" y1="129.9359" y2="129.9359"/><text fill="#000000" font-family="sans-serif" font-size="10.4" font-weight="bold" lengthAdjust="spacingAndGlyphs" textLength="7.2" x="78.4" y="120.018">2</text><text fill="#000000" font-family="sans-serif" font-size="10.4" lengthAdjust="spacingAndGlyphs" textLength="85.6" x="88.8" y="113.8938">solicita os dados</text><text fill="#000000" font-family="sans-serif" font-size="10.4" lengthAdjust="spacingAndGlyphs" textLength="277.6" x="88.8" y="126.1422">(código, área de atividade, descrição breve e detalhada)</text><polygon fill="#A80036" points="362.4,150.1844,370.4,153.3844,362.4,156.5844,365.6,153.3844" style="stroke: #A80036; stroke-width: 0.8;"/><line style="stroke: #A80036; stroke-width: 0.8;" x1="64.8" x2="367.2" y1="153.3844" y2="153.3844"/><text fill="#000000" font-family="sans-serif" font-size="10.4" font-weight="bold" lengthAdjust="spacingAndGlyphs" textLength="7.2" x="70.4" y="149.5906">3</text><text fill="#000000" font-family="sans-serif" font-size="10.4" lengthAdjust="spacingAndGlyphs" textLength="149.6" x="80.8" y="149.5906">introduz os dados solicitados</text><path d="M10.4,165.3844 L69.6,165.3844 L69.6,170.9844 L61.6,178.9844 L10.4,178.9844 L10.4,165.3844 " fill="#EEEEEE" style="stroke: #000000; stroke-width: 0.8;"/><rect fill="none" height="60.7453" style="stroke: #000000; stroke-width: 1.6;" width="403.6" x="10.4" y="165.3844"/><text fill="#000000" font-family="sans-serif" font-size="10.4" font-weight="bold" lengthAdjust="spacingAndGlyphs" textLength="23.2" x="22.4" y="176.2391">loop</text><polygon fill="#A80036" points="73.6,193.0813,65.6,196.2813,73.6,199.4813,70.4,196.2813" style="stroke: #A80036; stroke-width: 0.8;"/><line style="stroke: #A80036; stroke-width: 0.8; stroke-dasharray: 2.0,2.0;" x1="68.8" x2="375.2" y1="196.2813" y2="196.2813"/><text fill="#000000" font-family="sans-serif" font-size="10.4" font-weight="bold" lengthAdjust="spacingAndGlyphs" textLength="7.2" x="78.4" y="192.4875">4</text><text fill="#000000" font-family="sans-serif" font-size="10.4" lengthAdjust="spacingAndGlyphs" textLength="247.2" x="88.8" y="192.4875">solicita os vários graus de proficiência aplicaveis</text><polygon fill="#A80036" points="362.4,216.5297,370.4,219.7297,362.4,222.9297,365.6,219.7297" style="stroke: #A80036; stroke-width: 0.8;"/><line style="stroke: #A80036; stroke-width: 0.8;" x1="64.8" x2="367.2" y1="219.7297" y2="219.7297"/><text fill="#000000" font-family="sans-serif" font-size="10.4" font-weight="bold" lengthAdjust="spacingAndGlyphs" textLength="7.2" x="70.4" y="215.9359">5</text><text fill="#000000" font-family="sans-serif" font-size="10.4" lengthAdjust="spacingAndGlyphs" textLength="158.4" x="80.8" y="215.9359">introduz os dados de cada grau</text><polygon fill="#A80036" points="73.6,245.5781,65.6,248.7781,73.6,251.9781,70.4,248.7781" style="stroke: #A80036; stroke-width: 0.8;"/><line style="stroke: #A80036; stroke-width: 0.8; stroke-dasharray: 2.0,2.0;" x1="68.8" x2="375.2" y1="248.7781" y2="248.7781"/><text fill="#000000" font-family="sans-serif" font-size="10.4" font-weight="bold" lengthAdjust="spacingAndGlyphs" textLength="7.2" x="78.4" y="244.9844">6</text><text fill="#000000" font-family="sans-serif" font-size="10.4" lengthAdjust="spacingAndGlyphs" textLength="212" x="88.8" y="244.9844">apresenta os dados e solicita confirmação</text><polygon fill="#A80036" points="362.4,269.0266,370.4,272.2266,362.4,275.4266,365.6,272.2266" style="stroke: #A80036; stroke-width: 0.8;"/><line style="stroke: #A80036; stroke-width: 0.8;" x1="64.8" x2="367.2" y1="272.2266" y2="272.2266"/><text fill="#000000" font-family="sans-serif" font-size="10.4" font-weight="bold" lengthAdjust="spacingAndGlyphs" textLength="7.2" x="70.4" y="268.4328">7</text><text fill="#000000" font-family="sans-serif" font-size="10.4" lengthAdjust="spacingAndGlyphs" textLength="93.6" x="80.8" y="268.4328">confirma os dados</text><polygon fill="#A80036" points="69.6,292.475,61.6,295.675,69.6,298.875,66.4,295.675" style="stroke: #A80036; stroke-width: 0.8;"/><line style="stroke: #A80036; stroke-width: 0.8; stroke-dasharray: 2.0,2.0;" x1="64.8" x2="375.2" y1="295.675" y2="295.675"/><text fill="#000000" font-family="sans-serif" font-size="10.4" font-weight="bold" lengthAdjust="spacingAndGlyphs" textLength="7.2" x="74.4" y="291.8813">8</text><text fill="#000000" font-family="sans-serif" font-size="10.4" lengthAdjust="spacingAndGlyphs" textLength="163.2" x="84.8" y="291.8813">informa do sucesso da operação</text><!--MD5=[da10a888e6fa9acd5effb008488b82f6]
@startuml
autonumber
actor "Administrativo" as ADM

activate ADM
ADM -> ":Sistema" : inicia a especificação de uma competência técnica
activate ":Sistema"
":Sistema" - -> ADM : solicita os dados \n(código, área de atividade, descrição breve e detalhada)
deactivate ":Sistema"

ADM -> ":Sistema" : introduz os dados solicitados
activate ":Sistema"

loop
":Sistema" - -> ADM : solicita os vários graus de proficiência aplicaveis
deactivate ":Sistema"

ADM -> ":Sistema" : introduz os dados de cada grau
activate ":Sistema"
end loop


":Sistema" - -> ADM : apresenta os dados e solicita confirmação
deactivate ":Sistema"

ADM -> ":Sistema" : confirma os dados
activate ":Sistema"
":Sistema" - -> ADM : informa do sucesso da operação
deactivate ":Sistema"

deactivate ADM

@enduml

PlantUML version 1.2020.03beta6(Unknown compile time)
(GPL source distribution)
Java Runtime: OpenJDK Runtime Environment
JVM: OpenJDK 64-Bit Server VM
Java Version: 11.0.5+10-b520.38
Operating System: Mac OS X
Default Encoding: UTF-8
Language: en
Country: PT
--></g></svg>