<?xml version="1.0" encoding="UTF-8" standalone="no"?><svg xmlns="http://www.w3.org/2000/svg" xmlns:xlink="http://www.w3.org/1999/xlink" contentScriptType="application/ecmascript" contentStyleType="text/css" height="400px" preserveAspectRatio="none" style="width:492px;height:400px;" version="1.1" viewBox="0 0 492 400" width="492px" zoomAndPan="magnify"><defs><filter height="300%" id="f7it5zxxtwohs" width="300%" x="-1" y="-1"><feGaussianBlur result="blurOut" stdDeviation="2.0"/><feColorMatrix in="blurOut" result="blurOut2" type="matrix" values="0 0 0 0 0 0 0 0 0 0 0 0 0 0 0 0 0 0 .4 0"/><feOffset dx="4.0" dy="4.0" in="blurOut2" result="blurOut3"/><feBlend in="SourceGraphic" in2="blurOut3" mode="normal"/></filter></defs><g><rect fill="#FFFFFF" filter="url(#f7it5zxxtwohs)" height="198.4844" style="stroke: #A80036; stroke-width: 1.0;" width="10" x="91" y="96.4883"/><rect fill="#FFFFFF" filter="url(#f7it5zxxtwohs)" height="59.9316" style="stroke: #A80036; stroke-width: 1.0;" width="10" x="443" y="117.7988"/><rect fill="#FFFFFF" filter="url(#f7it5zxxtwohs)" height="29.3105" style="stroke: #A80036; stroke-width: 1.0;" width="10" x="443" y="207.041"/><rect fill="#FFFFFF" filter="url(#f7it5zxxtwohs)" height="29.3105" style="stroke: #A80036; stroke-width: 1.0;" width="10" x="443" y="265.6621"/><line style="stroke: #A80036; stroke-width: 1.0; stroke-dasharray: 5.0,5.0;" x1="96" x2="96" y1="86.4883" y2="312.9727"/><line style="stroke: #A80036; stroke-width: 1.0; stroke-dasharray: 5.0,5.0;" x1="447.5" x2="447.5" y1="86.4883" y2="312.9727"/><text fill="#000000" font-family="sans-serif" font-size="14" lengthAdjust="spacingAndGlyphs" textLength="170" x="8" y="83.5352">Utilizador Não Registado</text><ellipse cx="96" cy="13" fill="#FEFECE" filter="url(#f7it5zxxtwohs)" rx="8" ry="8" style="stroke: #A80036; stroke-width: 2.0;"/><path d="M96,21 L96,48 M83,29 L109,29 M96,48 L83,63 M96,48 L109,63 " fill="none" filter="url(#f7it5zxxtwohs)" style="stroke: #A80036; stroke-width: 2.0;"/><text fill="#000000" font-family="sans-serif" font-size="14" lengthAdjust="spacingAndGlyphs" textLength="170" x="8" y="325.5078">Utilizador Não Registado</text><ellipse cx="96" cy="338.4609" fill="#FEFECE" filter="url(#f7it5zxxtwohs)" rx="8" ry="8" style="stroke: #A80036; stroke-width: 2.0;"/><path d="M96,346.4609 L96,373.4609 M83,354.4609 L109,354.4609 M96,373.4609 L83,388.4609 M96,373.4609 L109,388.4609 " fill="none" filter="url(#f7it5zxxtwohs)" style="stroke: #A80036; stroke-width: 2.0;"/><rect fill="#FEFECE" filter="url(#f7it5zxxtwohs)" height="30.4883" style="stroke: #A80036; stroke-width: 1.5;" width="71" x="410.5" y="51"/><text fill="#000000" font-family="sans-serif" font-size="14" lengthAdjust="spacingAndGlyphs" textLength="57" x="417.5" y="71.5352">:Sistema</text><rect fill="#FEFECE" filter="url(#f7it5zxxtwohs)" height="30.4883" style="stroke: #A80036; stroke-width: 1.5;" width="71" x="410.5" y="311.9727"/><text fill="#000000" font-family="sans-serif" font-size="14" lengthAdjust="spacingAndGlyphs" textLength="57" x="417.5" y="332.5078">:Sistema</text><rect fill="#FFFFFF" filter="url(#f7it5zxxtwohs)" height="198.4844" style="stroke: #A80036; stroke-width: 1.0;" width="10" x="91" y="96.4883"/><rect fill="#FFFFFF" filter="url(#f7it5zxxtwohs)" height="59.9316" style="stroke: #A80036; stroke-width: 1.0;" width="10" x="443" y="117.7988"/><rect fill="#FFFFFF" filter="url(#f7it5zxxtwohs)" height="29.3105" style="stroke: #A80036; stroke-width: 1.0;" width="10" x="443" y="207.041"/><rect fill="#FFFFFF" filter="url(#f7it5zxxtwohs)" height="29.3105" style="stroke: #A80036; stroke-width: 1.0;" width="10" x="443" y="265.6621"/><polygon fill="#A80036" points="431,113.7988,441,117.7988,431,121.7988,435,117.7988" style="stroke: #A80036; stroke-width: 1.0;"/><line style="stroke: #A80036; stroke-width: 1.0;" x1="101" x2="437" y1="117.7988" y2="117.7988"/><text fill="#000000" font-family="sans-serif" font-size="13" font-weight="bold" lengthAdjust="spacingAndGlyphs" textLength="9" x="108" y="113.0566">1</text><text fill="#000000" font-family="sans-serif" font-size="13" lengthAdjust="spacingAndGlyphs" textLength="128" x="121" y="113.0566">registar organização</text><polygon fill="#A80036" points="112,173.7305,102,177.7305,112,181.7305,108,177.7305" style="stroke: #A80036; stroke-width: 1.0;"/><line style="stroke: #A80036; stroke-width: 1.0; stroke-dasharray: 2.0,2.0;" x1="106" x2="447" y1="177.7305" y2="177.7305"/><text fill="#000000" font-family="sans-serif" font-size="13" font-weight="bold" lengthAdjust="spacingAndGlyphs" textLength="9" x="118" y="157.6777">2</text><text fill="#000000" font-family="sans-serif" font-size="13" lengthAdjust="spacingAndGlyphs" textLength="168" x="131" y="142.3672">solicita dados organização</text><text fill="#000000" font-family="sans-serif" font-size="13" lengthAdjust="spacingAndGlyphs" textLength="290" x="131" y="157.6777">(nome,NIF, endereço, telefone, website, email)</text><text fill="#000000" font-family="sans-serif" font-size="13" lengthAdjust="spacingAndGlyphs" textLength="301" x="135" y="172.9883">e sobre o gestor (nome, função, telefone, email)</text><polygon fill="#A80036" points="431,203.041,441,207.041,431,211.041,435,207.041" style="stroke: #A80036; stroke-width: 1.0;"/><line style="stroke: #A80036; stroke-width: 1.0;" x1="101" x2="437" y1="207.041" y2="207.041"/><text fill="#000000" font-family="sans-serif" font-size="13" font-weight="bold" lengthAdjust="spacingAndGlyphs" textLength="9" x="108" y="202.2988">3</text><text fill="#000000" font-family="sans-serif" font-size="13" lengthAdjust="spacingAndGlyphs" textLength="187" x="121" y="202.2988">introduz os dados solicitados</text><polygon fill="#A80036" points="112,232.3516,102,236.3516,112,240.3516,108,236.3516" style="stroke: #A80036; stroke-width: 1.0;"/><line style="stroke: #A80036; stroke-width: 1.0; stroke-dasharray: 2.0,2.0;" x1="106" x2="447" y1="236.3516" y2="236.3516"/><text fill="#000000" font-family="sans-serif" font-size="13" font-weight="bold" lengthAdjust="spacingAndGlyphs" textLength="9" x="118" y="231.6094">4</text><text fill="#000000" font-family="sans-serif" font-size="13" lengthAdjust="spacingAndGlyphs" textLength="246" x="131" y="231.6094">apresenta dados e solicita confirmação</text><polygon fill="#A80036" points="431,261.6621,441,265.6621,431,269.6621,435,265.6621" style="stroke: #A80036; stroke-width: 1.0;"/><line style="stroke: #A80036; stroke-width: 1.0;" x1="101" x2="437" y1="265.6621" y2="265.6621"/><text fill="#000000" font-family="sans-serif" font-size="13" font-weight="bold" lengthAdjust="spacingAndGlyphs" textLength="9" x="108" y="260.9199">5</text><text fill="#000000" font-family="sans-serif" font-size="13" lengthAdjust="spacingAndGlyphs" textLength="56" x="121" y="260.9199">confirma</text><polygon fill="#A80036" points="107,290.9727,97,294.9727,107,298.9727,103,294.9727" style="stroke: #A80036; stroke-width: 1.0;"/><line style="stroke: #A80036; stroke-width: 1.0; stroke-dasharray: 2.0,2.0;" x1="101" x2="447" y1="294.9727" y2="294.9727"/><text fill="#000000" font-family="sans-serif" font-size="13" font-weight="bold" lengthAdjust="spacingAndGlyphs" textLength="9" x="113" y="290.2305">6</text><text fill="#000000" font-family="sans-serif" font-size="13" lengthAdjust="spacingAndGlyphs" textLength="148" x="126" y="290.2305">operação bem sucedida</text><!--MD5=[bf243ab2d22b6c192aa6ea2bed37f1f7]
@startuml
autonumber
actor "Utilizador Não Registado" as UNR

activate UNR
UNR -> ":Sistema" : registar organização
activate ":Sistema"
":Sistema" - -> UNR : solicita dados organização \n(nome,NIF, endereço, telefone, website, email)\n e sobre o gestor (nome, função, telefone, email)
deactivate ":Sistema"

UNR -> ":Sistema" : introduz os dados solicitados
activate ":Sistema"
":Sistema" - -> UNR : apresenta dados e solicita confirmação
deactivate ":Sistema"

UNR -> ":Sistema" : confirma
activate ":Sistema"
":Sistema" - -> UNR : operação bem sucedida
deactivate ":Sistema"

deactivate UNR
@enduml

PlantUML version 1.2020.03beta6(Unknown compile time)
(GPL source distribution)
Java Runtime: OpenJDK Runtime Environment
JVM: OpenJDK 64-Bit Server VM
Java Version: 11.0.5+10-b520.38
Operating System: Mac OS X
Default Encoding: UTF-8
Language: en
Country: PT
--></g></svg>