
@startuml
autonumber
actor "Administrativo" as ADM

activate ADM
ADM -> ":Sistema" : nova categoria de tarefa
activate ":Sistema"
":Sistema" --> ADM : solicita dados \n(identificador interno, descrição, área de atividade, competências técnicas)
deactivate ":Sistema"

ADM -> ":Sistema" : introduz os dados solicitados
activate ":Sistema"
":Sistema" --> ADM : apresenta dados e solicita confirmação
deactivate ":Sistema"

ADM -> ":Sistema" : confirma
activate ":Sistema"
":Sistema" --> ADM : operação bem sucedida 
deactivate ":Sistema"

deactivate ADM

@enduml
