@startuml
hide methods
left to right direction

class CategoriaTarefa {
  -String identInterno
  -String descriçao
  
 
}

class Plataforma {
  -String designacao
} 

class Utilizador {
  -String nome
  -String email
  -String password
}

class Administrativo {
  
}

class AreaAtividade {
  -String codigo
  -String descBreve
  -String descDetalhada
 
}

class CompetenciaTecnica{
  -String codigo
  -String descBreve
  -String descDetalhada

}

class CaracterCompetencia{
  -boolean obrigatoriedade

}


class Tarefa {
  -String referencia
  -String designacao
  -String descInformal
  -String descCaracterTecnico
  -String duracao
  -String custo
}

Plataforma "1" -- "*" Administrativo : tem  >
Administrativo "0..1" -- "1" Utilizador: atua como > 
Administrativo "1" -- "1" CategoriaTarefa: define >
CategoriaTarefa "1" -- "*" CompetenciaTecnica: possui > 
CompetenciaTecnica "1" -- CaracterCompetencia: tem >
CompetenciaTecnica -- AreaAtividade: referente a >
CategoriaTarefa -- Tarefa: está associada a >
@enduml
