<?xml version="1.0" encoding="UTF-8"?><svg xmlns="http://www.w3.org/2000/svg" xmlns:xlink="http://www.w3.org/1999/xlink" contentScriptType="application/ecmascript" contentStyleType="text/css" height="391px" preserveAspectRatio="none" style="width:870px;height:391px;" version="1.1" viewBox="0 0 870 391" width="870px" zoomAndPan="magnify">
    <defs>
        <filter height="300%" id="fq1atrct5d7ac" width="300%" x="-1" y="-1">
            <feGaussianBlur result="blurOut" stdDeviation="2.0"/>
            <feColorMatrix in="blurOut" result="blurOut2" type="matrix" values="0 0 0 0 0 0 0 0 0 0 0 0 0 0 0 0 0 0 .4 0"/>
            <feOffset dx="4.0" dy="4.0" in="blurOut2" result="blurOut3"/>
            <feBlend in="SourceGraphic" in2="blurOut3" mode="normal"/>
        </filter>
    </defs>
    <g>
        <rect fill="#FFFFFF" filter="url(#fq1atrct5d7ac)" height="190.1094" style="stroke: #A80036; stroke-width: 1.0;" width="10" x="50" y="97.6094"/>
        <rect fill="#FFFFFF" filter="url(#fq1atrct5d7ac)" height="46.3516" style="stroke: #A80036; stroke-width: 1.0;" width="10" x="824" y="119.6094"/>
        <rect fill="#FFFFFF" filter="url(#fq1atrct5d7ac)" height="30.3516" style="stroke: #A80036; stroke-width: 1.0;" width="10" x="824" y="196.6641"/>
        <rect fill="#FFFFFF" filter="url(#fq1atrct5d7ac)" height="30.3516" style="stroke: #A80036; stroke-width: 1.0;" width="10" x="824" y="257.3672"/>
        <line style="stroke: #A80036; stroke-width: 1.0; stroke-dasharray: 5.0,5.0;" x1="55" x2="55" y1="87.6094" y2="306.0703"/>
        <line style="stroke: #A80036; stroke-width: 1.0; stroke-dasharray: 5.0,5.0;" x1="829" x2="829" y1="87.6094" y2="306.0703"/>
        <text fill="#000000" font-family="sans-serif" font-size="14" lengthAdjust="spacingAndGlyphs" textLength="88" x="8" y="84.5332">Administrativo</text>
        <ellipse cx="55" cy="13" fill="#FEFECE" filter="url(#fq1atrct5d7ac)" rx="8" ry="8" style="stroke: #A80036; stroke-width: 2.0;"/>
        <path d="M55,21 L55,48 M42,29 L68,29 M55,48 L42,63 M55,48 L68,63 " fill="#FEFECE" filter="url(#fq1atrct5d7ac)" style="stroke: #A80036; stroke-width: 2.0;"/>
        <text fill="#000000" font-family="sans-serif" font-size="14" lengthAdjust="spacingAndGlyphs" textLength="88" x="8" y="319.6035">Administrativo</text>
        <ellipse cx="55" cy="332.6797" fill="#FEFECE" filter="url(#fq1atrct5d7ac)" rx="8" ry="8" style="stroke: #A80036; stroke-width: 2.0;"/>
        <path d="M55,340.6797 L55,367.6797 M42,348.6797 L68,348.6797 M55,367.6797 L42,382.6797 M55,367.6797 L68,382.6797 " fill="#FEFECE" filter="url(#fq1atrct5d7ac)" style="stroke: #A80036; stroke-width: 2.0;"/>
        <rect fill="#FEFECE" filter="url(#fq1atrct5d7ac)" height="31.6094" style="stroke: #A80036; stroke-width: 1.5;" width="68" x="793" y="51"/>
        <text fill="#000000" font-family="sans-serif" font-size="14" lengthAdjust="spacingAndGlyphs" textLength="54" x="800" y="72.5332">:Sistema</text>
        <rect fill="#FEFECE" filter="url(#fq1atrct5d7ac)" height="31.6094" style="stroke: #A80036; stroke-width: 1.5;" width="68" x="793" y="305.0703"/>
        <text fill="#000000" font-family="sans-serif" font-size="14" lengthAdjust="spacingAndGlyphs" textLength="54" x="800" y="326.6035">:Sistema</text>
        <rect fill="#FFFFFF" filter="url(#fq1atrct5d7ac)" height="190.1094" style="stroke: #A80036; stroke-width: 1.0;" width="10" x="50" y="97.6094"/>
        <rect fill="#FFFFFF" filter="url(#fq1atrct5d7ac)" height="46.3516" style="stroke: #A80036; stroke-width: 1.0;" width="10" x="824" y="119.6094"/>
        <rect fill="#FFFFFF" filter="url(#fq1atrct5d7ac)" height="30.3516" style="stroke: #A80036; stroke-width: 1.0;" width="10" x="824" y="196.6641"/>
        <rect fill="#FFFFFF" filter="url(#fq1atrct5d7ac)" height="30.3516" style="stroke: #A80036; stroke-width: 1.0;" width="10" x="824" y="257.3672"/>
        <polygon fill="#A80036" points="812,115.6094,822,119.6094,812,123.6094,816,119.6094" style="stroke: #A80036; stroke-width: 1.0;"/>
        <line style="stroke: #A80036; stroke-width: 1.0;" x1="60" x2="818" y1="119.6094" y2="119.6094"/>
        <text fill="#000000" font-family="sans-serif" font-size="13" font-weight="bold" lengthAdjust="spacingAndGlyphs" textLength="7" x="67" y="115.1045">1</text>
        <text fill="#000000" font-family="sans-serif" font-size="13" lengthAdjust="spacingAndGlyphs" textLength="257" x="78" y="115.1045">inicia especificação de Competência técnica</text>
        <polygon fill="#A80036" points="71,161.9609,61,165.9609,71,169.9609,67,165.9609" style="stroke: #A80036; stroke-width: 1.0;"/>
        <line style="stroke: #A80036; stroke-width: 1.0; stroke-dasharray: 2.0,2.0;" x1="65" x2="828" y1="165.9609" y2="165.9609"/>
        <text fill="#000000" font-family="sans-serif" font-size="13" font-weight="bold" lengthAdjust="spacingAndGlyphs" textLength="7" x="77" y="153.6318">2</text>
        <text fill="#000000" font-family="sans-serif" font-size="13" lengthAdjust="spacingAndGlyphs" textLength="98" x="88" y="145.4561">solicita os dados</text>
        <text fill="#000000" font-family="sans-serif" font-size="13" lengthAdjust="spacingAndGlyphs" textLength="729" x="88" y="161.8076">(i.e. através de um código único, uma descrição breve, outra mais detalha, o seu caracter de competência e área de atividade)</text>
        <polygon fill="#A80036" points="812,192.6641,822,196.6641,812,200.6641,816,196.6641" style="stroke: #A80036; stroke-width: 1.0;"/>
        <line style="stroke: #A80036; stroke-width: 1.0;" x1="60" x2="818" y1="196.6641" y2="196.6641"/>
        <text fill="#000000" font-family="sans-serif" font-size="13" font-weight="bold" lengthAdjust="spacingAndGlyphs" textLength="7" x="67" y="192.1592">3</text>
        <text fill="#000000" font-family="sans-serif" font-size="13" lengthAdjust="spacingAndGlyphs" textLength="169" x="78" y="192.1592">introduz os dados solicitados</text>
        <polygon fill="#A80036" points="71,223.0156,61,227.0156,71,231.0156,67,227.0156" style="stroke: #A80036; stroke-width: 1.0;"/>
        <line style="stroke: #A80036; stroke-width: 1.0; stroke-dasharray: 2.0,2.0;" x1="65" x2="828" y1="227.0156" y2="227.0156"/>
        <text fill="#000000" font-family="sans-serif" font-size="13" font-weight="bold" lengthAdjust="spacingAndGlyphs" textLength="7" x="77" y="222.5107">4</text>
        <text fill="#000000" font-family="sans-serif" font-size="13" lengthAdjust="spacingAndGlyphs" textLength="244" x="88" y="222.5107">apresenta os dados e solicita confirmação</text>
        <polygon fill="#A80036" points="812,253.3672,822,257.3672,812,261.3672,816,257.3672" style="stroke: #A80036; stroke-width: 1.0;"/>
        <line style="stroke: #A80036; stroke-width: 1.0;" x1="60" x2="818" y1="257.3672" y2="257.3672"/>
        <text fill="#000000" font-family="sans-serif" font-size="13" font-weight="bold" lengthAdjust="spacingAndGlyphs" textLength="7" x="67" y="252.8623">5</text>
        <text fill="#000000" font-family="sans-serif" font-size="13" lengthAdjust="spacingAndGlyphs" textLength="49" x="78" y="252.8623">confirma</text>
        <polygon fill="#A80036" points="66,283.7188,56,287.7188,66,291.7188,62,287.7188" style="stroke: #A80036; stroke-width: 1.0;"/>
        <line style="stroke: #A80036; stroke-width: 1.0; stroke-dasharray: 2.0,2.0;" x1="60" x2="828" y1="287.7188" y2="287.7188"/>
        <text fill="#000000" font-family="sans-serif" font-size="13" font-weight="bold" lengthAdjust="spacingAndGlyphs" textLength="7" x="72" y="283.2139">6</text>
        <text fill="#000000" font-family="sans-serif" font-size="13" lengthAdjust="spacingAndGlyphs" textLength="188" x="83" y="283.2139">informa do sucesso da operação</text>
        <!--
@startuml
autonumber
actor "Administrativo" as ADM
activate ADM
ADM -> ":Sistema" : inicia especificação de Competência técnica
activate ":Sistema"
":Sistema" - -> ADM : solicita os dados \n(i.e. através de um código único, uma descrição breve, outra mais detalha, o seu caracter de competência e área de atividade)
deactivate ":Sistema"

ADM -> ":Sistema" : introduz os dados solicitados
activate ":Sistema"
":Sistema" - -> ADM : apresenta os dados e solicita confirmação
deactivate ":Sistema"

ADM -> ":Sistema" : confirma
activate ":Sistema"
":Sistema" - -> ADM : informa do sucesso da operação
deactivate ":Sistema"

deactivate ADM

@enduml

PlantUML version 2017.11(Wed Apr 19 17:18:59 BST 2017)
(GPL source distribution)
Java Runtime: Java(TM) SE Runtime Environment
JVM: Java HotSpot(TM) 64-Bit Server VM
Java Version: 1.8.0_231-b11
Operating System: Windows 10
OS Version: 10.0
Default Encoding: UTF-8
Language: pt
Country: PT
-->
    </g>
</svg>
