@startuml

class CompetênciaTécnica {
  -String codigo
  -String descBreve
  -String descDetalhada
  -String AAtividade
  -Boolean Obrigratoiredade
  CompetênciaTécnica(String cod, String dsBreve, String dsDet, AAtv, String obgt)
}

class Plataforma {
  -String designacao

  getListaAreasAtividade()
  getCompetenciaByID()
  CompetênciaTécnica novaCompetênciaTécnica(String cod, String dsBreve, String dsDet, AAtv, String obgt)
  validaCompetênciaTécnica(CompetênciaTécnica CTécnica)
  registaCompetênciaTécnica(CompetênciaTécnica CTécnica)
  - addCompetênciaTécnica(CompetênciaTécnica CTécnica)
}

class AreaAtividade {
  -String codigo
  -String descBreve
  -String descDetalhada
  AreaAtividade(String cod, String dsBreve, String dsDet)
}
class EspecificarCompetênciaTécnicaController {
  novaCompetênciaTécnica(String cod, String dsBreve, String dsDet, AAtv, String obgt)
  registaCompetênciaTécnica()
}

class EspecificarCompetênciaTécnicaUI {

}

EspecificarCompetênciaTécnicaUI ..> EspecificarCompetênciaTécnicaController
EspecificarCompetênciaTécnicaController ..> Plataforma
Plataforma "1" --> "*" AreaAtividade : possui
AreaAtividade "1" --> "*" CompetênciaTécnica : possui
EspecificarCompetênciaTécnicaController ..> CompetênciaTécnica
Plataforma "1" --> "*" CompetênciaTécnica : possui


@enduml
