<?xml version="1.0" encoding="UTF-8"?><svg xmlns="http://www.w3.org/2000/svg" xmlns:xlink="http://www.w3.org/1999/xlink" contentScriptType="application/ecmascript" contentStyleType="text/css" height="979px" preserveAspectRatio="none" style="width:2191px;height:979px;" version="1.1" viewBox="0 0 2191 979" width="2191px" zoomAndPan="magnify">
    <defs>
        <filter height="300%" id="fb7plkp91fdzc" width="300%" x="-1" y="-1">
            <feGaussianBlur result="blurOut" stdDeviation="2.0"/>
            <feColorMatrix in="blurOut" result="blurOut2" type="matrix" values="0 0 0 0 0 0 0 0 0 0 0 0 0 0 0 0 0 0 .4 0"/>
            <feOffset dx="4.0" dy="4.0" in="blurOut2" result="blurOut3"/>
            <feBlend in="SourceGraphic" in2="blurOut3" mode="normal"/>
        </filter>
    </defs>
    <g>
        <rect fill="#FFFFFF" filter="url(#fb7plkp91fdzc)" height="777.6406" style="stroke: #A80036; stroke-width: 1.0;" width="10" x="50" y="97.6094"/>
        <rect fill="#FFFFFF" filter="url(#fb7plkp91fdzc)" height="46.3516" style="stroke: #A80036; stroke-width: 1.0;" width="10" x="716" y="119.6094"/>
        <rect fill="#FFFFFF" filter="url(#fb7plkp91fdzc)" height="181.7578" style="stroke: #A80036; stroke-width: 1.0;" width="10" x="716" y="196.6641"/>
        <rect fill="#FFFFFF" filter="url(#fb7plkp91fdzc)" height="258.3672" style="stroke: #A80036; stroke-width: 1.0;" width="10" x="716" y="408.7734"/>
        <rect fill="#FFFFFF" filter="url(#fb7plkp91fdzc)" height="177.7578" style="stroke: #A80036; stroke-width: 1.0;" width="10" x="716" y="697.4922"/>
        <rect fill="#FFFFFF" filter="url(#fb7plkp91fdzc)" height="60.3516" style="stroke: #A80036; stroke-width: 1.0;" width="10" x="1135" y="287.7188"/>
        <rect fill="#FFFFFF" filter="url(#fb7plkp91fdzc)" height="197.6641" style="stroke: #A80036; stroke-width: 1.0;" width="10" x="1135" y="439.125"/>
        <rect fill="#FFFFFF" filter="url(#fb7plkp91fdzc)" height="110.0547" style="stroke: #A80036; stroke-width: 1.0;" width="10" x="1135" y="727.8438"/>
        <rect fill="#FFFFFF" filter="url(#fb7plkp91fdzc)" height="30" style="stroke: #A80036; stroke-width: 1.0;" width="10" x="1610" y="318.0703"/>
        <rect fill="#FFFFFF" filter="url(#fb7plkp91fdzc)" height="30" style="stroke: #A80036; stroke-width: 1.0;" width="10" x="1610" y="469.4766"/>
        <rect fill="#FFFFFF" filter="url(#fb7plkp91fdzc)" height="30.3516" style="stroke: #A80036; stroke-width: 1.0;" width="10" x="1610" y="529.8281"/>
        <rect fill="#FFFFFF" filter="url(#fb7plkp91fdzc)" height="30" style="stroke: #A80036; stroke-width: 1.0;" width="10" x="1610" y="606.7891"/>
        <rect fill="#FFFFFF" filter="url(#fb7plkp91fdzc)" height="79.7031" style="stroke: #A80036; stroke-width: 1.0;" width="10" x="1610" y="758.1953"/>
        <rect fill="#FEFECE" filter="url(#fb7plkp91fdzc)" height="31.6094" style="stroke: #A80036; stroke-width: 1.5;" width="231" x="1951.5" y="538.1797"/>
        <text fill="#000000" font-family="sans-serif" font-size="14" lengthAdjust="spacingAndGlyphs" textLength="217" x="1958.5" y="559.7129">competencia:CompetenciaTecnica</text>
        <line style="stroke: #A80036; stroke-width: 1.0; stroke-dasharray: 5.0,5.0;" x1="55" x2="55" y1="87.6094" y2="893.6016"/>
        <line style="stroke: #A80036; stroke-width: 1.0; stroke-dasharray: 5.0,5.0;" x1="721" x2="721" y1="87.6094" y2="893.6016"/>
        <line style="stroke: #A80036; stroke-width: 1.0; stroke-dasharray: 5.0,5.0;" x1="1140" x2="1140" y1="87.6094" y2="893.6016"/>
        <line style="stroke: #A80036; stroke-width: 1.0; stroke-dasharray: 5.0,5.0;" x1="1615" x2="1615" y1="87.6094" y2="893.6016"/>
        <line style="stroke: #A80036; stroke-width: 1.0; stroke-dasharray: 5.0,5.0;" x1="1871.5" x2="1871.5" y1="87.6094" y2="893.6016"/>
        <line style="stroke: #A80036; stroke-width: 1.0; stroke-dasharray: 5.0,5.0;" x1="2068.5" x2="2068.5" y1="571.4844" y2="893.6016"/>
        <text fill="#000000" font-family="sans-serif" font-size="14" lengthAdjust="spacingAndGlyphs" textLength="88" x="8" y="84.5332">Administrativo</text>
        <ellipse cx="55" cy="13" fill="#FEFECE" filter="url(#fb7plkp91fdzc)" rx="8" ry="8" style="stroke: #A80036; stroke-width: 2.0;"/>
        <path d="M55,21 L55,48 M42,29 L68,29 M55,48 L42,63 M55,48 L68,63 " fill="#FEFECE" filter="url(#fb7plkp91fdzc)" style="stroke: #A80036; stroke-width: 2.0;"/>
        <text fill="#000000" font-family="sans-serif" font-size="14" lengthAdjust="spacingAndGlyphs" textLength="88" x="8" y="907.1348">Administrativo</text>
        <ellipse cx="55" cy="920.2109" fill="#FEFECE" filter="url(#fb7plkp91fdzc)" rx="8" ry="8" style="stroke: #A80036; stroke-width: 2.0;"/>
        <path d="M55,928.2109 L55,955.2109 M42,936.2109 L68,936.2109 M55,955.2109 L42,970.2109 M55,955.2109 L68,970.2109 " fill="#FEFECE" filter="url(#fb7plkp91fdzc)" style="stroke: #A80036; stroke-width: 2.0;"/>
        <rect fill="#FEFECE" filter="url(#fb7plkp91fdzc)" height="31.6094" style="stroke: #A80036; stroke-width: 1.5;" width="232" x="603" y="51"/>
        <text fill="#000000" font-family="sans-serif" font-size="14" lengthAdjust="spacingAndGlyphs" textLength="218" x="610" y="72.5332">:EspecificarCompetênciaTécnicaUI</text>
        <rect fill="#FEFECE" filter="url(#fb7plkp91fdzc)" height="31.6094" style="stroke: #A80036; stroke-width: 1.5;" width="232" x="603" y="892.6016"/>
        <text fill="#000000" font-family="sans-serif" font-size="14" lengthAdjust="spacingAndGlyphs" textLength="218" x="610" y="914.1348">:EspecificarCompetênciaTécnicaUI</text>
        <rect fill="#FEFECE" filter="url(#fb7plkp91fdzc)" height="31.6094" style="stroke: #A80036; stroke-width: 1.5;" width="282" x="997" y="51"/>
        <text fill="#000000" font-family="sans-serif" font-size="14" lengthAdjust="spacingAndGlyphs" textLength="268" x="1004" y="72.5332">:EspecificarCompetênciaTécnicaController</text>
        <rect fill="#FEFECE" filter="url(#fb7plkp91fdzc)" height="31.6094" style="stroke: #A80036; stroke-width: 1.5;" width="282" x="997" y="892.6016"/>
        <text fill="#000000" font-family="sans-serif" font-size="14" lengthAdjust="spacingAndGlyphs" textLength="268" x="1004" y="914.1348">:EspecificarCompetênciaTécnicaController</text>
        <rect fill="#FEFECE" filter="url(#fb7plkp91fdzc)" height="31.6094" style="stroke: #A80036; stroke-width: 1.5;" width="86" x="1570" y="51"/>
        <text fill="#000000" font-family="sans-serif" font-size="14" lengthAdjust="spacingAndGlyphs" textLength="72" x="1577" y="72.5332">:Plataforma</text>
        <rect fill="#FEFECE" filter="url(#fb7plkp91fdzc)" height="31.6094" style="stroke: #A80036; stroke-width: 1.5;" width="86" x="1570" y="892.6016"/>
        <text fill="#000000" font-family="sans-serif" font-size="14" lengthAdjust="spacingAndGlyphs" textLength="72" x="1577" y="914.1348">:Plataforma</text>
        <rect fill="#FEFECE" filter="url(#fb7plkp91fdzc)" height="31.6094" style="stroke: #A80036; stroke-width: 1.5;" width="135" x="1802.5" y="51"/>
        <text fill="#000000" font-family="sans-serif" font-size="14" lengthAdjust="spacingAndGlyphs" textLength="121" x="1809.5" y="72.5332">area:AreaAtividade</text>
        <rect fill="#FEFECE" filter="url(#fb7plkp91fdzc)" height="31.6094" style="stroke: #A80036; stroke-width: 1.5;" width="135" x="1802.5" y="892.6016"/>
        <text fill="#000000" font-family="sans-serif" font-size="14" lengthAdjust="spacingAndGlyphs" textLength="121" x="1809.5" y="914.1348">area:AreaAtividade</text>
        <rect fill="#FEFECE" filter="url(#fb7plkp91fdzc)" height="31.6094" style="stroke: #A80036; stroke-width: 1.5;" width="231" x="1951.5" y="892.6016"/>
        <text fill="#000000" font-family="sans-serif" font-size="14" lengthAdjust="spacingAndGlyphs" textLength="217" x="1958.5" y="914.1348">competencia:CompetenciaTecnica</text>
        <rect fill="#FFFFFF" filter="url(#fb7plkp91fdzc)" height="777.6406" style="stroke: #A80036; stroke-width: 1.0;" width="10" x="50" y="97.6094"/>
        <rect fill="#FFFFFF" filter="url(#fb7plkp91fdzc)" height="46.3516" style="stroke: #A80036; stroke-width: 1.0;" width="10" x="716" y="119.6094"/>
        <rect fill="#FFFFFF" filter="url(#fb7plkp91fdzc)" height="181.7578" style="stroke: #A80036; stroke-width: 1.0;" width="10" x="716" y="196.6641"/>
        <rect fill="#FFFFFF" filter="url(#fb7plkp91fdzc)" height="258.3672" style="stroke: #A80036; stroke-width: 1.0;" width="10" x="716" y="408.7734"/>
        <rect fill="#FFFFFF" filter="url(#fb7plkp91fdzc)" height="177.7578" style="stroke: #A80036; stroke-width: 1.0;" width="10" x="716" y="697.4922"/>
        <rect fill="#FFFFFF" filter="url(#fb7plkp91fdzc)" height="60.3516" style="stroke: #A80036; stroke-width: 1.0;" width="10" x="1135" y="287.7188"/>
        <rect fill="#FFFFFF" filter="url(#fb7plkp91fdzc)" height="197.6641" style="stroke: #A80036; stroke-width: 1.0;" width="10" x="1135" y="439.125"/>
        <rect fill="#FFFFFF" filter="url(#fb7plkp91fdzc)" height="110.0547" style="stroke: #A80036; stroke-width: 1.0;" width="10" x="1135" y="727.8438"/>
        <rect fill="#FFFFFF" filter="url(#fb7plkp91fdzc)" height="30" style="stroke: #A80036; stroke-width: 1.0;" width="10" x="1610" y="318.0703"/>
        <rect fill="#FFFFFF" filter="url(#fb7plkp91fdzc)" height="30" style="stroke: #A80036; stroke-width: 1.0;" width="10" x="1610" y="469.4766"/>
        <rect fill="#FFFFFF" filter="url(#fb7plkp91fdzc)" height="30.3516" style="stroke: #A80036; stroke-width: 1.0;" width="10" x="1610" y="529.8281"/>
        <rect fill="#FFFFFF" filter="url(#fb7plkp91fdzc)" height="30" style="stroke: #A80036; stroke-width: 1.0;" width="10" x="1610" y="606.7891"/>
        <rect fill="#FFFFFF" filter="url(#fb7plkp91fdzc)" height="79.7031" style="stroke: #A80036; stroke-width: 1.0;" width="10" x="1610" y="758.1953"/>
        <polygon fill="#A80036" points="704,115.6094,714,119.6094,704,123.6094,708,119.6094" style="stroke: #A80036; stroke-width: 1.0;"/>
        <line style="stroke: #A80036; stroke-width: 1.0;" x1="60" x2="710" y1="119.6094" y2="119.6094"/>
        <text fill="#000000" font-family="sans-serif" font-size="13" font-weight="bold" lengthAdjust="spacingAndGlyphs" textLength="7" x="67" y="115.1045">1</text>
        <text fill="#000000" font-family="sans-serif" font-size="13" lengthAdjust="spacingAndGlyphs" textLength="152" x="78" y="115.1045">nova Competência técnica</text>
        <polygon fill="#A80036" points="71,161.9609,61,165.9609,71,169.9609,67,165.9609" style="stroke: #A80036; stroke-width: 1.0;"/>
        <line style="stroke: #A80036; stroke-width: 1.0; stroke-dasharray: 2.0,2.0;" x1="65" x2="720" y1="165.9609" y2="165.9609"/>
        <text fill="#000000" font-family="sans-serif" font-size="13" font-weight="bold" lengthAdjust="spacingAndGlyphs" textLength="7" x="77" y="153.6318">2</text>
        <text fill="#000000" font-family="sans-serif" font-size="13" lengthAdjust="spacingAndGlyphs" textLength="80" x="88" y="145.4561">solicita dados</text>
        <text fill="#000000" font-family="sans-serif" font-size="13" lengthAdjust="spacingAndGlyphs" textLength="621" x="88" y="161.8076">( código único, uma descrição breve, descrição detalha, o seu caracter de competência e área de atividade)</text>
        <polygon fill="#A80036" points="704,192.6641,714,196.6641,704,200.6641,708,196.6641" style="stroke: #A80036; stroke-width: 1.0;"/>
        <line style="stroke: #A80036; stroke-width: 1.0;" x1="60" x2="710" y1="196.6641" y2="196.6641"/>
        <text fill="#000000" font-family="sans-serif" font-size="13" font-weight="bold" lengthAdjust="spacingAndGlyphs" textLength="7" x="67" y="192.1592">3</text>
        <text fill="#000000" font-family="sans-serif" font-size="13" lengthAdjust="spacingAndGlyphs" textLength="169" x="78" y="192.1592">introduz os dados solicitados</text>
        <polygon fill="#A80036" points="71,223.0156,61,227.0156,71,231.0156,67,227.0156" style="stroke: #A80036; stroke-width: 1.0;"/>
        <line style="stroke: #A80036; stroke-width: 1.0; stroke-dasharray: 2.0,2.0;" x1="65" x2="715" y1="227.0156" y2="227.0156"/>
        <text fill="#000000" font-family="sans-serif" font-size="13" font-weight="bold" lengthAdjust="spacingAndGlyphs" textLength="7" x="77" y="222.5107">4</text>
        <text fill="#000000" font-family="sans-serif" font-size="13" lengthAdjust="spacingAndGlyphs" textLength="227" x="88" y="222.5107">solicita carater da competência técnica</text>
        <polygon fill="#A80036" points="704,253.3672,714,257.3672,704,261.3672,708,257.3672" style="stroke: #A80036; stroke-width: 1.0;"/>
        <line style="stroke: #A80036; stroke-width: 1.0; stroke-dasharray: 2.0,2.0;" x1="60" x2="710" y1="257.3672" y2="257.3672"/>
        <text fill="#000000" font-family="sans-serif" font-size="13" font-weight="bold" lengthAdjust="spacingAndGlyphs" textLength="7" x="67" y="252.8623">5</text>
        <text fill="#000000" font-family="sans-serif" font-size="13" lengthAdjust="spacingAndGlyphs" textLength="197" x="78" y="252.8623">introduz o carater de competência</text>
        <polygon fill="#A80036" points="1123,283.7188,1133,287.7188,1123,291.7188,1127,287.7188" style="stroke: #A80036; stroke-width: 1.0;"/>
        <line style="stroke: #A80036; stroke-width: 1.0;" x1="726" x2="1129" y1="287.7188" y2="287.7188"/>
        <text fill="#000000" font-family="sans-serif" font-size="13" font-weight="bold" lengthAdjust="spacingAndGlyphs" textLength="7" x="733" y="283.2139">6</text>
        <text fill="#000000" font-family="sans-serif" font-size="13" lengthAdjust="spacingAndGlyphs" textLength="175" x="744" y="283.2139">apresentarListaAreasAtividade</text>
        <polygon fill="#A80036" points="1598,314.0703,1608,318.0703,1598,322.0703,1602,318.0703" style="stroke: #A80036; stroke-width: 1.0;"/>
        <line style="stroke: #A80036; stroke-width: 1.0;" x1="1145" x2="1604" y1="318.0703" y2="318.0703"/>
        <text fill="#000000" font-family="sans-serif" font-size="13" font-weight="bold" lengthAdjust="spacingAndGlyphs" textLength="7" x="1152" y="313.5654">7</text>
        <text fill="#000000" font-family="sans-serif" font-size="13" lengthAdjust="spacingAndGlyphs" textLength="125" x="1163" y="313.5654">getListaAreaAtividade</text>
        <polygon fill="#A80036" points="71,374.4219,61,378.4219,71,382.4219,67,378.4219" style="stroke: #A80036; stroke-width: 1.0;"/>
        <line style="stroke: #A80036; stroke-width: 1.0; stroke-dasharray: 2.0,2.0;" x1="65" x2="720" y1="378.4219" y2="378.4219"/>
        <text fill="#000000" font-family="sans-serif" font-size="13" font-weight="bold" lengthAdjust="spacingAndGlyphs" textLength="7" x="77" y="373.917">8</text>
        <text fill="#000000" font-family="sans-serif" font-size="13" lengthAdjust="spacingAndGlyphs" textLength="211" x="88" y="373.917">apresenta lista de áreas de atividade</text>
        <polygon fill="#A80036" points="704,404.7734,714,408.7734,704,412.7734,708,408.7734" style="stroke: #A80036; stroke-width: 1.0;"/>
        <line style="stroke: #A80036; stroke-width: 1.0;" x1="60" x2="710" y1="408.7734" y2="408.7734"/>
        <text fill="#000000" font-family="sans-serif" font-size="13" font-weight="bold" lengthAdjust="spacingAndGlyphs" textLength="7" x="67" y="404.2686">9</text>
        <text fill="#000000" font-family="sans-serif" font-size="13" lengthAdjust="spacingAndGlyphs" textLength="156" x="78" y="404.2686">seleciona área de atividade</text>
        <polygon fill="#A80036" points="1123,435.125,1133,439.125,1123,443.125,1127,439.125" style="stroke: #A80036; stroke-width: 1.0;"/>
        <line style="stroke: #A80036; stroke-width: 1.0;" x1="726" x2="1129" y1="439.125" y2="439.125"/>
        <text fill="#000000" font-family="sans-serif" font-size="13" font-weight="bold" lengthAdjust="spacingAndGlyphs" textLength="14" x="733" y="434.6201">10</text>
        <text fill="#000000" font-family="sans-serif" font-size="13" lengthAdjust="spacingAndGlyphs" textLength="372" x="751" y="434.6201">novaCompetênciaTécnica(cod, dsBreve, dsDet, aAtividade, obgt)</text>
        <polygon fill="#A80036" points="1598,465.4766,1608,469.4766,1598,473.4766,1602,469.4766" style="stroke: #A80036; stroke-width: 1.0;"/>
        <line style="stroke: #A80036; stroke-width: 1.0;" x1="1145" x2="1604" y1="469.4766" y2="469.4766"/>
        <text fill="#000000" font-family="sans-serif" font-size="13" font-weight="bold" lengthAdjust="spacingAndGlyphs" textLength="14" x="1152" y="464.9717">11</text>
        <text fill="#000000" font-family="sans-serif" font-size="13" lengthAdjust="spacingAndGlyphs" textLength="136" x="1170" y="464.9717">getAreaATividadeByID()</text>
        <polygon fill="#A80036" points="1598,525.8281,1608,529.8281,1598,533.8281,1602,529.8281" style="stroke: #A80036; stroke-width: 1.0;"/>
        <line style="stroke: #A80036; stroke-width: 1.0;" x1="1145" x2="1604" y1="529.8281" y2="529.8281"/>
        <text fill="#000000" font-family="sans-serif" font-size="13" font-weight="bold" lengthAdjust="spacingAndGlyphs" textLength="14" x="1152" y="525.3232">12</text>
        <text fill="#000000" font-family="sans-serif" font-size="13" lengthAdjust="spacingAndGlyphs" textLength="428" x="1170" y="525.3232">competencia=CompetênciaTécnica(cod, dsBreve, dsDet, aAtividade, obgt)</text>
        <polygon fill="#A80036" points="1939.5,556.1797,1949.5,560.1797,1939.5,564.1797,1943.5,560.1797" style="stroke: #A80036; stroke-width: 1.0;"/>
        <line style="stroke: #A80036; stroke-width: 1.0; stroke-dasharray: 2.0,2.0;" x1="1615" x2="1945.5" y1="560.1797" y2="560.1797"/>
        <text fill="#000000" font-family="sans-serif" font-size="13" font-weight="bold" lengthAdjust="spacingAndGlyphs" textLength="14" x="1622" y="555.6748">13</text>
        <text fill="#000000" font-family="sans-serif" font-size="13" lengthAdjust="spacingAndGlyphs" textLength="261" x="1640" y="555.6748">create(cod, dsBreve, dsDet, aAtividade, obgt)</text>
        <rect fill="#FEFECE" filter="url(#fb7plkp91fdzc)" height="31.6094" style="stroke: #A80036; stroke-width: 1.5;" width="231" x="1951.5" y="538.1797"/>
        <text fill="#000000" font-family="sans-serif" font-size="14" lengthAdjust="spacingAndGlyphs" textLength="217" x="1958.5" y="559.7129">competencia:CompetenciaTecnica</text>
        <polygon fill="#A80036" points="1598,602.7891,1608,606.7891,1598,610.7891,1602,606.7891" style="stroke: #A80036; stroke-width: 1.0;"/>
        <line style="stroke: #A80036; stroke-width: 1.0;" x1="1145" x2="1604" y1="606.7891" y2="606.7891"/>
        <text fill="#000000" font-family="sans-serif" font-size="13" font-weight="bold" lengthAdjust="spacingAndGlyphs" textLength="14" x="1152" y="602.2842">14</text>
        <text fill="#000000" font-family="sans-serif" font-size="13" lengthAdjust="spacingAndGlyphs" textLength="215" x="1170" y="602.2842">validaCompetênciaTécnica(CTécnica)</text>
        <polygon fill="#A80036" points="71,663.1406,61,667.1406,71,671.1406,67,667.1406" style="stroke: #A80036; stroke-width: 1.0;"/>
        <line style="stroke: #A80036; stroke-width: 1.0; stroke-dasharray: 2.0,2.0;" x1="65" x2="720" y1="667.1406" y2="667.1406"/>
        <text fill="#000000" font-family="sans-serif" font-size="13" font-weight="bold" lengthAdjust="spacingAndGlyphs" textLength="14" x="77" y="662.6357">15</text>
        <text fill="#000000" font-family="sans-serif" font-size="13" lengthAdjust="spacingAndGlyphs" textLength="226" x="95" y="662.6357">apresenta dados e solicita confirmação</text>
        <polygon fill="#A80036" points="704,693.4922,714,697.4922,704,701.4922,708,697.4922" style="stroke: #A80036; stroke-width: 1.0;"/>
        <line style="stroke: #A80036; stroke-width: 1.0;" x1="60" x2="710" y1="697.4922" y2="697.4922"/>
        <text fill="#000000" font-family="sans-serif" font-size="13" font-weight="bold" lengthAdjust="spacingAndGlyphs" textLength="14" x="67" y="692.9873">16</text>
        <text fill="#000000" font-family="sans-serif" font-size="13" lengthAdjust="spacingAndGlyphs" textLength="49" x="85" y="692.9873">confirma</text>
        <polygon fill="#A80036" points="1123,723.8438,1133,727.8438,1123,731.8438,1127,727.8438" style="stroke: #A80036; stroke-width: 1.0;"/>
        <line style="stroke: #A80036; stroke-width: 1.0;" x1="726" x2="1129" y1="727.8438" y2="727.8438"/>
        <text fill="#000000" font-family="sans-serif" font-size="13" font-weight="bold" lengthAdjust="spacingAndGlyphs" textLength="14" x="733" y="723.3389">17</text>
        <text fill="#000000" font-family="sans-serif" font-size="13" lengthAdjust="spacingAndGlyphs" textLength="168" x="751" y="723.3389">registaCompetênciaTécnica()</text>
        <polygon fill="#A80036" points="1598,754.1953,1608,758.1953,1598,762.1953,1602,758.1953" style="stroke: #A80036; stroke-width: 1.0;"/>
        <line style="stroke: #A80036; stroke-width: 1.0;" x1="1145" x2="1604" y1="758.1953" y2="758.1953"/>
        <text fill="#000000" font-family="sans-serif" font-size="13" font-weight="bold" lengthAdjust="spacingAndGlyphs" textLength="14" x="1152" y="753.6904">18</text>
        <text fill="#000000" font-family="sans-serif" font-size="13" lengthAdjust="spacingAndGlyphs" textLength="222" x="1170" y="753.6904">registaCompetênciaTécnica(CTécnica)</text>
        <line style="stroke: #A80036; stroke-width: 1.0;" x1="1620" x2="1662" y1="788.8984" y2="788.8984"/>
        <line style="stroke: #A80036; stroke-width: 1.0;" x1="1662" x2="1662" y1="788.8984" y2="801.8984"/>
        <line style="stroke: #A80036; stroke-width: 1.0;" x1="1621" x2="1662" y1="801.8984" y2="801.8984"/>
        <polygon fill="#A80036" points="1631,797.8984,1621,801.8984,1631,805.8984,1627,801.8984" style="stroke: #A80036; stroke-width: 1.0;"/>
        <text fill="#000000" font-family="sans-serif" font-size="13" font-weight="bold" lengthAdjust="spacingAndGlyphs" textLength="14" x="1627" y="784.042">19</text>
        <text fill="#000000" font-family="sans-serif" font-size="13" lengthAdjust="spacingAndGlyphs" textLength="215" x="1645" y="784.042">validaCompetênciaTécnica(CTécnica)</text>
        <line style="stroke: #A80036; stroke-width: 1.0;" x1="1620" x2="1662" y1="837.25" y2="837.25"/>
        <line style="stroke: #A80036; stroke-width: 1.0;" x1="1662" x2="1662" y1="837.25" y2="850.25"/>
        <line style="stroke: #A80036; stroke-width: 1.0;" x1="1615" x2="1662" y1="850.25" y2="850.25"/>
        <polygon fill="#A80036" points="1625,846.25,1615,850.25,1625,854.25,1621,850.25" style="stroke: #A80036; stroke-width: 1.0;"/>
        <text fill="#000000" font-family="sans-serif" font-size="13" font-weight="bold" lengthAdjust="spacingAndGlyphs" textLength="14" x="1627" y="832.3936">20</text>
        <text fill="#000000" font-family="sans-serif" font-size="13" lengthAdjust="spacingAndGlyphs" textLength="204" x="1645" y="832.3936">addCompetênciaTécnica(CTécnica)</text>
        <polygon fill="#A80036" points="66,871.25,56,875.25,66,879.25,62,875.25" style="stroke: #A80036; stroke-width: 1.0;"/>
        <line style="stroke: #A80036; stroke-width: 1.0; stroke-dasharray: 2.0,2.0;" x1="60" x2="720" y1="875.25" y2="875.25"/>
        <text fill="#000000" font-family="sans-serif" font-size="13" font-weight="bold" lengthAdjust="spacingAndGlyphs" textLength="14" x="72" y="870.7451">21</text>
        <text fill="#000000" font-family="sans-serif" font-size="13" lengthAdjust="spacingAndGlyphs" textLength="138" x="90" y="870.7451">operação bem sucedida</text>
        <!--
@startuml
autonumber
actor "Administrativo" as ADM

participant ":EspecificarCompetênciaTécnicaUI" as UI
participant ":EspecificarCompetênciaTécnicaController" as CTRL
participant ":Plataforma" as PLAT
participant "area:AreaAtividade" as AREA
participant "competencia:CompetenciaTecnica" as COMP

activate ADM
ADM -> UI : nova Competência técnica
activate UI
UI - -> ADM : solicita dados \n( código único, uma descrição breve, descrição detalha, o seu caracter de competência e área de atividade)
deactivate UI

ADM -> UI : introduz os dados solicitados
activate UI

UI - -> ADM : solicita carater da competência técnica

ADM - -> UI : introduz o carater de competência

UI -> CTRL : apresentarListaAreasAtividade
activate CTRL
CTRL -> PLAT : getListaAreaAtividade
activate PLAT
deactivate PLAT
deactivate CTRL

UI - -> ADM : apresenta lista de áreas de atividade
deactivate UI

ADM -> UI : seleciona área de atividade
activate UI


UI -> CTRL : novaCompetênciaTécnica(cod, dsBreve, dsDet, aAtividade, obgt)
activate CTRL
CTRL -> PLAT: getAreaATividadeByID()
activate PLAT 
deactivate PLAT
CTRL -> PLAT: competencia=CompetênciaTécnica(cod, dsBreve, dsDet, aAtividade, obgt)
activate PLAT
PLAT - -> COMP ** : create(cod, dsBreve, dsDet, aAtividade, obgt)
deactivate PLAT

CTRL -> PLAT: validaCompetênciaTécnica(CTécnica)
activate PLAT
deactivate PLAT

deactivate CTRL
UI - -> ADM : apresenta dados e solicita confirmação
deactivate UI

ADM -> UI : confirma
activate UI

UI -> CTRL: registaCompetênciaTécnica()
activate CTRL
CTRL ->PLAT: registaCompetênciaTécnica(CTécnica)
activate PLAT
PLAT -> PLAT: validaCompetênciaTécnica(CTécnica)
PLAT -> PLAT: addCompetênciaTécnica(CTécnica)

deactivate PLAT
deactivate CTRL

UI - -> ADM : operação bem sucedida
deactivate UI

deactivate ADM

@enduml

PlantUML version 2017.11(Wed Apr 19 17:18:59 BST 2017)
(GPL source distribution)
Java Runtime: Java(TM) SE Runtime Environment
JVM: Java HotSpot(TM) 64-Bit Server VM
Java Version: 1.8.0_231-b11
Operating System: Windows 10
OS Version: 10.0
Default Encoding: UTF-8
Language: pt
Country: PT
-->
    </g>
</svg>
