<?xml version="1.0" encoding="UTF-8" standalone="no"?><svg xmlns="http://www.w3.org/2000/svg" xmlns:xlink="http://www.w3.org/1999/xlink" contentScriptType="application/ecmascript" contentStyleType="text/css" height="807px" preserveAspectRatio="none" style="width:770px;height:807px;" version="1.1" viewBox="0 0 770 807" width="770px" zoomAndPan="magnify">
    <defs>
        <filter height="300%" id="f193dr8wwzenex" width="300%" x="-1" y="-1">
            <feGaussianBlur result="blurOut" stdDeviation="2.0" />
            <feColorMatrix in="blurOut" result="blurOut2" type="matrix" values="0 0 0 0 0 0 0 0 0 0 0 0 0 0 0 0 0 0 .4 0" />
            <feOffset dx="4.0" dy="4.0" in="blurOut2" result="blurOut3" />
            <feBlend in="SourceGraphic" in2="blurOut3" mode="normal" />
        </filter>
    </defs>
    <g>
        <!--MD5=[ac8682ea5466d223e49472789fb200d2]
class Colaborador-->
        <rect fill="#FEFECE" filter="url(#f193dr8wwzenex)" height="138.6855" id="Colaborador" style="stroke: #A80036; stroke-width: 1.5;" width="258" x="9.6" y="658" />
        <ellipse cx="98.35" cy="674" fill="#ADD1B2" rx="11" ry="11" style="stroke: #A80036; stroke-width: 1.0;" />
        <path d="M100.8231,680.1431 Q100.2421,680.4419 99.6029,680.5913 Q98.9638,680.7407 98.2582,680.7407 Q95.7514,680.7407 94.4315,679.0889 Q93.1117,677.437 93.1117,674.3159 Q93.1117,671.1865 94.4315,669.5347 Q95.7514,667.8828 98.2582,667.8828 Q98.9638,667.8828 99.6112,668.0322 Q100.2587,668.1816 100.8231,668.4805 L100.8231,671.2031 Q100.1923,670.6221 99.5988,670.3523 Q99.0053,670.0825 98.3744,670.0825 Q97.0297,670.0825 96.3449,671.1492 Q95.6601,672.2158 95.6601,674.3159 Q95.6601,676.4077 96.3449,677.4744 Q97.0297,678.541 98.3744,678.541 Q99.0053,678.541 99.5988,678.2712 Q100.1923,678.0015 100.8231,677.4204 Z " /><text fill="#000000" font-family="sans-serif" font-size="12" lengthAdjust="spacingAndGlyphs" textLength="72" x="118.85" y="678.5352">Colaborador</text>
        <line style="stroke: #A80036; stroke-width: 1.5;" x1="10.6" x2="266.6" y1="690" y2="690" />
        <rect fill="none" height="6" style="stroke: #C82930; stroke-width: 1.0;" width="6" x="17.6" y="698" /><text fill="#000000" font-family="sans-serif" font-size="11" lengthAdjust="spacingAndGlyphs" textLength="65" x="29.6" y="704.6348">String nome</text>
        <rect fill="none" height="6" style="stroke: #C82930; stroke-width: 1.0;" width="6" x="17.6" y="710.9551" /><text fill="#000000" font-family="sans-serif" font-size="11" lengthAdjust="spacingAndGlyphs" textLength="72" x="29.6" y="717.5898">String funcao</text>
        <rect fill="none" height="6" style="stroke: #C82930; stroke-width: 1.0;" width="6" x="17.6" y="723.9102" /><text fill="#000000" font-family="sans-serif" font-size="11" lengthAdjust="spacingAndGlyphs" textLength="78" x="29.6" y="730.5449">String telefone</text>
        <rect fill="none" height="6" style="stroke: #C82930; stroke-width: 1.0;" width="6" x="17.6" y="736.8652" /><text fill="#000000" font-family="sans-serif" font-size="11" lengthAdjust="spacingAndGlyphs" textLength="63" x="29.6" y="743.5">String email</text>
        <line style="stroke: #A80036; stroke-width: 1.5;" x1="10.6" x2="266.6" y1="749.8203" y2="749.8203" />
        <ellipse cx="20.6" cy="760.8203" fill="#84BE84" rx="3" ry="3" style="stroke: #038048; stroke-width: 1.0;" /><text fill="#000000" font-family="sans-serif" font-size="11" lengthAdjust="spacingAndGlyphs" textLength="232" x="29.6" y="764.4551">Colaborador(nome, função, telefone, email)</text>
        <ellipse cx="20.6" cy="773.7754" fill="#84BE84" rx="3" ry="3" style="stroke: #038048; stroke-width: 1.0;" /><text fill="#000000" font-family="sans-serif" font-size="11" lengthAdjust="spacingAndGlyphs" textLength="91" x="29.6" y="777.4102">String getNome()</text>
        <ellipse cx="20.6" cy="786.7305" fill="#84BE84" rx="3" ry="3" style="stroke: #038048; stroke-width: 1.0;" /><text fill="#000000" font-family="sans-serif" font-size="11" lengthAdjust="spacingAndGlyphs" textLength="88" x="29.6" y="790.3652">String getEmail()</text>
        <!--MD5=[807977ceb130c090ed5febfb6de2bdea]
class Organizacao-->
        <rect fill="#FEFECE" filter="url(#f193dr8wwzenex)" height="177.5508" id="Organizacao" style="stroke: #A80036; stroke-width: 1.5;" width="318" x="21.6" y="403" />
        <ellipse cx="140.35" cy="419" fill="#ADD1B2" rx="11" ry="11" style="stroke: #A80036; stroke-width: 1.0;" />
        <path d="M142.8231,425.1431 Q142.2421,425.4419 141.6029,425.5913 Q140.9638,425.7407 140.2582,425.7407 Q137.7514,425.7407 136.4315,424.0889 Q135.1117,422.437 135.1117,419.3159 Q135.1117,416.1865 136.4315,414.5347 Q137.7514,412.8828 140.2582,412.8828 Q140.9638,412.8828 141.6112,413.0322 Q142.2587,413.1816 142.8231,413.4805 L142.8231,416.2031 Q142.1923,415.6221 141.5988,415.3523 Q141.0053,415.0825 140.3744,415.0825 Q139.0297,415.0825 138.3449,416.1492 Q137.6601,417.2158 137.6601,419.3159 Q137.6601,421.4077 138.3449,422.4744 Q139.0297,423.541 140.3744,423.541 Q141.0053,423.541 141.5988,423.2712 Q142.1923,423.0015 142.8231,422.4204 Z " /><text fill="#000000" font-family="sans-serif" font-size="12" lengthAdjust="spacingAndGlyphs" textLength="72" x="160.85" y="423.5352">Organizacao</text>
        <line style="stroke: #A80036; stroke-width: 1.5;" x1="22.6" x2="338.6" y1="435" y2="435" />
        <rect fill="none" height="6" style="stroke: #C82930; stroke-width: 1.0;" width="6" x="29.6" y="443" /><text fill="#000000" font-family="sans-serif" font-size="11" lengthAdjust="spacingAndGlyphs" textLength="65" x="41.6" y="449.6348">String nome</text>
        <rect fill="none" height="6" style="stroke: #C82930; stroke-width: 1.0;" width="6" x="29.6" y="455.9551" /><text fill="#000000" font-family="sans-serif" font-size="11" lengthAdjust="spacingAndGlyphs" textLength="52" x="41.6" y="462.5898">String NIF</text>
        <rect fill="none" height="6" style="stroke: #C82930; stroke-width: 1.0;" width="6" x="29.6" y="468.9102" /><text fill="#000000" font-family="sans-serif" font-size="11" lengthAdjust="spacingAndGlyphs" textLength="75" x="41.6" y="475.5449">String website</text>
        <rect fill="none" height="6" style="stroke: #C82930; stroke-width: 1.0;" width="6" x="29.6" y="481.8652" /><text fill="#000000" font-family="sans-serif" font-size="11" lengthAdjust="spacingAndGlyphs" textLength="78" x="41.6" y="488.5">String telefone</text>
        <rect fill="none" height="6" style="stroke: #C82930; stroke-width: 1.0;" width="6" x="29.6" y="494.8203" /><text fill="#000000" font-family="sans-serif" font-size="11" lengthAdjust="spacingAndGlyphs" textLength="63" x="41.6" y="501.4551">String email</text>
        <line style="stroke: #A80036; stroke-width: 1.5;" x1="22.6" x2="338.6" y1="507.7754" y2="507.7754" />
        <ellipse cx="32.6" cy="518.7754" fill="#84BE84" rx="3" ry="3" style="stroke: #038048; stroke-width: 1.0;" /><text fill="#000000" font-family="sans-serif" font-size="11" lengthAdjust="spacingAndGlyphs" text-decoration="underline" textLength="292" x="41.6" y="522.4102">Colaborador novoColaborador(nome,funcao,tlf, email)</text>
        <ellipse cx="32.6" cy="531.7305" fill="#84BE84" rx="3" ry="3" style="stroke: #038048; stroke-width: 1.0;" /><text fill="#000000" font-family="sans-serif" font-size="11" lengthAdjust="spacingAndGlyphs" textLength="136" x="41.6" y="535.3652">validaColaborador(colab)</text>
        <ellipse cx="32.6" cy="544.6855" fill="#84BE84" rx="3" ry="3" style="stroke: #038048; stroke-width: 1.0;" /><text fill="#000000" font-family="sans-serif" font-size="11" lengthAdjust="spacingAndGlyphs" textLength="213" x="41.6" y="548.3203">registaColaborador(Colaborador colab)</text>
        <ellipse cx="32.6" cy="557.6406" fill="#84BE84" rx="3" ry="3" style="stroke: #038048; stroke-width: 1.0;" /><text fill="#000000" font-family="sans-serif" font-size="11" lengthAdjust="spacingAndGlyphs" textLength="234" x="41.6" y="561.2754">String gerarPalavraPasseAutomaticamente()</text>
        <rect fill="#F24D5C" height="6" style="stroke: #C82930; stroke-width: 1.0;" width="6" x="29.6" y="567.5957" /><text fill="#000000" font-family="sans-serif" font-size="11" lengthAdjust="spacingAndGlyphs" textLength="196" x="41.6" y="574.2305">addColaborador(Colaborador colab)</text>
        <!--MD5=[ed5c6b4e01c9b1c9efc043b411d08420]
class AutorizacaoFacade-->
        <rect fill="#FEFECE" filter="url(#f193dr8wwzenex)" height="73.9102" id="AutorizacaoFacade" style="stroke: #A80036; stroke-width: 1.5;" width="430" x="329.6" y="690.5" />
        <ellipse cx="485.85" cy="706.5" fill="#ADD1B2" rx="11" ry="11" style="stroke: #A80036; stroke-width: 1.0;" />
        <path d="M488.3231,712.6431 Q487.7421,712.9419 487.1029,713.0913 Q486.4638,713.2407 485.7582,713.2407 Q483.2514,713.2407 481.9315,711.5889 Q480.6117,709.937 480.6117,706.8159 Q480.6117,703.6865 481.9315,702.0347 Q483.2514,700.3828 485.7582,700.3828 Q486.4638,700.3828 487.1112,700.5322 Q487.7587,700.6816 488.3231,700.9805 L488.3231,703.7031 Q487.6923,703.1221 487.0988,702.8523 Q486.5053,702.5825 485.8744,702.5825 Q484.5297,702.5825 483.8449,703.6492 Q483.1601,704.7158 483.1601,706.8159 Q483.1601,708.9077 483.8449,709.9744 Q484.5297,711.041 485.8744,711.041 Q486.5053,711.041 487.0988,710.7712 Q487.6923,710.5015 488.3231,709.9204 Z " /><text fill="#000000" font-family="sans-serif" font-size="12" lengthAdjust="spacingAndGlyphs" textLength="109" x="506.35" y="711.0352">AutorizacaoFacade</text>
        <line style="stroke: #A80036; stroke-width: 1.5;" x1="330.6" x2="758.6" y1="722.5" y2="722.5" />
        <line style="stroke: #A80036; stroke-width: 1.5;" x1="330.6" x2="758.6" y1="730.5" y2="730.5" />
        <ellipse cx="340.6" cy="741.5" fill="#84BE84" rx="3" ry="3" style="stroke: #038048; stroke-width: 1.0;" /><text fill="#000000" font-family="sans-serif" font-size="11" lengthAdjust="spacingAndGlyphs" textLength="182" x="349.6" y="745.1348">SessaoUtilizador getSessaoAtual()</text>
        <ellipse cx="340.6" cy="754.4551" fill="#84BE84" rx="3" ry="3" style="stroke: #038048; stroke-width: 1.0;" /><text fill="#000000" font-family="sans-serif" font-size="11" lengthAdjust="spacingAndGlyphs" textLength="404" x="349.6" y="758.0898">registaUtilizadorComPapel(nomeColaborador,emailColaborador,pwd,papel)</text>
        <!--MD5=[1e13576e8c070e32200b62ceaa1f39ec]
class SessaoUtilizador-->
        <rect fill="#FEFECE" filter="url(#f193dr8wwzenex)" height="60.9551" id="SessaoUtilizador" style="stroke: #A80036; stroke-width: 1.5;" width="148" x="356.6" y="258.5" />
        <ellipse cx="381.5" cy="274.5" fill="#ADD1B2" rx="11" ry="11" style="stroke: #A80036; stroke-width: 1.0;" />
        <path d="M383.9731,280.6431 Q383.3921,280.9419 382.7529,281.0913 Q382.1138,281.2407 381.4082,281.2407 Q378.9014,281.2407 377.5815,279.5889 Q376.2617,277.937 376.2617,274.8159 Q376.2617,271.6865 377.5815,270.0347 Q378.9014,268.3828 381.4082,268.3828 Q382.1138,268.3828 382.7612,268.5322 Q383.4087,268.6816 383.9731,268.9805 L383.9731,271.7031 Q383.3423,271.1221 382.7488,270.8523 Q382.1553,270.5825 381.5244,270.5825 Q380.1797,270.5825 379.4949,271.6492 Q378.8101,272.7158 378.8101,274.8159 Q378.8101,276.9077 379.4949,277.9744 Q380.1797,279.041 381.5244,279.041 Q382.1553,279.041 382.7488,278.7712 Q383.3423,278.5015 383.9731,277.9204 Z " /><text fill="#000000" font-family="sans-serif" font-size="12" lengthAdjust="spacingAndGlyphs" textLength="94" x="397.7" y="279.0352">SessaoUtilizador</text>
        <line style="stroke: #A80036; stroke-width: 1.5;" x1="357.6" x2="503.6" y1="290.5" y2="290.5" />
        <line style="stroke: #A80036; stroke-width: 1.5;" x1="357.6" x2="503.6" y1="298.5" y2="298.5" />
        <ellipse cx="367.6" cy="309.5" fill="#84BE84" rx="3" ry="3" style="stroke: #038048; stroke-width: 1.0;" /><text fill="#000000" font-family="sans-serif" font-size="11" lengthAdjust="spacingAndGlyphs" textLength="122" x="376.6" y="313.1348">String getIdUtilizador()</text>
        <!--MD5=[f9c3f1e5904b9b8a850b2e639e7c7d37]
class EspecificarColaboradorOrganizacaoController-->
        <rect fill="#FEFECE" filter="url(#f193dr8wwzenex)" height="73.9102" id="EspecificarColaboradorOrganizacaoController" style="stroke: #A80036; stroke-width: 1.5;" width="294" x="210.6" y="117" />
        <ellipse cx="225.6" cy="133" fill="#ADD1B2" rx="11" ry="11" style="stroke: #A80036; stroke-width: 1.0;" />
        <path d="M228.0731,139.1431 Q227.4921,139.4419 226.8529,139.5913 Q226.2138,139.7407 225.5082,139.7407 Q223.0014,139.7407 221.6815,138.0889 Q220.3617,136.437 220.3617,133.3159 Q220.3617,130.1865 221.6815,128.5347 Q223.0014,126.8828 225.5082,126.8828 Q226.2138,126.8828 226.8612,127.0322 Q227.5087,127.1816 228.0731,127.4805 L228.0731,130.2031 Q227.4423,129.6221 226.8488,129.3523 Q226.2553,129.0825 225.6244,129.0825 Q224.2797,129.0825 223.5949,130.1492 Q222.9101,131.2158 222.9101,133.3159 Q222.9101,135.4077 223.5949,136.4744 Q224.2797,137.541 225.6244,137.541 Q226.2553,137.541 226.8488,137.2712 Q227.4423,137.0015 228.0731,136.4204 Z " /><text fill="#000000" font-family="sans-serif" font-size="12" lengthAdjust="spacingAndGlyphs" textLength="262" x="239.6" y="137.5352">EspecificarColaboradorOrganizacaoController</text>
        <line style="stroke: #A80036; stroke-width: 1.5;" x1="211.6" x2="503.6" y1="149" y2="149" />
        <line style="stroke: #A80036; stroke-width: 1.5;" x1="211.6" x2="503.6" y1="157" y2="157" />
        <ellipse cx="221.6" cy="168" fill="#84BE84" rx="3" ry="3" style="stroke: #038048; stroke-width: 1.0;" /><text fill="#000000" font-family="sans-serif" font-size="11" lengthAdjust="spacingAndGlyphs" textLength="259" x="230.6" y="171.6348">novoColaborador(nome, função, telefone, email)</text>
        <ellipse cx="221.6" cy="180.9551" fill="#84BE84" rx="3" ry="3" style="stroke: #038048; stroke-width: 1.0;" /><text fill="#000000" font-family="sans-serif" font-size="11" lengthAdjust="spacingAndGlyphs" textLength="113" x="230.6" y="184.5898">registaColaborador()</text>
        <!--MD5=[21c897bb7b213d25f86c3b0b478be39d]
class EspecificarColaboradorOrganizacaoUI-->
        <rect fill="#FEFECE" filter="url(#f193dr8wwzenex)" height="48" id="EspecificarColaboradorOrganizacaoUI" style="stroke: #A80036; stroke-width: 1.5;" width="249" x="233.1" y="8" />
        <ellipse cx="248.1" cy="24" fill="#ADD1B2" rx="11" ry="11" style="stroke: #A80036; stroke-width: 1.0;" />
        <path d="M250.5731,30.1431 Q249.9921,30.4419 249.3529,30.5913 Q248.7138,30.7407 248.0082,30.7407 Q245.5014,30.7407 244.1815,29.0889 Q242.8617,27.437 242.8617,24.3159 Q242.8617,21.1865 244.1815,19.5347 Q245.5014,17.8828 248.0082,17.8828 Q248.7138,17.8828 249.3612,18.0322 Q250.0087,18.1816 250.5731,18.4805 L250.5731,21.2031 Q249.9423,20.6221 249.3488,20.3523 Q248.7553,20.0825 248.1244,20.0825 Q246.7797,20.0825 246.0949,21.1492 Q245.4101,22.2158 245.4101,24.3159 Q245.4101,26.4077 246.0949,27.4744 Q246.7797,28.541 248.1244,28.541 Q248.7553,28.541 249.3488,28.2712 Q249.9423,28.0015 250.5731,27.4204 Z " /><text fill="#000000" font-family="sans-serif" font-size="12" lengthAdjust="spacingAndGlyphs" textLength="217" x="262.1" y="28.5352">EspecificarColaboradorOrganizacaoUI</text>
        <line style="stroke: #A80036; stroke-width: 1.5;" x1="234.1" x2="481.1" y1="40" y2="40" />
        <line style="stroke: #A80036; stroke-width: 1.5;" x1="234.1" x2="481.1" y1="48" y2="48" />
        <!--MD5=[ecaed46f78f8cfe1e9ce18477649be18]
class Plataforma-->
        <rect fill="#FEFECE" filter="url(#f193dr8wwzenex)" height="73.9102" id="Plataforma" style="stroke: #A80036; stroke-width: 1.5;" width="282" x="39.6" y="252" />
        <ellipse cx="145.35" cy="268" fill="#ADD1B2" rx="11" ry="11" style="stroke: #A80036; stroke-width: 1.0;" />
        <path d="M147.8231,274.1431 Q147.2421,274.4419 146.6029,274.5913 Q145.9638,274.7407 145.2582,274.7407 Q142.7514,274.7407 141.4315,273.0889 Q140.1117,271.437 140.1117,268.3159 Q140.1117,265.1865 141.4315,263.5347 Q142.7514,261.8828 145.2582,261.8828 Q145.9638,261.8828 146.6112,262.0322 Q147.2587,262.1816 147.8231,262.4805 L147.8231,265.2031 Q147.1923,264.6221 146.5988,264.3523 Q146.0053,264.0825 145.3744,264.0825 Q144.0297,264.0825 143.3449,265.1492 Q142.6601,266.2158 142.6601,268.3159 Q142.6601,270.4077 143.3449,271.4744 Q144.0297,272.541 145.3744,272.541 Q146.0053,272.541 146.5988,272.2712 Q147.1923,272.0015 147.8231,271.4204 Z " /><text fill="#000000" font-family="sans-serif" font-size="12" lengthAdjust="spacingAndGlyphs" textLength="62" x="165.85" y="272.5352">Plataforma</text>
        <line style="stroke: #A80036; stroke-width: 1.5;" x1="40.6" x2="320.6" y1="284" y2="284" />
        <rect fill="none" height="6" style="stroke: #C82930; stroke-width: 1.0;" width="6" x="47.6" y="292" /><text fill="#000000" font-family="sans-serif" font-size="11" lengthAdjust="spacingAndGlyphs" textLength="96" x="59.6" y="298.6348">String designacao</text>
        <line style="stroke: #A80036; stroke-width: 1.5;" x1="40.6" x2="320.6" y1="304.9551" y2="304.9551" />
        <ellipse cx="50.6" cy="315.9551" fill="#84BE84" rx="3" ry="3" style="stroke: #038048; stroke-width: 1.0;" /><text fill="#000000" font-family="sans-serif" font-size="11" lengthAdjust="spacingAndGlyphs" textLength="256" x="59.6" y="319.5898">Organizacao getOrganizacaoByIdUtilizador(idG)</text>
        <!--MD5=[e3fffb95df7be5d7861ba6ba5e5e197b]
link EspecificarColaboradorOrganizacaoUI to EspecificarColaboradorOrganizacaoController-->
        <path d="M357.6,56.14 C357.6,71.83 357.6,93 357.6,111.55 " fill="none" id="EspecificarColaboradorOrganizacaoUI-&gt;EspecificarColaboradorOrganizacaoController" style="stroke: #A80036; stroke-width: 1.0; stroke-dasharray: 7.0,7.0;" />
        <polygon fill="#A80036" points="357.6,116.71,361.6,107.71,357.6,111.71,353.6,107.71,357.6,116.71" style="stroke: #A80036; stroke-width: 1.0;" />
        <!--MD5=[c99e899468b4fdb71d8523b5599c1127]
link EspecificarColaboradorOrganizacaoController to Plataforma-->
        <path d="M309.24,191.34 C285.53,209.16 256.95,230.63 232.76,248.81 " fill="none" id="EspecificarColaboradorOrganizacaoController-&gt;Plataforma" style="stroke: #A80036; stroke-width: 1.0; stroke-dasharray: 7.0,7.0;" />
        <polygon fill="#A80036" points="228.6,251.93,238.2,249.73,232.6,248.93,233.4,243.33,228.6,251.93" style="stroke: #A80036; stroke-width: 1.0;" />
        <!--MD5=[1c2ad462e362697fcdc859a6327d55c7]
link Plataforma to Organizacao-->
        <path d="M180.6,326.4 C180.6,346.44 180.6,372.33 180.6,397.61 " fill="none" id="Plataforma-&gt;Organizacao" style="stroke: #A80036; stroke-width: 1.0;" />
        <polygon fill="#A80036" points="180.6,402.66,184.6,393.66,180.6,397.66,176.6,393.66,180.6,402.66" style="stroke: #A80036; stroke-width: 1.0;" /><text fill="#000000" font-family="sans-serif" font-size="13" lengthAdjust="spacingAndGlyphs" textLength="93" x="181.6" y="369.5684">tem registadas</text><text fill="#000000" font-family="sans-serif" font-size="13" lengthAdjust="spacingAndGlyphs" textLength="8" x="171.9375" y="346.4381">1</text><text fill="#000000" font-family="sans-serif" font-size="13" lengthAdjust="spacingAndGlyphs" textLength="6" x="174.3516" y="392.2403">*</text>
        <!--MD5=[72784227607717319347e718c6c00efb]
link EspecificarColaboradorOrganizacaoController to Organizacao-->
        <path d="M210.32,179.54 C131.27,196.03 45.28,220.52 21.6,252 C-13.87,299.16 17.49,353.84 61.46,398.98 " fill="none" id="EspecificarColaboradorOrganizacaoController-&gt;Organizacao" style="stroke: #A80036; stroke-width: 1.0; stroke-dasharray: 7.0,7.0;" />
        <polygon fill="#A80036" points="65.19,402.76,61.7102,393.5464,61.676,399.2031,56.0192,399.1688,65.19,402.76" style="stroke: #A80036; stroke-width: 1.0;" />
        <!--MD5=[37278a990d89f6950193e0b3984c49cb]
link EspecificarColaboradorOrganizacaoController to AutorizacaoFacade-->
        <path d="M454.55,191.19 C481.06,205.93 506.81,225.82 522.6,252 C606.76,391.5 574.13,598.29 554.84,685.42 " fill="none" id="EspecificarColaboradorOrganizacaoController-&gt;AutorizacaoFacade" style="stroke: #A80036; stroke-width: 1.0; stroke-dasharray: 7.0,7.0;" />
        <polygon fill="#A80036" points="553.71,690.49,559.5891,682.5884,554.8082,685.6121,551.7845,680.8312,553.71,690.49" style="stroke: #A80036; stroke-width: 1.0;" />
        <!--MD5=[763ed8977627513981bd43127f197ae9]
link EspecificarColaboradorOrganizacaoController to SessaoUtilizador-->
        <path d="M377.55,191.34 C388.21,210.77 401.27,234.55 411.76,253.67 " fill="none" id="EspecificarColaboradorOrganizacaoController-&gt;SessaoUtilizador" style="stroke: #A80036; stroke-width: 1.0; stroke-dasharray: 7.0,7.0;" />
        <polygon fill="#A80036" points="414.37,258.42,413.545,248.6058,411.9637,254.0371,406.5324,252.4558,414.37,258.42" style="stroke: #A80036; stroke-width: 1.0;" />
        <!--MD5=[c36a6d25de7793c8fa73f7a418a2c527]
link Organizacao to AutorizacaoFacade-->
        <path d="M317.95,581.11 C375.13,617.79 438.57,658.48 483.75,687.47 " fill="none" id="Organizacao-&gt;AutorizacaoFacade" style="stroke: #A80036; stroke-width: 1.0; stroke-dasharray: 7.0,7.0;" />
        <polygon fill="#A80036" points="488.07,690.24,482.6497,682.0168,483.8599,687.5427,478.3341,688.7529,488.07,690.24" style="stroke: #A80036; stroke-width: 1.0;" />
        <!--MD5=[567db691f9836c63f305bad1024cbc66]
link Organizacao to Colaborador-->
        <path d="M164.72,581.28 C160.49,604.81 155.96,629.99 151.88,652.66 " fill="none" id="Organizacao-&gt;Colaborador" style="stroke: #A80036; stroke-width: 1.0;" />
        <polygon fill="#A80036" points="150.97,657.75,156.5029,649.6022,151.8569,652.8293,148.6298,648.1832,150.97,657.75" style="stroke: #A80036; stroke-width: 1.0;" /><text fill="#000000" font-family="sans-serif" font-size="13" lengthAdjust="spacingAndGlyphs" textLength="24" x="159.6" y="624.5684">tem</text><text fill="#000000" font-family="sans-serif" font-size="13" lengthAdjust="spacingAndGlyphs" textLength="8" x="155.2601" y="600.9835">1</text><text fill="#000000" font-family="sans-serif" font-size="13" lengthAdjust="spacingAndGlyphs" textLength="22" x="129.1113" y="647.3842">1..*</text>
        <!--MD5=[567db691f9836c63f305bad1024cbc66]
link Organizacao to Colaborador-->
        <path d="M94.43,581.3 C88.5,590.8 83.39,600.76 79.6,611 C74.49,624.83 75.85,639.13 80.71,652.77 " fill="none" id="Organizacao-&gt;Colaborador-1" style="stroke: #A80036; stroke-width: 1.0;" />
        <polygon fill="#A80036" points="82.65,657.76,83.1102,647.9219,80.835,653.1011,75.6559,650.8259,82.65,657.76" style="stroke: #A80036; stroke-width: 1.0;" /><text fill="#000000" font-family="sans-serif" font-size="13" lengthAdjust="spacingAndGlyphs" textLength="68" x="80.6" y="624.5684">tem gestor</text><text fill="#000000" font-family="sans-serif" font-size="13" lengthAdjust="spacingAndGlyphs" textLength="8" x="79.8081" y="601.005">1</text><text fill="#000000" font-family="sans-serif" font-size="13" lengthAdjust="spacingAndGlyphs" textLength="8" x="68.4677" y="647.3952">1</text>
        <!--MD5=[3cf67f23e86d23ec46cd751e18215e28]
@startuml

class Colaborador {
  -String nome
  -String funcao
  -String telefone
  -String email
  +Colaborador(nome, função, telefone, email)
  +String getNome()
  +String getEmail()
}

class Organizacao {
  -String nome
  -String NIF
  -String website
  -String telefone
  -String email
  +{static} Colaborador novoColaborador(nome,funcao,tlf, email)
  +validaColaborador(colab)
  +registaColaborador(Colaborador colab)
  +String gerarPalavraPasseAutomaticamente()
  - addColaborador(Colaborador colab)
}

class AutorizacaoFacade {
    +SessaoUtilizador getSessaoAtual()
    +registaUtilizadorComPapel(nomeColaborador,emailColaborador,pwd,papel)
}

class SessaoUtilizador {
    +String getIdUtilizador()
}

class EspecificarColaboradorOrganizacaoController {
    +novoColaborador(nome, função, telefone, email)
    +registaColaborador()
}

class EspecificarColaboradorOrganizacaoUI {
}

class Plataforma {
    -String designacao
    +Organizacao getOrganizacaoByIdUtilizador(idG)
}

EspecificarColaboradorOrganizacaoUI ..> EspecificarColaboradorOrganizacaoController
EspecificarColaboradorOrganizacaoController ..> Plataforma
Plataforma "1" - -> "*" Organizacao: tem registadas
EspecificarColaboradorOrganizacaoController ..> Organizacao
EspecificarColaboradorOrganizacaoController ..> AutorizacaoFacade
EspecificarColaboradorOrganizacaoController ..> SessaoUtilizador
Organizacao ..> AutorizacaoFacade
Organizacao "1" - -> "1..*" Colaborador: tem
Organizacao "1" - -> "1" Colaborador: tem gestor

@enduml

PlantUML version 1.2020.02(Sun Mar 01 10:22:07 WET 2020)
(GPL source distribution)
Java Runtime: Java(TM) SE Runtime Environment
JVM: Java HotSpot(TM) 64-Bit Server VM
Java Version: 13.0.2+8
Operating System: Mac OS X
Default Encoding: UTF-8
Language: pt
Country: PT
-->
    </g>
</svg>