<?xml version="1.0" encoding="UTF-8" standalone="no"?><svg xmlns="http://www.w3.org/2000/svg" xmlns:xlink="http://www.w3.org/1999/xlink" contentScriptType="application/ecmascript" contentStyleType="text/css" height="369px" preserveAspectRatio="none" style="width:602px;height:369px;" version="1.1" viewBox="0 0 602 369" width="602px" zoomAndPan="magnify">
    <defs>
        <filter height="300%" id="f1k40ygltllz6z" width="300%" x="-1" y="-1">
            <feGaussianBlur result="blurOut" stdDeviation="2.0" />
            <feColorMatrix in="blurOut" result="blurOut2" type="matrix" values="0 0 0 0 0 0 0 0 0 0 0 0 0 0 0 0 0 0 .4 0" />
            <feOffset dx="4.0" dy="4.0" in="blurOut2" result="blurOut3" />
            <feBlend in="SourceGraphic" in2="blurOut3" mode="normal" />
        </filter>
    </defs>
    <g>
        <rect fill="#FFFFFF" filter="url(#f1k40ygltllz6z)" height="167.8633" style="stroke: #A80036; stroke-width: 1.0;" width="10" x="84.5" y="96.4883" />
        <rect fill="#FFFFFF" filter="url(#f1k40ygltllz6z)" height="29.3105" style="stroke: #A80036; stroke-width: 1.0;" width="10" x="552.5" y="117.7988" />
        <rect fill="#FFFFFF" filter="url(#f1k40ygltllz6z)" height="29.3105" style="stroke: #A80036; stroke-width: 1.0;" width="10" x="552.5" y="176.4199" />
        <rect fill="#FFFFFF" filter="url(#f1k40ygltllz6z)" height="29.3105" style="stroke: #A80036; stroke-width: 1.0;" width="10" x="552.5" y="235.041" />
        <line style="stroke: #A80036; stroke-width: 1.0; stroke-dasharray: 5.0,5.0;" x1="89" x2="89" y1="86.4883" y2="282.3516" />
        <line style="stroke: #A80036; stroke-width: 1.0; stroke-dasharray: 5.0,5.0;" x1="557" x2="557" y1="86.4883" y2="282.3516" /><text fill="#000000" font-family="sans-serif" font-size="14" lengthAdjust="spacingAndGlyphs" textLength="157" x="8" y="83.5352">Gestor de Organização</text>
        <ellipse cx="89.5" cy="13" fill="#FEFECE" filter="url(#f1k40ygltllz6z)" rx="8" ry="8" style="stroke: #A80036; stroke-width: 2.0;" />
        <path d="M89.5,21 L89.5,48 M76.5,29 L102.5,29 M89.5,48 L76.5,63 M89.5,48 L102.5,63 " fill="none" filter="url(#f1k40ygltllz6z)" style="stroke: #A80036; stroke-width: 2.0;" /><text fill="#000000" font-family="sans-serif" font-size="14" lengthAdjust="spacingAndGlyphs" textLength="157" x="8" y="294.8867">Gestor de Organização</text>
        <ellipse cx="89.5" cy="307.8398" fill="#FEFECE" filter="url(#f1k40ygltllz6z)" rx="8" ry="8" style="stroke: #A80036; stroke-width: 2.0;" />
        <path d="M89.5,315.8398 L89.5,342.8398 M76.5,323.8398 L102.5,323.8398 M89.5,342.8398 L76.5,357.8398 M89.5,342.8398 L102.5,357.8398 " fill="none" filter="url(#f1k40ygltllz6z)" style="stroke: #A80036; stroke-width: 2.0;" />
        <rect fill="#FEFECE" filter="url(#f1k40ygltllz6z)" height="30.4883" style="stroke: #A80036; stroke-width: 1.5;" width="71" x="520" y="51" /><text fill="#000000" font-family="sans-serif" font-size="14" lengthAdjust="spacingAndGlyphs" textLength="57" x="527" y="71.5352">:Sistema</text>
        <rect fill="#FEFECE" filter="url(#f1k40ygltllz6z)" height="30.4883" style="stroke: #A80036; stroke-width: 1.5;" width="71" x="520" y="281.3516" /><text fill="#000000" font-family="sans-serif" font-size="14" lengthAdjust="spacingAndGlyphs" textLength="57" x="527" y="301.8867">:Sistema</text>
        <rect fill="#FFFFFF" filter="url(#f1k40ygltllz6z)" height="167.8633" style="stroke: #A80036; stroke-width: 1.0;" width="10" x="84.5" y="96.4883" />
        <rect fill="#FFFFFF" filter="url(#f1k40ygltllz6z)" height="29.3105" style="stroke: #A80036; stroke-width: 1.0;" width="10" x="552.5" y="117.7988" />
        <rect fill="#FFFFFF" filter="url(#f1k40ygltllz6z)" height="29.3105" style="stroke: #A80036; stroke-width: 1.0;" width="10" x="552.5" y="176.4199" />
        <rect fill="#FFFFFF" filter="url(#f1k40ygltllz6z)" height="29.3105" style="stroke: #A80036; stroke-width: 1.0;" width="10" x="552.5" y="235.041" />
        <polygon fill="#A80036" points="540.5,113.7988,550.5,117.7988,540.5,121.7988,544.5,117.7988" style="stroke: #A80036; stroke-width: 1.0;" />
        <line style="stroke: #A80036; stroke-width: 1.0;" x1="94.5" x2="546.5" y1="117.7988" y2="117.7988" /><text fill="#000000" font-family="sans-serif" font-size="13" font-weight="bold" lengthAdjust="spacingAndGlyphs" textLength="9" x="101.5" y="113.0566">1</text><text fill="#000000" font-family="sans-serif" font-size="13" lengthAdjust="spacingAndGlyphs" textLength="209" x="114.5" y="113.0566">novo colaborador de organização</text>
        <polygon fill="#A80036" points="105.5,143.1094,95.5,147.1094,105.5,151.1094,101.5,147.1094" style="stroke: #A80036; stroke-width: 1.0;" />
        <line style="stroke: #A80036; stroke-width: 1.0; stroke-dasharray: 2.0,2.0;" x1="99.5" x2="556.5" y1="147.1094" y2="147.1094" /><text fill="#000000" font-family="sans-serif" font-size="13" font-weight="bold" lengthAdjust="spacingAndGlyphs" textLength="9" x="111.5" y="142.3672">2</text><text fill="#000000" font-family="sans-serif" font-size="13" lengthAdjust="spacingAndGlyphs" textLength="421" x="124.5" y="142.3672">solicita dados sobre o colaborador (nome, função, telefone, email).</text>
        <polygon fill="#A80036" points="540.5,172.4199,550.5,176.4199,540.5,180.4199,544.5,176.4199" style="stroke: #A80036; stroke-width: 1.0;" />
        <line style="stroke: #A80036; stroke-width: 1.0;" x1="94.5" x2="546.5" y1="176.4199" y2="176.4199" /><text fill="#000000" font-family="sans-serif" font-size="13" font-weight="bold" lengthAdjust="spacingAndGlyphs" textLength="9" x="101.5" y="171.6777">3</text><text fill="#000000" font-family="sans-serif" font-size="13" lengthAdjust="spacingAndGlyphs" textLength="187" x="114.5" y="171.6777">introduz os dados solicitados</text>
        <polygon fill="#A80036" points="105.5,201.7305,95.5,205.7305,105.5,209.7305,101.5,205.7305" style="stroke: #A80036; stroke-width: 1.0;" />
        <line style="stroke: #A80036; stroke-width: 1.0; stroke-dasharray: 2.0,2.0;" x1="99.5" x2="556.5" y1="205.7305" y2="205.7305" /><text fill="#000000" font-family="sans-serif" font-size="13" font-weight="bold" lengthAdjust="spacingAndGlyphs" textLength="9" x="111.5" y="200.9883">4</text><text fill="#000000" font-family="sans-serif" font-size="13" lengthAdjust="spacingAndGlyphs" textLength="246" x="124.5" y="200.9883">apresenta dados e solicita confirmação</text>
        <polygon fill="#A80036" points="540.5,231.041,550.5,235.041,540.5,239.041,544.5,235.041" style="stroke: #A80036; stroke-width: 1.0;" />
        <line style="stroke: #A80036; stroke-width: 1.0;" x1="94.5" x2="546.5" y1="235.041" y2="235.041" /><text fill="#000000" font-family="sans-serif" font-size="13" font-weight="bold" lengthAdjust="spacingAndGlyphs" textLength="9" x="101.5" y="230.2988">5</text><text fill="#000000" font-family="sans-serif" font-size="13" lengthAdjust="spacingAndGlyphs" textLength="56" x="114.5" y="230.2988">confirma</text>
        <polygon fill="#A80036" points="100.5,260.3516,90.5,264.3516,100.5,268.3516,96.5,264.3516" style="stroke: #A80036; stroke-width: 1.0;" />
        <line style="stroke: #A80036; stroke-width: 1.0; stroke-dasharray: 2.0,2.0;" x1="94.5" x2="556.5" y1="264.3516" y2="264.3516" /><text fill="#000000" font-family="sans-serif" font-size="13" font-weight="bold" lengthAdjust="spacingAndGlyphs" textLength="9" x="106.5" y="259.6094">6</text><text fill="#000000" font-family="sans-serif" font-size="13" lengthAdjust="spacingAndGlyphs" textLength="148" x="119.5" y="259.6094">operação bem sucedida</text>
        <!--MD5=[a6701919fa9aa657b7a7ea1d75c33f45]
@startuml
autonumber
actor "Gestor de Organização" as GO

activate GO
GO -> ":Sistema" : novo colaborador de organização
activate ":Sistema"
":Sistema" - -> GO : solicita dados sobre o colaborador (nome, função, telefone, email).
deactivate ":Sistema"

GO -> ":Sistema" : introduz os dados solicitados
activate ":Sistema"
":Sistema" - -> GO : apresenta dados e solicita confirmação
deactivate ":Sistema"

GO -> ":Sistema" : confirma
activate ":Sistema"
":Sistema" - -> GO : operação bem sucedida
deactivate ":Sistema"

deactivate GO
@enduml

PlantUML version 1.2020.02(Sun Mar 01 10:22:07 WET 2020)
(GPL source distribution)
Java Runtime: Java(TM) SE Runtime Environment
JVM: Java HotSpot(TM) 64-Bit Server VM
Java Version: 13.0.2+8
Operating System: Mac OS X
Default Encoding: UTF-8
Language: pt
Country: PT
-->
    </g>
</svg>