<?xml version="1.0" encoding="UTF-8" standalone="no"?><svg xmlns="http://www.w3.org/2000/svg" xmlns:xlink="http://www.w3.org/1999/xlink" contentScriptType="application/ecmascript" contentStyleType="text/css" height="208px" preserveAspectRatio="none" style="width:1110px;height:208px;" version="1.1" viewBox="0 0 1110 208" width="1110px" zoomAndPan="magnify">
    <defs>
        <filter height="300%" id="f1lj4yf5zh8z14" width="300%" x="-1" y="-1">
            <feGaussianBlur result="blurOut" stdDeviation="2.0" />
            <feColorMatrix in="blurOut" result="blurOut2" type="matrix" values="0 0 0 0 0 0 0 0 0 0 0 0 0 0 0 0 0 0 .4 0" />
            <feOffset dx="4.0" dy="4.0" in="blurOut2" result="blurOut3" />
            <feBlend in="SourceGraphic" in2="blurOut3" mode="normal" />
        </filter>
    </defs>
    <g>
        <!--MD5=[ecaed46f78f8cfe1e9ce18477649be18]
class Plataforma-->
        <rect fill="#FEFECE" filter="url(#f1lj4yf5zh8z14)" height="52.9551" id="Plataforma" style="stroke: #A80036; stroke-width: 1.5;" width="122" x="6" y="96.5" />
        <ellipse cx="33.6" cy="112.5" fill="#ADD1B2" rx="11" ry="11" style="stroke: #A80036; stroke-width: 1.0;" />
        <path d="M36.0731,118.6431 Q35.4921,118.9419 34.8529,119.0913 Q34.2138,119.2407 33.5082,119.2407 Q31.0014,119.2407 29.6815,117.5889 Q28.3617,115.937 28.3617,112.8159 Q28.3617,109.6865 29.6815,108.0347 Q31.0014,106.3828 33.5082,106.3828 Q34.2138,106.3828 34.8612,106.5322 Q35.5087,106.6816 36.0731,106.9805 L36.0731,109.7031 Q35.4423,109.1221 34.8488,108.8523 Q34.2553,108.5825 33.6244,108.5825 Q32.2797,108.5825 31.5949,109.6492 Q30.9101,110.7158 30.9101,112.8159 Q30.9101,114.9077 31.5949,115.9744 Q32.2797,117.041 33.6244,117.041 Q34.2553,117.041 34.8488,116.7712 Q35.4423,116.5015 36.0731,115.9204 Z " /><text fill="#000000" font-family="sans-serif" font-size="12" lengthAdjust="spacingAndGlyphs" textLength="62" x="50.4" y="117.0352">Plataforma</text>
        <line style="stroke: #A80036; stroke-width: 1.5;" x1="7" x2="127" y1="128.5" y2="128.5" />
        <rect fill="none" height="6" style="stroke: #C82930; stroke-width: 1.0;" width="6" x="14" y="136.5" /><text fill="#000000" font-family="sans-serif" font-size="11" lengthAdjust="spacingAndGlyphs" textLength="96" x="26" y="143.1348">String designacao</text>
        <!--MD5=[807977ceb130c090ed5febfb6de2bdea]
class Organizacao-->
        <rect fill="#FEFECE" filter="url(#f1lj4yf5zh8z14)" height="104.7754" id="Organizacao" style="stroke: #A80036; stroke-width: 1.5;" width="104" x="296" y="70.5" />
        <ellipse cx="311" cy="86.5" fill="#ADD1B2" rx="11" ry="11" style="stroke: #A80036; stroke-width: 1.0;" />
        <path d="M313.4731,92.6431 Q312.8921,92.9419 312.2529,93.0913 Q311.6138,93.2407 310.9082,93.2407 Q308.4014,93.2407 307.0815,91.5889 Q305.7617,89.937 305.7617,86.8159 Q305.7617,83.6865 307.0815,82.0347 Q308.4014,80.3828 310.9082,80.3828 Q311.6138,80.3828 312.2612,80.5322 Q312.9087,80.6816 313.4731,80.9805 L313.4731,83.7031 Q312.8423,83.1221 312.2488,82.8523 Q311.6553,82.5825 311.0244,82.5825 Q309.6797,82.5825 308.9949,83.6492 Q308.3101,84.7158 308.3101,86.8159 Q308.3101,88.9077 308.9949,89.9744 Q309.6797,91.041 311.0244,91.041 Q311.6553,91.041 312.2488,90.7712 Q312.8423,90.5015 313.4731,89.9204 Z " /><text fill="#000000" font-family="sans-serif" font-size="12" lengthAdjust="spacingAndGlyphs" textLength="72" x="325" y="91.0352">Organizacao</text>
        <line style="stroke: #A80036; stroke-width: 1.5;" x1="297" x2="399" y1="102.5" y2="102.5" />
        <rect fill="none" height="6" style="stroke: #C82930; stroke-width: 1.0;" width="6" x="304" y="110.5" /><text fill="#000000" font-family="sans-serif" font-size="11" lengthAdjust="spacingAndGlyphs" textLength="65" x="316" y="117.1348">String nome</text>
        <rect fill="none" height="6" style="stroke: #C82930; stroke-width: 1.0;" width="6" x="304" y="123.4551" /><text fill="#000000" font-family="sans-serif" font-size="11" lengthAdjust="spacingAndGlyphs" textLength="52" x="316" y="130.0898">String NIF</text>
        <rect fill="none" height="6" style="stroke: #C82930; stroke-width: 1.0;" width="6" x="304" y="136.4102" /><text fill="#000000" font-family="sans-serif" font-size="11" lengthAdjust="spacingAndGlyphs" textLength="75" x="316" y="143.0449">String website</text>
        <rect fill="none" height="6" style="stroke: #C82930; stroke-width: 1.0;" width="6" x="304" y="149.3652" /><text fill="#000000" font-family="sans-serif" font-size="11" lengthAdjust="spacingAndGlyphs" textLength="78" x="316" y="156">String telefone</text>
        <rect fill="none" height="6" style="stroke: #C82930; stroke-width: 1.0;" width="6" x="304" y="162.3203" /><text fill="#000000" font-family="sans-serif" font-size="11" lengthAdjust="spacingAndGlyphs" textLength="63" x="316" y="168.9551">String email</text>
        <!--MD5=[5093c62015235b3026463b234e5945de]
class Gestor-->
        <rect fill="#FEFECE" filter="url(#f1lj4yf5zh8z14)" height="91.8203" id="Gestor" style="stroke: #A80036; stroke-width: 1.5;" width="104" x="499" y="8" />
        <ellipse cx="529.3" cy="24" fill="#ADD1B2" rx="11" ry="11" style="stroke: #A80036; stroke-width: 1.0;" />
        <path d="M531.7731,30.1431 Q531.1921,30.4419 530.5529,30.5913 Q529.9138,30.7407 529.2082,30.7407 Q526.7014,30.7407 525.3815,29.0889 Q524.0617,27.437 524.0617,24.3159 Q524.0617,21.1865 525.3815,19.5347 Q526.7014,17.8828 529.2082,17.8828 Q529.9138,17.8828 530.5612,18.0322 Q531.2087,18.1816 531.7731,18.4805 L531.7731,21.2031 Q531.1423,20.6221 530.5488,20.3523 Q529.9553,20.0825 529.3244,20.0825 Q527.9797,20.0825 527.2949,21.1492 Q526.6101,22.2158 526.6101,24.3159 Q526.6101,26.4077 527.2949,27.4744 Q527.9797,28.541 529.3244,28.541 Q529.9553,28.541 530.5488,28.2712 Q531.1423,28.0015 531.7731,27.4204 Z " /><text fill="#000000" font-family="sans-serif" font-size="12" lengthAdjust="spacingAndGlyphs" textLength="38" x="546.7" y="28.5352">Gestor</text>
        <line style="stroke: #A80036; stroke-width: 1.5;" x1="500" x2="602" y1="40" y2="40" />
        <rect fill="none" height="6" style="stroke: #C82930; stroke-width: 1.0;" width="6" x="507" y="48" /><text fill="#000000" font-family="sans-serif" font-size="11" lengthAdjust="spacingAndGlyphs" textLength="65" x="519" y="54.6348">String nome</text>
        <rect fill="none" height="6" style="stroke: #C82930; stroke-width: 1.0;" width="6" x="507" y="60.9551" /><text fill="#000000" font-family="sans-serif" font-size="11" lengthAdjust="spacingAndGlyphs" textLength="72" x="519" y="67.5898">String funcao</text>
        <rect fill="none" height="6" style="stroke: #C82930; stroke-width: 1.0;" width="6" x="507" y="73.9102" /><text fill="#000000" font-family="sans-serif" font-size="11" lengthAdjust="spacingAndGlyphs" textLength="78" x="519" y="80.5449">String telefone</text>
        <rect fill="none" height="6" style="stroke: #C82930; stroke-width: 1.0;" width="6" x="507" y="86.8652" /><text fill="#000000" font-family="sans-serif" font-size="11" lengthAdjust="spacingAndGlyphs" textLength="63" x="519" y="93.5">String email</text>
        <!--MD5=[ac8682ea5466d223e49472789fb200d2]
class Colaborador-->
        <rect fill="#FEFECE" filter="url(#f1lj4yf5zh8z14)" height="91.8203" id="Colaborador" style="stroke: #A80036; stroke-width: 1.5;" width="104" x="741" y="106" />
        <ellipse cx="756" cy="122" fill="#ADD1B2" rx="11" ry="11" style="stroke: #A80036; stroke-width: 1.0;" />
        <path d="M758.4731,128.1431 Q757.8921,128.4419 757.2529,128.5913 Q756.6138,128.7407 755.9082,128.7407 Q753.4014,128.7407 752.0815,127.0889 Q750.7617,125.437 750.7617,122.3159 Q750.7617,119.1865 752.0815,117.5347 Q753.4014,115.8828 755.9082,115.8828 Q756.6138,115.8828 757.2612,116.0322 Q757.9087,116.1816 758.4731,116.4805 L758.4731,119.2031 Q757.8423,118.6221 757.2488,118.3523 Q756.6553,118.0825 756.0244,118.0825 Q754.6797,118.0825 753.9949,119.1492 Q753.3101,120.2158 753.3101,122.3159 Q753.3101,124.4077 753.9949,125.4744 Q754.6797,126.541 756.0244,126.541 Q756.6553,126.541 757.2488,126.2712 Q757.8423,126.0015 758.4731,125.4204 Z " /><text fill="#000000" font-family="sans-serif" font-size="12" lengthAdjust="spacingAndGlyphs" textLength="72" x="770" y="126.5352">Colaborador</text>
        <line style="stroke: #A80036; stroke-width: 1.5;" x1="742" x2="844" y1="138" y2="138" />
        <rect fill="none" height="6" style="stroke: #C82930; stroke-width: 1.0;" width="6" x="749" y="146" /><text fill="#000000" font-family="sans-serif" font-size="11" lengthAdjust="spacingAndGlyphs" textLength="65" x="761" y="152.6348">String nome</text>
        <rect fill="none" height="6" style="stroke: #C82930; stroke-width: 1.0;" width="6" x="749" y="158.9551" /><text fill="#000000" font-family="sans-serif" font-size="11" lengthAdjust="spacingAndGlyphs" textLength="72" x="761" y="165.5898">String funcao</text>
        <rect fill="none" height="6" style="stroke: #C82930; stroke-width: 1.0;" width="6" x="749" y="171.9102" /><text fill="#000000" font-family="sans-serif" font-size="11" lengthAdjust="spacingAndGlyphs" textLength="78" x="761" y="178.5449">String telefone</text>
        <rect fill="none" height="6" style="stroke: #C82930; stroke-width: 1.0;" width="6" x="749" y="184.8652" /><text fill="#000000" font-family="sans-serif" font-size="11" lengthAdjust="spacingAndGlyphs" textLength="63" x="761" y="191.5">String email</text>
        <!--MD5=[5dd1d6732c071e710b9290b531f2fa3b]
class Utilizador-->
        <rect fill="#FEFECE" filter="url(#f1lj4yf5zh8z14)" height="78.8652" id="Utilizador" style="stroke: #A80036; stroke-width: 1.5;" width="113" x="986" y="54.5" />
        <ellipse cx="1012.7" cy="70.5" fill="#ADD1B2" rx="11" ry="11" style="stroke: #A80036; stroke-width: 1.0;" />
        <path d="M1015.1731,76.6431 Q1014.5921,76.9419 1013.9529,77.0913 Q1013.3138,77.2407 1012.6082,77.2407 Q1010.1014,77.2407 1008.7815,75.5889 Q1007.4617,73.937 1007.4617,70.8159 Q1007.4617,67.6865 1008.7815,66.0347 Q1010.1014,64.3828 1012.6082,64.3828 Q1013.3138,64.3828 1013.9612,64.5322 Q1014.6087,64.6816 1015.1731,64.9805 L1015.1731,67.7031 Q1014.5423,67.1221 1013.9488,66.8523 Q1013.3553,66.5825 1012.7244,66.5825 Q1011.3797,66.5825 1010.6949,67.6492 Q1010.0101,68.7158 1010.0101,70.8159 Q1010.0101,72.9077 1010.6949,73.9744 Q1011.3797,75.041 1012.7244,75.041 Q1013.3553,75.041 1013.9488,74.7712 Q1014.5423,74.5015 1015.1731,73.9204 Z " /><text fill="#000000" font-family="sans-serif" font-size="12" lengthAdjust="spacingAndGlyphs" textLength="55" x="1029.3" y="75.0352">Utilizador</text>
        <line style="stroke: #A80036; stroke-width: 1.5;" x1="987" x2="1098" y1="86.5" y2="86.5" />
        <rect fill="none" height="6" style="stroke: #C82930; stroke-width: 1.0;" width="6" x="994" y="94.5" /><text fill="#000000" font-family="sans-serif" font-size="11" lengthAdjust="spacingAndGlyphs" textLength="65" x="1006" y="101.1348">String nome</text>
        <rect fill="none" height="6" style="stroke: #C82930; stroke-width: 1.0;" width="6" x="994" y="107.4551" /><text fill="#000000" font-family="sans-serif" font-size="11" lengthAdjust="spacingAndGlyphs" textLength="63" x="1006" y="114.0898">String email</text>
        <rect fill="none" height="6" style="stroke: #C82930; stroke-width: 1.0;" width="6" x="994" y="120.4102" /><text fill="#000000" font-family="sans-serif" font-size="11" lengthAdjust="spacingAndGlyphs" textLength="87" x="1006" y="127.0449">String password</text>
        <!--MD5=[1c2ad462e362697fcdc859a6327d55c7]
link Plataforma to Organizacao-->
        <path d="M128.2,123 C178.18,123 248.49,123 295.8,123 " fill="none" id="Plataforma-Organizacao" style="stroke: #A80036; stroke-width: 1.0;" /><text fill="#000000" font-family="sans-serif" font-size="13" lengthAdjust="spacingAndGlyphs" textLength="93" x="159" y="119.5684">tem registadas</text>
        <polygon fill="#000000" points="255,113.1553,261,116.1553,255,119.1553,255,113.1553" style="stroke: #000000; stroke-width: 1.0;" /><text fill="#000000" font-family="sans-serif" font-size="13" lengthAdjust="spacingAndGlyphs" textLength="8" x="136.1463" y="136.5041">1</text><text fill="#000000" font-family="sans-serif" font-size="13" lengthAdjust="spacingAndGlyphs" textLength="6" x="282.0375" y="136.6607">*</text>
        <!--MD5=[567db691f9836c63f305bad1024cbc66]
link Organizacao to Colaborador-->
        <path d="M400.02,126.89 C429.03,129.07 466.04,131.78 499,134 C583.79,139.71 682.44,145.62 740.91,149.05 " fill="none" id="Organizacao-Colaborador" style="stroke: #A80036; stroke-width: 1.0;" /><text fill="#000000" font-family="sans-serif" font-size="13" lengthAdjust="spacingAndGlyphs" textLength="24" x="532.5" y="130.5684">tem</text>
        <polygon fill="#000000" points="559.5,124.1553,565.5,127.1553,559.5,130.1553,559.5,124.1553" style="stroke: #000000; stroke-width: 1.0;" /><text fill="#000000" font-family="sans-serif" font-size="13" lengthAdjust="spacingAndGlyphs" textLength="8" x="407.8978" y="141.0977">1</text><text fill="#000000" font-family="sans-serif" font-size="13" lengthAdjust="spacingAndGlyphs" textLength="22" x="710.8266" y="162.2327">1..*</text>
        <!--MD5=[acc59e158a43a453195ae9db463f019a]
link Organizacao to Gestor-->
        <path d="M400.24,105.41 C430.48,95.03 468.63,81.93 498.85,71.56 " fill="none" id="Organizacao-Gestor" style="stroke: #A80036; stroke-width: 1.0;" /><text fill="#000000" font-family="sans-serif" font-size="13" lengthAdjust="spacingAndGlyphs" textLength="24" x="431" y="79.5684">tem</text>
        <polygon fill="#000000" points="458,73.1553,464,76.1553,458,79.1553,458,73.1553" style="stroke: #000000; stroke-width: 1.0;" /><text fill="#000000" font-family="sans-serif" font-size="13" lengthAdjust="spacingAndGlyphs" textLength="8" x="408.1488" y="116.5971">1</text><text fill="#000000" font-family="sans-serif" font-size="13" lengthAdjust="spacingAndGlyphs" textLength="8" x="482.9539" y="87.6869">1</text>
        <!--MD5=[d67bf0312a26268cf92dd670461cc43a]
link Gestor to Colaborador-->
        <path d="M603.19,74.9 C643.8,91.49 700.3,114.55 740.89,131.13 " fill="none" id="Gestor-Colaborador" style="stroke: #A80036; stroke-width: 1.0;" /><text fill="#000000" font-family="sans-serif" font-size="13" lengthAdjust="spacingAndGlyphs" textLength="63" x="634" y="85.5684">especifica</text>
        <polygon fill="#000000" points="700,79.1553,706,82.1553,700,85.1553,700,79.1553" style="stroke: #000000; stroke-width: 1.0;" /><text fill="#000000" font-family="sans-serif" font-size="13" lengthAdjust="spacingAndGlyphs" textLength="8" x="611.0917" y="91.4966">1</text><text fill="#000000" font-family="sans-serif" font-size="13" lengthAdjust="spacingAndGlyphs" textLength="22" x="710.804" y="142.0167">1..*</text>
        <!--MD5=[8cd32de172b15291f279c31a0bd177a9]
link Gestor to Utilizador-->
        <path d="M603.22,56.86 C634.4,58.69 675.01,61.24 711,64 C807.8,71.44 920.35,82.08 985.99,88.49 " fill="none" id="Gestor-Utilizador" style="stroke: #A80036; stroke-width: 1.0;" /><text fill="#000000" font-family="sans-serif" font-size="13" lengthAdjust="spacingAndGlyphs" textLength="66" x="753.5" y="63.5684">atua como</text>
        <polygon fill="#000000" points="822.5,57.1553,828.5,60.1553,822.5,63.1553,822.5,57.1553" style="stroke: #000000; stroke-width: 1.0;" /><text fill="#000000" font-family="sans-serif" font-size="13" lengthAdjust="spacingAndGlyphs" textLength="8" x="611.1259" y="70.9197">1</text><text fill="#000000" font-family="sans-serif" font-size="13" lengthAdjust="spacingAndGlyphs" textLength="8" x="969.859" y="101.3557">1</text>
        <!--MD5=[bcb5794e8184ce78d304f04a5beabbc0]
link Colaborador to Utilizador-->
        <path d="M845.28,139.98 C886.34,130.36 943.84,116.89 985.98,107.01 " fill="none" id="Colaborador-Utilizador" style="stroke: #A80036; stroke-width: 1.0;" /><text fill="#000000" font-family="sans-serif" font-size="13" lengthAdjust="spacingAndGlyphs" textLength="66" x="876" y="111.5684">atua como</text>
        <polygon fill="#000000" points="945,105.1553,951,108.1553,945,111.1553,945,105.1553" style="stroke: #000000; stroke-width: 1.0;" /><text fill="#000000" font-family="sans-serif" font-size="13" lengthAdjust="spacingAndGlyphs" textLength="22" x="852.9923" y="152.0274">1..*</text><text fill="#000000" font-family="sans-serif" font-size="13" lengthAdjust="spacingAndGlyphs" textLength="8" x="969.8476" y="122.3643">1</text>
        <!--MD5=[9105c27d8c3525cfaae15382425e08ba]
@startuml

hide methods
left to right direction

class Plataforma {
  -String designacao
}

class Organizacao {
  -String nome
  -String NIF
  -String website
  -String telefone
  -String email
}

class Gestor {
  -String nome
  -String funcao
  -String telefone
  -String email
}

class Colaborador {
  -String nome
  -String funcao
  -String telefone
  -String email
}

class Utilizador {
  -String nome
  -String email
  -String password
}


Plataforma "1" - - "*" Organizacao : tem registadas >
Organizacao "1" - - "1..*" Colaborador: tem >
Organizacao "1" - - "1" Gestor: tem  >
Gestor "1" - - "1..*" Colaborador: especifica >
Gestor "1" - - "1" Utilizador: atua como >
Colaborador "1..*" - - "1" Utilizador: atua como >
@enduml

PlantUML version 1.2020.02(Sun Mar 01 10:22:07 WET 2020)
(GPL source distribution)
Java Runtime: Java(TM) SE Runtime Environment
JVM: Java HotSpot(TM) 64-Bit Server VM
Java Version: 13.0.2+8
Operating System: Mac OS X
Default Encoding: UTF-8
Language: pt
Country: PT
-->
    </g>
</svg>