<?xml version="1.0" encoding="UTF-8" standalone="no"?><svg xmlns="http://www.w3.org/2000/svg" xmlns:xlink="http://www.w3.org/1999/xlink" contentScriptType="application/ecmascript" contentStyleType="text/css" height="1106px" preserveAspectRatio="none" style="width:1975px;height:1106px;" version="1.1" viewBox="0 0 1975 1106" width="1975px" zoomAndPan="magnify">
    <defs>
        <filter height="300%" id="fmxxg10l5xta7" width="300%" x="-1" y="-1">
            <feGaussianBlur result="blurOut" stdDeviation="2.0" />
            <feColorMatrix in="blurOut" result="blurOut2" type="matrix" values="0 0 0 0 0 0 0 0 0 0 0 0 0 0 0 0 0 0 .4 0" />
            <feOffset dx="4.0" dy="4.0" in="blurOut2" result="blurOut3" />
            <feBlend in="SourceGraphic" in2="blurOut3" mode="normal" />
        </filter>
    </defs>
    <g>
        <rect fill="#FFFFFF" filter="url(#fmxxg10l5xta7)" height="905.0098" style="stroke: #A80036; stroke-width: 1.0;" width="10" x="84.5" y="96.4883" />
        <rect fill="#FFFFFF" filter="url(#fmxxg10l5xta7)" height="44.6211" style="stroke: #A80036; stroke-width: 1.0;" width="10" x="386.5" y="117.7988" />
        <rect fill="#FFFFFF" filter="url(#fmxxg10l5xta7)" height="370.6621" style="stroke: #A80036; stroke-width: 1.0;" width="10" x="386.5" y="191.7305" />
        <rect fill="#FFFFFF" filter="url(#fmxxg10l5xta7)" height="409.7949" style="stroke: #A80036; stroke-width: 1.0;" width="10" x="386.5" y="591.7031" />
        <rect fill="#FFFFFF" filter="url(#fmxxg10l5xta7)" height="312.041" style="stroke: #A80036; stroke-width: 1.0;" width="10" x="731.5" y="221.041" />
        <rect fill="#FFFFFF" filter="url(#fmxxg10l5xta7)" height="344.1738" style="stroke: #A80036; stroke-width: 1.0;" width="10" x="731.5" y="621.0137" />
        <rect fill="#FFFFFF" filter="url(#fmxxg10l5xta7)" height="30" style="stroke: #A80036; stroke-width: 1.0;" width="10" x="1018.5" y="443.7715" />
        <rect fill="#FFFFFF" filter="url(#fmxxg10l5xta7)" height="29.3105" style="stroke: #A80036; stroke-width: 1.0;" width="10" x="1129" y="250.3516" />
        <rect fill="#FFFFFF" filter="url(#fmxxg10l5xta7)" height="30" style="stroke: #A80036; stroke-width: 1.0;" width="10" x="1258" y="503.082" />
        <rect fill="#FFFFFF" filter="url(#fmxxg10l5xta7)" height="314.8633" style="stroke: #A80036; stroke-width: 1.0;" width="10" x="1258" y="650.3242" />
        <rect fill="#FFFFFF" filter="url(#fmxxg10l5xta7)" height="30" style="stroke: #A80036; stroke-width: 1.0;" width="10" x="1583" y="721.9453" />
        <rect fill="#FFFFFF" filter="url(#fmxxg10l5xta7)" height="30" style="stroke: #A80036; stroke-width: 1.0;" width="10" x="1583" y="781.2559" />
        <rect fill="#FFFFFF" filter="url(#fmxxg10l5xta7)" height="30" style="stroke: #A80036; stroke-width: 1.0;" width="10" x="1583" y="840.5664" />
        <rect fill="#FFFFFF" filter="url(#fmxxg10l5xta7)" height="30" style="stroke: #A80036; stroke-width: 1.0;" width="10" x="1757" y="384.4609" />
        <rect fill="#FFFFFF" filter="url(#fmxxg10l5xta7)" height="30" style="stroke: #A80036; stroke-width: 1.0;" width="10" x="1910.5" y="325.1504" />
        <rect fill="#FFFFFF" filter="url(#fmxxg10l5xta7)" height="30" style="stroke: #A80036; stroke-width: 1.0;" width="10" x="1910.5" y="899.877" />
        <line style="stroke: #A80036; stroke-width: 1.0; stroke-dasharray: 5.0,5.0;" x1="89" x2="89" y1="86.4883" y2="1019.498" />
        <line style="stroke: #A80036; stroke-width: 1.0; stroke-dasharray: 5.0,5.0;" x1="391.5" x2="391.5" y1="86.4883" y2="1019.498" />
        <line style="stroke: #A80036; stroke-width: 1.0; stroke-dasharray: 5.0,5.0;" x1="736.5" x2="736.5" y1="86.4883" y2="1019.498" />
        <line style="stroke: #A80036; stroke-width: 1.0; stroke-dasharray: 5.0,5.0;" x1="1023.5" x2="1023.5" y1="86.4883" y2="1019.498" />
        <line style="stroke: #A80036; stroke-width: 1.0; stroke-dasharray: 5.0,5.0;" x1="1133.5" x2="1133.5" y1="86.4883" y2="1019.498" />
        <line style="stroke: #A80036; stroke-width: 1.0; stroke-dasharray: 5.0,5.0;" x1="1262.5" x2="1262.5" y1="86.4883" y2="1019.498" />
        <line style="stroke: #A80036; stroke-width: 1.0; stroke-dasharray: 5.0,5.0;" x1="1588" x2="1588" y1="291.0957" y2="1019.498" />
        <line style="stroke: #A80036; stroke-width: 1.0; stroke-dasharray: 5.0,5.0;" x1="1762" x2="1762" y1="86.4883" y2="1019.498" />
        <line style="stroke: #A80036; stroke-width: 1.0; stroke-dasharray: 5.0,5.0;" x1="1915" x2="1915" y1="86.4883" y2="1019.498" /><text fill="#000000" font-family="sans-serif" font-size="14" lengthAdjust="spacingAndGlyphs" textLength="157" x="8" y="83.5352">Gestor de Organização</text>
        <ellipse cx="89.5" cy="13" fill="#FEFECE" filter="url(#fmxxg10l5xta7)" rx="8" ry="8" style="stroke: #A80036; stroke-width: 2.0;" />
        <path d="M89.5,21 L89.5,48 M76.5,29 L102.5,29 M89.5,48 L76.5,63 M89.5,48 L102.5,63 " fill="none" filter="url(#fmxxg10l5xta7)" style="stroke: #A80036; stroke-width: 2.0;" /><text fill="#000000" font-family="sans-serif" font-size="14" lengthAdjust="spacingAndGlyphs" textLength="157" x="8" y="1032.0332">Gestor de Organização</text>
        <ellipse cx="89.5" cy="1044.9863" fill="#FEFECE" filter="url(#fmxxg10l5xta7)" rx="8" ry="8" style="stroke: #A80036; stroke-width: 2.0;" />
        <path d="M89.5,1052.9863 L89.5,1079.9863 M76.5,1060.9863 L102.5,1060.9863 M89.5,1079.9863 L76.5,1094.9863 M89.5,1079.9863 L102.5,1094.9863 " fill="none" filter="url(#fmxxg10l5xta7)" style="stroke: #A80036; stroke-width: 2.0;" />
        <rect fill="#FEFECE" filter="url(#fmxxg10l5xta7)" height="46.9766" style="stroke: #A80036; stroke-width: 1.5;" width="202" x="288.5" y="34.5117" /><text fill="#000000" font-family="sans-serif" font-size="14" lengthAdjust="spacingAndGlyphs" textLength="77" x="351" y="55.0469">:Especificar</text><text fill="#000000" font-family="sans-serif" font-size="14" lengthAdjust="spacingAndGlyphs" textLength="188" x="295.5" y="71.5352">ColaboradorOrganizacaoUI</text>
        <rect fill="#FEFECE" filter="url(#fmxxg10l5xta7)" height="46.9766" style="stroke: #A80036; stroke-width: 1.5;" width="202" x="288.5" y="1018.498" /><text fill="#000000" font-family="sans-serif" font-size="14" lengthAdjust="spacingAndGlyphs" textLength="77" x="351" y="1039.0332">:Especificar</text><text fill="#000000" font-family="sans-serif" font-size="14" lengthAdjust="spacingAndGlyphs" textLength="188" x="295.5" y="1055.5215">ColaboradorOrganizacaoUI</text>
        <rect fill="#FEFECE" filter="url(#fmxxg10l5xta7)" height="46.9766" style="stroke: #A80036; stroke-width: 1.5;" width="178" x="645.5" y="34.5117" /><text fill="#000000" font-family="sans-serif" font-size="14" lengthAdjust="spacingAndGlyphs" textLength="164" x="652.5" y="55.0469">:EspecificarColaborador</text><text fill="#000000" font-family="sans-serif" font-size="14" lengthAdjust="spacingAndGlyphs" textLength="157" x="656" y="71.5352">OrganizacaoController</text>
        <rect fill="#FEFECE" filter="url(#fmxxg10l5xta7)" height="46.9766" style="stroke: #A80036; stroke-width: 1.5;" width="178" x="645.5" y="1018.498" /><text fill="#000000" font-family="sans-serif" font-size="14" lengthAdjust="spacingAndGlyphs" textLength="164" x="652.5" y="1039.0332">:EspecificarColaborador</text><text fill="#000000" font-family="sans-serif" font-size="14" lengthAdjust="spacingAndGlyphs" textLength="157" x="656" y="1055.5215">OrganizacaoController</text>
        <rect fill="#FEFECE" filter="url(#fmxxg10l5xta7)" height="30.4883" style="stroke: #A80036; stroke-width: 1.5;" width="92" x="975.5" y="51" /><text fill="#000000" font-family="sans-serif" font-size="14" lengthAdjust="spacingAndGlyphs" textLength="78" x="982.5" y="71.5352">:Plataforma</text>
        <rect fill="#FEFECE" filter="url(#fmxxg10l5xta7)" height="30.4883" style="stroke: #A80036; stroke-width: 1.5;" width="92" x="975.5" y="1018.498" /><text fill="#000000" font-family="sans-serif" font-size="14" lengthAdjust="spacingAndGlyphs" textLength="78" x="982.5" y="1039.0332">:Plataforma</text>
        <rect fill="#FEFECE" filter="url(#fmxxg10l5xta7)" height="30.4883" style="stroke: #A80036; stroke-width: 1.5;" width="101" x="1081.5" y="51" /><text fill="#000000" font-family="sans-serif" font-size="14" lengthAdjust="spacingAndGlyphs" textLength="87" x="1088.5" y="71.5352">Organizacao</text>
        <rect fill="#FEFECE" filter="url(#fmxxg10l5xta7)" height="30.4883" style="stroke: #A80036; stroke-width: 1.5;" width="101" x="1081.5" y="1018.498" /><text fill="#000000" font-family="sans-serif" font-size="14" lengthAdjust="spacingAndGlyphs" textLength="87" x="1088.5" y="1039.0332">Organizacao</text>
        <rect fill="#FEFECE" filter="url(#fmxxg10l5xta7)" height="30.4883" style="stroke: #A80036; stroke-width: 1.5;" width="129" x="1196.5" y="51" /><text fill="#000000" font-family="sans-serif" font-size="14" lengthAdjust="spacingAndGlyphs" textLength="115" x="1203.5" y="71.5352">org:Organizacao</text>
        <rect fill="#FEFECE" filter="url(#fmxxg10l5xta7)" height="30.4883" style="stroke: #A80036; stroke-width: 1.5;" width="129" x="1196.5" y="1018.498" /><text fill="#000000" font-family="sans-serif" font-size="14" lengthAdjust="spacingAndGlyphs" textLength="115" x="1203.5" y="1039.0332">org:Organizacao</text>
        <rect fill="#FEFECE" filter="url(#fmxxg10l5xta7)" height="30.4883" style="stroke: #A80036; stroke-width: 1.5;" width="142" x="1515" y="1018.498" /><text fill="#000000" font-family="sans-serif" font-size="14" lengthAdjust="spacingAndGlyphs" textLength="128" x="1522" y="1039.0332">colab:Colaborador</text>
        <rect fill="#FEFECE" filter="url(#fmxxg10l5xta7)" height="30.4883" style="stroke: #A80036; stroke-width: 1.5;" width="178" x="1671" y="51" /><text fill="#000000" font-family="sans-serif" font-size="14" lengthAdjust="spacingAndGlyphs" textLength="164" x="1678" y="71.5352">sessao:SessãoUtilizador</text>
        <rect fill="#FEFECE" filter="url(#fmxxg10l5xta7)" height="30.4883" style="stroke: #A80036; stroke-width: 1.5;" width="178" x="1671" y="1018.498" /><text fill="#000000" font-family="sans-serif" font-size="14" lengthAdjust="spacingAndGlyphs" textLength="164" x="1678" y="1039.0332">sessao:SessãoUtilizador</text>
        <rect fill="#FEFECE" filter="url(#fmxxg10l5xta7)" height="46.9766" style="stroke: #A80036; stroke-width: 1.5;" width="101" x="1863" y="34.5117" /><text fill="#000000" font-family="sans-serif" font-size="14" lengthAdjust="spacingAndGlyphs" textLength="87" x="1870" y="55.0469">:Autorizacao</text><text fill="#000000" font-family="sans-serif" font-size="14" lengthAdjust="spacingAndGlyphs" textLength="48" x="1889.5" y="71.5352">Facade</text>
        <rect fill="#FEFECE" filter="url(#fmxxg10l5xta7)" height="46.9766" style="stroke: #A80036; stroke-width: 1.5;" width="101" x="1863" y="1018.498" /><text fill="#000000" font-family="sans-serif" font-size="14" lengthAdjust="spacingAndGlyphs" textLength="87" x="1870" y="1039.0332">:Autorizacao</text><text fill="#000000" font-family="sans-serif" font-size="14" lengthAdjust="spacingAndGlyphs" textLength="48" x="1889.5" y="1055.5215">Facade</text>
        <rect fill="#FFFFFF" filter="url(#fmxxg10l5xta7)" height="905.0098" style="stroke: #A80036; stroke-width: 1.0;" width="10" x="84.5" y="96.4883" />
        <rect fill="#FFFFFF" filter="url(#fmxxg10l5xta7)" height="44.6211" style="stroke: #A80036; stroke-width: 1.0;" width="10" x="386.5" y="117.7988" />
        <rect fill="#FFFFFF" filter="url(#fmxxg10l5xta7)" height="370.6621" style="stroke: #A80036; stroke-width: 1.0;" width="10" x="386.5" y="191.7305" />
        <rect fill="#FFFFFF" filter="url(#fmxxg10l5xta7)" height="409.7949" style="stroke: #A80036; stroke-width: 1.0;" width="10" x="386.5" y="591.7031" />
        <rect fill="#FFFFFF" filter="url(#fmxxg10l5xta7)" height="312.041" style="stroke: #A80036; stroke-width: 1.0;" width="10" x="731.5" y="221.041" />
        <rect fill="#FFFFFF" filter="url(#fmxxg10l5xta7)" height="344.1738" style="stroke: #A80036; stroke-width: 1.0;" width="10" x="731.5" y="621.0137" />
        <rect fill="#FFFFFF" filter="url(#fmxxg10l5xta7)" height="30" style="stroke: #A80036; stroke-width: 1.0;" width="10" x="1018.5" y="443.7715" />
        <rect fill="#FFFFFF" filter="url(#fmxxg10l5xta7)" height="29.3105" style="stroke: #A80036; stroke-width: 1.0;" width="10" x="1129" y="250.3516" />
        <rect fill="#FFFFFF" filter="url(#fmxxg10l5xta7)" height="30" style="stroke: #A80036; stroke-width: 1.0;" width="10" x="1258" y="503.082" />
        <rect fill="#FFFFFF" filter="url(#fmxxg10l5xta7)" height="314.8633" style="stroke: #A80036; stroke-width: 1.0;" width="10" x="1258" y="650.3242" />
        <rect fill="#FFFFFF" filter="url(#fmxxg10l5xta7)" height="30" style="stroke: #A80036; stroke-width: 1.0;" width="10" x="1583" y="721.9453" />
        <rect fill="#FFFFFF" filter="url(#fmxxg10l5xta7)" height="30" style="stroke: #A80036; stroke-width: 1.0;" width="10" x="1583" y="781.2559" />
        <rect fill="#FFFFFF" filter="url(#fmxxg10l5xta7)" height="30" style="stroke: #A80036; stroke-width: 1.0;" width="10" x="1583" y="840.5664" />
        <rect fill="#FFFFFF" filter="url(#fmxxg10l5xta7)" height="30" style="stroke: #A80036; stroke-width: 1.0;" width="10" x="1757" y="384.4609" />
        <rect fill="#FFFFFF" filter="url(#fmxxg10l5xta7)" height="30" style="stroke: #A80036; stroke-width: 1.0;" width="10" x="1910.5" y="325.1504" />
        <rect fill="#FFFFFF" filter="url(#fmxxg10l5xta7)" height="30" style="stroke: #A80036; stroke-width: 1.0;" width="10" x="1910.5" y="899.877" />
        <polygon fill="#A80036" points="374.5,113.7988,384.5,117.7988,374.5,121.7988,378.5,117.7988" style="stroke: #A80036; stroke-width: 1.0;" />
        <line style="stroke: #A80036; stroke-width: 1.0;" x1="94.5" x2="380.5" y1="117.7988" y2="117.7988" /><text fill="#000000" font-family="sans-serif" font-size="13" font-weight="bold" lengthAdjust="spacingAndGlyphs" textLength="9" x="101.5" y="113.0566">1</text><text fill="#000000" font-family="sans-serif" font-size="13" lengthAdjust="spacingAndGlyphs" textLength="110" x="114.5" y="113.0566">novo colaborador</text>
        <polygon fill="#A80036" points="105.5,158.4199,95.5,162.4199,105.5,166.4199,101.5,162.4199" style="stroke: #A80036; stroke-width: 1.0;" />
        <line style="stroke: #A80036; stroke-width: 1.0; stroke-dasharray: 2.0,2.0;" x1="99.5" x2="390.5" y1="162.4199" y2="162.4199" /><text fill="#000000" font-family="sans-serif" font-size="13" font-weight="bold" lengthAdjust="spacingAndGlyphs" textLength="9" x="111.5" y="150.0225">2</text><text fill="#000000" font-family="sans-serif" font-size="13" lengthAdjust="spacingAndGlyphs" textLength="167" x="124.5" y="142.3672">solicita dados colaborador</text><text fill="#000000" font-family="sans-serif" font-size="13" lengthAdjust="spacingAndGlyphs" textLength="191" x="124.5" y="157.6777">(nome, função, telefone,email)</text>
        <polygon fill="#A80036" points="374.5,187.7305,384.5,191.7305,374.5,195.7305,378.5,191.7305" style="stroke: #A80036; stroke-width: 1.0;" />
        <line style="stroke: #A80036; stroke-width: 1.0;" x1="94.5" x2="380.5" y1="191.7305" y2="191.7305" /><text fill="#000000" font-family="sans-serif" font-size="13" font-weight="bold" lengthAdjust="spacingAndGlyphs" textLength="9" x="101.5" y="186.9883">3</text><text fill="#000000" font-family="sans-serif" font-size="13" lengthAdjust="spacingAndGlyphs" textLength="187" x="114.5" y="186.9883">introduz os dados solicitados</text>
        <polygon fill="#A80036" points="719.5,217.041,729.5,221.041,719.5,225.041,723.5,221.041" style="stroke: #A80036; stroke-width: 1.0;" />
        <line style="stroke: #A80036; stroke-width: 1.0;" x1="396.5" x2="725.5" y1="221.041" y2="221.041" /><text fill="#000000" font-family="sans-serif" font-size="13" font-weight="bold" lengthAdjust="spacingAndGlyphs" textLength="9" x="403.5" y="216.2988">4</text><text fill="#000000" font-family="sans-serif" font-size="13" lengthAdjust="spacingAndGlyphs" textLength="303" x="416.5" y="216.2988">novoColaborador(nome, função, telefone, email)</text>
        <polygon fill="#A80036" points="1117,246.3516,1127,250.3516,1117,254.3516,1121,250.3516" style="stroke: #A80036; stroke-width: 1.0;" />
        <line style="stroke: #A80036; stroke-width: 1.0;" x1="741.5" x2="1123" y1="250.3516" y2="250.3516" /><text fill="#000000" font-family="sans-serif" font-size="13" font-weight="bold" lengthAdjust="spacingAndGlyphs" textLength="9" x="748.5" y="245.6094">5</text><text fill="#000000" font-family="sans-serif" font-size="13" lengthAdjust="spacingAndGlyphs" textLength="347" x="761.5" y="245.6094">colab=novoColaborador(nome, função, telefone, email)</text>
        <polygon fill="#A80036" points="1503,275.6621,1513,279.6621,1503,283.6621,1507,279.6621" style="stroke: #A80036; stroke-width: 1.0;" />
        <line style="stroke: #A80036; stroke-width: 1.0; stroke-dasharray: 2.0,2.0;" x1="1134" x2="1509" y1="279.6621" y2="279.6621" /><text fill="#000000" font-family="sans-serif" font-size="13" font-weight="bold" lengthAdjust="spacingAndGlyphs" textLength="9" x="1141" y="274.9199">6</text><text fill="#000000" font-family="sans-serif" font-size="13" lengthAdjust="spacingAndGlyphs" textLength="233" x="1154" y="274.9199">create(nome, função, telefone, email)</text>
        <rect fill="#FEFECE" filter="url(#fmxxg10l5xta7)" height="30.4883" style="stroke: #A80036; stroke-width: 1.5;" width="142" x="1515" y="258.3516" /><text fill="#000000" font-family="sans-serif" font-size="14" lengthAdjust="spacingAndGlyphs" textLength="128" x="1522" y="278.8867">colab:Colaborador</text>
        <polygon fill="#A80036" points="1898.5,321.1504,1908.5,325.1504,1898.5,329.1504,1902.5,325.1504" style="stroke: #A80036; stroke-width: 1.0;" />
        <line style="stroke: #A80036; stroke-width: 1.0;" x1="741.5" x2="1904.5" y1="325.1504" y2="325.1504" /><text fill="#000000" font-family="sans-serif" font-size="13" font-weight="bold" lengthAdjust="spacingAndGlyphs" textLength="9" x="748.5" y="320.4082">7</text><text fill="#000000" font-family="sans-serif" font-size="13" lengthAdjust="spacingAndGlyphs" textLength="157" x="761.5" y="320.4082">sessao=getSessaoAtual()</text>
        <polygon fill="#A80036" points="1745,380.4609,1755,384.4609,1745,388.4609,1749,384.4609" style="stroke: #A80036; stroke-width: 1.0;" />
        <line style="stroke: #A80036; stroke-width: 1.0;" x1="741.5" x2="1751" y1="384.4609" y2="384.4609" /><text fill="#000000" font-family="sans-serif" font-size="13" font-weight="bold" lengthAdjust="spacingAndGlyphs" textLength="9" x="748.5" y="379.7188">8</text><text fill="#000000" font-family="sans-serif" font-size="13" lengthAdjust="spacingAndGlyphs" textLength="132" x="761.5" y="379.7188">idG=getIdUtilizador()</text>
        <polygon fill="#A80036" points="1006.5,439.7715,1016.5,443.7715,1006.5,447.7715,1010.5,443.7715" style="stroke: #A80036; stroke-width: 1.0;" />
        <line style="stroke: #A80036; stroke-width: 1.0;" x1="741.5" x2="1012.5" y1="443.7715" y2="443.7715" /><text fill="#000000" font-family="sans-serif" font-size="13" font-weight="bold" lengthAdjust="spacingAndGlyphs" textLength="9" x="748.5" y="439.0293">9</text><text fill="#000000" font-family="sans-serif" font-size="13" lengthAdjust="spacingAndGlyphs" textLength="245" x="761.5" y="439.0293">org=getOrganizacaoByIdUtilizador(idG)</text>
        <polygon fill="#A80036" points="1246,499.082,1256,503.082,1246,507.082,1250,503.082" style="stroke: #A80036; stroke-width: 1.0;" />
        <line style="stroke: #A80036; stroke-width: 1.0;" x1="741.5" x2="1252" y1="503.082" y2="503.082" /><text fill="#000000" font-family="sans-serif" font-size="13" font-weight="bold" lengthAdjust="spacingAndGlyphs" textLength="18" x="748.5" y="498.3398">10</text><text fill="#000000" font-family="sans-serif" font-size="13" lengthAdjust="spacingAndGlyphs" textLength="156" x="770.5" y="498.3398">validaColaborador(colab)</text>
        <polygon fill="#A80036" points="105.5,558.3926,95.5,562.3926,105.5,566.3926,101.5,562.3926" style="stroke: #A80036; stroke-width: 1.0;" />
        <line style="stroke: #A80036; stroke-width: 1.0; stroke-dasharray: 2.0,2.0;" x1="99.5" x2="390.5" y1="562.3926" y2="562.3926" /><text fill="#000000" font-family="sans-serif" font-size="13" font-weight="bold" lengthAdjust="spacingAndGlyphs" textLength="18" x="111.5" y="557.6504">11</text><text fill="#000000" font-family="sans-serif" font-size="13" lengthAdjust="spacingAndGlyphs" textLength="246" x="133.5" y="557.6504">apresenta dados e solicita confirmação</text>
        <polygon fill="#A80036" points="374.5,587.7031,384.5,591.7031,374.5,595.7031,378.5,591.7031" style="stroke: #A80036; stroke-width: 1.0;" />
        <line style="stroke: #A80036; stroke-width: 1.0;" x1="94.5" x2="380.5" y1="591.7031" y2="591.7031" /><text fill="#000000" font-family="sans-serif" font-size="13" font-weight="bold" lengthAdjust="spacingAndGlyphs" textLength="18" x="101.5" y="586.9609">12</text><text fill="#000000" font-family="sans-serif" font-size="13" lengthAdjust="spacingAndGlyphs" textLength="201" x="123.5" y="586.9609">confirma os dados introduzidos</text>
        <polygon fill="#A80036" points="719.5,617.0137,729.5,621.0137,719.5,625.0137,723.5,621.0137" style="stroke: #A80036; stroke-width: 1.0;" />
        <line style="stroke: #A80036; stroke-width: 1.0;" x1="396.5" x2="725.5" y1="621.0137" y2="621.0137" /><text fill="#000000" font-family="sans-serif" font-size="13" font-weight="bold" lengthAdjust="spacingAndGlyphs" textLength="18" x="403.5" y="616.2715">13</text><text fill="#000000" font-family="sans-serif" font-size="13" lengthAdjust="spacingAndGlyphs" textLength="128" x="425.5" y="616.2715">registaColaborador()</text>
        <polygon fill="#A80036" points="1246,646.3242,1256,650.3242,1246,654.3242,1250,650.3242" style="stroke: #A80036; stroke-width: 1.0;" />
        <line style="stroke: #A80036; stroke-width: 1.0;" x1="741.5" x2="1252" y1="650.3242" y2="650.3242" /><text fill="#000000" font-family="sans-serif" font-size="13" font-weight="bold" lengthAdjust="spacingAndGlyphs" textLength="18" x="748.5" y="645.582">14</text><text fill="#000000" font-family="sans-serif" font-size="13" lengthAdjust="spacingAndGlyphs" textLength="162" x="770.5" y="645.582">registaColaborador(colab)</text>
        <line style="stroke: #A80036; stroke-width: 1.0;" x1="1268" x2="1310" y1="679.6348" y2="679.6348" />
        <line style="stroke: #A80036; stroke-width: 1.0;" x1="1310" x2="1310" y1="679.6348" y2="692.6348" />
        <line style="stroke: #A80036; stroke-width: 1.0;" x1="1269" x2="1310" y1="692.6348" y2="692.6348" />
        <polygon fill="#A80036" points="1279,688.6348,1269,692.6348,1279,696.6348,1275,692.6348" style="stroke: #A80036; stroke-width: 1.0;" /><text fill="#000000" font-family="sans-serif" font-size="13" font-weight="bold" lengthAdjust="spacingAndGlyphs" textLength="18" x="1275" y="674.8926">15</text><text fill="#000000" font-family="sans-serif" font-size="13" lengthAdjust="spacingAndGlyphs" textLength="156" x="1297" y="674.8926">validaColaborador(colab)</text>
        <polygon fill="#A80036" points="1571,717.9453,1581,721.9453,1571,725.9453,1575,721.9453" style="stroke: #A80036; stroke-width: 1.0;" />
        <line style="stroke: #A80036; stroke-width: 1.0;" x1="1268" x2="1577" y1="721.9453" y2="721.9453" /><text fill="#000000" font-family="sans-serif" font-size="13" font-weight="bold" lengthAdjust="spacingAndGlyphs" textLength="18" x="1275" y="717.2031">16</text><text fill="#000000" font-family="sans-serif" font-size="13" lengthAdjust="spacingAndGlyphs" textLength="195" x="1297" y="717.2031">nomeColaborador = getNome()</text>
        <polygon fill="#A80036" points="1571,777.2559,1581,781.2559,1571,785.2559,1575,781.2559" style="stroke: #A80036; stroke-width: 1.0;" />
        <line style="stroke: #A80036; stroke-width: 1.0;" x1="1268" x2="1577" y1="781.2559" y2="781.2559" /><text fill="#000000" font-family="sans-serif" font-size="13" font-weight="bold" lengthAdjust="spacingAndGlyphs" textLength="18" x="1275" y="776.5137">17</text><text fill="#000000" font-family="sans-serif" font-size="13" lengthAdjust="spacingAndGlyphs" textLength="191" x="1297" y="776.5137">emailColaborador = getEmail()</text>
        <polygon fill="#A80036" points="1571,836.5664,1581,840.5664,1571,844.5664,1575,840.5664" style="stroke: #A80036; stroke-width: 1.0;" />
        <line style="stroke: #A80036; stroke-width: 1.0;" x1="1268" x2="1577" y1="840.5664" y2="840.5664" /><text fill="#000000" font-family="sans-serif" font-size="13" font-weight="bold" lengthAdjust="spacingAndGlyphs" textLength="18" x="1275" y="835.8242">18</text><text fill="#000000" font-family="sans-serif" font-size="13" lengthAdjust="spacingAndGlyphs" textLength="274" x="1297" y="835.8242">pwd = gerarPalavraPasseAutomaticamente()</text>
        <polygon fill="#A80036" points="1898.5,895.877,1908.5,899.877,1898.5,903.877,1902.5,899.877" style="stroke: #A80036; stroke-width: 1.0;" />
        <line style="stroke: #A80036; stroke-width: 1.0;" x1="1268" x2="1904.5" y1="899.877" y2="899.877" /><text fill="#000000" font-family="sans-serif" font-size="13" font-weight="bold" lengthAdjust="spacingAndGlyphs" textLength="18" x="1275" y="895.1348">19</text><text fill="#000000" font-family="sans-serif" font-size="13" lengthAdjust="spacingAndGlyphs" textLength="542" x="1297" y="895.1348">registaUtilizadorComPapel(nomeColaborador,emailColaborador,pwd,"COLABORADOR")</text>
        <line style="stroke: #A80036; stroke-width: 1.0;" x1="1268" x2="1310" y1="964.1875" y2="964.1875" />
        <line style="stroke: #A80036; stroke-width: 1.0;" x1="1310" x2="1310" y1="964.1875" y2="977.1875" />
        <line style="stroke: #A80036; stroke-width: 1.0;" x1="1263" x2="1310" y1="977.1875" y2="977.1875" />
        <polygon fill="#A80036" points="1273,973.1875,1263,977.1875,1273,981.1875,1269,977.1875" style="stroke: #A80036; stroke-width: 1.0;" /><text fill="#000000" font-family="sans-serif" font-size="13" font-weight="bold" lengthAdjust="spacingAndGlyphs" textLength="18" x="1275" y="959.4453">20</text><text fill="#000000" font-family="sans-serif" font-size="13" lengthAdjust="spacingAndGlyphs" textLength="142" x="1297" y="959.4453">addColaborador(colab)</text>
        <polygon fill="#A80036" points="100.5,997.498,90.5,1001.498,100.5,1005.498,96.5,1001.498" style="stroke: #A80036; stroke-width: 1.0;" />
        <line style="stroke: #A80036; stroke-width: 1.0; stroke-dasharray: 2.0,2.0;" x1="94.5" x2="390.5" y1="1001.498" y2="1001.498" /><text fill="#000000" font-family="sans-serif" font-size="13" font-weight="bold" lengthAdjust="spacingAndGlyphs" textLength="18" x="106.5" y="996.7559">21</text><text fill="#000000" font-family="sans-serif" font-size="13" lengthAdjust="spacingAndGlyphs" textLength="148" x="128.5" y="996.7559">operação bem sucedida</text>
        <!--MD5=[a7607c6b823347ced1b1055a4f6ca4dd]
@startuml
autonumber

actor "Gestor de Organização" as GO
participant ":Especificar\nColaboradorOrganizacaoUI" as UI
participant ":EspecificarColaborador\nOrganizacaoController" as CTRL
participant ":Plataforma" as PLAT
participant "Organizacao" as ORG
participant "org:Organizacao" as _ORG
participant "colab:Colaborador" as COLAB
participant "sessao:SessãoUtilizador" as _SU
participant ":Autorizacao\nFacade" as AUT


activate GO
GO -> UI : novo colaborador
activate UI
UI - -> GO : solicita dados colaborador \n(nome, função, telefone,email)
deactivate UI

GO -> UI : introduz os dados solicitados
activate UI

UI -> CTRL : novoColaborador(nome, função, telefone, email)
activate CTRL

CTRL -> ORG: colab=novoColaborador(nome, função, telefone, email)
activate ORG

ORG - -> COLAB **  : create(nome, função, telefone, email)
deactivate ORG
CTRL -> AUT : sessao=getSessaoAtual()
activate AUT
deactivate AUT
CTRL -> _SU : idG=getIdUtilizador()
activate _SU
deactivate _SU

CTRL -> PLAT : org=getOrganizacaoByIdUtilizador(idG)
activate PLAT
deactivate PLAT



CTRL -> _ORG : validaColaborador(colab)
activate _ORG
deactivate _ORG

deactivate CTRL
UI - -> GO : apresenta dados e solicita confirmação
deactivate UI

GO -> UI : confirma os dados introduzidos
activate UI

UI -> CTRL: registaColaborador()
activate CTRL

CTRL -> _ORG: registaColaborador(colab)
activate _ORG

_ORG -> _ORG: validaColaborador(colab)
_ORG -> COLAB: nomeColaborador = getNome()
activate COLAB
deactivate COLAB
_ORG -> COLAB: emailColaborador = getEmail()
activate COLAB
deactivate COLAB
_ORG -> COLAB: pwd = gerarPalavraPasseAutomaticamente()
activate COLAB
deactivate COLAB
_ORG -> AUT: registaUtilizadorComPapel(nomeColaborador,emailColaborador,pwd,"COLABORADOR")
activate AUT
deactivate AUT
_ORG -> _ORG: addColaborador(colab)


deactivate _ORG
deactivate CTRL
UI - -> GO : operação bem sucedida
deactivate UI

deactivate GO
@enduml

PlantUML version 1.2020.02(Sun Mar 01 10:22:07 WET 2020)
(GPL source distribution)
Java Runtime: Java(TM) SE Runtime Environment
JVM: Java HotSpot(TM) 64-Bit Server VM
Java Version: 13.0.2+8
Operating System: Mac OS X
Default Encoding: UTF-8
Language: pt
Country: PT
-->
    </g>
</svg>