@startuml
@startuml
autonumber
actor "Colaborador de Organização" as CO

participant ":EspecificarTarefaUI" as UI
participant ":EspecificarTarefaController" as CTRL
participant ":Plataforma" as PLAT
participant "lc:List<CategoriaTarefa>" as CT
participant "cat:CategoriaTarefa" as CAT
participant "org:Organizacao" as ORG
participant "tarefa:Tarefa" as TAREFA
participant "sessao:SessaoUtilizador" as SES
participant ":AutorizacaoFacade" as AF

activate CO
CO -> UI : nova tarefa
activate UI
UI --> CO : solicita dados \n(referência, designação, descrição informal, descrição de caráter técnico, duração, custo)
deactivate UI

CO -> UI : introduz os dados solicitados
activate UI
UI -> CTRL : lc = getListaCategoriasTarefa()
activate CTRL
CTRL -> PLAT : lc = getListaCategoriasTarefa()
activate PLAT
deactivate PLAT
deactivate CTRL
UI --> CO : apresenta lista de categorias de tarefa
deactivate UI

CO -> UI : seleciona a categoria de tarefa
activate UI
UI -> CTRL : novaTarefa(ref, desig, dsInf, dsTec, dur, custo, catId)
activate CTRL
CTRL -> AF : sessao=getSessaoAtual()
activate AF
deactivate AF
CTRL -> SES :idCO=getIdUtilizador()
activate SES
deactivate SES
CTRL -> PLAT : org=getOrganizacaoByidUtilizador()
activate PLAT
deactivate PLAT
CTRL -> PLAT : cat=getCategoriaById(catId)
activate PLAT
deactivate PLAT
CTRL -> ORG: tarefa=novaTarefa(ref, desig, dsInf, dsTec, dur, custo, cat)
activate ORG
ORG --> TAREFA ** : create(ref, desig, dsInf, dsTec, dur, custo, cat)
deactivate ORG
CTRL -> ORG : validarTarefa(tarefa)
activate ORG
deactivate ORG
deactivate CTRL

UI --> CO : apresenta dados e solicita confirmação
deactivate UI

CO -> UI : confirma
activate UI
UI -> CTRL: registaTarefa()
activate CTRL
CTRL ->ORG: registaTarefa(tarefa)
activate ORG
ORG -> ORG: validaTarefa(tarefa)
ORG -> ORG: addTarefa(tarefa)

deactivate ORG
deactivate CTRL

UI --> CO : operação bem sucedida
deactivate UI

deactivate CO

@enduml
@enduml
