<?xml version="1.0" encoding="UTF-8" standalone="no"?><svg xmlns="http://www.w3.org/2000/svg" xmlns:xlink="http://www.w3.org/1999/xlink" contentScriptType="application/ecmascript" contentStyleType="text/css" height="1023px" preserveAspectRatio="none" style="width:980px;height:1023px;" version="1.1" viewBox="0 0 980 1023" width="980px" zoomAndPan="magnify">
    <defs>
        <filter height="300%" id="f7mw0irl8q86b" width="300%" x="-1" y="-1">
            <feGaussianBlur result="blurOut" stdDeviation="2.0" />
            <feColorMatrix in="blurOut" result="blurOut2" type="matrix" values="0 0 0 0 0 0 0 0 0 0 0 0 0 0 0 0 0 0 .4 0" />
            <feOffset dx="4.0" dy="4.0" in="blurOut2" result="blurOut3" />
            <feBlend in="SourceGraphic" in2="blurOut3" mode="normal" />
        </filter>
    </defs>
    <g>
        <!--MD5=[27c2d4bbe9f7b9d3b0ea2797cc54308a]
class Tarefa-->
        <rect fill="#FEFECE" filter="url(#f7mw0irl8q86b)" height="158.6875" id="Tarefa" style="stroke: #A80036; stroke-width: 1.5;" width="471" x="27" y="700" />
        <ellipse cx="240.75" cy="716" fill="#ADD1B2" rx="11" ry="11" style="stroke: #A80036; stroke-width: 1.0;" />
        <path d="M243.5156,711.875 Q243.6719,711.6563 243.8594,711.5469 Q244.0469,711.4375 244.2656,711.4375 Q244.6406,711.4375 244.875,711.6953 Q245.1094,711.9531 245.1094,712.5625 L245.1094,714.0156 Q245.1094,714.625 244.875,714.8906 Q244.6406,715.1563 244.2656,715.1563 Q243.9219,715.1563 243.7188,714.9531 Q243.5156,714.7656 243.4063,714.25 Q243.3594,713.8906 243.1719,713.7031 Q242.8438,713.3281 242.2344,713.1094 Q241.625,712.8906 241,712.8906 Q240.2344,712.8906 239.6016,713.2188 Q238.9688,713.5469 238.4766,714.2969 Q237.9844,715.0469 237.9844,716.0781 L237.9844,717.1719 Q237.9844,718.4063 238.875,719.2266 Q239.7656,720.0469 241.3594,720.0469 Q242.2969,720.0469 242.9531,719.7969 Q243.3438,719.6406 243.7656,719.2031 Q244.0313,718.9375 244.1797,718.8594 Q244.3281,718.7813 244.5313,718.7813 Q244.8594,718.7813 245.1172,719.0391 Q245.375,719.2969 245.375,719.6406 Q245.375,719.9844 245.0313,720.3906 Q244.5313,720.9688 243.7344,721.2969 Q242.6563,721.75 241.3594,721.75 Q239.8438,721.75 238.6406,721.125 Q237.6563,720.625 236.9688,719.5547 Q236.2813,718.4844 236.2813,717.2031 L236.2813,716.0469 Q236.2813,714.7188 236.8984,713.5703 Q237.5156,712.4219 238.6094,711.8047 Q239.7031,711.1875 240.9375,711.1875 Q241.6719,711.1875 242.3203,711.3516 Q242.9688,711.5156 243.5156,711.875 Z " /><text fill="#000000" font-family="sans-serif" font-size="12" lengthAdjust="spacingAndGlyphs" textLength="35" x="261.25" y="720.9102">Tarefa</text>
        <line style="stroke: #A80036; stroke-width: 1.5;" x1="28" x2="497" y1="732" y2="732" />
        <rect fill="none" height="6" style="stroke: #C82930; stroke-width: 1.0;" width="6" x="35" y="740" /><text fill="#000000" font-family="sans-serif" font-size="11" lengthAdjust="spacingAndGlyphs" textLength="81" x="47" y="747.4189">String referencia</text>
        <rect fill="none" height="6" style="stroke: #C82930; stroke-width: 1.0;" width="6" x="35" y="753.8359" /><text fill="#000000" font-family="sans-serif" font-size="11" lengthAdjust="spacingAndGlyphs" textLength="87" x="47" y="761.2549">String designacao</text>
        <rect fill="none" height="6" style="stroke: #C82930; stroke-width: 1.0;" width="6" x="35" y="767.6719" /><text fill="#000000" font-family="sans-serif" font-size="11" lengthAdjust="spacingAndGlyphs" textLength="117" x="47" y="775.0908">String descricaoInformal</text>
        <rect fill="none" height="6" style="stroke: #C82930; stroke-width: 1.0;" width="6" x="35" y="781.5078" /><text fill="#000000" font-family="sans-serif" font-size="11" lengthAdjust="spacingAndGlyphs" textLength="153" x="47" y="788.9268">String descricaoCaraterTecnico</text>
        <rect fill="none" height="6" style="stroke: #C82930; stroke-width: 1.0;" width="6" x="35" y="795.3438" /><text fill="#000000" font-family="sans-serif" font-size="11" lengthAdjust="spacingAndGlyphs" textLength="71" x="47" y="802.7627">String duracao</text>
        <rect fill="none" height="6" style="stroke: #C82930; stroke-width: 1.0;" width="6" x="35" y="809.1797" /><text fill="#000000" font-family="sans-serif" font-size="11" lengthAdjust="spacingAndGlyphs" textLength="58" x="47" y="816.5986">String custo</text>
        <line style="stroke: #A80036; stroke-width: 1.5;" x1="28" x2="497" y1="823.0156" y2="823.0156" />
        <ellipse cx="38" cy="834.0156" fill="#84BE84" rx="3" ry="3" style="stroke: #038048; stroke-width: 1.0;" /><text fill="#000000" font-family="sans-serif" font-size="11" lengthAdjust="spacingAndGlyphs" textLength="445" x="47" y="838.4346">Tarefa(String ref, String desig, String dsInf, String dsTec, String dur, String custo, String cat)</text><text fill="#000000" font-family="sans-serif" font-size="11" lengthAdjust="spacingAndGlyphs" textLength="84" x="47" y="852.2705">setCategoria(cat)</text>
        <!--MD5=[807977ceb130c090ed5febfb6de2bdea]
class Organizacao-->
        <rect fill="#FEFECE" filter="url(#f7mw0irl8q86b)" height="172.5234" id="Organizacao" style="stroke: #A80036; stroke-width: 1.5;" width="495" x="6" y="449" />
        <ellipse cx="214.75" cy="465" fill="#ADD1B2" rx="11" ry="11" style="stroke: #A80036; stroke-width: 1.0;" />
        <path d="M217.5156,460.875 Q217.6719,460.6563 217.8594,460.5469 Q218.0469,460.4375 218.2656,460.4375 Q218.6406,460.4375 218.875,460.6953 Q219.1094,460.9531 219.1094,461.5625 L219.1094,463.0156 Q219.1094,463.625 218.875,463.8906 Q218.6406,464.1563 218.2656,464.1563 Q217.9219,464.1563 217.7188,463.9531 Q217.5156,463.7656 217.4063,463.25 Q217.3594,462.8906 217.1719,462.7031 Q216.8438,462.3281 216.2344,462.1094 Q215.625,461.8906 215,461.8906 Q214.2344,461.8906 213.6016,462.2188 Q212.9688,462.5469 212.4766,463.2969 Q211.9844,464.0469 211.9844,465.0781 L211.9844,466.1719 Q211.9844,467.4063 212.875,468.2266 Q213.7656,469.0469 215.3594,469.0469 Q216.2969,469.0469 216.9531,468.7969 Q217.3438,468.6406 217.7656,468.2031 Q218.0313,467.9375 218.1797,467.8594 Q218.3281,467.7813 218.5313,467.7813 Q218.8594,467.7813 219.1172,468.0391 Q219.375,468.2969 219.375,468.6406 Q219.375,468.9844 219.0313,469.3906 Q218.5313,469.9688 217.7344,470.2969 Q216.6563,470.75 215.3594,470.75 Q213.8438,470.75 212.6406,470.125 Q211.6563,469.625 210.9688,468.5547 Q210.2813,467.4844 210.2813,466.2031 L210.2813,465.0469 Q210.2813,463.7188 210.8984,462.5703 Q211.5156,461.4219 212.6094,460.8047 Q213.7031,460.1875 214.9375,460.1875 Q215.6719,460.1875 216.3203,460.3516 Q216.9688,460.5156 217.5156,460.875 Z " /><text fill="#000000" font-family="sans-serif" font-size="12" lengthAdjust="spacingAndGlyphs" textLength="69" x="235.25" y="469.9102">Organizacao</text>
        <line style="stroke: #A80036; stroke-width: 1.5;" x1="7" x2="500" y1="481" y2="481" />
        <rect fill="none" height="6" style="stroke: #C82930; stroke-width: 1.0;" width="6" x="14" y="489" /><text fill="#000000" font-family="sans-serif" font-size="11" lengthAdjust="spacingAndGlyphs" textLength="57" x="26" y="496.4189">String nome</text>
        <rect fill="none" height="6" style="stroke: #C82930; stroke-width: 1.0;" width="6" x="14" y="502.8359" /><text fill="#000000" font-family="sans-serif" font-size="11" lengthAdjust="spacingAndGlyphs" textLength="46" x="26" y="510.2549">String NIF</text>
        <rect fill="none" height="6" style="stroke: #C82930; stroke-width: 1.0;" width="6" x="14" y="516.6719" /><text fill="#000000" font-family="sans-serif" font-size="11" lengthAdjust="spacingAndGlyphs" textLength="70" x="26" y="524.0908">String website</text>
        <rect fill="none" height="6" style="stroke: #C82930; stroke-width: 1.0;" width="6" x="14" y="530.5078" /><text fill="#000000" font-family="sans-serif" font-size="11" lengthAdjust="spacingAndGlyphs" textLength="70" x="26" y="537.9268">String telefone</text>
        <rect fill="none" height="6" style="stroke: #C82930; stroke-width: 1.0;" width="6" x="14" y="544.3438" /><text fill="#000000" font-family="sans-serif" font-size="11" lengthAdjust="spacingAndGlyphs" textLength="55" x="26" y="551.7627">String email</text>
        <line style="stroke: #A80036; stroke-width: 1.5;" x1="7" x2="500" y1="558.1797" y2="558.1797" />
        <ellipse cx="17" cy="569.1797" fill="#84BE84" rx="3" ry="3" style="stroke: #038048; stroke-width: 1.0;" /><text fill="#000000" font-family="sans-serif" font-size="11" lengthAdjust="spacingAndGlyphs" textLength="469" x="26" y="573.5986">novaTarefa(String ref, String desig, String dsInf, String dsTec, String dur, String custo, String cat)</text>
        <ellipse cx="17" cy="583.0156" fill="#84BE84" rx="3" ry="3" style="stroke: #038048; stroke-width: 1.0;" /><text fill="#000000" font-family="sans-serif" font-size="11" lengthAdjust="spacingAndGlyphs" textLength="132" x="26" y="587.4346">validaTarefa(Tarefa tarefa)</text>
        <ellipse cx="17" cy="596.8516" fill="#84BE84" rx="3" ry="3" style="stroke: #038048; stroke-width: 1.0;" /><text fill="#000000" font-family="sans-serif" font-size="11" lengthAdjust="spacingAndGlyphs" textLength="137" x="26" y="601.2705">registaTarefa(Tarefa tarefa)</text>
        <rect fill="#F24D5C" height="6" style="stroke: #C82930; stroke-width: 1.0;" width="6" x="14" y="607.6875" /><text fill="#000000" font-family="sans-serif" font-size="11" lengthAdjust="spacingAndGlyphs" textLength="122" x="26" y="615.1064">addTarefa(Tarefa tarefa)</text>
        <!--MD5=[94150fb2341829ef7e29c5b8b7a9ec09]
class EspecificarTarefaController-->
        <rect fill="#FEFECE" filter="url(#f7mw0irl8q86b)" height="89.5078" id="EspecificarTarefaController" style="stroke: #A80036; stroke-width: 1.5;" width="495" x="380" y="117" />
        <ellipse cx="548.25" cy="133" fill="#ADD1B2" rx="11" ry="11" style="stroke: #A80036; stroke-width: 1.0;" />
        <path d="M551.0156,128.875 Q551.1719,128.6563 551.3594,128.5469 Q551.5469,128.4375 551.7656,128.4375 Q552.1406,128.4375 552.375,128.6953 Q552.6094,128.9531 552.6094,129.5625 L552.6094,131.0156 Q552.6094,131.625 552.375,131.8906 Q552.1406,132.1563 551.7656,132.1563 Q551.4219,132.1563 551.2188,131.9531 Q551.0156,131.7656 550.9063,131.25 Q550.8594,130.8906 550.6719,130.7031 Q550.3438,130.3281 549.7344,130.1094 Q549.125,129.8906 548.5,129.8906 Q547.7344,129.8906 547.1016,130.2188 Q546.4688,130.5469 545.9766,131.2969 Q545.4844,132.0469 545.4844,133.0781 L545.4844,134.1719 Q545.4844,135.4063 546.375,136.2266 Q547.2656,137.0469 548.8594,137.0469 Q549.7969,137.0469 550.4531,136.7969 Q550.8438,136.6406 551.2656,136.2031 Q551.5313,135.9375 551.6797,135.8594 Q551.8281,135.7813 552.0313,135.7813 Q552.3594,135.7813 552.6172,136.0391 Q552.875,136.2969 552.875,136.6406 Q552.875,136.9844 552.5313,137.3906 Q552.0313,137.9688 551.2344,138.2969 Q550.1563,138.75 548.8594,138.75 Q547.3438,138.75 546.1406,138.125 Q545.1563,137.625 544.4688,136.5547 Q543.7813,135.4844 543.7813,134.2031 L543.7813,133.0469 Q543.7813,131.7188 544.3984,130.5703 Q545.0156,129.4219 546.1094,128.8047 Q547.2031,128.1875 548.4375,128.1875 Q549.1719,128.1875 549.8203,128.3516 Q550.4688,128.5156 551.0156,128.875 Z " /><text fill="#000000" font-family="sans-serif" font-size="12" lengthAdjust="spacingAndGlyphs" textLength="150" x="568.75" y="137.9102">EspecificarTarefaController</text>
        <line style="stroke: #A80036; stroke-width: 1.5;" x1="381" x2="874" y1="149" y2="149" />
        <line style="stroke: #A80036; stroke-width: 1.5;" x1="381" x2="874" y1="157" y2="157" />
        <ellipse cx="391" cy="168" fill="#84BE84" rx="3" ry="3" style="stroke: #038048; stroke-width: 1.0;" /><text fill="#000000" font-family="sans-serif" font-size="11" lengthAdjust="spacingAndGlyphs" textLength="469" x="400" y="172.4189">novaTarefa(String ref, String desig, String dsInf, String dsTec, String dur, String custo, String cat)</text>
        <ellipse cx="391" cy="181.8359" fill="#84BE84" rx="3" ry="3" style="stroke: #038048; stroke-width: 1.0;" /><text fill="#000000" font-family="sans-serif" font-size="11" lengthAdjust="spacingAndGlyphs" textLength="77" x="400" y="186.2549">registarTarefa()</text>
        <ellipse cx="391" cy="195.6719" fill="#84BE84" rx="3" ry="3" style="stroke: #038048; stroke-width: 1.0;" /><text fill="#000000" font-family="sans-serif" font-size="11" lengthAdjust="spacingAndGlyphs" textLength="130" x="400" y="200.0908">getListaCategoriasTarefa()</text>
        <!--MD5=[d165d8d60460acd89e6c0912e03cbc92]
class EspecificarTarefaUI-->
        <rect fill="#FEFECE" filter="url(#f7mw0irl8q86b)" height="48" id="EspecificarTarefaUI" style="stroke: #A80036; stroke-width: 1.5;" width="140" x="557.5" y="8" />
        <ellipse cx="572.5" cy="24" fill="#ADD1B2" rx="11" ry="11" style="stroke: #A80036; stroke-width: 1.0;" />
        <path d="M575.2656,19.875 Q575.4219,19.6563 575.6094,19.5469 Q575.7969,19.4375 576.0156,19.4375 Q576.3906,19.4375 576.625,19.6953 Q576.8594,19.9531 576.8594,20.5625 L576.8594,22.0156 Q576.8594,22.625 576.625,22.8906 Q576.3906,23.1563 576.0156,23.1563 Q575.6719,23.1563 575.4688,22.9531 Q575.2656,22.7656 575.1563,22.25 Q575.1094,21.8906 574.9219,21.7031 Q574.5938,21.3281 573.9844,21.1094 Q573.375,20.8906 572.75,20.8906 Q571.9844,20.8906 571.3516,21.2188 Q570.7188,21.5469 570.2266,22.2969 Q569.7344,23.0469 569.7344,24.0781 L569.7344,25.1719 Q569.7344,26.4063 570.625,27.2266 Q571.5156,28.0469 573.1094,28.0469 Q574.0469,28.0469 574.7031,27.7969 Q575.0938,27.6406 575.5156,27.2031 Q575.7813,26.9375 575.9297,26.8594 Q576.0781,26.7813 576.2813,26.7813 Q576.6094,26.7813 576.8672,27.0391 Q577.125,27.2969 577.125,27.6406 Q577.125,27.9844 576.7813,28.3906 Q576.2813,28.9688 575.4844,29.2969 Q574.4063,29.75 573.1094,29.75 Q571.5938,29.75 570.3906,29.125 Q569.4063,28.625 568.7188,27.5547 Q568.0313,26.4844 568.0313,25.2031 L568.0313,24.0469 Q568.0313,22.7188 568.6484,21.5703 Q569.2656,20.4219 570.3594,19.8047 Q571.4531,19.1875 572.6875,19.1875 Q573.4219,19.1875 574.0703,19.3516 Q574.7188,19.5156 575.2656,19.875 Z " /><text fill="#000000" font-family="sans-serif" font-size="12" lengthAdjust="spacingAndGlyphs" textLength="108" x="586.5" y="28.9102">EspecificarTarefaUI</text>
        <line style="stroke: #A80036; stroke-width: 1.5;" x1="558.5" x2="696.5" y1="40" y2="40" />
        <line style="stroke: #A80036; stroke-width: 1.5;" x1="558.5" x2="696.5" y1="48" y2="48" />
        <!--MD5=[ecaed46f78f8cfe1e9ce18477649be18]
class Plataforma-->
        <rect fill="#FEFECE" filter="url(#f7mw0irl8q86b)" height="103.3438" id="Plataforma" style="stroke: #A80036; stroke-width: 1.5;" width="265" x="307" y="268" />
        <ellipse cx="405.25" cy="284" fill="#ADD1B2" rx="11" ry="11" style="stroke: #A80036; stroke-width: 1.0;" />
        <path d="M408.0156,279.875 Q408.1719,279.6563 408.3594,279.5469 Q408.5469,279.4375 408.7656,279.4375 Q409.1406,279.4375 409.375,279.6953 Q409.6094,279.9531 409.6094,280.5625 L409.6094,282.0156 Q409.6094,282.625 409.375,282.8906 Q409.1406,283.1563 408.7656,283.1563 Q408.4219,283.1563 408.2188,282.9531 Q408.0156,282.7656 407.9063,282.25 Q407.8594,281.8906 407.6719,281.7031 Q407.3438,281.3281 406.7344,281.1094 Q406.125,280.8906 405.5,280.8906 Q404.7344,280.8906 404.1016,281.2188 Q403.4688,281.5469 402.9766,282.2969 Q402.4844,283.0469 402.4844,284.0781 L402.4844,285.1719 Q402.4844,286.4063 403.375,287.2266 Q404.2656,288.0469 405.8594,288.0469 Q406.7969,288.0469 407.4531,287.7969 Q407.8438,287.6406 408.2656,287.2031 Q408.5313,286.9375 408.6797,286.8594 Q408.8281,286.7813 409.0313,286.7813 Q409.3594,286.7813 409.6172,287.0391 Q409.875,287.2969 409.875,287.6406 Q409.875,287.9844 409.5313,288.3906 Q409.0313,288.9688 408.2344,289.2969 Q407.1563,289.75 405.8594,289.75 Q404.3438,289.75 403.1406,289.125 Q402.1563,288.625 401.4688,287.5547 Q400.7813,286.4844 400.7813,285.2031 L400.7813,284.0469 Q400.7813,282.7188 401.3984,281.5703 Q402.0156,280.4219 403.1094,279.8047 Q404.2031,279.1875 405.4375,279.1875 Q406.1719,279.1875 406.8203,279.3516 Q407.4688,279.5156 408.0156,279.875 Z " /><text fill="#000000" font-family="sans-serif" font-size="12" lengthAdjust="spacingAndGlyphs" textLength="60" x="425.75" y="288.9102">Plataforma</text>
        <line style="stroke: #A80036; stroke-width: 1.5;" x1="308" x2="571" y1="300" y2="300" />
        <rect fill="none" height="6" style="stroke: #C82930; stroke-width: 1.0;" width="6" x="315" y="308" /><text fill="#000000" font-family="sans-serif" font-size="11" lengthAdjust="spacingAndGlyphs" textLength="87" x="327" y="315.4189">String designacao</text>
        <line style="stroke: #A80036; stroke-width: 1.5;" x1="308" x2="571" y1="321.8359" y2="321.8359" />
        <ellipse cx="318" cy="332.8359" fill="#84BE84" rx="3" ry="3" style="stroke: #038048; stroke-width: 1.0;" /><text fill="#000000" font-family="sans-serif" font-size="11" lengthAdjust="spacingAndGlyphs" textLength="239" x="327" y="337.2549">Set&lt;CategoriaTarefa&gt; getListaCategoriasTarefa()</text>
        <ellipse cx="318" cy="346.6719" fill="#84BE84" rx="3" ry="3" style="stroke: #038048; stroke-width: 1.0;" /><text fill="#000000" font-family="sans-serif" font-size="11" lengthAdjust="spacingAndGlyphs" textLength="215" x="327" y="351.0908">Organizacao getOrganizacaoByidUtilizador()</text>
        <ellipse cx="318" cy="360.5078" fill="#84BE84" rx="3" ry="3" style="stroke: #038048; stroke-width: 1.0;" /><text fill="#000000" font-family="sans-serif" font-size="11" lengthAdjust="spacingAndGlyphs" textLength="139" x="327" y="364.9268">Categoria getCategoriaById()</text>
        <!--MD5=[6fa14b346b4b5c2b3247f8e7c37afd04]
class CategoriaTarefa-->
        <rect fill="#FEFECE" filter="url(#f7mw0irl8q86b)" height="75.6719" id="CategoriaTarefa" style="stroke: #A80036; stroke-width: 1.5;" width="121" x="391" y="937" />
        <ellipse cx="406" cy="953" fill="#ADD1B2" rx="11" ry="11" style="stroke: #A80036; stroke-width: 1.0;" />
        <path d="M408.7656,948.875 Q408.9219,948.6563 409.1094,948.5469 Q409.2969,948.4375 409.5156,948.4375 Q409.8906,948.4375 410.125,948.6953 Q410.3594,948.9531 410.3594,949.5625 L410.3594,951.0156 Q410.3594,951.625 410.125,951.8906 Q409.8906,952.1563 409.5156,952.1563 Q409.1719,952.1563 408.9688,951.9531 Q408.7656,951.7656 408.6563,951.25 Q408.6094,950.8906 408.4219,950.7031 Q408.0938,950.3281 407.4844,950.1094 Q406.875,949.8906 406.25,949.8906 Q405.4844,949.8906 404.8516,950.2188 Q404.2188,950.5469 403.7266,951.2969 Q403.2344,952.0469 403.2344,953.0781 L403.2344,954.1719 Q403.2344,955.4063 404.125,956.2266 Q405.0156,957.0469 406.6094,957.0469 Q407.5469,957.0469 408.2031,956.7969 Q408.5938,956.6406 409.0156,956.2031 Q409.2813,955.9375 409.4297,955.8594 Q409.5781,955.7813 409.7813,955.7813 Q410.1094,955.7813 410.3672,956.0391 Q410.625,956.2969 410.625,956.6406 Q410.625,956.9844 410.2813,957.3906 Q409.7813,957.9688 408.9844,958.2969 Q407.9063,958.75 406.6094,958.75 Q405.0938,958.75 403.8906,958.125 Q402.9063,957.625 402.2188,956.5547 Q401.5313,955.4844 401.5313,954.2031 L401.5313,953.0469 Q401.5313,951.7188 402.1484,950.5703 Q402.7656,949.4219 403.8594,948.8047 Q404.9531,948.1875 406.1875,948.1875 Q406.9219,948.1875 407.5703,948.3516 Q408.2188,948.5156 408.7656,948.875 Z " /><text fill="#000000" font-family="sans-serif" font-size="12" lengthAdjust="spacingAndGlyphs" textLength="89" x="420" y="957.9102">CategoriaTarefa</text>
        <line style="stroke: #A80036; stroke-width: 1.5;" x1="392" x2="511" y1="969" y2="969" />
        <rect fill="none" height="6" style="stroke: #C82930; stroke-width: 1.0;" width="6" x="399" y="977" /><text fill="#000000" font-family="sans-serif" font-size="11" lengthAdjust="spacingAndGlyphs" textLength="54" x="411" y="984.4189">String catId</text>
        <rect fill="none" height="6" style="stroke: #C82930; stroke-width: 1.0;" width="6" x="399" y="990.8359" /><text fill="#000000" font-family="sans-serif" font-size="11" lengthAdjust="spacingAndGlyphs" textLength="79" x="411" y="998.2549">String descricao</text>
        <line style="stroke: #A80036; stroke-width: 1.5;" x1="392" x2="511" y1="1004.6719" y2="1004.6719" />
        <!--MD5=[ed5c6b4e01c9b1c9efc043b411d08420]
class AutorizacaoFacade-->
        <rect fill="#FEFECE" filter="url(#f7mw0irl8q86b)" height="61.8359" id="AutorizacaoFacade" style="stroke: #A80036; stroke-width: 1.5;" width="195" x="607" y="288.5" />
        <ellipse cx="648.55" cy="304.5" fill="#ADD1B2" rx="11" ry="11" style="stroke: #A80036; stroke-width: 1.0;" />
        <path d="M651.3156,300.375 Q651.4719,300.1563 651.6594,300.0469 Q651.8469,299.9375 652.0656,299.9375 Q652.4406,299.9375 652.675,300.1953 Q652.9094,300.4531 652.9094,301.0625 L652.9094,302.5156 Q652.9094,303.125 652.675,303.3906 Q652.4406,303.6563 652.0656,303.6563 Q651.7219,303.6563 651.5188,303.4531 Q651.3156,303.2656 651.2063,302.75 Q651.1594,302.3906 650.9719,302.2031 Q650.6438,301.8281 650.0344,301.6094 Q649.425,301.3906 648.8,301.3906 Q648.0344,301.3906 647.4016,301.7188 Q646.7688,302.0469 646.2766,302.7969 Q645.7844,303.5469 645.7844,304.5781 L645.7844,305.6719 Q645.7844,306.9063 646.675,307.7266 Q647.5656,308.5469 649.1594,308.5469 Q650.0969,308.5469 650.7531,308.2969 Q651.1438,308.1406 651.5656,307.7031 Q651.8313,307.4375 651.9797,307.3594 Q652.1281,307.2813 652.3313,307.2813 Q652.6594,307.2813 652.9172,307.5391 Q653.175,307.7969 653.175,308.1406 Q653.175,308.4844 652.8313,308.8906 Q652.3313,309.4688 651.5344,309.7969 Q650.4563,310.25 649.1594,310.25 Q647.6438,310.25 646.4406,309.625 Q645.4563,309.125 644.7688,308.0547 Q644.0813,306.9844 644.0813,305.7031 L644.0813,304.5469 Q644.0813,303.2188 644.6984,302.0703 Q645.3156,300.9219 646.4094,300.3047 Q647.5031,299.6875 648.7375,299.6875 Q649.4719,299.6875 650.1203,299.8516 Q650.7688,300.0156 651.3156,300.375 Z " /><text fill="#000000" font-family="sans-serif" font-size="12" lengthAdjust="spacingAndGlyphs" textLength="104" x="668.45" y="309.4102">AutorizacaoFacade</text>
        <line style="stroke: #A80036; stroke-width: 1.5;" x1="608" x2="801" y1="320.5" y2="320.5" />
        <line style="stroke: #A80036; stroke-width: 1.5;" x1="608" x2="801" y1="328.5" y2="328.5" />
        <ellipse cx="618" cy="339.5" fill="#84BE84" rx="3" ry="3" style="stroke: #038048; stroke-width: 1.0;" /><text fill="#000000" font-family="sans-serif" font-size="11" lengthAdjust="spacingAndGlyphs" textLength="169" x="627" y="343.9189">SessaoUtilizador getSessaoAtual()</text>
        <!--MD5=[1e13576e8c070e32200b62ceaa1f39ec]
class SessaoUtilizador-->
        <rect fill="#FEFECE" filter="url(#f7mw0irl8q86b)" height="61.8359" id="SessaoUtilizador" style="stroke: #A80036; stroke-width: 1.5;" width="132" x="837.5" y="288.5" />
        <ellipse cx="855.2" cy="304.5" fill="#ADD1B2" rx="11" ry="11" style="stroke: #A80036; stroke-width: 1.0;" />
        <path d="M857.9656,300.375 Q858.1219,300.1563 858.3094,300.0469 Q858.4969,299.9375 858.7156,299.9375 Q859.0906,299.9375 859.325,300.1953 Q859.5594,300.4531 859.5594,301.0625 L859.5594,302.5156 Q859.5594,303.125 859.325,303.3906 Q859.0906,303.6563 858.7156,303.6563 Q858.3719,303.6563 858.1688,303.4531 Q857.9656,303.2656 857.8563,302.75 Q857.8094,302.3906 857.6219,302.2031 Q857.2938,301.8281 856.6844,301.6094 Q856.075,301.3906 855.45,301.3906 Q854.6844,301.3906 854.0516,301.7188 Q853.4188,302.0469 852.9266,302.7969 Q852.4344,303.5469 852.4344,304.5781 L852.4344,305.6719 Q852.4344,306.9063 853.325,307.7266 Q854.2156,308.5469 855.8094,308.5469 Q856.7469,308.5469 857.4031,308.2969 Q857.7938,308.1406 858.2156,307.7031 Q858.4813,307.4375 858.6297,307.3594 Q858.7781,307.2813 858.9813,307.2813 Q859.3094,307.2813 859.5672,307.5391 Q859.825,307.7969 859.825,308.1406 Q859.825,308.4844 859.4813,308.8906 Q858.9813,309.4688 858.1844,309.7969 Q857.1063,310.25 855.8094,310.25 Q854.2938,310.25 853.0906,309.625 Q852.1063,309.125 851.4188,308.0547 Q850.7313,306.9844 850.7313,305.7031 L850.7313,304.5469 Q850.7313,303.2188 851.3484,302.0703 Q851.9656,300.9219 853.0594,300.3047 Q854.1531,299.6875 855.3875,299.6875 Q856.1219,299.6875 856.7703,299.8516 Q857.4188,300.0156 857.9656,300.375 Z " /><text fill="#000000" font-family="sans-serif" font-size="12" lengthAdjust="spacingAndGlyphs" textLength="94" x="869.8" y="309.4102">SessaoUtilizador</text>
        <line style="stroke: #A80036; stroke-width: 1.5;" x1="838.5" x2="968.5" y1="320.5" y2="320.5" />
        <line style="stroke: #A80036; stroke-width: 1.5;" x1="838.5" x2="968.5" y1="328.5" y2="328.5" />
        <ellipse cx="848.5" cy="339.5" fill="#84BE84" rx="3" ry="3" style="stroke: #038048; stroke-width: 1.0;" /><text fill="#000000" font-family="sans-serif" font-size="11" lengthAdjust="spacingAndGlyphs" textLength="106" x="857.5" y="343.9189">String getIdUtilizador()</text>
        <!--MD5=[05a699340a7c11c92956af905b9d914a]
link EspecificarTarefaUI to EspecificarTarefaController-->
        <path d="M627.5,56.18 C627.5,71.589 627.5,92.417 627.5,111.447 " fill="none" id="EspecificarTarefaUI-&gt;EspecificarTarefaController" style="stroke: #A80036; stroke-width: 1.0; stroke-dasharray: 7.0,7.0;" />
        <polygon fill="#A80036" points="627.5,116.761,631.5,107.761,627.5,111.761,623.5,107.761,627.5,116.761" style="stroke: #A80036; stroke-width: 1.0;" />
        <!--MD5=[e3097efa8520120091b2f8f83ceb3138]
link EspecificarTarefaController to Plataforma-->
        <path d="M574.13,207.144 C552.477,225.054 527.262,245.909 504.548,264.697 " fill="none" id="EspecificarTarefaController-&gt;Plataforma" style="stroke: #A80036; stroke-width: 1.0; stroke-dasharray: 7.0,7.0;" />
        <polygon fill="#A80036" points="500.632,267.936,510.1164,265.2816,504.4847,264.749,505.0172,259.1173,500.632,267.936" style="stroke: #A80036; stroke-width: 1.0;" />
        <!--MD5=[6eb4a6f4cc5b833adb71bf132ec7c56c]
link EspecificarTarefaController to Organizacao-->
        <path d="M379.631,203.325 C345.301,218.607 313.603,239.496 289.5,268 C248.971,315.929 241.082,387.017 242.728,443.721 " fill="none" id="EspecificarTarefaController-&gt;Organizacao" style="stroke: #A80036; stroke-width: 1.0; stroke-dasharray: 7.0,7.0;" />
        <polygon fill="#A80036" points="242.903,448.815,246.592,439.6831,242.7315,443.8179,238.5967,439.9575,242.903,448.815" style="stroke: #A80036; stroke-width: 1.0;" />
        <!--MD5=[cf2deab2ed1f09cef5b70f58ef028e55]
link Organizacao to Tarefa-->
        <path d="M256.686,622.161 C257.56,645.673 258.507,671.136 259.378,694.551 " fill="none" id="Organizacao-&gt;Tarefa" style="stroke: #A80036; stroke-width: 1.0;" />
        <polygon fill="#A80036" points="259.574,699.826,263.237,690.6837,259.3883,694.8294,255.2425,690.9808,259.574,699.826" style="stroke: #A80036; stroke-width: 1.0;" /><text fill="#000000" font-family="sans-serif" font-size="13" lengthAdjust="spacingAndGlyphs" textLength="38" x="259.5" y="666.4951">possui</text><text fill="#000000" font-family="sans-serif" font-size="13" lengthAdjust="spacingAndGlyphs" textLength="7" x="249.662" y="642.9353">1</text><text fill="#000000" font-family="sans-serif" font-size="13" lengthAdjust="spacingAndGlyphs" textLength="5" x="254.0738" y="689.2693">*</text>
        <!--MD5=[1c2ad462e362697fcdc859a6327d55c7]
link Plataforma to Organizacao-->
        <path d="M395.421,371.215 C376.352,393.154 353.447,419.507 331.658,444.576 " fill="none" id="Plataforma-&gt;Organizacao" style="stroke: #A80036; stroke-width: 1.0;" />
        <polygon fill="#A80036" points="328.172,448.588,337.0956,444.4203,331.4525,444.8146,331.0581,439.1715,328.172,448.588" style="stroke: #A80036; stroke-width: 1.0;" /><text fill="#000000" font-family="sans-serif" font-size="13" lengthAdjust="spacingAndGlyphs" textLength="86" x="370.5" y="415.4951">tem registadas</text><text fill="#000000" font-family="sans-serif" font-size="13" lengthAdjust="spacingAndGlyphs" textLength="7" x="382.0276" y="392.7348">1</text><text fill="#000000" font-family="sans-serif" font-size="13" lengthAdjust="spacingAndGlyphs" textLength="5" x="329.1487" y="438.2575">*</text>
        <!--MD5=[5bda45774066fc14a03f4eca2e1b1558]
link Plataforma to CategoriaTarefa-->
        <path d="M479.628,371.166 C494.972,393.657 510.661,421.281 518.5,449 C527.123,479.492 522.341,833.309 515.5,859 C508.556,885.076 494.399,911.567 481.161,932.5412 " fill="none" id="Plataforma-&gt;CategoriaTarefa" style="stroke: #A80036; stroke-width: 1.0;" />
        <polygon fill="#A80036" points="478.353,936.931,486.5726,931.5053,481.0475,932.7192,479.8337,927.1941,478.353,936.931" style="stroke: #A80036; stroke-width: 1.0;" /><text fill="#000000" font-family="sans-serif" font-size="13" lengthAdjust="spacingAndGlyphs" textLength="38" x="524.5" y="666.4951">possui</text><text fill="#000000" font-family="sans-serif" font-size="13" lengthAdjust="spacingAndGlyphs" textLength="7" x="477.5499" y="392.6793">1</text><text fill="#000000" font-family="sans-serif" font-size="13" lengthAdjust="spacingAndGlyphs" textLength="5" x="477.6909" y="926.2806">*</text>
        <!--MD5=[05917f6a7518902eadec5ea1fb555066]
link Tarefa to CategoriaTarefa-->
        <path d="M339.374,859.204 C364.202,884.624 390.714,911.767 411.721,933.2741 " fill="none" id="Tarefa-&gt;CategoriaTarefa" style="stroke: #A80036; stroke-width: 1.0;" />
        <polygon fill="#A80036" points="415.31,936.9488,411.8832,927.7153,411.8164,933.3718,406.16,933.3051,415.31,936.9488" style="stroke: #A80036; stroke-width: 1.0;" /><text fill="#000000" font-family="sans-serif" font-size="13" lengthAdjust="spacingAndGlyphs" textLength="93" x="386.5" y="903.4951">enquadra-se em</text><text fill="#000000" font-family="sans-serif" font-size="13" lengthAdjust="spacingAndGlyphs" textLength="5" x="340.7655" y="880.2647">*</text><text fill="#000000" font-family="sans-serif" font-size="13" lengthAdjust="spacingAndGlyphs" textLength="7" x="400.9922" y="926.0159">1</text>
        <!--MD5=[59805cf69ed9e18883a36abb426031fc]
link EspecificarTarefaController to SessaoUtilizador-->
        <path d="M710.131,207.231 C744.177,225.703 783.91,247.581 819.5,268 C829.227,273.581 839.514,279.635 849.426,285.549 " fill="none" id="EspecificarTarefaController-&gt;SessaoUtilizador" style="stroke: #A80036; stroke-width: 1.0; stroke-dasharray: 7.0,7.0;" />
        <polygon fill="#A80036" points="853.951,288.254,848.2789,280.2025,849.6595,285.6882,844.1737,287.0688,853.951,288.254" style="stroke: #A80036; stroke-width: 1.0;" />
        <!--MD5=[645f2c64203797fb0837cdee299adcfc]
link EspecificarTarefaController to AutorizacaoFacade-->
        <path d="M649.359,207.144 C661.314,231.286 675.919,260.782 687.095,283.35 " fill="none" id="EspecificarTarefaController-&gt;AutorizacaoFacade" style="stroke: #A80036; stroke-width: 1.0; stroke-dasharray: 7.0,7.0;" />
        <polygon fill="#A80036" points="689.425,288.056,689.0155,278.2157,687.2061,283.5753,681.8464,281.7659,689.425,288.056" style="stroke: #A80036; stroke-width: 1.0;" />
        <!--MD5=[f4aee0df1148357a80f95f9332b170e6]
@startuml

class Tarefa {
  -String referencia
  -String designacao
  -String descricaoInformal
  -String descricaoCaraterTecnico
  -String duracao
  -String custo
  +Tarefa(String ref, String desig, String dsInf, String dsTec, String dur, String custo, String cat)
  setCategoria(cat)
}

class Organizacao {
  -String nome
  -String NIF
  -String website
  -String telefone
  -String email

  +novaTarefa(String ref, String desig, String dsInf, String dsTec, String dur, String custo, String cat)
  +validaTarefa(Tarefa tarefa)
  +registaTarefa(Tarefa tarefa)
  -addTarefa(Tarefa tarefa)
}

class EspecificarTarefaController {
  +novaTarefa(String ref, String desig, String dsInf, String dsTec, String dur, String custo, String cat)
  +registarTarefa()
  +getListaCategoriasTarefa()
}

class EspecificarTarefaUI {

}

class Plataforma {
  -String designacao
  +Set<CategoriaTarefa> getListaCategoriasTarefa()
  +Organizacao getOrganizacaoByidUtilizador()
  +Categoria getCategoriaById()
}

class CategoriaTarefa {
  -String catId
  -String descricao
}

class AutorizacaoFacade{
  +SessaoUtilizador getSessaoAtual()
}

class SessaoUtilizador{
  +String getIdUtilizador()
}

EspecificarTarefaUI ..> EspecificarTarefaController
EspecificarTarefaController ..> Plataforma
EspecificarTarefaController ..> Organizacao
Organizacao "1" - -> "*" Tarefa : possui
Plataforma "1" - -> "*" Organizacao : tem registadas
Plataforma "1" - -> "*" CategoriaTarefa : possui
Tarefa "*" - -> "1" CategoriaTarefa : enquadra-se em

EspecificarTarefaController ..> SessaoUtilizador
EspecificarTarefaController ..> AutorizacaoFacade


@enduml

PlantUML version 1.2020.02(Sun Mar 01 10:22:07 GMT 2020)
(GPL source distribution)
Java Runtime: Java(TM) SE Runtime Environment
JVM: Java HotSpot(TM) Client VM
Java Version: 1.8.0_201-b09
Operating System: Windows 10
Default Encoding: Cp1252
Language: pt
Country: PT
-->
    </g>
</svg>