<?xml version="1.0" encoding="UTF-8" standalone="no"?><svg xmlns="http://www.w3.org/2000/svg" xmlns:xlink="http://www.w3.org/1999/xlink" contentScriptType="application/ecmascript" contentStyleType="text/css" height="1102px" preserveAspectRatio="none" style="width:2471px;height:1102px;" version="1.1" viewBox="0 0 2471 1102" width="2471px" zoomAndPan="magnify">
    <defs>
        <filter height="300%" id="f1w8oy5d1wurkz" width="300%" x="-1" y="-1">
            <feGaussianBlur result="blurOut" stdDeviation="2.0" />
            <feColorMatrix in="blurOut" result="blurOut2" type="matrix" values="0 0 0 0 0 0 0 0 0 0 0 0 0 0 0 0 0 0 .4 0" />
            <feOffset dx="4.0" dy="4.0" in="blurOut2" result="blurOut3" />
            <feBlend in="SourceGraphic" in2="blurOut3" mode="normal" />
        </filter>
    </defs>
    <g>
        <rect fill="#FFFFFF" filter="url(#f1w8oy5d1wurkz)" height="898.3438" style="stroke: #A80036; stroke-width: 1.0;" width="10" x="97.5" y="97.6094" />
        <rect fill="#FFFFFF" filter="url(#f1w8oy5d1wurkz)" height="46.7031" style="stroke: #A80036; stroke-width: 1.0;" width="10" x="659.5" y="119.9609" />
        <rect fill="#FFFFFF" filter="url(#f1w8oy5d1wurkz)" height="121.0547" style="stroke: #A80036; stroke-width: 1.0;" width="10" x="659.5" y="197.0156" />
        <rect fill="#FFFFFF" filter="url(#f1w8oy5d1wurkz)" height="439.4219" style="stroke: #A80036; stroke-width: 1.0;" width="10" x="659.5" y="348.4219" />
        <rect fill="#FFFFFF" filter="url(#f1w8oy5d1wurkz)" height="177.7578" style="stroke: #A80036; stroke-width: 1.0;" width="10" x="659.5" y="818.1953" />
        <rect fill="#FFFFFF" filter="url(#f1w8oy5d1wurkz)" height="60.3516" style="stroke: #A80036; stroke-width: 1.0;" width="10" x="1001.5" y="227.3672" />
        <rect fill="#FFFFFF" filter="url(#f1w8oy5d1wurkz)" height="378.7188" style="stroke: #A80036; stroke-width: 1.0;" width="10" x="1001.5" y="378.7734" />
        <rect fill="#FFFFFF" filter="url(#f1w8oy5d1wurkz)" height="110.0547" style="stroke: #A80036; stroke-width: 1.0;" width="10" x="1001.5" y="848.5469" />
        <rect fill="#FFFFFF" filter="url(#f1w8oy5d1wurkz)" height="30" style="stroke: #A80036; stroke-width: 1.0;" width="10" x="1253.5" y="257.7188" />
        <rect fill="#FFFFFF" filter="url(#f1w8oy5d1wurkz)" height="30" style="stroke: #A80036; stroke-width: 1.0;" width="10" x="1253.5" y="529.8281" />
        <rect fill="#FFFFFF" filter="url(#f1w8oy5d1wurkz)" height="30" style="stroke: #A80036; stroke-width: 1.0;" width="10" x="1253.5" y="590.1797" />
        <rect fill="#FFFFFF" filter="url(#f1w8oy5d1wurkz)" height="30.3516" style="stroke: #A80036; stroke-width: 1.0;" width="10" x="1709" y="650.5313" />
        <rect fill="#FFFFFF" filter="url(#f1w8oy5d1wurkz)" height="30" style="stroke: #A80036; stroke-width: 1.0;" width="10" x="1709" y="727.4922" />
        <rect fill="#FFFFFF" filter="url(#f1w8oy5d1wurkz)" height="79.7031" style="stroke: #A80036; stroke-width: 1.0;" width="10" x="1709" y="878.8984" />
        <rect fill="#FFFFFF" filter="url(#f1w8oy5d1wurkz)" height="30" style="stroke: #A80036; stroke-width: 1.0;" width="10" x="2219.5" y="469.4766" />
        <rect fill="#FFFFFF" filter="url(#f1w8oy5d1wurkz)" height="30" style="stroke: #A80036; stroke-width: 1.0;" width="10" x="2387" y="409.125" />
        <line style="stroke: #A80036; stroke-width: 1.0; stroke-dasharray: 5.0,5.0;" x1="102" x2="102" y1="87.6094" y2="1013.9531" />
        <line style="stroke: #A80036; stroke-width: 1.0; stroke-dasharray: 5.0,5.0;" x1="664" x2="664" y1="87.6094" y2="1013.9531" />
        <line style="stroke: #A80036; stroke-width: 1.0; stroke-dasharray: 5.0,5.0;" x1="1006" x2="1006" y1="87.6094" y2="1013.9531" />
        <line style="stroke: #A80036; stroke-width: 1.0; stroke-dasharray: 5.0,5.0;" x1="1258.5" x2="1258.5" y1="87.6094" y2="1013.9531" />
        <line style="stroke: #A80036; stroke-width: 1.0; stroke-dasharray: 5.0,5.0;" x1="1400.5" x2="1400.5" y1="87.6094" y2="1013.9531" />
        <line style="stroke: #A80036; stroke-width: 1.0; stroke-dasharray: 5.0,5.0;" x1="1569.5" x2="1569.5" y1="87.6094" y2="1013.9531" />
        <line style="stroke: #A80036; stroke-width: 1.0; stroke-dasharray: 5.0,5.0;" x1="1713.5" x2="1713.5" y1="87.6094" y2="1013.9531" />
        <line style="stroke: #A80036; stroke-width: 1.0; stroke-dasharray: 5.0,5.0;" x1="2078" x2="2078" y1="691.8359" y2="1013.9531" />
        <line style="stroke: #A80036; stroke-width: 1.0; stroke-dasharray: 5.0,5.0;" x1="2224" x2="2224" y1="87.6094" y2="1013.9531" />
        <line style="stroke: #A80036; stroke-width: 1.0; stroke-dasharray: 5.0,5.0;" x1="2392" x2="2392" y1="87.6094" y2="1013.9531" /><text fill="#000000" font-family="sans-serif" font-size="14" lengthAdjust="spacingAndGlyphs" textLength="183" x="8" y="84.5332">Colaborador de Organização</text>
        <ellipse cx="102.5" cy="13" fill="#FEFECE" filter="url(#f1w8oy5d1wurkz)" rx="8" ry="8" style="stroke: #A80036; stroke-width: 2.0;" />
        <path d="M102.5,21 L102.5,48 M89.5,29 L115.5,29 M102.5,48 L89.5,63 M102.5,48 L115.5,63 " fill="none" filter="url(#f1w8oy5d1wurkz)" style="stroke: #A80036; stroke-width: 2.0;" /><text fill="#000000" font-family="sans-serif" font-size="14" lengthAdjust="spacingAndGlyphs" textLength="183" x="8" y="1027.4863">Colaborador de Organização</text>
        <ellipse cx="102.5" cy="1040.5625" fill="#FEFECE" filter="url(#f1w8oy5d1wurkz)" rx="8" ry="8" style="stroke: #A80036; stroke-width: 2.0;" />
        <path d="M102.5,1048.5625 L102.5,1075.5625 M89.5,1056.5625 L115.5,1056.5625 M102.5,1075.5625 L89.5,1090.5625 M102.5,1075.5625 L115.5,1090.5625 " fill="none" filter="url(#f1w8oy5d1wurkz)" style="stroke: #A80036; stroke-width: 2.0;" />
        <rect fill="#FEFECE" filter="url(#f1w8oy5d1wurkz)" height="31.6094" style="stroke: #A80036; stroke-width: 1.5;" width="141" x="592" y="51" /><text fill="#000000" font-family="sans-serif" font-size="14" lengthAdjust="spacingAndGlyphs" textLength="127" x="599" y="72.5332">:EspecificarTarefaUI</text>
        <rect fill="#FEFECE" filter="url(#f1w8oy5d1wurkz)" height="31.6094" style="stroke: #A80036; stroke-width: 1.5;" width="141" x="592" y="1012.9531" /><text fill="#000000" font-family="sans-serif" font-size="14" lengthAdjust="spacingAndGlyphs" textLength="127" x="599" y="1034.4863">:EspecificarTarefaUI</text>
        <rect fill="#FEFECE" filter="url(#f1w8oy5d1wurkz)" height="31.6094" style="stroke: #A80036; stroke-width: 1.5;" width="191" x="909" y="51" /><text fill="#000000" font-family="sans-serif" font-size="14" lengthAdjust="spacingAndGlyphs" textLength="177" x="916" y="72.5332">:EspecificarTarefaController</text>
        <rect fill="#FEFECE" filter="url(#f1w8oy5d1wurkz)" height="31.6094" style="stroke: #A80036; stroke-width: 1.5;" width="191" x="909" y="1012.9531" /><text fill="#000000" font-family="sans-serif" font-size="14" lengthAdjust="spacingAndGlyphs" textLength="177" x="916" y="1034.4863">:EspecificarTarefaController</text>
        <rect fill="#FEFECE" filter="url(#f1w8oy5d1wurkz)" height="31.6094" style="stroke: #A80036; stroke-width: 1.5;" width="86" x="1213.5" y="51" /><text fill="#000000" font-family="sans-serif" font-size="14" lengthAdjust="spacingAndGlyphs" textLength="72" x="1220.5" y="72.5332">:Plataforma</text>
        <rect fill="#FEFECE" filter="url(#f1w8oy5d1wurkz)" height="31.6094" style="stroke: #A80036; stroke-width: 1.5;" width="86" x="1213.5" y="1012.9531" /><text fill="#000000" font-family="sans-serif" font-size="14" lengthAdjust="spacingAndGlyphs" textLength="72" x="1220.5" y="1034.4863">:Plataforma</text>
        <rect fill="#FEFECE" filter="url(#f1w8oy5d1wurkz)" height="31.6094" style="stroke: #A80036; stroke-width: 1.5;" width="170" x="1313.5" y="51" /><text fill="#000000" font-family="sans-serif" font-size="14" lengthAdjust="spacingAndGlyphs" textLength="156" x="1320.5" y="72.5332">lc:List&lt;CategoriaTarefa&gt;</text>
        <rect fill="#FEFECE" filter="url(#f1w8oy5d1wurkz)" height="31.6094" style="stroke: #A80036; stroke-width: 1.5;" width="170" x="1313.5" y="1012.9531" /><text fill="#000000" font-family="sans-serif" font-size="14" lengthAdjust="spacingAndGlyphs" textLength="156" x="1320.5" y="1034.4863">lc:List&lt;CategoriaTarefa&gt;</text>
        <rect fill="#FEFECE" filter="url(#f1w8oy5d1wurkz)" height="31.6094" style="stroke: #A80036; stroke-width: 1.5;" width="141" x="1497.5" y="51" /><text fill="#000000" font-family="sans-serif" font-size="14" lengthAdjust="spacingAndGlyphs" textLength="127" x="1504.5" y="72.5332">cat:CategoriaTarefa</text>
        <rect fill="#FEFECE" filter="url(#f1w8oy5d1wurkz)" height="31.6094" style="stroke: #A80036; stroke-width: 1.5;" width="141" x="1497.5" y="1012.9531" /><text fill="#000000" font-family="sans-serif" font-size="14" lengthAdjust="spacingAndGlyphs" textLength="127" x="1504.5" y="1034.4863">cat:CategoriaTarefa</text>
        <rect fill="#FEFECE" filter="url(#f1w8oy5d1wurkz)" height="31.6094" style="stroke: #A80036; stroke-width: 1.5;" width="119" x="1652.5" y="51" /><text fill="#000000" font-family="sans-serif" font-size="14" lengthAdjust="spacingAndGlyphs" textLength="105" x="1659.5" y="72.5332">org:Organizacao</text>
        <rect fill="#FEFECE" filter="url(#f1w8oy5d1wurkz)" height="31.6094" style="stroke: #A80036; stroke-width: 1.5;" width="119" x="1652.5" y="1012.9531" /><text fill="#000000" font-family="sans-serif" font-size="14" lengthAdjust="spacingAndGlyphs" textLength="105" x="1659.5" y="1034.4863">org:Organizacao</text>
        <rect fill="#FEFECE" filter="url(#f1w8oy5d1wurkz)" height="31.6094" style="stroke: #A80036; stroke-width: 1.5;" width="97" x="2028" y="1012.9531" /><text fill="#000000" font-family="sans-serif" font-size="14" lengthAdjust="spacingAndGlyphs" textLength="83" x="2035" y="1034.4863">tarefa:Tarefa</text>
        <rect fill="#FEFECE" filter="url(#f1w8oy5d1wurkz)" height="31.6094" style="stroke: #A80036; stroke-width: 1.5;" width="167" x="2139" y="51" /><text fill="#000000" font-family="sans-serif" font-size="14" lengthAdjust="spacingAndGlyphs" textLength="153" x="2146" y="72.5332">sessao:SessaoUtilizador</text>
        <rect fill="#FEFECE" filter="url(#f1w8oy5d1wurkz)" height="31.6094" style="stroke: #A80036; stroke-width: 1.5;" width="167" x="2139" y="1012.9531" /><text fill="#000000" font-family="sans-serif" font-size="14" lengthAdjust="spacingAndGlyphs" textLength="153" x="2146" y="1034.4863">sessao:SessaoUtilizador</text>
        <rect fill="#FEFECE" filter="url(#f1w8oy5d1wurkz)" height="31.6094" style="stroke: #A80036; stroke-width: 1.5;" width="140" x="2320" y="51" /><text fill="#000000" font-family="sans-serif" font-size="14" lengthAdjust="spacingAndGlyphs" textLength="126" x="2327" y="72.5332">:AutorizacaoFacade</text>
        <rect fill="#FEFECE" filter="url(#f1w8oy5d1wurkz)" height="31.6094" style="stroke: #A80036; stroke-width: 1.5;" width="140" x="2320" y="1012.9531" /><text fill="#000000" font-family="sans-serif" font-size="14" lengthAdjust="spacingAndGlyphs" textLength="126" x="2327" y="1034.4863">:AutorizacaoFacade</text>
        <rect fill="#FFFFFF" filter="url(#f1w8oy5d1wurkz)" height="898.3438" style="stroke: #A80036; stroke-width: 1.0;" width="10" x="97.5" y="97.6094" />
        <rect fill="#FFFFFF" filter="url(#f1w8oy5d1wurkz)" height="46.7031" style="stroke: #A80036; stroke-width: 1.0;" width="10" x="659.5" y="119.9609" />
        <rect fill="#FFFFFF" filter="url(#f1w8oy5d1wurkz)" height="121.0547" style="stroke: #A80036; stroke-width: 1.0;" width="10" x="659.5" y="197.0156" />
        <rect fill="#FFFFFF" filter="url(#f1w8oy5d1wurkz)" height="439.4219" style="stroke: #A80036; stroke-width: 1.0;" width="10" x="659.5" y="348.4219" />
        <rect fill="#FFFFFF" filter="url(#f1w8oy5d1wurkz)" height="177.7578" style="stroke: #A80036; stroke-width: 1.0;" width="10" x="659.5" y="818.1953" />
        <rect fill="#FFFFFF" filter="url(#f1w8oy5d1wurkz)" height="60.3516" style="stroke: #A80036; stroke-width: 1.0;" width="10" x="1001.5" y="227.3672" />
        <rect fill="#FFFFFF" filter="url(#f1w8oy5d1wurkz)" height="378.7188" style="stroke: #A80036; stroke-width: 1.0;" width="10" x="1001.5" y="378.7734" />
        <rect fill="#FFFFFF" filter="url(#f1w8oy5d1wurkz)" height="110.0547" style="stroke: #A80036; stroke-width: 1.0;" width="10" x="1001.5" y="848.5469" />
        <rect fill="#FFFFFF" filter="url(#f1w8oy5d1wurkz)" height="30" style="stroke: #A80036; stroke-width: 1.0;" width="10" x="1253.5" y="257.7188" />
        <rect fill="#FFFFFF" filter="url(#f1w8oy5d1wurkz)" height="30" style="stroke: #A80036; stroke-width: 1.0;" width="10" x="1253.5" y="529.8281" />
        <rect fill="#FFFFFF" filter="url(#f1w8oy5d1wurkz)" height="30" style="stroke: #A80036; stroke-width: 1.0;" width="10" x="1253.5" y="590.1797" />
        <rect fill="#FFFFFF" filter="url(#f1w8oy5d1wurkz)" height="30.3516" style="stroke: #A80036; stroke-width: 1.0;" width="10" x="1709" y="650.5313" />
        <rect fill="#FFFFFF" filter="url(#f1w8oy5d1wurkz)" height="30" style="stroke: #A80036; stroke-width: 1.0;" width="10" x="1709" y="727.4922" />
        <rect fill="#FFFFFF" filter="url(#f1w8oy5d1wurkz)" height="79.7031" style="stroke: #A80036; stroke-width: 1.0;" width="10" x="1709" y="878.8984" />
        <rect fill="#FFFFFF" filter="url(#f1w8oy5d1wurkz)" height="30" style="stroke: #A80036; stroke-width: 1.0;" width="10" x="2219.5" y="469.4766" />
        <rect fill="#FFFFFF" filter="url(#f1w8oy5d1wurkz)" height="30" style="stroke: #A80036; stroke-width: 1.0;" width="10" x="2387" y="409.125" />
        <polygon fill="#A80036" points="647.5,115.9609,657.5,119.9609,647.5,123.9609,651.5,119.9609" style="stroke: #A80036; stroke-width: 1.0;" />
        <line style="stroke: #A80036; stroke-width: 1.0;" x1="107.5" x2="653.5" y1="119.9609" y2="119.9609" /><text fill="#000000" font-family="sans-serif" font-size="13" font-weight="bold" lengthAdjust="spacingAndGlyphs" textLength="7" x="114.5" y="115.1045">1</text><text fill="#000000" font-family="sans-serif" font-size="13" lengthAdjust="spacingAndGlyphs" textLength="62" x="125.5" y="115.1045">nova tarefa</text>
        <polygon fill="#A80036" points="118.5,162.6641,108.5,166.6641,118.5,170.6641,114.5,166.6641" style="stroke: #A80036; stroke-width: 1.0;" />
        <line style="stroke: #A80036; stroke-width: 1.0; stroke-dasharray: 2.0,2.0;" x1="112.5" x2="663.5" y1="166.6641" y2="166.6641" /><text fill="#000000" font-family="sans-serif" font-size="13" font-weight="bold" lengthAdjust="spacingAndGlyphs" textLength="7" x="124.5" y="153.6318">2</text><text fill="#000000" font-family="sans-serif" font-size="13" lengthAdjust="spacingAndGlyphs" textLength="80" x="135.5" y="145.4561">solicita dados</text><text fill="#000000" font-family="sans-serif" font-size="13" lengthAdjust="spacingAndGlyphs" textLength="517" x="135.5" y="161.8076">(referência, designação, descrição informal, descrição de caráter técnico, duração, custo)</text>
        <polygon fill="#A80036" points="647.5,193.0156,657.5,197.0156,647.5,201.0156,651.5,197.0156" style="stroke: #A80036; stroke-width: 1.0;" />
        <line style="stroke: #A80036; stroke-width: 1.0;" x1="107.5" x2="653.5" y1="197.0156" y2="197.0156" /><text fill="#000000" font-family="sans-serif" font-size="13" font-weight="bold" lengthAdjust="spacingAndGlyphs" textLength="7" x="114.5" y="192.1592">3</text><text fill="#000000" font-family="sans-serif" font-size="13" lengthAdjust="spacingAndGlyphs" textLength="169" x="125.5" y="192.1592">introduz os dados solicitados</text>
        <polygon fill="#A80036" points="989.5,223.3672,999.5,227.3672,989.5,231.3672,993.5,227.3672" style="stroke: #A80036; stroke-width: 1.0;" />
        <line style="stroke: #A80036; stroke-width: 1.0;" x1="669.5" x2="995.5" y1="227.3672" y2="227.3672" /><text fill="#000000" font-family="sans-serif" font-size="13" font-weight="bold" lengthAdjust="spacingAndGlyphs" textLength="7" x="676.5" y="222.5107">4</text><text fill="#000000" font-family="sans-serif" font-size="13" lengthAdjust="spacingAndGlyphs" textLength="177" x="687.5" y="222.5107">lc = getListaCategoriasTarefa()</text>
        <polygon fill="#A80036" points="1241.5,253.7188,1251.5,257.7188,1241.5,261.7188,1245.5,257.7188" style="stroke: #A80036; stroke-width: 1.0;" />
        <line style="stroke: #A80036; stroke-width: 1.0;" x1="1011.5" x2="1247.5" y1="257.7188" y2="257.7188" /><text fill="#000000" font-family="sans-serif" font-size="13" font-weight="bold" lengthAdjust="spacingAndGlyphs" textLength="7" x="1018.5" y="252.8623">5</text><text fill="#000000" font-family="sans-serif" font-size="13" lengthAdjust="spacingAndGlyphs" textLength="177" x="1029.5" y="252.8623">lc = getListaCategoriasTarefa()</text>
        <polygon fill="#A80036" points="118.5,314.0703,108.5,318.0703,118.5,322.0703,114.5,318.0703" style="stroke: #A80036; stroke-width: 1.0;" />
        <line style="stroke: #A80036; stroke-width: 1.0; stroke-dasharray: 2.0,2.0;" x1="112.5" x2="663.5" y1="318.0703" y2="318.0703" /><text fill="#000000" font-family="sans-serif" font-size="13" font-weight="bold" lengthAdjust="spacingAndGlyphs" textLength="7" x="124.5" y="313.2139">6</text><text fill="#000000" font-family="sans-serif" font-size="13" lengthAdjust="spacingAndGlyphs" textLength="221" x="135.5" y="313.2139">apresenta lista de categorias de tarefa</text>
        <polygon fill="#A80036" points="647.5,344.4219,657.5,348.4219,647.5,352.4219,651.5,348.4219" style="stroke: #A80036; stroke-width: 1.0;" />
        <line style="stroke: #A80036; stroke-width: 1.0;" x1="107.5" x2="653.5" y1="348.4219" y2="348.4219" /><text fill="#000000" font-family="sans-serif" font-size="13" font-weight="bold" lengthAdjust="spacingAndGlyphs" textLength="7" x="114.5" y="343.5654">7</text><text fill="#000000" font-family="sans-serif" font-size="13" lengthAdjust="spacingAndGlyphs" textLength="177" x="125.5" y="343.5654">seleciona a categoria de tarefa</text>
        <polygon fill="#A80036" points="989.5,374.7734,999.5,378.7734,989.5,382.7734,993.5,378.7734" style="stroke: #A80036; stroke-width: 1.0;" />
        <line style="stroke: #A80036; stroke-width: 1.0;" x1="669.5" x2="995.5" y1="378.7734" y2="378.7734" /><text fill="#000000" font-family="sans-serif" font-size="13" font-weight="bold" lengthAdjust="spacingAndGlyphs" textLength="7" x="676.5" y="373.917">8</text><text fill="#000000" font-family="sans-serif" font-size="13" lengthAdjust="spacingAndGlyphs" textLength="302" x="687.5" y="373.917">novaTarefa(ref, desig, dsInf, dsTec, dur, custo, catId)</text>
        <polygon fill="#A80036" points="2375,405.125,2385,409.125,2375,413.125,2379,409.125" style="stroke: #A80036; stroke-width: 1.0;" />
        <line style="stroke: #A80036; stroke-width: 1.0;" x1="1011.5" x2="2381" y1="409.125" y2="409.125" /><text fill="#000000" font-family="sans-serif" font-size="13" font-weight="bold" lengthAdjust="spacingAndGlyphs" textLength="7" x="1018.5" y="404.2686">9</text><text fill="#000000" font-family="sans-serif" font-size="13" lengthAdjust="spacingAndGlyphs" textLength="150" x="1029.5" y="404.2686">sessao=getSessaoAtual()</text>
        <polygon fill="#A80036" points="2207.5,465.4766,2217.5,469.4766,2207.5,473.4766,2211.5,469.4766" style="stroke: #A80036; stroke-width: 1.0;" />
        <line style="stroke: #A80036; stroke-width: 1.0;" x1="1011.5" x2="2213.5" y1="469.4766" y2="469.4766" /><text fill="#000000" font-family="sans-serif" font-size="13" font-weight="bold" lengthAdjust="spacingAndGlyphs" textLength="14" x="1018.5" y="464.6201">10</text><text fill="#000000" font-family="sans-serif" font-size="13" lengthAdjust="spacingAndGlyphs" textLength="127" x="1036.5" y="464.6201">idCO=getIdUtilizador()</text>
        <polygon fill="#A80036" points="1241.5,525.8281,1251.5,529.8281,1241.5,533.8281,1245.5,529.8281" style="stroke: #A80036; stroke-width: 1.0;" />
        <line style="stroke: #A80036; stroke-width: 1.0;" x1="1011.5" x2="1247.5" y1="529.8281" y2="529.8281" /><text fill="#000000" font-family="sans-serif" font-size="13" font-weight="bold" lengthAdjust="spacingAndGlyphs" textLength="14" x="1018.5" y="524.9717">11</text><text fill="#000000" font-family="sans-serif" font-size="13" lengthAdjust="spacingAndGlyphs" textLength="205" x="1036.5" y="524.9717">org=getOrganizacaoByidUtilizador()</text>
        <polygon fill="#A80036" points="1241.5,586.1797,1251.5,590.1797,1241.5,594.1797,1245.5,590.1797" style="stroke: #A80036; stroke-width: 1.0;" />
        <line style="stroke: #A80036; stroke-width: 1.0;" x1="1011.5" x2="1247.5" y1="590.1797" y2="590.1797" /><text fill="#000000" font-family="sans-serif" font-size="13" font-weight="bold" lengthAdjust="spacingAndGlyphs" textLength="14" x="1018.5" y="585.3232">12</text><text fill="#000000" font-family="sans-serif" font-size="13" lengthAdjust="spacingAndGlyphs" textLength="161" x="1036.5" y="585.3232">cat=getCategoriaById(catId)</text>
        <polygon fill="#A80036" points="1697,646.5313,1707,650.5313,1697,654.5313,1701,650.5313" style="stroke: #A80036; stroke-width: 1.0;" />
        <line style="stroke: #A80036; stroke-width: 1.0;" x1="1011.5" x2="1703" y1="650.5313" y2="650.5313" /><text fill="#000000" font-family="sans-serif" font-size="13" font-weight="bold" lengthAdjust="spacingAndGlyphs" textLength="14" x="1018.5" y="645.6748">13</text><text fill="#000000" font-family="sans-serif" font-size="13" lengthAdjust="spacingAndGlyphs" textLength="332" x="1036.5" y="645.6748">tarefa=novaTarefa(ref, desig, dsInf, dsTec, dur, custo, cat)</text>
        <polygon fill="#A80036" points="2016,676.8828,2026,680.8828,2016,684.8828,2020,680.8828" style="stroke: #A80036; stroke-width: 1.0;" />
        <line style="stroke: #A80036; stroke-width: 1.0; stroke-dasharray: 2.0,2.0;" x1="1714" x2="2022" y1="680.8828" y2="680.8828" /><text fill="#000000" font-family="sans-serif" font-size="13" font-weight="bold" lengthAdjust="spacingAndGlyphs" textLength="14" x="1721" y="676.0264">14</text><text fill="#000000" font-family="sans-serif" font-size="13" lengthAdjust="spacingAndGlyphs" textLength="267" x="1739" y="676.0264">create(ref, desig, dsInf, dsTec, dur, custo, cat)</text>
        <rect fill="#FEFECE" filter="url(#f1w8oy5d1wurkz)" height="31.6094" style="stroke: #A80036; stroke-width: 1.5;" width="97" x="2028" y="658.5313" /><text fill="#000000" font-family="sans-serif" font-size="14" lengthAdjust="spacingAndGlyphs" textLength="83" x="2035" y="680.0645">tarefa:Tarefa</text>
        <polygon fill="#A80036" points="1697,723.4922,1707,727.4922,1697,731.4922,1701,727.4922" style="stroke: #A80036; stroke-width: 1.0;" />
        <line style="stroke: #A80036; stroke-width: 1.0;" x1="1011.5" x2="1703" y1="727.4922" y2="727.4922" /><text fill="#000000" font-family="sans-serif" font-size="13" font-weight="bold" lengthAdjust="spacingAndGlyphs" textLength="14" x="1018.5" y="722.6357">15</text><text fill="#000000" font-family="sans-serif" font-size="13" lengthAdjust="spacingAndGlyphs" textLength="111" x="1036.5" y="722.6357">validarTarefa(tarefa)</text>
        <polygon fill="#A80036" points="118.5,783.8438,108.5,787.8438,118.5,791.8438,114.5,787.8438" style="stroke: #A80036; stroke-width: 1.0;" />
        <line style="stroke: #A80036; stroke-width: 1.0; stroke-dasharray: 2.0,2.0;" x1="112.5" x2="663.5" y1="787.8438" y2="787.8438" /><text fill="#000000" font-family="sans-serif" font-size="13" font-weight="bold" lengthAdjust="spacingAndGlyphs" textLength="14" x="124.5" y="782.9873">16</text><text fill="#000000" font-family="sans-serif" font-size="13" lengthAdjust="spacingAndGlyphs" textLength="226" x="142.5" y="782.9873">apresenta dados e solicita confirmação</text>
        <polygon fill="#A80036" points="647.5,814.1953,657.5,818.1953,647.5,822.1953,651.5,818.1953" style="stroke: #A80036; stroke-width: 1.0;" />
        <line style="stroke: #A80036; stroke-width: 1.0;" x1="107.5" x2="653.5" y1="818.1953" y2="818.1953" /><text fill="#000000" font-family="sans-serif" font-size="13" font-weight="bold" lengthAdjust="spacingAndGlyphs" textLength="14" x="114.5" y="813.3389">17</text><text fill="#000000" font-family="sans-serif" font-size="13" lengthAdjust="spacingAndGlyphs" textLength="49" x="132.5" y="813.3389">confirma</text>
        <polygon fill="#A80036" points="989.5,844.5469,999.5,848.5469,989.5,852.5469,993.5,848.5469" style="stroke: #A80036; stroke-width: 1.0;" />
        <line style="stroke: #A80036; stroke-width: 1.0;" x1="669.5" x2="995.5" y1="848.5469" y2="848.5469" /><text fill="#000000" font-family="sans-serif" font-size="13" font-weight="bold" lengthAdjust="spacingAndGlyphs" textLength="14" x="676.5" y="843.6904">18</text><text fill="#000000" font-family="sans-serif" font-size="13" lengthAdjust="spacingAndGlyphs" textLength="82" x="694.5" y="843.6904">registaTarefa()</text>
        <polygon fill="#A80036" points="1697,874.8984,1707,878.8984,1697,882.8984,1701,878.8984" style="stroke: #A80036; stroke-width: 1.0;" />
        <line style="stroke: #A80036; stroke-width: 1.0;" x1="1011.5" x2="1703" y1="878.8984" y2="878.8984" /><text fill="#000000" font-family="sans-serif" font-size="13" font-weight="bold" lengthAdjust="spacingAndGlyphs" textLength="14" x="1018.5" y="874.042">19</text><text fill="#000000" font-family="sans-serif" font-size="13" lengthAdjust="spacingAndGlyphs" textLength="114" x="1036.5" y="874.042">registaTarefa(tarefa)</text>
        <line style="stroke: #A80036; stroke-width: 1.0;" x1="1719" x2="1761" y1="909.25" y2="909.25" />
        <line style="stroke: #A80036; stroke-width: 1.0;" x1="1761" x2="1761" y1="909.25" y2="922.25" />
        <line style="stroke: #A80036; stroke-width: 1.0;" x1="1720" x2="1761" y1="922.25" y2="922.25" />
        <polygon fill="#A80036" points="1730,918.25,1720,922.25,1730,926.25,1726,922.25" style="stroke: #A80036; stroke-width: 1.0;" /><text fill="#000000" font-family="sans-serif" font-size="13" font-weight="bold" lengthAdjust="spacingAndGlyphs" textLength="14" x="1726" y="904.3936">20</text><text fill="#000000" font-family="sans-serif" font-size="13" lengthAdjust="spacingAndGlyphs" textLength="107" x="1744" y="904.3936">validaTarefa(tarefa)</text>
        <line style="stroke: #A80036; stroke-width: 1.0;" x1="1719" x2="1761" y1="957.6016" y2="957.6016" />
        <line style="stroke: #A80036; stroke-width: 1.0;" x1="1761" x2="1761" y1="957.6016" y2="970.6016" />
        <line style="stroke: #A80036; stroke-width: 1.0;" x1="1714" x2="1761" y1="970.6016" y2="970.6016" />
        <polygon fill="#A80036" points="1724,966.6016,1714,970.6016,1724,974.6016,1720,970.6016" style="stroke: #A80036; stroke-width: 1.0;" /><text fill="#000000" font-family="sans-serif" font-size="13" font-weight="bold" lengthAdjust="spacingAndGlyphs" textLength="14" x="1726" y="952.7451">21</text><text fill="#000000" font-family="sans-serif" font-size="13" lengthAdjust="spacingAndGlyphs" textLength="96" x="1744" y="952.7451">addTarefa(tarefa)</text>
        <polygon fill="#A80036" points="113.5,991.9531,103.5,995.9531,113.5,999.9531,109.5,995.9531" style="stroke: #A80036; stroke-width: 1.0;" />
        <line style="stroke: #A80036; stroke-width: 1.0; stroke-dasharray: 2.0,2.0;" x1="107.5" x2="663.5" y1="995.9531" y2="995.9531" /><text fill="#000000" font-family="sans-serif" font-size="13" font-weight="bold" lengthAdjust="spacingAndGlyphs" textLength="14" x="119.5" y="991.0967">22</text><text fill="#000000" font-family="sans-serif" font-size="13" lengthAdjust="spacingAndGlyphs" textLength="138" x="137.5" y="991.0967">operação bem sucedida</text>
        <!--MD5=[48473342311a2d68be53977ff99d84c8]
@startuml
autonumber
actor "Colaborador de Organização" as CO

participant ":EspecificarTarefaUI" as UI
participant ":EspecificarTarefaController" as CTRL
participant ":Plataforma" as PLAT
participant "lc:List<CategoriaTarefa>" as CT
participant "cat:CategoriaTarefa" as CAT
participant "org:Organizacao" as ORG
participant "tarefa:Tarefa" as TAREFA
participant "sessao:SessaoUtilizador" as SES
participant ":AutorizacaoFacade" as AF

activate CO
CO -> UI : nova tarefa
activate UI
UI - -> CO : solicita dados \n(referência, designação, descrição informal, descrição de caráter técnico, duração, custo)
deactivate UI

CO -> UI : introduz os dados solicitados
activate UI
UI -> CTRL : lc = getListaCategoriasTarefa()
activate CTRL
CTRL -> PLAT : lc = getListaCategoriasTarefa()
activate PLAT
deactivate PLAT
deactivate CTRL
UI - -> CO : apresenta lista de categorias de tarefa
deactivate UI

CO -> UI : seleciona a categoria de tarefa
activate UI
UI -> CTRL : novaTarefa(ref, desig, dsInf, dsTec, dur, custo, catId)
activate CTRL
CTRL -> AF : sessao=getSessaoAtual()
activate AF
deactivate AF
CTRL -> SES :idCO=getIdUtilizador()
activate SES
deactivate SES
CTRL -> PLAT : org=getOrganizacaoByidUtilizador()
activate PLAT
deactivate PLAT
CTRL -> PLAT : cat=getCategoriaById(catId)
activate PLAT
deactivate PLAT
CTRL -> ORG: tarefa=novaTarefa(ref, desig, dsInf, dsTec, dur, custo, cat)
activate ORG
ORG - -> TAREFA ** : create(ref, desig, dsInf, dsTec, dur, custo, cat)
deactivate ORG
CTRL -> ORG : validarTarefa(tarefa)
activate ORG
deactivate ORG
deactivate CTRL

UI - -> CO : apresenta dados e solicita confirmação
deactivate UI

CO -> UI : confirma
activate UI
UI -> CTRL: registaTarefa()
activate CTRL
CTRL ->ORG: registaTarefa(tarefa)
activate ORG
ORG -> ORG: validaTarefa(tarefa)
ORG -> ORG: addTarefa(tarefa)

deactivate ORG
deactivate CTRL

UI - -> CO : operação bem sucedida
deactivate UI

deactivate CO

@enduml

PlantUML version 1.2020.02(Sun Mar 01 10:22:07 GMT 2020)
(GPL source distribution)
Java Runtime: Java(TM) SE Runtime Environment
JVM: Java HotSpot(TM) Client VM
Java Version: 1.8.0_201-b09
Operating System: Windows 10
Default Encoding: Cp1252
Language: pt
Country: PT
-->
    </g>
</svg>