<?xml version="1.0" encoding="UTF-8"?><svg xmlns="http://www.w3.org/2000/svg" xmlns:xlink="http://www.w3.org/1999/xlink" contentScriptType="application/ecmascript" contentStyleType="text/css" height="265px" preserveAspectRatio="none" style="width:1929px;height:265px;" version="1.1" viewBox="0 0 1929 265" width="1929px" zoomAndPan="magnify">
    <defs>
        <filter height="300%" id="f1fef1tdftj4p0" width="300%" x="-1" y="-1">
            <feGaussianBlur result="blurOut" stdDeviation="2.0"/>
            <feColorMatrix in="blurOut" result="blurOut2" type="matrix" values="0 0 0 0 0 0 0 0 0 0 0 0 0 0 0 0 0 0 .4 0"/>
            <feOffset dx="4.0" dy="4.0" in="blurOut2" result="blurOut3"/>
            <feBlend in="SourceGraphic" in2="blurOut3" mode="normal"/>
        </filter>
    </defs>
    <g>
        <!--class AtualizarCandidaturaSubmetidaUI-->
        <rect fill="#FEFECE" filter="url(#f1fef1tdftj4p0)" height="48" style="stroke: #A80036; stroke-width: 1.5;" width="218" x="6" y="87"/>
        <ellipse cx="21" cy="103" fill="#ADD1B2" rx="11" ry="11" style="stroke: #A80036; stroke-width: 1.0;"/>
        <path d="M23.7656,98.875 Q23.9219,98.6563 24.1094,98.5469 Q24.2969,98.4375 24.5156,98.4375 Q24.8906,98.4375 25.125,98.6953 Q25.3594,98.9531 25.3594,99.5625 L25.3594,101.0156 Q25.3594,101.625 25.125,101.8906 Q24.8906,102.1563 24.5156,102.1563 Q24.1719,102.1563 23.9688,101.9531 Q23.7656,101.7656 23.6563,101.25 Q23.6094,100.8906 23.4219,100.7031 Q23.0938,100.3281 22.4844,100.1094 Q21.875,99.8906 21.25,99.8906 Q20.4844,99.8906 19.8516,100.2188 Q19.2188,100.5469 18.7266,101.2969 Q18.2344,102.0469 18.2344,103.0781 L18.2344,104.1719 Q18.2344,105.4063 19.125,106.2266 Q20.0156,107.0469 21.6094,107.0469 Q22.5469,107.0469 23.2031,106.7969 Q23.5938,106.6406 24.0156,106.2031 Q24.2813,105.9375 24.4297,105.8594 Q24.5781,105.7813 24.7813,105.7813 Q25.1094,105.7813 25.3672,106.0391 Q25.625,106.2969 25.625,106.6406 Q25.625,106.9844 25.2813,107.3906 Q24.7813,107.9688 23.9844,108.2969 Q22.9063,108.75 21.6094,108.75 Q20.0938,108.75 18.8906,108.125 Q17.9063,107.625 17.2188,106.5547 Q16.5313,105.4844 16.5313,104.2031 L16.5313,103.0469 Q16.5313,101.7188 17.1484,100.5703 Q17.7656,99.4219 18.8594,98.8047 Q19.9531,98.1875 21.1875,98.1875 Q21.9219,98.1875 22.5703,98.3516 Q23.2188,98.5156 23.7656,98.875 Z "/>
        <text fill="#000000" font-family="sans-serif" font-size="12" lengthAdjust="spacingAndGlyphs" textLength="186" x="35" y="107.9102">AtualizarCandidaturaSubmetidaUI</text>
        <line style="stroke: #A80036; stroke-width: 1.5;" x1="7" x2="223" y1="119" y2="119"/>
        <line style="stroke: #A80036; stroke-width: 1.5;" x1="7" x2="223" y1="127" y2="127"/>
        <!--class AtualizarCandidaturaSubmetidaController-->
        <rect fill="#FEFECE" filter="url(#f1fef1tdftj4p0)" height="103.3438" style="stroke: #A80036; stroke-width: 1.5;" width="260" x="285" y="59.5"/>
        <ellipse cx="300" cy="75.5" fill="#ADD1B2" rx="11" ry="11" style="stroke: #A80036; stroke-width: 1.0;"/>
        <path d="M302.7656,71.375 Q302.9219,71.1563 303.1094,71.0469 Q303.2969,70.9375 303.5156,70.9375 Q303.8906,70.9375 304.125,71.1953 Q304.3594,71.4531 304.3594,72.0625 L304.3594,73.5156 Q304.3594,74.125 304.125,74.3906 Q303.8906,74.6563 303.5156,74.6563 Q303.1719,74.6563 302.9688,74.4531 Q302.7656,74.2656 302.6563,73.75 Q302.6094,73.3906 302.4219,73.2031 Q302.0938,72.8281 301.4844,72.6094 Q300.875,72.3906 300.25,72.3906 Q299.4844,72.3906 298.8516,72.7188 Q298.2188,73.0469 297.7266,73.7969 Q297.2344,74.5469 297.2344,75.5781 L297.2344,76.6719 Q297.2344,77.9063 298.125,78.7266 Q299.0156,79.5469 300.6094,79.5469 Q301.5469,79.5469 302.2031,79.2969 Q302.5938,79.1406 303.0156,78.7031 Q303.2813,78.4375 303.4297,78.3594 Q303.5781,78.2813 303.7813,78.2813 Q304.1094,78.2813 304.3672,78.5391 Q304.625,78.7969 304.625,79.1406 Q304.625,79.4844 304.2813,79.8906 Q303.7813,80.4688 302.9844,80.7969 Q301.9063,81.25 300.6094,81.25 Q299.0938,81.25 297.8906,80.625 Q296.9063,80.125 296.2188,79.0547 Q295.5313,77.9844 295.5313,76.7031 L295.5313,75.5469 Q295.5313,74.2188 296.1484,73.0703 Q296.7656,71.9219 297.8594,71.3047 Q298.9531,70.6875 300.1875,70.6875 Q300.9219,70.6875 301.5703,70.8516 Q302.2188,71.0156 302.7656,71.375 Z "/>
        <text fill="#000000" font-family="sans-serif" font-size="12" lengthAdjust="spacingAndGlyphs" textLength="228" x="314" y="80.4102">AtualizarCandidaturaSubmetidaController</text>
        <line style="stroke: #A80036; stroke-width: 1.5;" x1="286" x2="544" y1="91.5" y2="91.5"/>
        <line style="stroke: #A80036; stroke-width: 1.5;" x1="286" x2="544" y1="99.5" y2="99.5"/>
        <text fill="#000000" font-family="sans-serif" font-size="11" lengthAdjust="spacingAndGlyphs" textLength="204" x="291" y="114.9189">+getCandidaturasAtualizaveisFreelancer()</text>
        <text fill="#000000" font-family="sans-serif" font-size="11" lengthAdjust="spacingAndGlyphs" textLength="111" x="291" y="128.7549">+getCandidatura(cand)</text>
        <text fill="#000000" font-family="sans-serif" font-size="11" lengthAdjust="spacingAndGlyphs" textLength="216" x="291" y="142.5908">+setDados(valorPrt,nrDias,txtApres,txtMotiv)</text>
        <text fill="#000000" font-family="sans-serif" font-size="11" lengthAdjust="spacingAndGlyphs" textLength="133" x="291" y="156.4268">+atualizaCandidatura(cand)</text>
        <!--class Plataforma-->
        <rect fill="#FEFECE" filter="url(#f1fef1tdftj4p0)" height="89.5078" style="stroke: #A80036; stroke-width: 1.5;" width="127" x="606" y="66"/>
        <ellipse cx="636.75" cy="82" fill="#ADD1B2" rx="11" ry="11" style="stroke: #A80036; stroke-width: 1.0;"/>
        <path d="M639.5156,77.875 Q639.6719,77.6563 639.8594,77.5469 Q640.0469,77.4375 640.2656,77.4375 Q640.6406,77.4375 640.875,77.6953 Q641.1094,77.9531 641.1094,78.5625 L641.1094,80.0156 Q641.1094,80.625 640.875,80.8906 Q640.6406,81.1563 640.2656,81.1563 Q639.9219,81.1563 639.7188,80.9531 Q639.5156,80.7656 639.4063,80.25 Q639.3594,79.8906 639.1719,79.7031 Q638.8438,79.3281 638.2344,79.1094 Q637.625,78.8906 637,78.8906 Q636.2344,78.8906 635.6016,79.2188 Q634.9688,79.5469 634.4766,80.2969 Q633.9844,81.0469 633.9844,82.0781 L633.9844,83.1719 Q633.9844,84.4063 634.875,85.2266 Q635.7656,86.0469 637.3594,86.0469 Q638.2969,86.0469 638.9531,85.7969 Q639.3438,85.6406 639.7656,85.2031 Q640.0313,84.9375 640.1797,84.8594 Q640.3281,84.7813 640.5313,84.7813 Q640.8594,84.7813 641.1172,85.0391 Q641.375,85.2969 641.375,85.6406 Q641.375,85.9844 641.0313,86.3906 Q640.5313,86.9688 639.7344,87.2969 Q638.6563,87.75 637.3594,87.75 Q635.8438,87.75 634.6406,87.125 Q633.6563,86.625 632.9688,85.5547 Q632.2813,84.4844 632.2813,83.2031 L632.2813,82.0469 Q632.2813,80.7188 632.8984,79.5703 Q633.5156,78.4219 634.6094,77.8047 Q635.7031,77.1875 636.9375,77.1875 Q637.6719,77.1875 638.3203,77.3516 Q638.9688,77.5156 639.5156,77.875 Z "/>
        <text fill="#000000" font-family="sans-serif" font-size="12" lengthAdjust="spacingAndGlyphs" textLength="60" x="654.25" y="86.9102">Plataforma</text>
        <line style="stroke: #A80036; stroke-width: 1.5;" x1="607" x2="732" y1="98" y2="98"/>
        <text fill="#000000" font-family="sans-serif" font-size="11" lengthAdjust="spacingAndGlyphs" textLength="91" x="612" y="113.4189">-String designacao</text>
        <text fill="#000000" font-family="sans-serif" font-size="11" lengthAdjust="spacingAndGlyphs" textLength="115" x="612" y="127.2549">+getRegistoFreelancers</text>
        <line style="stroke: #A80036; stroke-width: 1.5;" x1="607" x2="732" y1="133.6719" y2="133.6719"/>
        <text fill="#000000" font-family="sans-serif" font-size="11" lengthAdjust="spacingAndGlyphs" textLength="111" x="612" y="149.0908">+getRegistoAnuncios()</text>
        <!--class RegistoFreelancer-->
        <rect fill="#FEFECE" filter="url(#f1fef1tdftj4p0)" height="61.8359" style="stroke: #A80036; stroke-width: 1.5;" width="154" x="864" y="8"/>
        <ellipse cx="888" cy="24" fill="#ADD1B2" rx="11" ry="11" style="stroke: #A80036; stroke-width: 1.0;"/>
        <path d="M890.7656,19.875 Q890.9219,19.6563 891.1094,19.5469 Q891.2969,19.4375 891.5156,19.4375 Q891.8906,19.4375 892.125,19.6953 Q892.3594,19.9531 892.3594,20.5625 L892.3594,22.0156 Q892.3594,22.625 892.125,22.8906 Q891.8906,23.1563 891.5156,23.1563 Q891.1719,23.1563 890.9688,22.9531 Q890.7656,22.7656 890.6563,22.25 Q890.6094,21.8906 890.4219,21.7031 Q890.0938,21.3281 889.4844,21.1094 Q888.875,20.8906 888.25,20.8906 Q887.4844,20.8906 886.8516,21.2188 Q886.2188,21.5469 885.7266,22.2969 Q885.2344,23.0469 885.2344,24.0781 L885.2344,25.1719 Q885.2344,26.4063 886.125,27.2266 Q887.0156,28.0469 888.6094,28.0469 Q889.5469,28.0469 890.2031,27.7969 Q890.5938,27.6406 891.0156,27.2031 Q891.2813,26.9375 891.4297,26.8594 Q891.5781,26.7813 891.7813,26.7813 Q892.1094,26.7813 892.3672,27.0391 Q892.625,27.2969 892.625,27.6406 Q892.625,27.9844 892.2813,28.3906 Q891.7813,28.9688 890.9844,29.2969 Q889.9063,29.75 888.6094,29.75 Q887.0938,29.75 885.8906,29.125 Q884.9063,28.625 884.2188,27.5547 Q883.5313,26.4844 883.5313,25.2031 L883.5313,24.0469 Q883.5313,22.7188 884.1484,21.5703 Q884.7656,20.4219 885.8594,19.8047 Q886.9531,19.1875 888.1875,19.1875 Q888.9219,19.1875 889.5703,19.3516 Q890.2188,19.5156 890.7656,19.875 Z "/>
        <text fill="#000000" font-family="sans-serif" font-size="12" lengthAdjust="spacingAndGlyphs" textLength="102" x="904" y="28.9102">RegistoFreelancer</text>
        <line style="stroke: #A80036; stroke-width: 1.5;" x1="865" x2="1017" y1="40" y2="40"/>
        <line style="stroke: #A80036; stroke-width: 1.5;" x1="865" x2="1017" y1="48" y2="48"/>
        <text fill="#000000" font-family="sans-serif" font-size="11" lengthAdjust="spacingAndGlyphs" textLength="142" x="870" y="63.4189">+getFreelancerByEmail(email)</text>
        <!--class RegistoAnuncios-->
        <rect fill="#FEFECE" filter="url(#f1fef1tdftj4p0)" height="75.6719" style="stroke: #A80036; stroke-width: 1.5;" width="216" x="833" y="125"/>
        <ellipse cx="889.75" cy="141" fill="#ADD1B2" rx="11" ry="11" style="stroke: #A80036; stroke-width: 1.0;"/>
        <path d="M892.5156,136.875 Q892.6719,136.6563 892.8594,136.5469 Q893.0469,136.4375 893.2656,136.4375 Q893.6406,136.4375 893.875,136.6953 Q894.1094,136.9531 894.1094,137.5625 L894.1094,139.0156 Q894.1094,139.625 893.875,139.8906 Q893.6406,140.1563 893.2656,140.1563 Q892.9219,140.1563 892.7188,139.9531 Q892.5156,139.7656 892.4063,139.25 Q892.3594,138.8906 892.1719,138.7031 Q891.8438,138.3281 891.2344,138.1094 Q890.625,137.8906 890,137.8906 Q889.2344,137.8906 888.6016,138.2188 Q887.9688,138.5469 887.4766,139.2969 Q886.9844,140.0469 886.9844,141.0781 L886.9844,142.1719 Q886.9844,143.4063 887.875,144.2266 Q888.7656,145.0469 890.3594,145.0469 Q891.2969,145.0469 891.9531,144.7969 Q892.3438,144.6406 892.7656,144.2031 Q893.0313,143.9375 893.1797,143.8594 Q893.3281,143.7813 893.5313,143.7813 Q893.8594,143.7813 894.1172,144.0391 Q894.375,144.2969 894.375,144.6406 Q894.375,144.9844 894.0313,145.3906 Q893.5313,145.9688 892.7344,146.2969 Q891.6563,146.75 890.3594,146.75 Q888.8438,146.75 887.6406,146.125 Q886.6563,145.625 885.9688,144.5547 Q885.2813,143.4844 885.2813,142.2031 L885.2813,141.0469 Q885.2813,139.7188 885.8984,138.5703 Q886.5156,137.4219 887.6094,136.8047 Q888.7031,136.1875 889.9375,136.1875 Q890.6719,136.1875 891.3203,136.3516 Q891.9688,136.5156 892.5156,136.875 Z "/>
        <text fill="#000000" font-family="sans-serif" font-size="12" lengthAdjust="spacingAndGlyphs" textLength="94" x="910.25" y="145.9102">RegistoAnuncios</text>
        <line style="stroke: #A80036; stroke-width: 1.5;" x1="834" x2="1048" y1="157" y2="157"/>
        <line style="stroke: #A80036; stroke-width: 1.5;" x1="834" x2="1048" y1="165" y2="165"/>
        <text fill="#000000" font-family="sans-serif" font-size="11" lengthAdjust="spacingAndGlyphs" textLength="204" x="839" y="180.4189">+getAnunciosElegiveisDoFreelancer(freel)</text>
        <text fill="#000000" font-family="sans-serif" font-size="11" lengthAdjust="spacingAndGlyphs" textLength="136" x="839" y="194.2549">+getAnuncioById(anuncioId)</text>
        <!--class Anuncio-->
        <rect fill="#FEFECE" filter="url(#f1fef1tdftj4p0)" height="186.3594" style="stroke: #A80036; stroke-width: 1.5;" width="199" x="1150" y="70"/>
        <ellipse cx="1223.25" cy="86" fill="#ADD1B2" rx="11" ry="11" style="stroke: #A80036; stroke-width: 1.0;"/>
        <path d="M1226.0156,81.875 Q1226.1719,81.6563 1226.3594,81.5469 Q1226.5469,81.4375 1226.7656,81.4375 Q1227.1406,81.4375 1227.375,81.6953 Q1227.6094,81.9531 1227.6094,82.5625 L1227.6094,84.0156 Q1227.6094,84.625 1227.375,84.8906 Q1227.1406,85.1563 1226.7656,85.1563 Q1226.4219,85.1563 1226.2188,84.9531 Q1226.0156,84.7656 1225.9063,84.25 Q1225.8594,83.8906 1225.6719,83.7031 Q1225.3438,83.3281 1224.7344,83.1094 Q1224.125,82.8906 1223.5,82.8906 Q1222.7344,82.8906 1222.1016,83.2188 Q1221.4688,83.5469 1220.9766,84.2969 Q1220.4844,85.0469 1220.4844,86.0781 L1220.4844,87.1719 Q1220.4844,88.4063 1221.375,89.2266 Q1222.2656,90.0469 1223.8594,90.0469 Q1224.7969,90.0469 1225.4531,89.7969 Q1225.8438,89.6406 1226.2656,89.2031 Q1226.5313,88.9375 1226.6797,88.8594 Q1226.8281,88.7813 1227.0313,88.7813 Q1227.3594,88.7813 1227.6172,89.0391 Q1227.875,89.2969 1227.875,89.6406 Q1227.875,89.9844 1227.5313,90.3906 Q1227.0313,90.9688 1226.2344,91.2969 Q1225.1563,91.75 1223.8594,91.75 Q1222.3438,91.75 1221.1406,91.125 Q1220.1563,90.625 1219.4688,89.5547 Q1218.7813,88.4844 1218.7813,87.2031 L1218.7813,86.0469 Q1218.7813,84.7188 1219.3984,83.5703 Q1220.0156,82.4219 1221.1094,81.8047 Q1222.2031,81.1875 1223.4375,81.1875 Q1224.1719,81.1875 1224.8203,81.3516 Q1225.4688,81.5156 1226.0156,81.875 Z "/>
        <text fill="#000000" font-family="sans-serif" font-size="12" lengthAdjust="spacingAndGlyphs" textLength="44" x="1243.75" y="90.9102">Anuncio</text>
        <line style="stroke: #A80036; stroke-width: 1.5;" x1="1151" x2="1348" y1="102" y2="102"/>
        <text fill="#000000" font-family="sans-serif" font-size="11" lengthAdjust="spacingAndGlyphs" textLength="119" x="1156" y="117.4189">-Date dtInicioPublicitacao</text>
        <text fill="#000000" font-family="sans-serif" font-size="11" lengthAdjust="spacingAndGlyphs" textLength="111" x="1156" y="131.2549">-Date dtFimPublicitacao</text>
        <text fill="#000000" font-family="sans-serif" font-size="11" lengthAdjust="spacingAndGlyphs" textLength="120" x="1156" y="145.0908">-Date dtInicioCandidatura</text>
        <text fill="#000000" font-family="sans-serif" font-size="11" lengthAdjust="spacingAndGlyphs" textLength="112" x="1156" y="158.9268">-Date dtFimCandidatura</text>
        <text fill="#000000" font-family="sans-serif" font-size="11" lengthAdjust="spacingAndGlyphs" textLength="105" x="1156" y="172.7627">-Date dtInicioSeriacao</text>
        <text fill="#000000" font-family="sans-serif" font-size="11" lengthAdjust="spacingAndGlyphs" textLength="97" x="1156" y="186.5986">-Date dtFimSeriacao</text>
        <line style="stroke: #A80036; stroke-width: 1.5;" x1="1151" x2="1348" y1="193.0156" y2="193.0156"/>
        <text fill="#000000" font-family="sans-serif" font-size="11" lengthAdjust="spacingAndGlyphs" textLength="116" x="1156" y="208.4346">+getListaCandidaturas()</text>
        <text fill="#000000" font-family="sans-serif" font-size="11" lengthAdjust="spacingAndGlyphs" textLength="187" x="1156" y="222.2705">+getPeriodoCandidatura(dtInicio, dtFim)</text>
        <text fill="#000000" font-family="sans-serif" font-size="11" lengthAdjust="spacingAndGlyphs" textLength="133" x="1156" y="236.1064">+atualizaCandidatura(cand)</text>
        <text fill="#000000" font-family="sans-serif" font-size="11" lengthAdjust="spacingAndGlyphs" textLength="129" x="1156" y="249.9424">+registaCandidatura(cand)</text>
        <!--class ListaCandidaturas-->
        <rect fill="#FEFECE" filter="url(#f1fef1tdftj4p0)" height="89.5078" style="stroke: #A80036; stroke-width: 1.5;" width="191" x="1449" y="118"/>
        <ellipse cx="1489.65" cy="134" fill="#ADD1B2" rx="11" ry="11" style="stroke: #A80036; stroke-width: 1.0;"/>
        <path d="M1492.4156,129.875 Q1492.5719,129.6563 1492.7594,129.5469 Q1492.9469,129.4375 1493.1656,129.4375 Q1493.5406,129.4375 1493.775,129.6953 Q1494.0094,129.9531 1494.0094,130.5625 L1494.0094,132.0156 Q1494.0094,132.625 1493.775,132.8906 Q1493.5406,133.1563 1493.1656,133.1563 Q1492.8219,133.1563 1492.6188,132.9531 Q1492.4156,132.7656 1492.3063,132.25 Q1492.2594,131.8906 1492.0719,131.7031 Q1491.7438,131.3281 1491.1344,131.1094 Q1490.525,130.8906 1489.9,130.8906 Q1489.1344,130.8906 1488.5016,131.2188 Q1487.8688,131.5469 1487.3766,132.2969 Q1486.8844,133.0469 1486.8844,134.0781 L1486.8844,135.1719 Q1486.8844,136.4063 1487.775,137.2266 Q1488.6656,138.0469 1490.2594,138.0469 Q1491.1969,138.0469 1491.8531,137.7969 Q1492.2438,137.6406 1492.6656,137.2031 Q1492.9313,136.9375 1493.0797,136.8594 Q1493.2281,136.7813 1493.4313,136.7813 Q1493.7594,136.7813 1494.0172,137.0391 Q1494.275,137.2969 1494.275,137.6406 Q1494.275,137.9844 1493.9313,138.3906 Q1493.4313,138.9688 1492.6344,139.2969 Q1491.5563,139.75 1490.2594,139.75 Q1488.7438,139.75 1487.5406,139.125 Q1486.5563,138.625 1485.8688,137.5547 Q1485.1813,136.4844 1485.1813,135.2031 L1485.1813,134.0469 Q1485.1813,132.7188 1485.7984,131.5703 Q1486.4156,130.4219 1487.5094,129.8047 Q1488.6031,129.1875 1489.8375,129.1875 Q1490.5719,129.1875 1491.2203,129.3516 Q1491.8688,129.5156 1492.4156,129.875 Z "/>
        <text fill="#000000" font-family="sans-serif" font-size="12" lengthAdjust="spacingAndGlyphs" textLength="102" x="1509.35" y="138.9102">ListaCandidaturas</text>
        <line style="stroke: #A80036; stroke-width: 1.5;" x1="1450" x2="1639" y1="150" y2="150"/>
        <line style="stroke: #A80036; stroke-width: 1.5;" x1="1450" x2="1639" y1="158" y2="158"/>
        <text fill="#000000" font-family="sans-serif" font-size="11" lengthAdjust="spacingAndGlyphs" textLength="179" x="1455" y="173.4189">+getCandidaturas(freel,dtInicio,dtFim)</text>
        <text fill="#000000" font-family="sans-serif" font-size="11" lengthAdjust="spacingAndGlyphs" textLength="111" x="1455" y="187.2549">+getCandidatura(cand)</text>
        <text fill="#000000" font-family="sans-serif" font-size="11" lengthAdjust="spacingAndGlyphs" textLength="122" x="1455" y="201.0908">-validaCandidatura(cand)</text>
        <!--class Candidatura-->
        <rect fill="#FEFECE" filter="url(#f1fef1tdftj4p0)" height="172.5234" style="stroke: #A80036; stroke-width: 1.5;" width="179" x="1741" y="76.5"/>
        <ellipse cx="1792.25" cy="92.5" fill="#ADD1B2" rx="11" ry="11" style="stroke: #A80036; stroke-width: 1.0;"/>
        <path d="M1795.0156,88.375 Q1795.1719,88.1563 1795.3594,88.0469 Q1795.5469,87.9375 1795.7656,87.9375 Q1796.1406,87.9375 1796.375,88.1953 Q1796.6094,88.4531 1796.6094,89.0625 L1796.6094,90.5156 Q1796.6094,91.125 1796.375,91.3906 Q1796.1406,91.6563 1795.7656,91.6563 Q1795.4219,91.6563 1795.2188,91.4531 Q1795.0156,91.2656 1794.9063,90.75 Q1794.8594,90.3906 1794.6719,90.2031 Q1794.3438,89.8281 1793.7344,89.6094 Q1793.125,89.3906 1792.5,89.3906 Q1791.7344,89.3906 1791.1016,89.7188 Q1790.4688,90.0469 1789.9766,90.7969 Q1789.4844,91.5469 1789.4844,92.5781 L1789.4844,93.6719 Q1789.4844,94.9063 1790.375,95.7266 Q1791.2656,96.5469 1792.8594,96.5469 Q1793.7969,96.5469 1794.4531,96.2969 Q1794.8438,96.1406 1795.2656,95.7031 Q1795.5313,95.4375 1795.6797,95.3594 Q1795.8281,95.2813 1796.0313,95.2813 Q1796.3594,95.2813 1796.6172,95.5391 Q1796.875,95.7969 1796.875,96.1406 Q1796.875,96.4844 1796.5313,96.8906 Q1796.0313,97.4688 1795.2344,97.7969 Q1794.1563,98.25 1792.8594,98.25 Q1791.3438,98.25 1790.1406,97.625 Q1789.1563,97.125 1788.4688,96.0547 Q1787.7813,94.9844 1787.7813,93.7031 L1787.7813,92.5469 Q1787.7813,91.2188 1788.3984,90.0703 Q1789.0156,88.9219 1790.1094,88.3047 Q1791.2031,87.6875 1792.4375,87.6875 Q1793.1719,87.6875 1793.8203,87.8516 Q1794.4688,88.0156 1795.0156,88.375 Z "/>
        <text fill="#000000" font-family="sans-serif" font-size="12" lengthAdjust="spacingAndGlyphs" textLength="68" x="1812.75" y="97.4102">Candidatura</text>
        <line style="stroke: #A80036; stroke-width: 1.5;" x1="1742" x2="1919" y1="108.5" y2="108.5"/>
        <text fill="#000000" font-family="sans-serif" font-size="11" lengthAdjust="spacingAndGlyphs" textLength="108" x="1747" y="123.9189">-Date dataCandidatura</text>
        <text fill="#000000" font-family="sans-serif" font-size="11" lengthAdjust="spacingAndGlyphs" textLength="115" x="1747" y="137.7549">-Double valorPretendido</text>
        <text fill="#000000" font-family="sans-serif" font-size="11" lengthAdjust="spacingAndGlyphs" textLength="71" x="1747" y="151.5908">-Integer nrDias</text>
        <text fill="#000000" font-family="sans-serif" font-size="11" lengthAdjust="spacingAndGlyphs" textLength="116" x="1747" y="165.4268">-String txtApresentacao</text>
        <text fill="#000000" font-family="sans-serif" font-size="11" lengthAdjust="spacingAndGlyphs" textLength="96" x="1747" y="179.2627">-String txtMotivacao</text>
        <line style="stroke: #A80036; stroke-width: 1.5;" x1="1742" x2="1919" y1="185.6797" y2="185.6797"/>
        <text fill="#000000" font-family="sans-serif" font-size="11" lengthAdjust="spacingAndGlyphs" textLength="143" x="1747" y="201.0986">+setValorPretendido(valorPrt)</text>
        <text fill="#000000" font-family="sans-serif" font-size="11" lengthAdjust="spacingAndGlyphs" textLength="118" x="1747" y="214.9346">+setNumeroDias(nrDias)</text>
        <text fill="#000000" font-family="sans-serif" font-size="11" lengthAdjust="spacingAndGlyphs" textLength="167" x="1747" y="228.7705">+setTextoApresentacao(txtApres)</text>
        <text fill="#000000" font-family="sans-serif" font-size="11" lengthAdjust="spacingAndGlyphs" textLength="142" x="1747" y="242.6064">+setTextoMotivacao(txtMotiv)</text>
        <path d="M224.006,111 C242.048,111 260.96,111 279.565,111 " fill="none" style="stroke: #A80036; stroke-width: 1.0; stroke-dasharray: 7.0,7.0;"/>
        <polygon fill="#A80036" points="284.804,111,275.804,107,279.804,111,275.804,115,284.804,111" style="stroke: #A80036; stroke-width: 1.0;"/>
        <path d="M545.209,111 C564.342,111 583.384,111 600.577,111 " fill="none" style="stroke: #A80036; stroke-width: 1.0; stroke-dasharray: 7.0,7.0;"/>
        <polygon fill="#A80036" points="605.851,111,596.851,107,600.851,111,596.851,115,605.851,111" style="stroke: #A80036; stroke-width: 1.0;"/>
        <path d="M545.014,62.634 C565.181,56.707 585.975,51.511 606,48 C691.198,33.063 790.465,32.474 858.504,34.585 " fill="none" style="stroke: #A80036; stroke-width: 1.0; stroke-dasharray: 7.0,7.0;"/>
        <polygon fill="#A80036" points="863.757,34.755,854.8921,30.464,858.7597,34.5921,854.6315,38.4597,863.757,34.755" style="stroke: #A80036; stroke-width: 1.0;"/>
        <path d="M545.234,159.1484 C565.325,164.8858 586.039,169.8256 606,173 C679.287,184.6549 762.726,182.1656 827.874,176.7573 " fill="none" style="stroke: #A80036; stroke-width: 1.0; stroke-dasharray: 7.0,7.0;"/>
        <polygon fill="#A80036" points="832.928,176.3288,823.622,173.1043,827.9459,176.7517,824.2985,181.0756,832.928,176.3288" style="stroke: #A80036; stroke-width: 1.0;"/>
        <path d="M733.006,123.061 C761.197,128.5 795.378,135.095 827.772,141.346 " fill="none" style="stroke: #A80036; stroke-width: 1.0;"/>
        <polygon fill="#A80036" points="832.954,142.346,824.8749,136.7133,828.0446,141.3987,823.3592,144.5684,832.954,142.346" style="stroke: #A80036; stroke-width: 1.0;"/>
        <text fill="#000000" font-family="sans-serif" font-size="13" lengthAdjust="spacingAndGlyphs" textLength="38" x="764" y="126.4951">possui</text>
        <text fill="#000000" font-family="sans-serif" font-size="13" lengthAdjust="spacingAndGlyphs" textLength="7" x="741.1724" y="139.0525">1</text>
        <text fill="#000000" font-family="sans-serif" font-size="13" lengthAdjust="spacingAndGlyphs" textLength="7" x="818.1109" y="154.9753">1</text>
        <path d="M733.006,94.301 C770.511,84.281 818.616,71.429 859.011,60.637 " fill="none" style="stroke: #A80036; stroke-width: 1.0;"/>
        <polygon fill="#A80036" points="863.898,59.332,854.1702,57.7925,859.0677,60.6235,856.2366,65.521,863.898,59.332" style="stroke: #A80036; stroke-width: 1.0;"/>
        <text fill="#000000" font-family="sans-serif" font-size="13" lengthAdjust="spacingAndGlyphs" textLength="38" x="764" y="74.4951">possui</text>
        <text fill="#000000" font-family="sans-serif" font-size="13" lengthAdjust="spacingAndGlyphs" textLength="7" x="741.1724" y="106.7873">1</text>
        <text fill="#000000" font-family="sans-serif" font-size="13" lengthAdjust="spacingAndGlyphs" textLength="7" x="848.9637" y="75.6414">1</text>
        <path d="M1049.2,163 C1080.12,163 1113.8,163 1144.53,163 " fill="none" style="stroke: #A80036; stroke-width: 1.0;"/>
        <polygon fill="#A80036" points="1149.83,163,1140.83,159,1144.83,163,1140.83,167,1149.83,163" style="stroke: #A80036; stroke-width: 1.0;"/>
        <text fill="#000000" font-family="sans-serif" font-size="13" lengthAdjust="spacingAndGlyphs" textLength="39" x="1080" y="159.4951">agrega</text>
        <text fill="#000000" font-family="sans-serif" font-size="13" lengthAdjust="spacingAndGlyphs" textLength="7" x="1057.0539" y="177.0815">1</text>
        <text fill="#000000" font-family="sans-serif" font-size="13" lengthAdjust="spacingAndGlyphs" textLength="5" x="1137.0076" y="177.1073">*</text>
        <path d="M1349.29,163 C1379.6,163 1412.97,163 1443.37,163 " fill="none" style="stroke: #A80036; stroke-width: 1.0;"/>
        <polygon fill="#A80036" points="1448.61,163,1439.61,159,1443.61,163,1439.61,167,1448.61,163" style="stroke: #A80036; stroke-width: 1.0;"/>
        <text fill="#000000" font-family="sans-serif" font-size="13" lengthAdjust="spacingAndGlyphs" textLength="38" x="1380" y="159.4951">possui</text>
        <text fill="#000000" font-family="sans-serif" font-size="13" lengthAdjust="spacingAndGlyphs" textLength="7" x="1356.8754" y="177.0823">1</text>
        <text fill="#000000" font-family="sans-serif" font-size="13" lengthAdjust="spacingAndGlyphs" textLength="7" x="1434.0005" y="177.1399">1</text>
        <path d="M1640.07,163 C1670.73,163 1704.72,163 1735.35,163 " fill="none" style="stroke: #A80036; stroke-width: 1.0;"/>
        <polygon fill="#A80036" points="1740.63,163,1731.63,159,1735.63,163,1731.63,167,1740.63,163" style="stroke: #A80036; stroke-width: 1.0;"/>
        <text fill="#000000" font-family="sans-serif" font-size="13" lengthAdjust="spacingAndGlyphs" textLength="39" x="1671" y="159.4951">agrega</text>
        <text fill="#000000" font-family="sans-serif" font-size="13" lengthAdjust="spacingAndGlyphs" textLength="7" x="1647.9646" y="177.1662">1</text>
        <text fill="#000000" font-family="sans-serif" font-size="13" lengthAdjust="spacingAndGlyphs" textLength="5" x="1727.9806" y="177.1919">*</text>
        <!--
@startuml
skinparam classAttributeIconSize 0
left to right direction

class AtualizarCandidaturaSubmetidaUI {
}

class AtualizarCandidaturaSubmetidaController {
  +getCandidaturasAtualizaveisFreelancer()
  +getCandidatura(cand)
  +setDados(valorPrt,nrDias,txtApres,txtMotiv) 
  +atualizaCandidatura(cand)
}

class Plataforma {
    -String designacao
    +getRegistoFreelancers
    +getRegistoAnuncios()
}

class RegistoFreelancer {

 +getFreelancerByEmail(email)
}

class RegistoAnuncios {
  +getAnunciosElegiveisDoFreelancer(freel)
  +getAnuncioById(anuncioId)
}


class Anuncio {

    -Date dtInicioPublicitacao
    -Date dtFimPublicitacao
    -Date dtInicioCandidatura
    -Date dtFimCandidatura
    -Date dtInicioSeriacao
    -Date dtFimSeriacao
    +getListaCandidaturas()
    +getPeriodoCandidatura(dtInicio, dtFim)
    +atualizaCandidatura(cand)
    +registaCandidatura(cand)
}

class ListaCandidaturas {

  +getCandidaturas(freel,dtInicio,dtFim)
  +getCandidatura(cand)
  -validaCandidatura(cand)
  
}

class Candidatura {

    -Date dataCandidatura
    -Double valorPretendido
    -Integer nrDias
    -String txtApresentacao
    -String txtMotivacao
    +setValorPretendido(valorPrt) 
    +setNumeroDias(nrDias)
    +setTextoApresentacao(txtApres) 
    +setTextoMotivacao(txtMotiv) 
}

AtualizarCandidaturaSubmetidaUI ..> AtualizarCandidaturaSubmetidaController
AtualizarCandidaturaSubmetidaController ..> Plataforma
AtualizarCandidaturaSubmetidaController ..> RegistoFreelancer
AtualizarCandidaturaSubmetidaController ..> RegistoAnuncios

Plataforma "1" - -> "1" RegistoAnuncios : possui
Plataforma "1" - -> "1" RegistoFreelancer : possui

RegistoAnuncios "1" - -> "*" Anuncio : agrega
Anuncio "1" - -> "1" ListaCandidaturas : possui
ListaCandidaturas "1" - -> "*" Candidatura : agrega






@enduml

PlantUML version 2017.11(Wed Apr 19 17:18:59 BST 2017)
(GPL source distribution)
Java Runtime: Java(TM) SE Runtime Environment
JVM: Java HotSpot(TM) 64-Bit Server VM
Java Version: 1.8.0_221-b11
Operating System: Windows 10
OS Version: 10.0
Default Encoding: UTF-8
Language: pt
Country: PT
-->
    </g>
</svg>
