<?xml version="1.0" encoding="UTF-8"?><svg xmlns="http://www.w3.org/2000/svg" xmlns:xlink="http://www.w3.org/1999/xlink" contentScriptType="application/ecmascript" contentStyleType="text/css" height="308px" preserveAspectRatio="none" style="width:633px;height:308px;" version="1.1" viewBox="0 0 633 308" width="633px" zoomAndPan="magnify">
    <defs>
        <filter height="300%" id="f1lcgko2qqrbyw" width="300%" x="-1" y="-1">
            <feGaussianBlur result="blurOut" stdDeviation="2.0"/>
            <feColorMatrix in="blurOut" result="blurOut2" type="matrix" values="0 0 0 0 0 0 0 0 0 0 0 0 0 0 0 0 0 0 .4 0"/>
            <feOffset dx="4.0" dy="4.0" in="blurOut2" result="blurOut3"/>
            <feBlend in="SourceGraphic" in2="blurOut3" mode="normal"/>
        </filter>
    </defs>
    <g>
        <!--class Plataforma-->
        <rect fill="#FEFECE" filter="url(#f1lcgko2qqrbyw)" height="53.8359" style="stroke: #A80036; stroke-width: 1.5;" width="103" x="6" y="90.5"/>
        <ellipse cx="25.95" cy="106.5" fill="#ADD1B2" rx="11" ry="11" style="stroke: #A80036; stroke-width: 1.0;"/>
        <path d="M28.7156,102.375 Q28.8719,102.1563 29.0594,102.0469 Q29.2469,101.9375 29.4656,101.9375 Q29.8406,101.9375 30.075,102.1953 Q30.3094,102.4531 30.3094,103.0625 L30.3094,104.5156 Q30.3094,105.125 30.075,105.3906 Q29.8406,105.6563 29.4656,105.6563 Q29.1219,105.6563 28.9188,105.4531 Q28.7156,105.2656 28.6063,104.75 Q28.5594,104.3906 28.3719,104.2031 Q28.0438,103.8281 27.4344,103.6094 Q26.825,103.3906 26.2,103.3906 Q25.4344,103.3906 24.8016,103.7188 Q24.1688,104.0469 23.6766,104.7969 Q23.1844,105.5469 23.1844,106.5781 L23.1844,107.6719 Q23.1844,108.9063 24.075,109.7266 Q24.9656,110.5469 26.5594,110.5469 Q27.4969,110.5469 28.1531,110.2969 Q28.5438,110.1406 28.9656,109.7031 Q29.2313,109.4375 29.3797,109.3594 Q29.5281,109.2813 29.7313,109.2813 Q30.0594,109.2813 30.3172,109.5391 Q30.575,109.7969 30.575,110.1406 Q30.575,110.4844 30.2313,110.8906 Q29.7313,111.4688 28.9344,111.7969 Q27.8563,112.25 26.5594,112.25 Q25.0438,112.25 23.8406,111.625 Q22.8563,111.125 22.1688,110.0547 Q21.4813,108.9844 21.4813,107.7031 L21.4813,106.5469 Q21.4813,105.2188 22.0984,104.0703 Q22.7156,102.9219 23.8094,102.3047 Q24.9031,101.6875 26.1375,101.6875 Q26.8719,101.6875 27.5203,101.8516 Q28.1688,102.0156 28.7156,102.375 Z "/>
        <text fill="#000000" font-family="sans-serif" font-size="12" lengthAdjust="spacingAndGlyphs" textLength="60" x="41.05" y="111.4102">Plataforma</text>
        <line style="stroke: #A80036; stroke-width: 1.5;" x1="7" x2="108" y1="122.5" y2="122.5"/>
        <text fill="#000000" font-family="sans-serif" font-size="11" lengthAdjust="spacingAndGlyphs" textLength="91" x="12" y="137.9189">-String designacao</text>
        <!--class Freelancer-->
        <rect fill="#FEFECE" filter="url(#f1lcgko2qqrbyw)" height="95.3438" style="stroke: #A80036; stroke-width: 1.5;" width="91" x="252.5" y="8"/>
        <ellipse cx="267.5" cy="24" fill="#ADD1B2" rx="11" ry="11" style="stroke: #A80036; stroke-width: 1.0;"/>
        <path d="M270.2656,19.875 Q270.4219,19.6563 270.6094,19.5469 Q270.7969,19.4375 271.0156,19.4375 Q271.3906,19.4375 271.625,19.6953 Q271.8594,19.9531 271.8594,20.5625 L271.8594,22.0156 Q271.8594,22.625 271.625,22.8906 Q271.3906,23.1563 271.0156,23.1563 Q270.6719,23.1563 270.4688,22.9531 Q270.2656,22.7656 270.1563,22.25 Q270.1094,21.8906 269.9219,21.7031 Q269.5938,21.3281 268.9844,21.1094 Q268.375,20.8906 267.75,20.8906 Q266.9844,20.8906 266.3516,21.2188 Q265.7188,21.5469 265.2266,22.2969 Q264.7344,23.0469 264.7344,24.0781 L264.7344,25.1719 Q264.7344,26.4063 265.625,27.2266 Q266.5156,28.0469 268.1094,28.0469 Q269.0469,28.0469 269.7031,27.7969 Q270.0938,27.6406 270.5156,27.2031 Q270.7813,26.9375 270.9297,26.8594 Q271.0781,26.7813 271.2813,26.7813 Q271.6094,26.7813 271.8672,27.0391 Q272.125,27.2969 272.125,27.6406 Q272.125,27.9844 271.7813,28.3906 Q271.2813,28.9688 270.4844,29.2969 Q269.4063,29.75 268.1094,29.75 Q266.5938,29.75 265.3906,29.125 Q264.4063,28.625 263.7188,27.5547 Q263.0313,26.4844 263.0313,25.2031 L263.0313,24.0469 Q263.0313,22.7188 263.6484,21.5703 Q264.2656,20.4219 265.3594,19.8047 Q266.4531,19.1875 267.6875,19.1875 Q268.4219,19.1875 269.0703,19.3516 Q269.7188,19.5156 270.2656,19.875 Z "/>
        <text fill="#000000" font-family="sans-serif" font-size="12" lengthAdjust="spacingAndGlyphs" textLength="59" x="281.5" y="28.9102">Freelancer</text>
        <line style="stroke: #A80036; stroke-width: 1.5;" x1="253.5" x2="342.5" y1="40" y2="40"/>
        <text fill="#000000" font-family="sans-serif" font-size="11" lengthAdjust="spacingAndGlyphs" textLength="61" x="258.5" y="55.4189">-String nome</text>
        <text fill="#000000" font-family="sans-serif" font-size="11" lengthAdjust="spacingAndGlyphs" textLength="50" x="258.5" y="69.2549">-String NIF</text>
        <text fill="#000000" font-family="sans-serif" font-size="11" lengthAdjust="spacingAndGlyphs" textLength="74" x="258.5" y="83.0908">-String telefone</text>
        <text fill="#000000" font-family="sans-serif" font-size="11" lengthAdjust="spacingAndGlyphs" textLength="59" x="258.5" y="96.9268">-String email</text>
        <!--class Anuncio-->
        <rect fill="#FEFECE" filter="url(#f1lcgko2qqrbyw)" height="123.0156" style="stroke: #A80036; stroke-width: 1.5;" width="132" x="232" y="138"/>
        <ellipse cx="272.2" cy="154" fill="#ADD1B2" rx="11" ry="11" style="stroke: #A80036; stroke-width: 1.0;"/>
        <path d="M274.9656,149.875 Q275.1219,149.6563 275.3094,149.5469 Q275.4969,149.4375 275.7156,149.4375 Q276.0906,149.4375 276.325,149.6953 Q276.5594,149.9531 276.5594,150.5625 L276.5594,152.0156 Q276.5594,152.625 276.325,152.8906 Q276.0906,153.1563 275.7156,153.1563 Q275.3719,153.1563 275.1688,152.9531 Q274.9656,152.7656 274.8563,152.25 Q274.8094,151.8906 274.6219,151.7031 Q274.2938,151.3281 273.6844,151.1094 Q273.075,150.8906 272.45,150.8906 Q271.6844,150.8906 271.0516,151.2188 Q270.4188,151.5469 269.9266,152.2969 Q269.4344,153.0469 269.4344,154.0781 L269.4344,155.1719 Q269.4344,156.4063 270.325,157.2266 Q271.2156,158.0469 272.8094,158.0469 Q273.7469,158.0469 274.4031,157.7969 Q274.7938,157.6406 275.2156,157.2031 Q275.4813,156.9375 275.6297,156.8594 Q275.7781,156.7813 275.9813,156.7813 Q276.3094,156.7813 276.5672,157.0391 Q276.825,157.2969 276.825,157.6406 Q276.825,157.9844 276.4813,158.3906 Q275.9813,158.9688 275.1844,159.2969 Q274.1063,159.75 272.8094,159.75 Q271.2938,159.75 270.0906,159.125 Q269.1063,158.625 268.4188,157.5547 Q267.7313,156.4844 267.7313,155.2031 L267.7313,154.0469 Q267.7313,152.7188 268.3484,151.5703 Q268.9656,150.4219 270.0594,149.8047 Q271.1531,149.1875 272.3875,149.1875 Q273.1219,149.1875 273.7703,149.3516 Q274.4188,149.5156 274.9656,149.875 Z "/>
        <text fill="#000000" font-family="sans-serif" font-size="12" lengthAdjust="spacingAndGlyphs" textLength="44" x="291.8" y="158.9102">Anuncio</text>
        <line style="stroke: #A80036; stroke-width: 1.5;" x1="233" x2="363" y1="170" y2="170"/>
        <text fill="#000000" font-family="sans-serif" font-size="11" lengthAdjust="spacingAndGlyphs" textLength="119" x="238" y="185.4189">-Date dtInicioPublicitacao</text>
        <text fill="#000000" font-family="sans-serif" font-size="11" lengthAdjust="spacingAndGlyphs" textLength="111" x="238" y="199.2549">-Date dtFimPublicitacao</text>
        <text fill="#000000" font-family="sans-serif" font-size="11" lengthAdjust="spacingAndGlyphs" textLength="120" x="238" y="213.0908">-Date dtInicioCandidatura</text>
        <text fill="#000000" font-family="sans-serif" font-size="11" lengthAdjust="spacingAndGlyphs" textLength="112" x="238" y="226.9268">-Date dtFimCandidatura</text>
        <text fill="#000000" font-family="sans-serif" font-size="11" lengthAdjust="spacingAndGlyphs" textLength="105" x="238" y="240.7627">-Date dtInicioSeriacao</text>
        <text fill="#000000" font-family="sans-serif" font-size="11" lengthAdjust="spacingAndGlyphs" textLength="97" x="238" y="254.5986">-Date dtFimSeriacao</text>
        <!--class Candidatura-->
        <rect fill="#FEFECE" filter="url(#f1lcgko2qqrbyw)" height="109.1797" style="stroke: #A80036; stroke-width: 1.5;" width="128" x="496" y="24"/>
        <ellipse cx="523.6" cy="40" fill="#ADD1B2" rx="11" ry="11" style="stroke: #A80036; stroke-width: 1.0;"/>
        <path d="M526.3656,35.875 Q526.5219,35.6563 526.7094,35.5469 Q526.8969,35.4375 527.1156,35.4375 Q527.4906,35.4375 527.725,35.6953 Q527.9594,35.9531 527.9594,36.5625 L527.9594,38.0156 Q527.9594,38.625 527.725,38.8906 Q527.4906,39.1563 527.1156,39.1563 Q526.7719,39.1563 526.5688,38.9531 Q526.3656,38.7656 526.2563,38.25 Q526.2094,37.8906 526.0219,37.7031 Q525.6938,37.3281 525.0844,37.1094 Q524.475,36.8906 523.85,36.8906 Q523.0844,36.8906 522.4516,37.2188 Q521.8188,37.5469 521.3266,38.2969 Q520.8344,39.0469 520.8344,40.0781 L520.8344,41.1719 Q520.8344,42.4063 521.725,43.2266 Q522.6156,44.0469 524.2094,44.0469 Q525.1469,44.0469 525.8031,43.7969 Q526.1938,43.6406 526.6156,43.2031 Q526.8813,42.9375 527.0297,42.8594 Q527.1781,42.7813 527.3813,42.7813 Q527.7094,42.7813 527.9672,43.0391 Q528.225,43.2969 528.225,43.6406 Q528.225,43.9844 527.8813,44.3906 Q527.3813,44.9688 526.5844,45.2969 Q525.5063,45.75 524.2094,45.75 Q522.6938,45.75 521.4906,45.125 Q520.5063,44.625 519.8188,43.5547 Q519.1313,42.4844 519.1313,41.2031 L519.1313,40.0469 Q519.1313,38.7188 519.7484,37.5703 Q520.3656,36.4219 521.4594,35.8047 Q522.5531,35.1875 523.7875,35.1875 Q524.5219,35.1875 525.1703,35.3516 Q525.8188,35.5156 526.3656,35.875 Z "/>
        <text fill="#000000" font-family="sans-serif" font-size="12" lengthAdjust="spacingAndGlyphs" textLength="68" x="540.4" y="44.9102">Candidatura</text>
        <line style="stroke: #A80036; stroke-width: 1.5;" x1="497" x2="623" y1="56" y2="56"/>
        <text fill="#000000" font-family="sans-serif" font-size="11" lengthAdjust="spacingAndGlyphs" textLength="108" x="502" y="71.4189">-Date dataCandidatura</text>
        <text fill="#000000" font-family="sans-serif" font-size="11" lengthAdjust="spacingAndGlyphs" textLength="115" x="502" y="85.2549">-Double valorPretendido</text>
        <text fill="#000000" font-family="sans-serif" font-size="11" lengthAdjust="spacingAndGlyphs" textLength="67" x="502" y="99.0908">-Integer nDias</text>
        <text fill="#000000" font-family="sans-serif" font-size="11" lengthAdjust="spacingAndGlyphs" textLength="116" x="502" y="112.9268">-String txtApresentacao</text>
        <text fill="#000000" font-family="sans-serif" font-size="11" lengthAdjust="spacingAndGlyphs" textLength="96" x="502" y="126.7627">-String txtMotivacao</text>
        <!--class Tarefa-->
        <rect fill="#FEFECE" filter="url(#f1lcgko2qqrbyw)" height="123.0156" style="stroke: #A80036; stroke-width: 1.5;" width="109" x="505.5" y="176"/>
        <ellipse cx="539.4" cy="192" fill="#ADD1B2" rx="11" ry="11" style="stroke: #A80036; stroke-width: 1.0;"/>
        <path d="M542.1656,187.875 Q542.3219,187.6563 542.5094,187.5469 Q542.6969,187.4375 542.9156,187.4375 Q543.2906,187.4375 543.525,187.6953 Q543.7594,187.9531 543.7594,188.5625 L543.7594,190.0156 Q543.7594,190.625 543.525,190.8906 Q543.2906,191.1563 542.9156,191.1563 Q542.5719,191.1563 542.3688,190.9531 Q542.1656,190.7656 542.0563,190.25 Q542.0094,189.8906 541.8219,189.7031 Q541.4938,189.3281 540.8844,189.1094 Q540.275,188.8906 539.65,188.8906 Q538.8844,188.8906 538.2516,189.2188 Q537.6188,189.5469 537.1266,190.2969 Q536.6344,191.0469 536.6344,192.0781 L536.6344,193.1719 Q536.6344,194.4063 537.525,195.2266 Q538.4156,196.0469 540.0094,196.0469 Q540.9469,196.0469 541.6031,195.7969 Q541.9938,195.6406 542.4156,195.2031 Q542.6813,194.9375 542.8297,194.8594 Q542.9781,194.7813 543.1813,194.7813 Q543.5094,194.7813 543.7672,195.0391 Q544.025,195.2969 544.025,195.6406 Q544.025,195.9844 543.6813,196.3906 Q543.1813,196.9688 542.3844,197.2969 Q541.3063,197.75 540.0094,197.75 Q538.4938,197.75 537.2906,197.125 Q536.3063,196.625 535.6188,195.5547 Q534.9313,194.4844 534.9313,193.2031 L534.9313,192.0469 Q534.9313,190.7188 535.5484,189.5703 Q536.1656,188.4219 537.2594,187.8047 Q538.3531,187.1875 539.5875,187.1875 Q540.3219,187.1875 540.9703,187.3516 Q541.6188,187.5156 542.1656,187.875 Z "/>
        <text fill="#000000" font-family="sans-serif" font-size="12" lengthAdjust="spacingAndGlyphs" textLength="35" x="557.6" y="196.9102">Tarefa</text>
        <line style="stroke: #A80036; stroke-width: 1.5;" x1="506.5" x2="613.5" y1="208" y2="208"/>
        <text fill="#000000" font-family="sans-serif" font-size="11" lengthAdjust="spacingAndGlyphs" textLength="85" x="511.5" y="223.4189">-String referencia</text>
        <text fill="#000000" font-family="sans-serif" font-size="11" lengthAdjust="spacingAndGlyphs" textLength="91" x="511.5" y="237.2549">-String designacao</text>
        <text fill="#000000" font-family="sans-serif" font-size="11" lengthAdjust="spacingAndGlyphs" textLength="97" x="511.5" y="251.0908">-String descInformal</text>
        <text fill="#000000" font-family="sans-serif" font-size="11" lengthAdjust="spacingAndGlyphs" textLength="97" x="511.5" y="264.9268">-String descTecnica</text>
        <text fill="#000000" font-family="sans-serif" font-size="11" lengthAdjust="spacingAndGlyphs" textLength="95" x="511.5" y="278.7627">-Integer duracaoEst</text>
        <text fill="#000000" font-family="sans-serif" font-size="11" lengthAdjust="spacingAndGlyphs" textLength="82" x="511.5" y="292.5986">-Double custoEst</text>
        <path d="M109.08,104.351 C151.468,93.332 211.417,77.748 252.122,67.166 " fill="none" style="stroke: #A80036; stroke-width: 1.0;"/>
        <text fill="#000000" font-family="sans-serif" font-size="13" lengthAdjust="spacingAndGlyphs" textLength="47" x="140.5" y="77.9951">tem/usa</text>
        <polygon fill="#000000" points="190.5,71.1758,196.5,74.1758,190.5,77.1758,190.5,71.1758" style="stroke: #000000; stroke-width: 1.0;"/>
        <text fill="#000000" font-family="sans-serif" font-size="13" lengthAdjust="spacingAndGlyphs" textLength="7" x="117.1699" y="117.1277">1</text>
        <text fill="#000000" font-family="sans-serif" font-size="13" lengthAdjust="spacingAndGlyphs" textLength="5" x="239.4118" y="83.796">*</text>
        <path d="M109.08,134.89 C144.905,147.207 193.273,163.837 231.967,177.141 " fill="none" style="stroke: #A80036; stroke-width: 1.0;"/>
        <text fill="#000000" font-family="sans-serif" font-size="13" lengthAdjust="spacingAndGlyphs" textLength="48" x="140" y="142.9951">publicita</text>
        <polygon fill="#000000" points="191,136.1758,197,139.1758,191,142.1758,191,136.1758" style="stroke: #000000; stroke-width: 1.0;"/>
        <text fill="#000000" font-family="sans-serif" font-size="13" lengthAdjust="spacingAndGlyphs" textLength="7" x="117.1699" y="152.1521">1</text>
        <text fill="#000000" font-family="sans-serif" font-size="13" lengthAdjust="spacingAndGlyphs" textLength="5" x="219.0429" y="188.9953">*</text>
        <path d="M364.273,169.123 C404.587,150.361 456.05,126.411 495.945,107.845 " fill="none" style="stroke: #A80036; stroke-width: 1.0;"/>
        <text fill="#000000" font-family="sans-serif" font-size="13" lengthAdjust="spacingAndGlyphs" textLength="39" x="404" y="121.9951">recebe</text>
        <polygon fill="#000000" points="446,115.1758,452,118.1758,446,121.1758,446,115.1758" style="stroke: #000000; stroke-width: 1.0;"/>
        <text fill="#000000" font-family="sans-serif" font-size="13" lengthAdjust="spacingAndGlyphs" textLength="7" x="371.9044" y="180.189">1</text>
        <text fill="#000000" font-family="sans-serif" font-size="13" lengthAdjust="spacingAndGlyphs" textLength="5" x="482.8336" y="125.902">*</text>
        <path d="M364.273,209.04 C407.746,215.3936 464.183,223.6422 505.099,229.6221 " fill="none" style="stroke: #A80036; stroke-width: 1.0;"/>
        <text fill="#000000" font-family="sans-serif" font-size="13" lengthAdjust="spacingAndGlyphs" textLength="48" x="399.5" y="209.9951">publicita</text>
        <polygon fill="#000000" points="450.5,203.1758,456.5,206.1758,450.5,209.1758,450.5,203.1758" style="stroke: #000000; stroke-width: 1.0;"/>
        <text fill="#000000" font-family="sans-serif" font-size="13" lengthAdjust="spacingAndGlyphs" textLength="26" x="372.0764" y="224.2782">0.. 1</text>
        <text fill="#000000" font-family="sans-serif" font-size="13" lengthAdjust="spacingAndGlyphs" textLength="7" x="490.6164" y="243.1544">1</text>
        <path d="M505.167,249.2099 C472.575,254.3055 430.409,257.3365 394,248.5 C383.991,246.0708 373.857,242.3918 364.122,238.1192 " fill="none" style="stroke: #A80036; stroke-width: 1.0;"/>
        <polygon fill="#000000" points="402,238.1758,396,241.1758,402,244.1758,402,238.1758" style="stroke: #000000; stroke-width: 1.0;"/>
        <text fill="#000000" font-family="sans-serif" font-size="13" lengthAdjust="spacingAndGlyphs" textLength="57" x="408" y="244.9951">da origem</text>
        <text fill="#000000" font-family="sans-serif" font-size="13" lengthAdjust="spacingAndGlyphs" textLength="26" x="471.3238" y="265.0034">0.. 1</text>
        <text fill="#000000" font-family="sans-serif" font-size="13" lengthAdjust="spacingAndGlyphs" textLength="7" x="372.172" y="257.0241">1</text>
        <path d="M343.696,59.454 C385.656,63.166 448.844,68.755 495.928,72.921 " fill="none" style="stroke: #A80036; stroke-width: 1.0;"/>
        <text fill="#000000" font-family="sans-serif" font-size="13" lengthAdjust="spacingAndGlyphs" textLength="45" x="401" y="60.9951">atualiza</text>
        <polygon fill="#000000" points="449,54.1758,455,57.1758,449,60.1758,449,54.1758" style="stroke: #000000; stroke-width: 1.0;"/>
        <text fill="#000000" font-family="sans-serif" font-size="13" lengthAdjust="spacingAndGlyphs" textLength="7" x="351.5366" y="74.8549">1</text>
        <text fill="#000000" font-family="sans-serif" font-size="13" lengthAdjust="spacingAndGlyphs" textLength="5" x="482.8145" y="86.7217">*</text>
        <!--
@startuml
skinparam classAttributeIconSize 0

hide methods
left to right direction

class Plataforma {
  -String designacao
}



class Freelancer {
  -String nome
  -String NIF
  -String telefone
  -String email
}

class Anuncio {
  -Date dtInicioPublicitacao
  -Date dtFimPublicitacao
  -Date dtInicioCandidatura
  -Date dtFimCandidatura
  -Date dtInicioSeriacao
  -Date dtFimSeriacao
}

class Candidatura {
  -Date dataCandidatura
  -Double valorPretendido
  -Integer nDias
  -String txtApresentacao
  -String txtMotivacao
}

class Tarefa {
  -String referencia
  -String designacao
  -String descInformal
  -String descTecnica
  -Integer duracaoEst
  -Double custoEst
}




Plataforma "1" - - "*" Freelancer : tem/usa >
Plataforma "1" - - "*" Anuncio : publicita >
Anuncio "1" - - "*" Candidatura : recebe >
Anuncio "0.. 1" - - "1" Tarefa : publicita >
Tarefa "0.. 1" - - "1" Anuncio : da origem >
Freelancer "1" - - "*" Candidatura : atualiza >

@enduml

PlantUML version 2017.11(Wed Apr 19 17:18:59 BST 2017)
(GPL source distribution)
Java Runtime: Java(TM) SE Runtime Environment
JVM: Java HotSpot(TM) 64-Bit Server VM
Java Version: 1.8.0_221-b11
Operating System: Windows 10
OS Version: 10.0
Default Encoding: UTF-8
Language: pt
Country: PT
-->
    </g>
</svg>
