<?xml version="1.0" encoding="UTF-8"?><svg xmlns="http://www.w3.org/2000/svg" xmlns:xlink="http://www.w3.org/1999/xlink" contentScriptType="application/ecmascript" contentStyleType="text/css" height="1445px" preserveAspectRatio="none" style="width:2413px;height:1445px;" version="1.1" viewBox="0 0 2413 1445" width="2413px" zoomAndPan="magnify">
    <defs>
        <filter height="300%" id="f1sq6qh1nqsca0" width="300%" x="-1" y="-1">
            <feGaussianBlur result="blurOut" stdDeviation="2.0"/>
            <feColorMatrix in="blurOut" result="blurOut2" type="matrix" values="0 0 0 0 0 0 0 0 0 0 0 0 0 0 0 0 0 0 .4 0"/>
            <feOffset dx="4.0" dy="4.0" in="blurOut2" result="blurOut3"/>
            <feBlend in="SourceGraphic" in2="blurOut3" mode="normal"/>
        </filter>
    </defs>
    <g>
        <rect fill="#FFFFFF" filter="url(#f1sq6qh1nqsca0)" height="1253.1953" style="stroke: #A80036; stroke-width: 1.0;" width="10" x="40.5" y="97.6094"/>
        <rect fill="#FFFFFF" filter="url(#f1sq6qh1nqsca0)" height="422.8125" style="stroke: #A80036; stroke-width: 1.0;" width="10" x="1096.5" y="119.6094"/>
        <rect fill="#FFFFFF" filter="url(#f1sq6qh1nqsca0)" height="137.0547" style="stroke: #A80036; stroke-width: 1.0;" width="10" x="1096.5" y="572.7734"/>
        <rect fill="#FFFFFF" filter="url(#f1sq6qh1nqsca0)" height="302.1094" style="stroke: #A80036; stroke-width: 1.0;" width="10" x="1096.5" y="740.5313"/>
        <rect fill="#FFFFFF" filter="url(#f1sq6qh1nqsca0)" height="268.4609" style="stroke: #A80036; stroke-width: 1.0;" width="10" x="1096.5" y="1072.9922"/>
        <rect fill="#FFFFFF" filter="url(#f1sq6qh1nqsca0)" height="331.7578" style="stroke: #A80036; stroke-width: 1.0;" width="10" x="1431.5" y="180.3125"/>
        <rect fill="#FFFFFF" filter="url(#f1sq6qh1nqsca0)" height="60.3516" style="stroke: #A80036; stroke-width: 1.0;" width="10" x="1431.5" y="603.125"/>
        <rect fill="#FFFFFF" filter="url(#f1sq6qh1nqsca0)" height="241.4063" style="stroke: #A80036; stroke-width: 1.0;" width="10" x="1431.5" y="770.8828"/>
        <rect fill="#FFFFFF" filter="url(#f1sq6qh1nqsca0)" height="238.1094" style="stroke: #A80036; stroke-width: 1.0;" width="10" x="1431.5" y="1103.3438"/>
        <rect fill="#FFFFFF" filter="url(#f1sq6qh1nqsca0)" height="30" style="stroke: #A80036; stroke-width: 1.0;" width="10" x="1645.5" y="180.3125"/>
        <rect fill="#FFFFFF" filter="url(#f1sq6qh1nqsca0)" height="30" style="stroke: #A80036; stroke-width: 1.0;" width="10" x="1645.5" y="301.0156"/>
        <rect fill="#FFFFFF" filter="url(#f1sq6qh1nqsca0)" height="30" style="stroke: #A80036; stroke-width: 1.0;" width="10" x="1768" y="240.6641"/>
        <rect fill="#FFFFFF" filter="url(#f1sq6qh1nqsca0)" height="30" style="stroke: #A80036; stroke-width: 1.0;" width="10" x="1880" y="361.3672"/>
        <rect fill="#FFFFFF" filter="url(#f1sq6qh1nqsca0)" height="30" style="stroke: #A80036; stroke-width: 1.0;" width="10" x="1880" y="421.7188"/>
        <rect fill="#FFFFFF" filter="url(#f1sq6qh1nqsca0)" height="177.4063" style="stroke: #A80036; stroke-width: 1.0;" width="10" x="1880" y="1133.6953"/>
        <rect fill="#FFFFFF" filter="url(#f1sq6qh1nqsca0)" height="30" style="stroke: #A80036; stroke-width: 1.0;" width="10" x="2037" y="482.0703"/>
        <rect fill="#FFFFFF" filter="url(#f1sq6qh1nqsca0)" height="30" style="stroke: #A80036; stroke-width: 1.0;" width="10" x="2037" y="633.4766"/>
        <rect fill="#FFFFFF" filter="url(#f1sq6qh1nqsca0)" height="30" style="stroke: #A80036; stroke-width: 1.0;" width="10" x="2037" y="1281.1016"/>
        <rect fill="#FFFFFF" filter="url(#f1sq6qh1nqsca0)" height="30" style="stroke: #A80036; stroke-width: 1.0;" width="10" x="2227" y="801.2344"/>
        <rect fill="#FFFFFF" filter="url(#f1sq6qh1nqsca0)" height="30" style="stroke: #A80036; stroke-width: 1.0;" width="10" x="2227" y="861.5859"/>
        <rect fill="#FFFFFF" filter="url(#f1sq6qh1nqsca0)" height="30" style="stroke: #A80036; stroke-width: 1.0;" width="10" x="2227" y="921.9375"/>
        <rect fill="#FFFFFF" filter="url(#f1sq6qh1nqsca0)" height="30" style="stroke: #A80036; stroke-width: 1.0;" width="10" x="2227" y="982.2891"/>
        <rect fill="#FFFFFF" filter="url(#f1sq6qh1nqsca0)" height="79.7031" style="stroke: #A80036; stroke-width: 1.0;" width="10" x="2227" y="1164.0469"/>
        <line style="stroke: #A80036; stroke-width: 1.0; stroke-dasharray: 5.0,5.0;" x1="45" x2="45" y1="87.6094" y2="1359.8047"/>
        <line style="stroke: #A80036; stroke-width: 1.0; stroke-dasharray: 5.0,5.0;" x1="1101" x2="1101" y1="87.6094" y2="1359.8047"/>
        <line style="stroke: #A80036; stroke-width: 1.0; stroke-dasharray: 5.0,5.0;" x1="1436" x2="1436" y1="87.6094" y2="1359.8047"/>
        <line style="stroke: #A80036; stroke-width: 1.0; stroke-dasharray: 5.0,5.0;" x1="1650.5" x2="1650.5" y1="87.6094" y2="1359.8047"/>
        <line style="stroke: #A80036; stroke-width: 1.0; stroke-dasharray: 5.0,5.0;" x1="1772.5" x2="1772.5" y1="87.6094" y2="1359.8047"/>
        <line style="stroke: #A80036; stroke-width: 1.0; stroke-dasharray: 5.0,5.0;" x1="1884.5" x2="1884.5" y1="87.6094" y2="1359.8047"/>
        <line style="stroke: #A80036; stroke-width: 1.0; stroke-dasharray: 5.0,5.0;" x1="2041.5" x2="2041.5" y1="87.6094" y2="1359.8047"/>
        <line style="stroke: #A80036; stroke-width: 1.0; stroke-dasharray: 5.0,5.0;" x1="2231.5" x2="2231.5" y1="87.6094" y2="1359.8047"/>
        <text fill="#000000" font-family="sans-serif" font-size="14" lengthAdjust="spacingAndGlyphs" textLength="69" x="8" y="84.5332">Freelancer</text>
        <ellipse cx="45.5" cy="13" fill="#FEFECE" filter="url(#f1sq6qh1nqsca0)" rx="8" ry="8" style="stroke: #A80036; stroke-width: 2.0;"/>
        <path d="M45.5,21 L45.5,48 M32.5,29 L58.5,29 M45.5,48 L32.5,63 M45.5,48 L58.5,63 " fill="#FEFECE" filter="url(#f1sq6qh1nqsca0)" style="stroke: #A80036; stroke-width: 2.0;"/>
        <text fill="#000000" font-family="sans-serif" font-size="14" lengthAdjust="spacingAndGlyphs" textLength="69" x="8" y="1373.3379">Freelancer</text>
        <ellipse cx="45.5" cy="1386.4141" fill="#FEFECE" filter="url(#f1sq6qh1nqsca0)" rx="8" ry="8" style="stroke: #A80036; stroke-width: 2.0;"/>
        <path d="M45.5,1394.4141 L45.5,1421.4141 M32.5,1402.4141 L58.5,1402.4141 M45.5,1421.4141 L32.5,1436.4141 M45.5,1421.4141 L58.5,1436.4141 " fill="#FEFECE" filter="url(#f1sq6qh1nqsca0)" style="stroke: #A80036; stroke-width: 2.0;"/>
        <rect fill="#FEFECE" filter="url(#f1sq6qh1nqsca0)" height="31.6094" style="stroke: #A80036; stroke-width: 1.5;" width="229" x="985" y="51"/>
        <text fill="#000000" font-family="sans-serif" font-size="14" lengthAdjust="spacingAndGlyphs" textLength="215" x="992" y="72.5332">:AtualizarCandidaturaSubmetidaUI</text>
        <rect fill="#FEFECE" filter="url(#f1sq6qh1nqsca0)" height="31.6094" style="stroke: #A80036; stroke-width: 1.5;" width="229" x="985" y="1358.8047"/>
        <text fill="#000000" font-family="sans-serif" font-size="14" lengthAdjust="spacingAndGlyphs" textLength="215" x="992" y="1380.3379">:AtualizarCandidaturaSubmetidaUI</text>
        <rect fill="#FEFECE" filter="url(#f1sq6qh1nqsca0)" height="31.6094" style="stroke: #A80036; stroke-width: 1.5;" width="279" x="1295" y="51"/>
        <text fill="#000000" font-family="sans-serif" font-size="14" lengthAdjust="spacingAndGlyphs" textLength="265" x="1302" y="72.5332">:AtualizarCandidaturaSubmetidaController</text>
        <rect fill="#FEFECE" filter="url(#f1sq6qh1nqsca0)" height="31.6094" style="stroke: #A80036; stroke-width: 1.5;" width="279" x="1295" y="1358.8047"/>
        <text fill="#000000" font-family="sans-serif" font-size="14" lengthAdjust="spacingAndGlyphs" textLength="265" x="1302" y="1380.3379">:AtualizarCandidaturaSubmetidaController</text>
        <rect fill="#FEFECE" filter="url(#f1sq6qh1nqsca0)" height="31.6094" style="stroke: #A80036; stroke-width: 1.5;" width="86" x="1605.5" y="51"/>
        <text fill="#000000" font-family="sans-serif" font-size="14" lengthAdjust="spacingAndGlyphs" textLength="72" x="1612.5" y="72.5332">:Plataforma</text>
        <rect fill="#FEFECE" filter="url(#f1sq6qh1nqsca0)" height="31.6094" style="stroke: #A80036; stroke-width: 1.5;" width="86" x="1605.5" y="1358.8047"/>
        <text fill="#000000" font-family="sans-serif" font-size="14" lengthAdjust="spacingAndGlyphs" textLength="72" x="1612.5" y="1380.3379">:Plataforma</text>
        <rect fill="#FEFECE" filter="url(#f1sq6qh1nqsca0)" height="49.2188" style="stroke: #A80036; stroke-width: 1.5;" width="131" x="1705.5" y="33.3906"/>
        <text fill="#000000" font-family="sans-serif" font-size="14" lengthAdjust="spacingAndGlyphs" textLength="34" x="1754" y="54.9238">rfree:</text>
        <text fill="#000000" font-family="sans-serif" font-size="14" lengthAdjust="spacingAndGlyphs" textLength="117" x="1712.5" y="72.5332">RegistoFreelancer</text>
        <rect fill="#FEFECE" filter="url(#f1sq6qh1nqsca0)" height="49.2188" style="stroke: #A80036; stroke-width: 1.5;" width="131" x="1705.5" y="1358.8047"/>
        <text fill="#000000" font-family="sans-serif" font-size="14" lengthAdjust="spacingAndGlyphs" textLength="34" x="1754" y="1380.3379">rfree:</text>
        <text fill="#000000" font-family="sans-serif" font-size="14" lengthAdjust="spacingAndGlyphs" textLength="117" x="1712.5" y="1397.9473">RegistoFreelancer</text>
        <rect fill="#FEFECE" filter="url(#f1sq6qh1nqsca0)" height="49.2188" style="stroke: #A80036; stroke-width: 1.5;" width="65" x="1850.5" y="33.3906"/>
        <text fill="#000000" font-family="sans-serif" font-size="14" lengthAdjust="spacingAndGlyphs" textLength="28" x="1869" y="54.9238">anu:</text>
        <text fill="#000000" font-family="sans-serif" font-size="14" lengthAdjust="spacingAndGlyphs" textLength="51" x="1857.5" y="72.5332">Anuncio</text>
        <rect fill="#FEFECE" filter="url(#f1sq6qh1nqsca0)" height="49.2188" style="stroke: #A80036; stroke-width: 1.5;" width="65" x="1850.5" y="1358.8047"/>
        <text fill="#000000" font-family="sans-serif" font-size="14" lengthAdjust="spacingAndGlyphs" textLength="28" x="1869" y="1380.3379">anu:</text>
        <text fill="#000000" font-family="sans-serif" font-size="14" lengthAdjust="spacingAndGlyphs" textLength="51" x="1857.5" y="1397.9473">Anuncio</text>
        <rect fill="#FEFECE" filter="url(#f1sq6qh1nqsca0)" height="31.6094" style="stroke: #A80036; stroke-width: 1.5;" width="221" x="1929.5" y="51"/>
        <text fill="#000000" font-family="sans-serif" font-size="14" lengthAdjust="spacingAndGlyphs" textLength="207" x="1936.5" y="72.5332">lCandidaturas:ListaCandidaturas</text>
        <rect fill="#FEFECE" filter="url(#f1sq6qh1nqsca0)" height="31.6094" style="stroke: #A80036; stroke-width: 1.5;" width="221" x="1929.5" y="1358.8047"/>
        <text fill="#000000" font-family="sans-serif" font-size="14" lengthAdjust="spacingAndGlyphs" textLength="207" x="1936.5" y="1380.3379">lCandidaturas:ListaCandidaturas</text>
        <rect fill="#FEFECE" filter="url(#f1sq6qh1nqsca0)" height="31.6094" style="stroke: #A80036; stroke-width: 1.5;" width="131" x="2164.5" y="51"/>
        <text fill="#000000" font-family="sans-serif" font-size="14" lengthAdjust="spacingAndGlyphs" textLength="117" x="2171.5" y="72.5332">cand: Candidatura</text>
        <rect fill="#FEFECE" filter="url(#f1sq6qh1nqsca0)" height="31.6094" style="stroke: #A80036; stroke-width: 1.5;" width="131" x="2164.5" y="1358.8047"/>
        <text fill="#000000" font-family="sans-serif" font-size="14" lengthAdjust="spacingAndGlyphs" textLength="117" x="2171.5" y="1380.3379">cand: Candidatura</text>
        <rect fill="#FFFFFF" filter="url(#f1sq6qh1nqsca0)" height="1253.1953" style="stroke: #A80036; stroke-width: 1.0;" width="10" x="40.5" y="97.6094"/>
        <rect fill="#FFFFFF" filter="url(#f1sq6qh1nqsca0)" height="422.8125" style="stroke: #A80036; stroke-width: 1.0;" width="10" x="1096.5" y="119.6094"/>
        <rect fill="#FFFFFF" filter="url(#f1sq6qh1nqsca0)" height="137.0547" style="stroke: #A80036; stroke-width: 1.0;" width="10" x="1096.5" y="572.7734"/>
        <rect fill="#FFFFFF" filter="url(#f1sq6qh1nqsca0)" height="302.1094" style="stroke: #A80036; stroke-width: 1.0;" width="10" x="1096.5" y="740.5313"/>
        <rect fill="#FFFFFF" filter="url(#f1sq6qh1nqsca0)" height="268.4609" style="stroke: #A80036; stroke-width: 1.0;" width="10" x="1096.5" y="1072.9922"/>
        <rect fill="#FFFFFF" filter="url(#f1sq6qh1nqsca0)" height="331.7578" style="stroke: #A80036; stroke-width: 1.0;" width="10" x="1431.5" y="180.3125"/>
        <rect fill="#FFFFFF" filter="url(#f1sq6qh1nqsca0)" height="60.3516" style="stroke: #A80036; stroke-width: 1.0;" width="10" x="1431.5" y="603.125"/>
        <rect fill="#FFFFFF" filter="url(#f1sq6qh1nqsca0)" height="241.4063" style="stroke: #A80036; stroke-width: 1.0;" width="10" x="1431.5" y="770.8828"/>
        <rect fill="#FFFFFF" filter="url(#f1sq6qh1nqsca0)" height="238.1094" style="stroke: #A80036; stroke-width: 1.0;" width="10" x="1431.5" y="1103.3438"/>
        <rect fill="#FFFFFF" filter="url(#f1sq6qh1nqsca0)" height="30" style="stroke: #A80036; stroke-width: 1.0;" width="10" x="1645.5" y="180.3125"/>
        <rect fill="#FFFFFF" filter="url(#f1sq6qh1nqsca0)" height="30" style="stroke: #A80036; stroke-width: 1.0;" width="10" x="1645.5" y="301.0156"/>
        <rect fill="#FFFFFF" filter="url(#f1sq6qh1nqsca0)" height="30" style="stroke: #A80036; stroke-width: 1.0;" width="10" x="1768" y="240.6641"/>
        <rect fill="#FFFFFF" filter="url(#f1sq6qh1nqsca0)" height="30" style="stroke: #A80036; stroke-width: 1.0;" width="10" x="1880" y="361.3672"/>
        <rect fill="#FFFFFF" filter="url(#f1sq6qh1nqsca0)" height="30" style="stroke: #A80036; stroke-width: 1.0;" width="10" x="1880" y="421.7188"/>
        <rect fill="#FFFFFF" filter="url(#f1sq6qh1nqsca0)" height="177.4063" style="stroke: #A80036; stroke-width: 1.0;" width="10" x="1880" y="1133.6953"/>
        <rect fill="#FFFFFF" filter="url(#f1sq6qh1nqsca0)" height="30" style="stroke: #A80036; stroke-width: 1.0;" width="10" x="2037" y="482.0703"/>
        <rect fill="#FFFFFF" filter="url(#f1sq6qh1nqsca0)" height="30" style="stroke: #A80036; stroke-width: 1.0;" width="10" x="2037" y="633.4766"/>
        <rect fill="#FFFFFF" filter="url(#f1sq6qh1nqsca0)" height="30" style="stroke: #A80036; stroke-width: 1.0;" width="10" x="2037" y="1281.1016"/>
        <rect fill="#FFFFFF" filter="url(#f1sq6qh1nqsca0)" height="30" style="stroke: #A80036; stroke-width: 1.0;" width="10" x="2227" y="801.2344"/>
        <rect fill="#FFFFFF" filter="url(#f1sq6qh1nqsca0)" height="30" style="stroke: #A80036; stroke-width: 1.0;" width="10" x="2227" y="861.5859"/>
        <rect fill="#FFFFFF" filter="url(#f1sq6qh1nqsca0)" height="30" style="stroke: #A80036; stroke-width: 1.0;" width="10" x="2227" y="921.9375"/>
        <rect fill="#FFFFFF" filter="url(#f1sq6qh1nqsca0)" height="30" style="stroke: #A80036; stroke-width: 1.0;" width="10" x="2227" y="982.2891"/>
        <rect fill="#FFFFFF" filter="url(#f1sq6qh1nqsca0)" height="79.7031" style="stroke: #A80036; stroke-width: 1.0;" width="10" x="2227" y="1164.0469"/>
        <polygon fill="#A80036" points="1084.5,115.6094,1094.5,119.6094,1084.5,123.6094,1088.5,119.6094" style="stroke: #A80036; stroke-width: 1.0;"/>
        <line style="stroke: #A80036; stroke-width: 1.0;" x1="50.5" x2="1090.5" y1="119.6094" y2="119.6094"/>
        <text fill="#000000" font-family="sans-serif" font-size="13" font-weight="bold" lengthAdjust="spacingAndGlyphs" textLength="7" x="57.5" y="115.1045">1</text>
        <text fill="#000000" font-family="sans-serif" font-size="13" lengthAdjust="spacingAndGlyphs" textLength="229" x="68.5" y="115.1045">inicia a atualização de uma candidatura</text>
        <polygon fill="#A80036" points="1424.5,145.9609,1434.5,149.9609,1424.5,153.9609,1428.5,149.9609" style="stroke: #A80036; stroke-width: 1.0;"/>
        <line style="stroke: #A80036; stroke-width: 1.0;" x1="1106.5" x2="1430.5" y1="149.9609" y2="149.9609"/>
        <text fill="#000000" font-family="sans-serif" font-size="13" font-weight="bold" lengthAdjust="spacingAndGlyphs" textLength="7" x="1113.5" y="145.4561">2</text>
        <text fill="#000000" font-family="sans-serif" font-size="13" lengthAdjust="spacingAndGlyphs" textLength="295" x="1124.5" y="145.4561">listaAnu = getCandidaturasAtualizaveisFreelancer()</text>
        <polygon fill="#A80036" points="1633.5,176.3125,1643.5,180.3125,1633.5,184.3125,1637.5,180.3125" style="stroke: #A80036; stroke-width: 1.0;"/>
        <line style="stroke: #A80036; stroke-width: 1.0;" x1="1441.5" x2="1639.5" y1="180.3125" y2="180.3125"/>
        <text fill="#000000" font-family="sans-serif" font-size="13" font-weight="bold" lengthAdjust="spacingAndGlyphs" textLength="7" x="1448.5" y="175.8076">3</text>
        <text fill="#000000" font-family="sans-serif" font-size="13" lengthAdjust="spacingAndGlyphs" textLength="179" x="1459.5" y="175.8076">rfree = getRegistoFreelancers()</text>
        <polygon fill="#A80036" points="1756,236.6641,1766,240.6641,1756,244.6641,1760,240.6641" style="stroke: #A80036; stroke-width: 1.0;"/>
        <line style="stroke: #A80036; stroke-width: 1.0;" x1="1441.5" x2="1762" y1="240.6641" y2="240.6641"/>
        <text fill="#000000" font-family="sans-serif" font-size="13" font-weight="bold" lengthAdjust="spacingAndGlyphs" textLength="7" x="1448.5" y="236.1592">4</text>
        <text fill="#000000" font-family="sans-serif" font-size="13" lengthAdjust="spacingAndGlyphs" textLength="207" x="1459.5" y="236.1592">freel = getFreelancerByEmail(email)</text>
        <polygon fill="#A80036" points="1633.5,297.0156,1643.5,301.0156,1633.5,305.0156,1637.5,301.0156" style="stroke: #A80036; stroke-width: 1.0;"/>
        <line style="stroke: #A80036; stroke-width: 1.0;" x1="1441.5" x2="1639.5" y1="301.0156" y2="301.0156"/>
        <text fill="#000000" font-family="sans-serif" font-size="13" font-weight="bold" lengthAdjust="spacingAndGlyphs" textLength="7" x="1448.5" y="296.5107">5</text>
        <text fill="#000000" font-family="sans-serif" font-size="13" lengthAdjust="spacingAndGlyphs" textLength="165" x="1459.5" y="296.5107">ranu = getRegistoAnuncios()</text>
        <polygon fill="#A80036" points="1868,357.3672,1878,361.3672,1868,365.3672,1872,361.3672" style="stroke: #A80036; stroke-width: 1.0;"/>
        <line style="stroke: #A80036; stroke-width: 1.0;" x1="1441.5" x2="1874" y1="361.3672" y2="361.3672"/>
        <text fill="#000000" font-family="sans-serif" font-size="13" font-weight="bold" lengthAdjust="spacingAndGlyphs" textLength="7" x="1448.5" y="356.8623">6</text>
        <text fill="#000000" font-family="sans-serif" font-size="13" lengthAdjust="spacingAndGlyphs" textLength="130" x="1459.5" y="356.8623">getListaCandidaturas()</text>
        <polygon fill="#A80036" points="1868,417.7188,1878,421.7188,1868,425.7188,1872,421.7188" style="stroke: #A80036; stroke-width: 1.0;"/>
        <line style="stroke: #A80036; stroke-width: 1.0;" x1="1441.5" x2="1874" y1="421.7188" y2="421.7188"/>
        <text fill="#000000" font-family="sans-serif" font-size="13" font-weight="bold" lengthAdjust="spacingAndGlyphs" textLength="7" x="1448.5" y="417.2139">7</text>
        <text fill="#000000" font-family="sans-serif" font-size="13" lengthAdjust="spacingAndGlyphs" textLength="258" x="1459.5" y="417.2139">anu = getPeriodoCandidatura(dtInicio, dtFim)</text>
        <polygon fill="#A80036" points="2025,478.0703,2035,482.0703,2025,486.0703,2029,482.0703" style="stroke: #A80036; stroke-width: 1.0;"/>
        <line style="stroke: #A80036; stroke-width: 1.0;" x1="1441.5" x2="2031" y1="482.0703" y2="482.0703"/>
        <text fill="#000000" font-family="sans-serif" font-size="13" font-weight="bold" lengthAdjust="spacingAndGlyphs" textLength="7" x="1448.5" y="477.5654">8</text>
        <text fill="#000000" font-family="sans-serif" font-size="13" lengthAdjust="spacingAndGlyphs" textLength="324" x="1459.5" y="477.5654">listaCandidaturas = getCandidaturas(freel,dtInicio,dtFim)</text>
        <polygon fill="#A80036" points="61.5,538.4219,51.5,542.4219,61.5,546.4219,57.5,542.4219" style="stroke: #A80036; stroke-width: 1.0;"/>
        <line style="stroke: #A80036; stroke-width: 1.0; stroke-dasharray: 2.0,2.0;" x1="55.5" x2="1100.5" y1="542.4219" y2="542.4219"/>
        <text fill="#000000" font-family="sans-serif" font-size="13" font-weight="bold" lengthAdjust="spacingAndGlyphs" textLength="7" x="67.5" y="537.917">9</text>
        <text fill="#000000" font-family="sans-serif" font-size="13" lengthAdjust="spacingAndGlyphs" textLength="482" x="78.5" y="537.917">Apresenta ao freelancer uma lista de candidaturas para escolher qual quer atualizar</text>
        <polygon fill="#A80036" points="1084.5,568.7734,1094.5,572.7734,1084.5,576.7734,1088.5,572.7734" style="stroke: #A80036; stroke-width: 1.0;"/>
        <line style="stroke: #A80036; stroke-width: 1.0;" x1="50.5" x2="1090.5" y1="572.7734" y2="572.7734"/>
        <text fill="#000000" font-family="sans-serif" font-size="13" font-weight="bold" lengthAdjust="spacingAndGlyphs" textLength="14" x="57.5" y="568.2686">10</text>
        <text fill="#000000" font-family="sans-serif" font-size="13" lengthAdjust="spacingAndGlyphs" textLength="155" x="75.5" y="568.2686">seleciona uma candidatura</text>
        <polygon fill="#A80036" points="1419.5,599.125,1429.5,603.125,1419.5,607.125,1423.5,603.125" style="stroke: #A80036; stroke-width: 1.0;"/>
        <line style="stroke: #A80036; stroke-width: 1.0;" x1="1106.5" x2="1425.5" y1="603.125" y2="603.125"/>
        <text fill="#000000" font-family="sans-serif" font-size="13" font-weight="bold" lengthAdjust="spacingAndGlyphs" textLength="14" x="1113.5" y="598.6201">11</text>
        <text fill="#000000" font-family="sans-serif" font-size="13" lengthAdjust="spacingAndGlyphs" textLength="123" x="1131.5" y="598.6201">getCandidatura(cand)</text>
        <polygon fill="#A80036" points="2025,629.4766,2035,633.4766,2025,637.4766,2029,633.4766" style="stroke: #A80036; stroke-width: 1.0;"/>
        <line style="stroke: #A80036; stroke-width: 1.0;" x1="1441.5" x2="2031" y1="633.4766" y2="633.4766"/>
        <text fill="#000000" font-family="sans-serif" font-size="13" font-weight="bold" lengthAdjust="spacingAndGlyphs" textLength="14" x="1448.5" y="628.9717">12</text>
        <text fill="#000000" font-family="sans-serif" font-size="13" lengthAdjust="spacingAndGlyphs" textLength="123" x="1466.5" y="628.9717">getCandidatura(cand)</text>
        <polygon fill="#A80036" points="61.5,705.8281,51.5,709.8281,61.5,713.8281,57.5,709.8281" style="stroke: #A80036; stroke-width: 1.0;"/>
        <line style="stroke: #A80036; stroke-width: 1.0; stroke-dasharray: 2.0,2.0;" x1="55.5" x2="1100.5" y1="709.8281" y2="709.8281"/>
        <text fill="#000000" font-family="sans-serif" font-size="13" font-weight="bold" lengthAdjust="spacingAndGlyphs" textLength="14" x="67.5" y="697.499">13</text>
        <text fill="#000000" font-family="sans-serif" font-size="13" lengthAdjust="spacingAndGlyphs" textLength="1000" x="85.5" y="689.3232">solicita os dados que já tinham sido inseridos, inicialmente, para a candidatura ao anúncio (i.e. valor pretendido, numero dias, texto apresentação (opcional), texto motivação</text>
        <text fill="#000000" font-family="sans-serif" font-size="13" lengthAdjust="spacingAndGlyphs" textLength="376" x="85.5" y="705.6748">(opcional)), de modo a atualizar com os novos dados pretendidos</text>
        <polygon fill="#A80036" points="1084.5,736.5313,1094.5,740.5313,1084.5,744.5313,1088.5,740.5313" style="stroke: #A80036; stroke-width: 1.0;"/>
        <line style="stroke: #A80036; stroke-width: 1.0;" x1="50.5" x2="1090.5" y1="740.5313" y2="740.5313"/>
        <text fill="#000000" font-family="sans-serif" font-size="13" font-weight="bold" lengthAdjust="spacingAndGlyphs" textLength="14" x="57.5" y="736.0264">14</text>
        <text fill="#000000" font-family="sans-serif" font-size="13" lengthAdjust="spacingAndGlyphs" textLength="169" x="75.5" y="736.0264">introduz os dados solicitados</text>
        <polygon fill="#A80036" points="1419.5,766.8828,1429.5,770.8828,1419.5,774.8828,1423.5,770.8828" style="stroke: #A80036; stroke-width: 1.0;"/>
        <line style="stroke: #A80036; stroke-width: 1.0;" x1="1106.5" x2="1425.5" y1="770.8828" y2="770.8828"/>
        <text fill="#000000" font-family="sans-serif" font-size="13" font-weight="bold" lengthAdjust="spacingAndGlyphs" textLength="14" x="1113.5" y="766.3779">15</text>
        <text fill="#000000" font-family="sans-serif" font-size="13" lengthAdjust="spacingAndGlyphs" textLength="249" x="1131.5" y="766.3779">setDados(valorPrt,nrDias,txtApres,txtMotiv)</text>
        <polygon fill="#A80036" points="2215,797.2344,2225,801.2344,2215,805.2344,2219,801.2344" style="stroke: #A80036; stroke-width: 1.0;"/>
        <line style="stroke: #A80036; stroke-width: 1.0;" x1="1441.5" x2="2221" y1="801.2344" y2="801.2344"/>
        <text fill="#000000" font-family="sans-serif" font-size="13" font-weight="bold" lengthAdjust="spacingAndGlyphs" textLength="14" x="1448.5" y="796.7295">16</text>
        <text fill="#000000" font-family="sans-serif" font-size="13" lengthAdjust="spacingAndGlyphs" textLength="161" x="1466.5" y="796.7295">setValorPretendido(valorPrt)</text>
        <polygon fill="#A80036" points="2215,857.5859,2225,861.5859,2215,865.5859,2219,861.5859" style="stroke: #A80036; stroke-width: 1.0;"/>
        <line style="stroke: #A80036; stroke-width: 1.0;" x1="1441.5" x2="2221" y1="861.5859" y2="861.5859"/>
        <text fill="#000000" font-family="sans-serif" font-size="13" font-weight="bold" lengthAdjust="spacingAndGlyphs" textLength="14" x="1448.5" y="857.0811">17</text>
        <text fill="#000000" font-family="sans-serif" font-size="13" lengthAdjust="spacingAndGlyphs" textLength="134" x="1466.5" y="857.0811">setNumeroDias(nrDias)</text>
        <polygon fill="#A80036" points="2215,917.9375,2225,921.9375,2215,925.9375,2219,921.9375" style="stroke: #A80036; stroke-width: 1.0;"/>
        <line style="stroke: #A80036; stroke-width: 1.0;" x1="1441.5" x2="2221" y1="921.9375" y2="921.9375"/>
        <text fill="#000000" font-family="sans-serif" font-size="13" font-weight="bold" lengthAdjust="spacingAndGlyphs" textLength="14" x="1448.5" y="917.4326">18</text>
        <text fill="#000000" font-family="sans-serif" font-size="13" lengthAdjust="spacingAndGlyphs" textLength="187" x="1466.5" y="917.4326">setTextoApresentacao(txtApres)</text>
        <polygon fill="#A80036" points="2215,978.2891,2225,982.2891,2215,986.2891,2219,982.2891" style="stroke: #A80036; stroke-width: 1.0;"/>
        <line style="stroke: #A80036; stroke-width: 1.0;" x1="1441.5" x2="2221" y1="982.2891" y2="982.2891"/>
        <text fill="#000000" font-family="sans-serif" font-size="13" font-weight="bold" lengthAdjust="spacingAndGlyphs" textLength="14" x="1448.5" y="977.7842">19</text>
        <text fill="#000000" font-family="sans-serif" font-size="13" lengthAdjust="spacingAndGlyphs" textLength="161" x="1466.5" y="977.7842">setTextoMotivacao(txtMotiv)</text>
        <polygon fill="#A80036" points="61.5,1038.6406,51.5,1042.6406,61.5,1046.6406,57.5,1042.6406" style="stroke: #A80036; stroke-width: 1.0;"/>
        <line style="stroke: #A80036; stroke-width: 1.0; stroke-dasharray: 2.0,2.0;" x1="55.5" x2="1100.5" y1="1042.6406" y2="1042.6406"/>
        <text fill="#000000" font-family="sans-serif" font-size="13" font-weight="bold" lengthAdjust="spacingAndGlyphs" textLength="14" x="67.5" y="1038.1357">20</text>
        <text fill="#000000" font-family="sans-serif" font-size="13" lengthAdjust="spacingAndGlyphs" textLength="536" x="85.5" y="1038.1357">solicita a confirmação da atualização da candidatura ao anúncio selecionado pelo Freelancer</text>
        <polygon fill="#A80036" points="1084.5,1068.9922,1094.5,1072.9922,1084.5,1076.9922,1088.5,1072.9922" style="stroke: #A80036; stroke-width: 1.0;"/>
        <line style="stroke: #A80036; stroke-width: 1.0;" x1="50.5" x2="1090.5" y1="1072.9922" y2="1072.9922"/>
        <text fill="#000000" font-family="sans-serif" font-size="13" font-weight="bold" lengthAdjust="spacingAndGlyphs" textLength="14" x="57.5" y="1068.4873">21</text>
        <text fill="#000000" font-family="sans-serif" font-size="13" lengthAdjust="spacingAndGlyphs" textLength="49" x="75.5" y="1068.4873">confirma</text>
        <polygon fill="#A80036" points="1419.5,1099.3438,1429.5,1103.3438,1419.5,1107.3438,1423.5,1103.3438" style="stroke: #A80036; stroke-width: 1.0;"/>
        <line style="stroke: #A80036; stroke-width: 1.0;" x1="1106.5" x2="1425.5" y1="1103.3438" y2="1103.3438"/>
        <text fill="#000000" font-family="sans-serif" font-size="13" font-weight="bold" lengthAdjust="spacingAndGlyphs" textLength="14" x="1113.5" y="1098.8389">22</text>
        <text fill="#000000" font-family="sans-serif" font-size="13" lengthAdjust="spacingAndGlyphs" textLength="150" x="1131.5" y="1098.8389">atualizaCandidatura(cand)</text>
        <polygon fill="#A80036" points="1868,1129.6953,1878,1133.6953,1868,1137.6953,1872,1133.6953" style="stroke: #A80036; stroke-width: 1.0;"/>
        <line style="stroke: #A80036; stroke-width: 1.0;" x1="1441.5" x2="1874" y1="1133.6953" y2="1133.6953"/>
        <text fill="#000000" font-family="sans-serif" font-size="13" font-weight="bold" lengthAdjust="spacingAndGlyphs" textLength="14" x="1448.5" y="1129.1904">23</text>
        <text fill="#000000" font-family="sans-serif" font-size="13" lengthAdjust="spacingAndGlyphs" textLength="150" x="1466.5" y="1129.1904">atualizaCandidatura(cand)</text>
        <polygon fill="#A80036" points="2215,1160.0469,2225,1164.0469,2215,1168.0469,2219,1164.0469" style="stroke: #A80036; stroke-width: 1.0;"/>
        <line style="stroke: #A80036; stroke-width: 1.0;" x1="1890" x2="2221" y1="1164.0469" y2="1164.0469"/>
        <text fill="#000000" font-family="sans-serif" font-size="13" font-weight="bold" lengthAdjust="spacingAndGlyphs" textLength="14" x="1897" y="1159.542">24</text>
        <text fill="#000000" font-family="sans-serif" font-size="13" lengthAdjust="spacingAndGlyphs" textLength="150" x="1915" y="1159.542">atualizaCandidatura(cand)</text>
        <line style="stroke: #A80036; stroke-width: 1.0;" x1="2237" x2="2279" y1="1194.75" y2="1194.75"/>
        <line style="stroke: #A80036; stroke-width: 1.0;" x1="2279" x2="2279" y1="1194.75" y2="1207.75"/>
        <line style="stroke: #A80036; stroke-width: 1.0;" x1="2238" x2="2279" y1="1207.75" y2="1207.75"/>
        <polygon fill="#A80036" points="2248,1203.75,2238,1207.75,2248,1211.75,2244,1207.75" style="stroke: #A80036; stroke-width: 1.0;"/>
        <text fill="#000000" font-family="sans-serif" font-size="13" font-weight="bold" lengthAdjust="spacingAndGlyphs" textLength="14" x="2244" y="1189.8936">25</text>
        <text fill="#000000" font-family="sans-serif" font-size="13" lengthAdjust="spacingAndGlyphs" textLength="150" x="2262" y="1189.8936">atualizaCandidatura(cand)</text>
        <line style="stroke: #A80036; stroke-width: 1.0;" x1="2237" x2="2279" y1="1243.1016" y2="1243.1016"/>
        <line style="stroke: #A80036; stroke-width: 1.0;" x1="2279" x2="2279" y1="1243.1016" y2="1256.1016"/>
        <line style="stroke: #A80036; stroke-width: 1.0;" x1="2232" x2="2279" y1="1256.1016" y2="1256.1016"/>
        <polygon fill="#A80036" points="2242,1252.1016,2232,1256.1016,2242,1260.1016,2238,1256.1016" style="stroke: #A80036; stroke-width: 1.0;"/>
        <text fill="#000000" font-family="sans-serif" font-size="13" font-weight="bold" lengthAdjust="spacingAndGlyphs" textLength="14" x="2244" y="1238.2451">26</text>
        <text fill="#000000" font-family="sans-serif" font-size="13" lengthAdjust="spacingAndGlyphs" textLength="137" x="2262" y="1238.2451">validaCandidatura(cand)</text>
        <polygon fill="#A80036" points="2025,1277.1016,2035,1281.1016,2025,1285.1016,2029,1281.1016" style="stroke: #A80036; stroke-width: 1.0;"/>
        <line style="stroke: #A80036; stroke-width: 1.0;" x1="1890" x2="2031" y1="1281.1016" y2="1281.1016"/>
        <text fill="#000000" font-family="sans-serif" font-size="13" font-weight="bold" lengthAdjust="spacingAndGlyphs" textLength="14" x="1897" y="1276.5967">27</text>
        <text fill="#000000" font-family="sans-serif" font-size="13" lengthAdjust="spacingAndGlyphs" textLength="109" x="1915" y="1276.5967">validaCandidatura()</text>
        <polygon fill="#A80036" points="61.5,1337.4531,51.5,1341.4531,61.5,1345.4531,57.5,1341.4531" style="stroke: #A80036; stroke-width: 1.0;"/>
        <line style="stroke: #A80036; stroke-width: 1.0; stroke-dasharray: 2.0,2.0;" x1="55.5" x2="1100.5" y1="1341.4531" y2="1341.4531"/>
        <text fill="#000000" font-family="sans-serif" font-size="13" font-weight="bold" lengthAdjust="spacingAndGlyphs" textLength="14" x="67.5" y="1336.9482">28</text>
        <text fill="#000000" font-family="sans-serif" font-size="13" lengthAdjust="spacingAndGlyphs" textLength="427" x="85.5" y="1336.9482">valida a candidatura, atualiza os dados e informa do sucesso da operação</text>
        <!--
@startuml 
autonumber 

actor "Freelancer" as FRL 
participant ":AtualizarCandidaturaSubmetidaUI" as UI 
participant ":AtualizarCandidaturaSubmetidaController" as CTRL 
participant ":Plataforma" as PLAT 
participant "rfree:\nRegistoFreelancer" as RFREEL 
participant "anu:\nAnuncio" as ANUN 
participant "lCandidaturas:ListaCandidaturas" as LCAND 
participant "cand: Candidatura" as CAND 


activate FRL 
FRL -> UI : inicia a atualização de uma candidatura
activate UI 
UI -> CTRL : listaAnu = getCandidaturasAtualizaveisFreelancer() 
CTRL -> PLAT: rfree = getRegistoFreelancers() 
activate PLAT 
deactivate PLAT 
activate CTRL
CTRL -> RFREEL : freel = getFreelancerByEmail(email) 
activate RFREEL 
deactivate RFREEL 
CTRL -> PLAT: ranu = getRegistoAnuncios() 
activate PLAT 
deactivate PLAT 
CTRL -> ANUN : getListaCandidaturas()
activate ANUN 
deactivate ANUN
CTRL -> ANUN : anu = getPeriodoCandidatura(dtInicio, dtFim)
activate ANUN
deactivate ANUN
CTRL -> LCAND : listaCandidaturas = getCandidaturas(freel,dtInicio,dtFim)
activate LCAND
deactivate LCAND
deactivate CTRL 

UI - -> FRL : Apresenta ao freelancer uma lista de candidaturas para escolher qual quer atualizar
deactivate UI 
FRL -> UI : seleciona uma candidatura 
activate UI 
UI -> CTRL : getCandidatura(cand) 
activate CTRL 
CTRL -> LCAND: getCandidatura(cand)
activate LCAND 
deactivate LCAND 
deactivate CTRL 

UI - -> FRL : solicita os dados que já tinham sido inseridos, inicialmente, para a candidatura ao anúncio (i.e. valor pretendido, numero dias, texto apresentação (opcional), texto motivação \n(opcional)), de modo a atualizar com os novos dados pretendidos 
deactivate UI 
FRL -> UI : introduz os dados solicitados 
activate UI 
UI -> CTRL : setDados(valorPrt,nrDias,txtApres,txtMotiv) 
activate CTRL 
CTRL -> CAND: setValorPretendido(valorPrt) 
activate CAND 
deactivate CAND 
CTRL -> CAND: setNumeroDias(nrDias) 
activate CAND 
deactivate CAND 
CTRL -> CAND: setTextoApresentacao(txtApres) 
activate CAND 
deactivate CAND 
CTRL -> CAND: setTextoMotivacao(txtMotiv) 
activate CAND 
deactivate CAND 
deactivate CTRL 

UI - -> FRL : solicita a confirmação da atualização da candidatura ao anúncio selecionado pelo Freelancer 
deactivate UI 
FRL -> UI : confirma 
activate UI 
UI -> CTRL: atualizaCandidatura(cand) 
activate CTRL
CTRL -> ANUN: atualizaCandidatura(cand)
activate ANUN
ANUN -> CAND: atualizaCandidatura(cand) 
activate CAND 
CAND -> CAND: atualizaCandidatura(cand)  
CAND -> CAND : validaCandidatura(cand) 
deactivate CAND

ANUN -> LCAND : validaCandidatura()
activate LCAND
deactivate LCAND
deactivate ANUN

UI - -> FRL: valida a candidatura, atualiza os dados e informa do sucesso da operação 
deactivate LCAND 
deactivate CTRL 
deactivate UI 

@enduml

PlantUML version 2017.11(Wed Apr 19 17:18:59 BST 2017)
(GPL source distribution)
Java Runtime: Java(TM) SE Runtime Environment
JVM: Java HotSpot(TM) 64-Bit Server VM
Java Version: 1.8.0_221-b11
Operating System: Windows 10
OS Version: 10.0
Default Encoding: UTF-8
Language: pt
Country: PT
-->
    </g>
</svg>
