<?xml version="1.0" encoding="UTF-8"?><svg xmlns="http://www.w3.org/2000/svg" xmlns:xlink="http://www.w3.org/1999/xlink" contentScriptType="application/ecmascript" contentStyleType="text/css" height="436px" preserveAspectRatio="none" style="width:570px;height:436px;" version="1.1" viewBox="0 0 570 436" width="570px" zoomAndPan="magnify">
    <defs>
        <filter height="300%" id="fw3vvo4kbxud4" width="300%" x="-1" y="-1">
            <feGaussianBlur result="blurOut" stdDeviation="2.0"/>
            <feColorMatrix in="blurOut" result="blurOut2" type="matrix" values="0 0 0 0 0 0 0 0 0 0 0 0 0 0 0 0 0 0 .4 0"/>
            <feOffset dx="4.0" dy="4.0" in="blurOut2" result="blurOut3"/>
            <feBlend in="SourceGraphic" in2="blurOut3" mode="normal"/>
        </filter>
    </defs>
    <g>
        <rect fill="#FFFFFF" filter="url(#fw3vvo4kbxud4)" height="234.4609" style="stroke: #A80036; stroke-width: 1.0;" width="10" x="40.5" y="97.6094"/>
        <rect fill="#FFFFFF" filter="url(#fw3vvo4kbxud4)" height="30.3516" style="stroke: #A80036; stroke-width: 1.0;" width="10" x="524.5" y="119.6094"/>
        <rect fill="#FFFFFF" filter="url(#fw3vvo4kbxud4)" height="30.3516" style="stroke: #A80036; stroke-width: 1.0;" width="10" x="524.5" y="180.3125"/>
        <rect fill="#FFFFFF" filter="url(#fw3vvo4kbxud4)" height="30.3516" style="stroke: #A80036; stroke-width: 1.0;" width="10" x="524.5" y="241.0156"/>
        <rect fill="#FFFFFF" filter="url(#fw3vvo4kbxud4)" height="30.3516" style="stroke: #A80036; stroke-width: 1.0;" width="10" x="524.5" y="301.7188"/>
        <line style="stroke: #A80036; stroke-width: 1.0; stroke-dasharray: 5.0,5.0;" x1="45" x2="45" y1="87.6094" y2="350.4219"/>
        <line style="stroke: #A80036; stroke-width: 1.0; stroke-dasharray: 5.0,5.0;" x1="529.5" x2="529.5" y1="87.6094" y2="350.4219"/>
        <text fill="#000000" font-family="sans-serif" font-size="14" lengthAdjust="spacingAndGlyphs" textLength="69" x="8" y="84.5332">Freelancer</text>
        <ellipse cx="45.5" cy="13" fill="#FEFECE" filter="url(#fw3vvo4kbxud4)" rx="8" ry="8" style="stroke: #A80036; stroke-width: 2.0;"/>
        <path d="M45.5,21 L45.5,48 M32.5,29 L58.5,29 M45.5,48 L32.5,63 M45.5,48 L58.5,63 " fill="#FEFECE" filter="url(#fw3vvo4kbxud4)" style="stroke: #A80036; stroke-width: 2.0;"/>
        <text fill="#000000" font-family="sans-serif" font-size="14" lengthAdjust="spacingAndGlyphs" textLength="69" x="8" y="363.9551">Freelancer</text>
        <ellipse cx="45.5" cy="377.0313" fill="#FEFECE" filter="url(#fw3vvo4kbxud4)" rx="8" ry="8" style="stroke: #A80036; stroke-width: 2.0;"/>
        <path d="M45.5,385.0313 L45.5,412.0313 M32.5,393.0313 L58.5,393.0313 M45.5,412.0313 L32.5,427.0313 M45.5,412.0313 L58.5,427.0313 " fill="#FEFECE" filter="url(#fw3vvo4kbxud4)" style="stroke: #A80036; stroke-width: 2.0;"/>
        <rect fill="#FEFECE" filter="url(#fw3vvo4kbxud4)" height="31.6094" style="stroke: #A80036; stroke-width: 1.5;" width="68" x="493.5" y="51"/>
        <text fill="#000000" font-family="sans-serif" font-size="14" lengthAdjust="spacingAndGlyphs" textLength="54" x="500.5" y="72.5332">:Sistema</text>
        <rect fill="#FEFECE" filter="url(#fw3vvo4kbxud4)" height="31.6094" style="stroke: #A80036; stroke-width: 1.5;" width="68" x="493.5" y="349.4219"/>
        <text fill="#000000" font-family="sans-serif" font-size="14" lengthAdjust="spacingAndGlyphs" textLength="54" x="500.5" y="370.9551">:Sistema</text>
        <rect fill="#FFFFFF" filter="url(#fw3vvo4kbxud4)" height="234.4609" style="stroke: #A80036; stroke-width: 1.0;" width="10" x="40.5" y="97.6094"/>
        <rect fill="#FFFFFF" filter="url(#fw3vvo4kbxud4)" height="30.3516" style="stroke: #A80036; stroke-width: 1.0;" width="10" x="524.5" y="119.6094"/>
        <rect fill="#FFFFFF" filter="url(#fw3vvo4kbxud4)" height="30.3516" style="stroke: #A80036; stroke-width: 1.0;" width="10" x="524.5" y="180.3125"/>
        <rect fill="#FFFFFF" filter="url(#fw3vvo4kbxud4)" height="30.3516" style="stroke: #A80036; stroke-width: 1.0;" width="10" x="524.5" y="241.0156"/>
        <rect fill="#FFFFFF" filter="url(#fw3vvo4kbxud4)" height="30.3516" style="stroke: #A80036; stroke-width: 1.0;" width="10" x="524.5" y="301.7188"/>
        <polygon fill="#A80036" points="512.5,115.6094,522.5,119.6094,512.5,123.6094,516.5,119.6094" style="stroke: #A80036; stroke-width: 1.0;"/>
        <line style="stroke: #A80036; stroke-width: 1.0;" x1="50.5" x2="518.5" y1="119.6094" y2="119.6094"/>
        <text fill="#000000" font-family="sans-serif" font-size="13" font-weight="bold" lengthAdjust="spacingAndGlyphs" textLength="7" x="57.5" y="115.1045">1</text>
        <text fill="#000000" font-family="sans-serif" font-size="13" lengthAdjust="spacingAndGlyphs" textLength="264" x="68.5" y="115.1045">Inicia a atualização de candidatura submetida</text>
        <polygon fill="#A80036" points="61.5,145.9609,51.5,149.9609,61.5,153.9609,57.5,149.9609" style="stroke: #A80036; stroke-width: 1.0;"/>
        <line style="stroke: #A80036; stroke-width: 1.0; stroke-dasharray: 2.0,2.0;" x1="55.5" x2="528.5" y1="149.9609" y2="149.9609"/>
        <text fill="#000000" font-family="sans-serif" font-size="13" font-weight="bold" lengthAdjust="spacingAndGlyphs" textLength="7" x="67.5" y="145.4561">2</text>
        <text fill="#000000" font-family="sans-serif" font-size="13" lengthAdjust="spacingAndGlyphs" textLength="221" x="78.5" y="145.4561">Solicita a candidatura a ser atualizada</text>
        <polygon fill="#A80036" points="512.5,176.3125,522.5,180.3125,512.5,184.3125,516.5,180.3125" style="stroke: #A80036; stroke-width: 1.0;"/>
        <line style="stroke: #A80036; stroke-width: 1.0;" x1="50.5" x2="518.5" y1="180.3125" y2="180.3125"/>
        <text fill="#000000" font-family="sans-serif" font-size="13" font-weight="bold" lengthAdjust="spacingAndGlyphs" textLength="7" x="57.5" y="175.8076">3</text>
        <text fill="#000000" font-family="sans-serif" font-size="13" lengthAdjust="spacingAndGlyphs" textLength="157" x="68.5" y="175.8076">Seleciona uma candidatura</text>
        <polygon fill="#A80036" points="61.5,206.6641,51.5,210.6641,61.5,214.6641,57.5,210.6641" style="stroke: #A80036; stroke-width: 1.0;"/>
        <line style="stroke: #A80036; stroke-width: 1.0; stroke-dasharray: 2.0,2.0;" x1="55.5" x2="528.5" y1="210.6641" y2="210.6641"/>
        <text fill="#000000" font-family="sans-serif" font-size="13" font-weight="bold" lengthAdjust="spacingAndGlyphs" textLength="7" x="67.5" y="206.1592">4</text>
        <text fill="#000000" font-family="sans-serif" font-size="13" lengthAdjust="spacingAndGlyphs" textLength="356" x="78.5" y="206.1592">Apresenta os dados da candidatura e permite a sua alteração</text>
        <polygon fill="#A80036" points="512.5,237.0156,522.5,241.0156,512.5,245.0156,516.5,241.0156" style="stroke: #A80036; stroke-width: 1.0;"/>
        <line style="stroke: #A80036; stroke-width: 1.0;" x1="50.5" x2="518.5" y1="241.0156" y2="241.0156"/>
        <text fill="#000000" font-family="sans-serif" font-size="13" font-weight="bold" lengthAdjust="spacingAndGlyphs" textLength="7" x="57.5" y="236.5107">5</text>
        <text fill="#000000" font-family="sans-serif" font-size="13" lengthAdjust="spacingAndGlyphs" textLength="154" x="68.5" y="236.5107">Altera os dados desejados</text>
        <polygon fill="#A80036" points="61.5,267.3672,51.5,271.3672,61.5,275.3672,57.5,271.3672" style="stroke: #A80036; stroke-width: 1.0;"/>
        <line style="stroke: #A80036; stroke-width: 1.0; stroke-dasharray: 2.0,2.0;" x1="55.5" x2="528.5" y1="271.3672" y2="271.3672"/>
        <text fill="#000000" font-family="sans-serif" font-size="13" font-weight="bold" lengthAdjust="spacingAndGlyphs" textLength="7" x="67.5" y="266.8623">6</text>
        <text fill="#000000" font-family="sans-serif" font-size="13" lengthAdjust="spacingAndGlyphs" textLength="246" x="78.5" y="266.8623">Apresenta os dados e solicita confirmação</text>
        <polygon fill="#A80036" points="512.5,297.7188,522.5,301.7188,512.5,305.7188,516.5,301.7188" style="stroke: #A80036; stroke-width: 1.0;"/>
        <line style="stroke: #A80036; stroke-width: 1.0;" x1="50.5" x2="518.5" y1="301.7188" y2="301.7188"/>
        <text fill="#000000" font-family="sans-serif" font-size="13" font-weight="bold" lengthAdjust="spacingAndGlyphs" textLength="7" x="57.5" y="297.2139">7</text>
        <text fill="#000000" font-family="sans-serif" font-size="13" lengthAdjust="spacingAndGlyphs" textLength="108" x="68.5" y="297.2139">Confirma os dados</text>
        <polygon fill="#A80036" points="56.5,328.0703,46.5,332.0703,56.5,336.0703,52.5,332.0703" style="stroke: #A80036; stroke-width: 1.0;"/>
        <line style="stroke: #A80036; stroke-width: 1.0; stroke-dasharray: 2.0,2.0;" x1="50.5" x2="528.5" y1="332.0703" y2="332.0703"/>
        <text fill="#000000" font-family="sans-serif" font-size="13" font-weight="bold" lengthAdjust="spacingAndGlyphs" textLength="7" x="62.5" y="327.5654">8</text>
        <text fill="#000000" font-family="sans-serif" font-size="13" lengthAdjust="spacingAndGlyphs" textLength="439" x="73.5" y="327.5654">Regista os dados, atualiza a candidatura e informa do sucesso da operação</text>
        <!--
@startuml
autonumber
actor "Freelancer" as FRE

activate FRE
FRE -> ":Sistema" : Inicia a atualização de candidatura submetida
activate ":Sistema"
":Sistema" - -> FRE : Solicita a candidatura a ser atualizada
deactivate ":Sistema"

FRE -> ":Sistema" : Seleciona uma candidatura
activate ":Sistema"
":Sistema" - -> FRE : Apresenta os dados da candidatura e permite a sua alteração
deactivate ":Sistema"

FRE -> ":Sistema" : Altera os dados desejados
activate ":Sistema"
":Sistema" - -> FRE : Apresenta os dados e solicita confirmação
deactivate ":Sistema"

FRE -> ":Sistema" : Confirma os dados
activate ":Sistema"
":Sistema" - -> FRE :Regista os dados, atualiza a candidatura e informa do sucesso da operação
deactivate ":Sistema"

deactivate FRE

@enduml

PlantUML version 2017.11(Wed Apr 19 17:18:59 BST 2017)
(GPL source distribution)
Java Runtime: Java(TM) SE Runtime Environment
JVM: Java HotSpot(TM) 64-Bit Server VM
Java Version: 1.8.0_221-b11
Operating System: Windows 10
OS Version: 10.0
Default Encoding: UTF-8
Language: pt
Country: PT
-->
    </g>
</svg>
