<?xml version="1.0" encoding="UTF-8" standalone="no"?><svg xmlns="http://www.w3.org/2000/svg" xmlns:xlink="http://www.w3.org/1999/xlink" contentScriptType="application/ecmascript" contentStyleType="text/css" height="438px" preserveAspectRatio="none" style="width:937px;height:438px;" version="1.1" viewBox="0 0 937 438" width="937px" zoomAndPan="magnify">
    <defs>
        <filter height="300%" id="fou9h2tyy9k5x" width="300%" x="-1" y="-1">
            <feGaussianBlur result="blurOut" stdDeviation="2.0" />
            <feColorMatrix in="blurOut" result="blurOut2" type="matrix" values="0 0 0 0 0 0 0 0 0 0 0 0 0 0 0 0 0 0 .4 0" />
            <feOffset dx="4.0" dy="4.0" in="blurOut2" result="blurOut3" />
            <feBlend in="SourceGraphic" in2="blurOut3" mode="normal" />
        </filter>
    </defs>
    <g>
        <rect fill="#FFFFFF" filter="url(#fou9h2tyy9k5x)" height="293.7578" style="stroke: #A80036; stroke-width: 1.0;" width="10" x="89.5" y="67.2188" />
        <rect fill="#FFFFFF" filter="url(#fou9h2tyy9k5x)" height="30" style="stroke: #A80036; stroke-width: 1.0;" width="10" x="241.5" y="89.5703" />
        <rect fill="#FFFFFF" filter="url(#fou9h2tyy9k5x)" height="30" style="stroke: #A80036; stroke-width: 1.0;" width="10" x="361.5" y="149.9219" />
        <rect fill="#FFFFFF" filter="url(#fou9h2tyy9k5x)" height="30" style="stroke: #A80036; stroke-width: 1.0;" width="10" x="490.5" y="210.2734" />
        <rect fill="#FFFFFF" filter="url(#fou9h2tyy9k5x)" height="30" style="stroke: #A80036; stroke-width: 1.0;" width="10" x="608.5" y="270.625" />
        <rect fill="#FFFFFF" filter="url(#fou9h2tyy9k5x)" height="30" style="stroke: #A80036; stroke-width: 1.0;" width="10" x="734" y="330.9766" />
        <line style="stroke: #A80036; stroke-width: 1.0; stroke-dasharray: 5.0,5.0;" x1="94" x2="94" y1="57.2188" y2="378.9766" />
        <line style="stroke: #A80036; stroke-width: 1.0; stroke-dasharray: 5.0,5.0;" x1="246.5" x2="246.5" y1="57.2188" y2="378.9766" />
        <line style="stroke: #A80036; stroke-width: 1.0; stroke-dasharray: 5.0,5.0;" x1="366.5" x2="366.5" y1="57.2188" y2="378.9766" />
        <line style="stroke: #A80036; stroke-width: 1.0; stroke-dasharray: 5.0,5.0;" x1="495.5" x2="495.5" y1="57.2188" y2="378.9766" />
        <line style="stroke: #A80036; stroke-width: 1.0; stroke-dasharray: 5.0,5.0;" x1="613.5" x2="613.5" y1="57.2188" y2="378.9766" />
        <line style="stroke: #A80036; stroke-width: 1.0; stroke-dasharray: 5.0,5.0;" x1="738.5" x2="738.5" y1="57.2188" y2="378.9766" />
        <line style="stroke: #A80036; stroke-width: 1.0; stroke-dasharray: 5.0,5.0;" x1="874.5" x2="874.5" y1="57.2188" y2="378.9766" />
        <rect fill="#FEFECE" filter="url(#fou9h2tyy9k5x)" height="31.6094" style="stroke: #A80036; stroke-width: 1.5;" width="169" x="8" y="20.6094" /><text fill="#000000" font-family="sans-serif" font-size="14" lengthAdjust="spacingAndGlyphs" textLength="155" x="15" y="42.1426">:SeriarAnuncioController</text>
        <rect fill="#FEFECE" filter="url(#fou9h2tyy9k5x)" height="31.6094" style="stroke: #A80036; stroke-width: 1.5;" width="169" x="8" y="377.9766" /><text fill="#000000" font-family="sans-serif" font-size="14" lengthAdjust="spacingAndGlyphs" textLength="155" x="15" y="399.5098">:SeriarAnuncioController</text>
        <rect fill="#FEFECE" filter="url(#fou9h2tyy9k5x)" height="31.6094" style="stroke: #A80036; stroke-width: 1.5;" width="104" x="192.5" y="20.6094" /><text fill="#000000" font-family="sans-serif" font-size="14" lengthAdjust="spacingAndGlyphs" textLength="90" x="199.5" y="42.1426">AplicacaoPOT</text>
        <rect fill="#FEFECE" filter="url(#fou9h2tyy9k5x)" height="31.6094" style="stroke: #A80036; stroke-width: 1.5;" width="104" x="192.5" y="377.9766" /><text fill="#000000" font-family="sans-serif" font-size="14" lengthAdjust="spacingAndGlyphs" textLength="90" x="199.5" y="399.5098">AplicacaoPOT</text>
        <rect fill="#FEFECE" filter="url(#fou9h2tyy9k5x)" height="49.2188" style="stroke: #A80036; stroke-width: 1.5;" width="108" x="310.5" y="3" /><text fill="#000000" font-family="sans-serif" font-size="14" lengthAdjust="spacingAndGlyphs" textLength="24" x="352.5" y="24.5332">app</text><text fill="#000000" font-family="sans-serif" font-size="14" lengthAdjust="spacingAndGlyphs" textLength="94" x="317.5" y="42.1426">:AplicacaoPOT</text>
        <rect fill="#FEFECE" filter="url(#fou9h2tyy9k5x)" height="49.2188" style="stroke: #A80036; stroke-width: 1.5;" width="108" x="310.5" y="377.9766" /><text fill="#000000" font-family="sans-serif" font-size="14" lengthAdjust="spacingAndGlyphs" textLength="24" x="352.5" y="399.5098">app</text><text fill="#000000" font-family="sans-serif" font-size="14" lengthAdjust="spacingAndGlyphs" textLength="94" x="317.5" y="417.1191">:AplicacaoPOT</text>
        <rect fill="#FEFECE" filter="url(#fou9h2tyy9k5x)" height="49.2188" style="stroke: #A80036; stroke-width: 1.5;" width="122" x="432.5" y="3" /><text fill="#000000" font-family="sans-serif" font-size="14" lengthAdjust="spacingAndGlyphs" textLength="45" x="471" y="24.5332">sessao</text><text fill="#000000" font-family="sans-serif" font-size="14" lengthAdjust="spacingAndGlyphs" textLength="108" x="439.5" y="42.1426">:SessaoUtilizador</text>
        <rect fill="#FEFECE" filter="url(#fou9h2tyy9k5x)" height="49.2188" style="stroke: #A80036; stroke-width: 1.5;" width="122" x="432.5" y="377.9766" /><text fill="#000000" font-family="sans-serif" font-size="14" lengthAdjust="spacingAndGlyphs" textLength="45" x="471" y="399.5098">sessao</text><text fill="#000000" font-family="sans-serif" font-size="14" lengthAdjust="spacingAndGlyphs" textLength="108" x="439.5" y="417.1191">:SessaoUtilizador</text>
        <rect fill="#FEFECE" filter="url(#fou9h2tyy9k5x)" height="31.6094" style="stroke: #A80036; stroke-width: 1.5;" width="86" x="568.5" y="20.6094" /><text fill="#000000" font-family="sans-serif" font-size="14" lengthAdjust="spacingAndGlyphs" textLength="72" x="575.5" y="42.1426">:Plataforma</text>
        <rect fill="#FEFECE" filter="url(#fou9h2tyy9k5x)" height="31.6094" style="stroke: #A80036; stroke-width: 1.5;" width="86" x="568.5" y="377.9766" /><text fill="#000000" font-family="sans-serif" font-size="14" lengthAdjust="spacingAndGlyphs" textLength="72" x="575.5" y="399.5098">:Plataforma</text>
        <rect fill="#FEFECE" filter="url(#fou9h2tyy9k5x)" height="31.6094" style="stroke: #A80036; stroke-width: 1.5;" width="137" x="668.5" y="20.6094" /><text fill="#000000" font-family="sans-serif" font-size="14" lengthAdjust="spacingAndGlyphs" textLength="123" x="675.5" y="42.1426">ra:RegistoAnuncios</text>
        <rect fill="#FEFECE" filter="url(#fou9h2tyy9k5x)" height="31.6094" style="stroke: #A80036; stroke-width: 1.5;" width="137" x="668.5" y="377.9766" /><text fill="#000000" font-family="sans-serif" font-size="14" lengthAdjust="spacingAndGlyphs" textLength="123" x="675.5" y="399.5098">ra:RegistoAnuncios</text>
        <rect fill="#FEFECE" filter="url(#fou9h2tyy9k5x)" height="49.2188" style="stroke: #A80036; stroke-width: 1.5;" width="107" x="819.5" y="3" /><text fill="#000000" font-family="sans-serif" font-size="14" lengthAdjust="spacingAndGlyphs" textLength="11" x="867.5" y="24.5332">la</text><text fill="#000000" font-family="sans-serif" font-size="14" lengthAdjust="spacingAndGlyphs" textLength="93" x="826.5" y="42.1426">:List&lt;Anuncio&gt;</text>
        <rect fill="#FEFECE" filter="url(#fou9h2tyy9k5x)" height="49.2188" style="stroke: #A80036; stroke-width: 1.5;" width="107" x="819.5" y="377.9766" /><text fill="#000000" font-family="sans-serif" font-size="14" lengthAdjust="spacingAndGlyphs" textLength="11" x="867.5" y="399.5098">la</text><text fill="#000000" font-family="sans-serif" font-size="14" lengthAdjust="spacingAndGlyphs" textLength="93" x="826.5" y="417.1191">:List&lt;Anuncio&gt;</text>
        <rect fill="#FFFFFF" filter="url(#fou9h2tyy9k5x)" height="293.7578" style="stroke: #A80036; stroke-width: 1.0;" width="10" x="89.5" y="67.2188" />
        <rect fill="#FFFFFF" filter="url(#fou9h2tyy9k5x)" height="30" style="stroke: #A80036; stroke-width: 1.0;" width="10" x="241.5" y="89.5703" />
        <rect fill="#FFFFFF" filter="url(#fou9h2tyy9k5x)" height="30" style="stroke: #A80036; stroke-width: 1.0;" width="10" x="361.5" y="149.9219" />
        <rect fill="#FFFFFF" filter="url(#fou9h2tyy9k5x)" height="30" style="stroke: #A80036; stroke-width: 1.0;" width="10" x="490.5" y="210.2734" />
        <rect fill="#FFFFFF" filter="url(#fou9h2tyy9k5x)" height="30" style="stroke: #A80036; stroke-width: 1.0;" width="10" x="608.5" y="270.625" />
        <rect fill="#FFFFFF" filter="url(#fou9h2tyy9k5x)" height="30" style="stroke: #A80036; stroke-width: 1.0;" width="10" x="734" y="330.9766" />
        <polygon fill="#A80036" points="229.5,85.5703,239.5,89.5703,229.5,93.5703,233.5,89.5703" style="stroke: #A80036; stroke-width: 1.0;" />
        <line style="stroke: #A80036; stroke-width: 1.0;" x1="99.5" x2="235.5" y1="89.5703" y2="89.5703" /><text fill="#000000" font-family="sans-serif" font-size="13" font-weight="bold" lengthAdjust="spacingAndGlyphs" textLength="7" x="106.5" y="84.7139">1</text><text fill="#000000" font-family="sans-serif" font-size="13" lengthAdjust="spacingAndGlyphs" textLength="112" x="117.5" y="84.7139">app = getInstance()</text>
        <polygon fill="#A80036" points="349.5,145.9219,359.5,149.9219,349.5,153.9219,353.5,149.9219" style="stroke: #A80036; stroke-width: 1.0;" />
        <line style="stroke: #A80036; stroke-width: 1.0;" x1="99.5" x2="355.5" y1="149.9219" y2="149.9219" /><text fill="#000000" font-family="sans-serif" font-size="13" font-weight="bold" lengthAdjust="spacingAndGlyphs" textLength="7" x="106.5" y="145.0654">2</text><text fill="#000000" font-family="sans-serif" font-size="13" lengthAdjust="spacingAndGlyphs" textLength="158" x="117.5" y="145.0654">sessao = getSessaoAtual()</text>
        <polygon fill="#A80036" points="478.5,206.2734,488.5,210.2734,478.5,214.2734,482.5,210.2734" style="stroke: #A80036; stroke-width: 1.0;" />
        <line style="stroke: #A80036; stroke-width: 1.0;" x1="99.5" x2="484.5" y1="210.2734" y2="210.2734" /><text fill="#000000" font-family="sans-serif" font-size="13" font-weight="bold" lengthAdjust="spacingAndGlyphs" textLength="7" x="106.5" y="205.417">3</text><text fill="#000000" font-family="sans-serif" font-size="13" lengthAdjust="spacingAndGlyphs" textLength="160" x="117.5" y="205.417">email = getEmailUtilizador()</text>
        <polygon fill="#A80036" points="596.5,266.625,606.5,270.625,596.5,274.625,600.5,270.625" style="stroke: #A80036; stroke-width: 1.0;" />
        <line style="stroke: #A80036; stroke-width: 1.0;" x1="99.5" x2="602.5" y1="270.625" y2="270.625" /><text fill="#000000" font-family="sans-serif" font-size="13" font-weight="bold" lengthAdjust="spacingAndGlyphs" textLength="7" x="106.5" y="265.7686">4</text><text fill="#000000" font-family="sans-serif" font-size="13" lengthAdjust="spacingAndGlyphs" textLength="151" x="117.5" y="265.7686">ra = getRegistoAnuncios()</text>
        <polygon fill="#A80036" points="722,326.9766,732,330.9766,722,334.9766,726,330.9766" style="stroke: #A80036; stroke-width: 1.0;" />
        <line style="stroke: #A80036; stroke-width: 1.0;" x1="99.5" x2="728" y1="330.9766" y2="330.9766" /><text fill="#000000" font-family="sans-serif" font-size="13" font-weight="bold" lengthAdjust="spacingAndGlyphs" textLength="7" x="106.5" y="326.1201">5</text><text fill="#000000" font-family="sans-serif" font-size="13" lengthAdjust="spacingAndGlyphs" textLength="416" x="117.5" y="326.1201">la = getListaAnunciosByTipoSeriacaoAndEmailColaborador(false, email)</text>
        <!--MD5=[741731c140b8d5f68fe008805bda4389]
@startuml
autonumber



participant ":SeriarAnuncioController" as CTRL
participant "AplicacaoPOT" as _APP
participant "app\n:AplicacaoPOT" as APP
participant "sessao\n:SessaoUtilizador" as SESSAO
participant ":Plataforma" as PLAT
participant "ra:RegistoAnuncios" as RA
participant "la\n:List<Anuncio>" as LA



activate CTRL
CTRL -> _APP: app = getInstance()
activate _APP
deactivate _APP

CTRL -> APP: sessao = getSessaoAtual()
activate APP
deactivate APP

CTRL -> SESSAO: email = getEmailUtilizador()
activate SESSAO
deactivate SESSAO

CTRL -> PLAT : ra = getRegistoAnuncios()
activate PLAT
deactivate PLAT


CTRL -> RA : la = getListaAnunciosByTipoSeriacaoAndEmailColaborador(false, email)
activate RA
deactivate RA
deactivate CTRL


@enduml

PlantUML version 1.2020.02(Sun Mar 01 10:22:07 GMT 2020)
(GPL source distribution)
Java Runtime: Java(TM) SE Runtime Environment
JVM: Java HotSpot(TM) Client VM
Java Version: 1.8.0_201-b09
Operating System: Windows 10
Default Encoding: Cp1252
Language: pt
Country: PT
-->
    </g>
</svg>