<?xml version="1.0" encoding="UTF-8" standalone="no"?><svg xmlns="http://www.w3.org/2000/svg" xmlns:xlink="http://www.w3.org/1999/xlink" contentScriptType="application/ecmascript" contentStyleType="text/css" height="257px" preserveAspectRatio="none" style="width:639px;height:257px;" version="1.1" viewBox="0 0 639 257" width="639px" zoomAndPan="magnify">
    <defs>
        <filter height="300%" id="f1o4q3y9141vhs" width="300%" x="-1" y="-1">
            <feGaussianBlur result="blurOut" stdDeviation="2.0" />
            <feColorMatrix in="blurOut" result="blurOut2" type="matrix" values="0 0 0 0 0 0 0 0 0 0 0 0 0 0 0 0 0 0 .4 0" />
            <feOffset dx="4.0" dy="4.0" in="blurOut2" result="blurOut3" />
            <feBlend in="SourceGraphic" in2="blurOut3" mode="normal" />
        </filter>
    </defs>
    <g>
        <rect fill="#FFFFFF" filter="url(#f1o4q3y9141vhs)" height="112.7031" style="stroke: #A80036; stroke-width: 1.0;" width="10" x="89.5" y="67.2188" />
        <rect fill="#FFFFFF" filter="url(#f1o4q3y9141vhs)" height="30" style="stroke: #A80036; stroke-width: 1.0;" width="10" x="285.5" y="89.5703" />
        <rect fill="#FFFFFF" filter="url(#f1o4q3y9141vhs)" height="30" style="stroke: #A80036; stroke-width: 1.0;" width="10" x="405.5" y="149.9219" />
        <line style="stroke: #A80036; stroke-width: 1.0; stroke-dasharray: 5.0,5.0;" x1="94" x2="94" y1="57.2188" y2="197.9219" />
        <line style="stroke: #A80036; stroke-width: 1.0; stroke-dasharray: 5.0,5.0;" x1="290" x2="290" y1="57.2188" y2="197.9219" />
        <line style="stroke: #A80036; stroke-width: 1.0; stroke-dasharray: 5.0,5.0;" x1="410" x2="410" y1="57.2188" y2="197.9219" />
        <line style="stroke: #A80036; stroke-width: 1.0; stroke-dasharray: 5.0,5.0;" x1="563" x2="563" y1="57.2188" y2="197.9219" />
        <rect fill="#FEFECE" filter="url(#f1o4q3y9141vhs)" height="31.6094" style="stroke: #A80036; stroke-width: 1.5;" width="169" x="8" y="20.6094" /><text fill="#000000" font-family="sans-serif" font-size="14" lengthAdjust="spacingAndGlyphs" textLength="155" x="15" y="42.1426">:SeriarAnuncioController</text>
        <rect fill="#FEFECE" filter="url(#f1o4q3y9141vhs)" height="31.6094" style="stroke: #A80036; stroke-width: 1.5;" width="169" x="8" y="196.9219" /><text fill="#000000" font-family="sans-serif" font-size="14" lengthAdjust="spacingAndGlyphs" textLength="155" x="15" y="218.4551">:SeriarAnuncioController</text>
        <rect fill="#FEFECE" filter="url(#f1o4q3y9141vhs)" height="49.2188" style="stroke: #A80036; stroke-width: 1.5;" width="69" x="254" y="3" /><text fill="#000000" font-family="sans-serif" font-size="14" lengthAdjust="spacingAndGlyphs" textLength="50" x="263.5" y="24.5332">anuncio</text><text fill="#000000" font-family="sans-serif" font-size="14" lengthAdjust="spacingAndGlyphs" textLength="55" x="261" y="42.1426">:Anuncio</text>
        <rect fill="#FEFECE" filter="url(#f1o4q3y9141vhs)" height="49.2188" style="stroke: #A80036; stroke-width: 1.5;" width="69" x="254" y="196.9219" /><text fill="#000000" font-family="sans-serif" font-size="14" lengthAdjust="spacingAndGlyphs" textLength="50" x="263.5" y="218.4551">anuncio</text><text fill="#000000" font-family="sans-serif" font-size="14" lengthAdjust="spacingAndGlyphs" textLength="55" x="261" y="236.0645">:Anuncio</text>
        <rect fill="#FEFECE" filter="url(#f1o4q3y9141vhs)" height="31.6094" style="stroke: #A80036; stroke-width: 1.5;" width="143" x="337" y="20.6094" /><text fill="#000000" font-family="sans-serif" font-size="14" lengthAdjust="spacingAndGlyphs" textLength="129" x="344" y="42.1426">lc:ListaCandidaturas</text>
        <rect fill="#FEFECE" filter="url(#f1o4q3y9141vhs)" height="31.6094" style="stroke: #A80036; stroke-width: 1.5;" width="143" x="337" y="196.9219" /><text fill="#000000" font-family="sans-serif" font-size="14" lengthAdjust="spacingAndGlyphs" textLength="129" x="344" y="218.4551">lc:ListaCandidaturas</text>
        <rect fill="#FEFECE" filter="url(#f1o4q3y9141vhs)" height="49.2188" style="stroke: #A80036; stroke-width: 1.5;" width="134" x="494" y="3" /><text fill="#000000" font-family="sans-serif" font-size="14" lengthAdjust="spacingAndGlyphs" textLength="81" x="520.5" y="24.5332">lCandidatura</text><text fill="#000000" font-family="sans-serif" font-size="14" lengthAdjust="spacingAndGlyphs" textLength="120" x="501" y="42.1426">:List&lt;Candidatura&gt;</text>
        <rect fill="#FEFECE" filter="url(#f1o4q3y9141vhs)" height="49.2188" style="stroke: #A80036; stroke-width: 1.5;" width="134" x="494" y="196.9219" /><text fill="#000000" font-family="sans-serif" font-size="14" lengthAdjust="spacingAndGlyphs" textLength="81" x="520.5" y="218.4551">lCandidatura</text><text fill="#000000" font-family="sans-serif" font-size="14" lengthAdjust="spacingAndGlyphs" textLength="120" x="501" y="236.0645">:List&lt;Candidatura&gt;</text>
        <rect fill="#FFFFFF" filter="url(#f1o4q3y9141vhs)" height="112.7031" style="stroke: #A80036; stroke-width: 1.0;" width="10" x="89.5" y="67.2188" />
        <rect fill="#FFFFFF" filter="url(#f1o4q3y9141vhs)" height="30" style="stroke: #A80036; stroke-width: 1.0;" width="10" x="285.5" y="89.5703" />
        <rect fill="#FFFFFF" filter="url(#f1o4q3y9141vhs)" height="30" style="stroke: #A80036; stroke-width: 1.0;" width="10" x="405.5" y="149.9219" />
        <polygon fill="#A80036" points="273.5,85.5703,283.5,89.5703,273.5,93.5703,277.5,89.5703" style="stroke: #A80036; stroke-width: 1.0;" />
        <line style="stroke: #A80036; stroke-width: 1.0;" x1="99.5" x2="279.5" y1="89.5703" y2="89.5703" /><text fill="#000000" font-family="sans-serif" font-size="13" font-weight="bold" lengthAdjust="spacingAndGlyphs" textLength="7" x="106.5" y="84.7139">1</text><text fill="#000000" font-family="sans-serif" font-size="13" lengthAdjust="spacingAndGlyphs" textLength="156" x="117.5" y="84.7139">lc = getListaCandidaturas()</text>
        <polygon fill="#A80036" points="393.5,145.9219,403.5,149.9219,393.5,153.9219,397.5,149.9219" style="stroke: #A80036; stroke-width: 1.0;" />
        <line style="stroke: #A80036; stroke-width: 1.0;" x1="99.5" x2="399.5" y1="149.9219" y2="149.9219" /><text fill="#000000" font-family="sans-serif" font-size="13" font-weight="bold" lengthAdjust="spacingAndGlyphs" textLength="7" x="106.5" y="145.0654">2</text><text fill="#000000" font-family="sans-serif" font-size="13" lengthAdjust="spacingAndGlyphs" textLength="218" x="117.5" y="145.0654">lCandidatura = getListaCandidaturas()</text>
        <!--MD5=[a35bcb2e838a7c9282bb4f63d234e450]
@startuml
autonumber


participant ":SeriarAnuncioController" as CTRL
participant "anuncio\n:Anuncio" as ANU
participant "lc:ListaCandidaturas" as LC
participant "lCandidatura\n:List<Candidatura>"


activate CTRL

CTRL -> ANU : lc = getListaCandidaturas()
activate ANU
deactivate ANU

CTRL -> LC : lCandidatura = getListaCandidaturas()
activate LC
deactivate LC
deactivate CTRL


@enduml

PlantUML version 1.2020.02(Sun Mar 01 10:22:07 GMT 2020)
(GPL source distribution)
Java Runtime: Java(TM) SE Runtime Environment
JVM: Java HotSpot(TM) Client VM
Java Version: 1.8.0_201-b09
Operating System: Windows 10
Default Encoding: Cp1252
Language: pt
Country: PT
-->
    </g>
</svg>