@startuml
autonumber

participant ":SeriarAnuncioController" as CTRL
participant ":Plataforma" as PLAT
participant "ro\n:registoOrganizacoes" as RO
participant "org:Organização" as ORG
participant "lColab\n:List<Colaborador>"


activate CTRL

CTRL -> PLAT : ro=getRegistoOrganizacoes()
activate PLAT
deactivate PLAT

CTRL -> RO: org = getOrganizacaoByEmailUtilizador(email)
activate RO
deactivate RO

CTRL -> ORG: lColab = getListaColaboradores()
activate ORG
deactivate ORG
deactivate CTRL

@enduml
@enduml
