@startuml
autonumber

actor "Colaborador de Organização" as CO
participant ":SeriarAnuncioUI" as UI
participant ":SeriarAnuncioController" as CTRL
participant "ro\n:RegistoOrganizacoes" as RO
participant "org\n:Organizacao" as ORG
participant "anuncio\n:Anuncio" as ANU
participant "processoS\n:ProcessoSeriacao" as PS
participant "classi\n:Classificacao" as CLA
participant "lc\n:ListaCandidaturas" as LC



activate CO
CO -> UI : o colaborador de organização inicia a seriação de um anúncio
activate UI

UI -> CTRL : la = getListaAnuncios()
activate CTRL

ref over CTRL, CTRL: UC10_GetListaAnuncios_SD

deactivate CTRL

UI -> CO : apresenta a lista de anúncios e solicita a escolha de um
deactivate UI

CO -> UI : seleciona um anúncio
activate UI

UI -> CO : solicita a introdução de um dado(dataHora)
deactivate UI

CO -> UI : introduz o dado solicitado
activate UI


UI -> CTRL : novoProcessoSeriacao(refTarefa, dataHora)
activate CTRL

ref over CTRL, CTRL: UC10_GetAnuncio_SD

CTRL -> ANU : processoS = novoProcessoSeriacao(dataHora)
activate ANU

ANU -> PS : createProcessoSeriacao(dataHora)
activate PS
deactivate PS
deactivate ANU
deactivate CTRL

UI -> CTRL : lColab = getListaColaboradores()
activate CTRL

ref over CTRL, ORG: UC10_GetListaColaboradores_SD
deactivate CTRL

UI -> CO : mostra a lista de colaboradores da organização e solicita a escolha de um
deactivate UI

loop
CO -> UI : seleciona um colaborador de organização
activate UI

UI -> CTRL : addColaboradorParticipante(emailColabP)
activate CTRL

CTRL -> ORG : colaP = getColaboradorByEmailUtilizador(emailColabP)
activate ORG
deactivate ORG

CTRL -> PS : addColaboradorParticipante(colabP)
activate PS
deactivate PS
deactivate CTRL
end loop

UI -> CTRL : lCandidatura = getListaCandidaturas()
activate CTRL

ref over CTRL, CTRL: UC10_GetListaCandidaturas_SD

deactivate CTRL

UI -> CO : mostra a lista de candidaturas e solicita a escolha de uma
deactivate UI

loop
CO -> UI : escolhe uma candidatura
activate UI


UI -> CO : solicita a introdução de um dado(lugar)
deactivate UI

CO -> UI : introduz o dado solicitado
activate UI

UI -> CTRL: novaClassificacao(emailCandi, lugar)
activate CTRL

CTRL -> LC : candi = getCandidaturaByEmailUtilizador(emailCandi)
activate LC
deactivate LC

CTRL -> PS: classi = novaClassificacao(candi, lugar)
activate PS

PS -> CLA: create(candi,lugar)
activate CLA
deactivate CLA
deactivate PS

CTRL -> PS : registarClassificacao(classi)

activate PS
PS -> PS : validarClassificacao(classi)

PS -> PS: addClassificacao(classi)
deactivate PS
deactivate CTRL
end loop

UI -> CO : valida e apresenta os dados pedindo que os confirme
deactivate UI

CO -> UI: confirma
activate UI

UI -> CTRL : registaProcessoSeriacao()
activate CTRL

CTRL -> ANU : registaProcessoSeriacao(processoS)
activate ANU

ANU -> ANU : validaProcessoSeriacao(processoS)
ANU -> ANU : addProcessoSeriacao(processoS)
deactivate ANU
deactivate CTRL

UI -> CO : regista os dados e informa do sucesso da operação
deactivate UI
deactivate CO

@enduml
@enduml
