@startuml
autonumber



participant ":SeriarAnuncioController" as CTRL
participant "AplicacaoPOT" as _APP
participant "app\n:AplicacaoPOT" as APP
participant "sessao\n:SessaoUtilizador" as SESSAO
participant ":Plataforma" as PLAT
participant "ra:RegistoAnuncios" as RA
participant "la\n:List<Anuncio>" as LA



activate CTRL
CTRL -> _APP: app = getInstance()
activate _APP
deactivate _APP

CTRL -> APP: sessao = getSessaoAtual()
activate APP
deactivate APP

CTRL -> SESSAO: email = getEmailUtilizador()
activate SESSAO
deactivate SESSAO

CTRL -> PLAT : ra = getRegistoAnuncios()
activate PLAT
deactivate PLAT


CTRL -> RA : la = getListaAnunciosByTipoSeriacaoAndEmailColaborador(false, email)
activate RA
deactivate RA
deactivate CTRL


@enduml
@enduml
