<?xml version="1.0" encoding="UTF-8" standalone="no"?><svg xmlns="http://www.w3.org/2000/svg" xmlns:xlink="http://www.w3.org/1999/xlink" contentScriptType="application/ecmascript" contentStyleType="text/css" height="1020px" preserveAspectRatio="none" style="width:2131px;height:1020px;" version="1.1" viewBox="0 0 2131 1020" width="2131px" zoomAndPan="magnify">
    <defs>
        <filter height="300%" id="fmlbcts7acfao" width="300%" x="-1" y="-1">
            <feGaussianBlur result="blurOut" stdDeviation="2.0" />
            <feColorMatrix in="blurOut" result="blurOut2" type="matrix" values="0 0 0 0 0 0 0 0 0 0 0 0 0 0 0 0 0 0 .4 0" />
            <feOffset dx="4.0" dy="4.0" in="blurOut2" result="blurOut3" />
            <feBlend in="SourceGraphic" in2="blurOut3" mode="normal" />
        </filter>
    </defs>
    <g>
        <rect fill="#FFFFFF" filter="url(#fmlbcts7acfao)" height="816.5625" style="stroke: #A80036; stroke-width: 1.0;" width="10" x="83" y="97.6094" />
        <rect fill="#FFFFFF" filter="url(#fmlbcts7acfao)" height="63.0547" style="stroke: #A80036; stroke-width: 1.0;" width="10" x="395" y="119.9609" />
        <rect fill="#FFFFFF" filter="url(#fmlbcts7acfao)" height="444.9922" style="stroke: #A80036; stroke-width: 1.0;" width="10" x="395" y="213.3672" />
        <rect fill="#FFFFFF" filter="url(#fmlbcts7acfao)" height="225.4609" style="stroke: #A80036; stroke-width: 1.0;" width="10" x="395" y="688.7109" />
        <rect fill="#FFFFFF" filter="url(#fmlbcts7acfao)" height="367.9375" style="stroke: #A80036; stroke-width: 1.0;" width="10" x="757" y="260.0703" />
        <rect fill="#FFFFFF" filter="url(#fmlbcts7acfao)" height="157.7578" style="stroke: #A80036; stroke-width: 1.0;" width="10" x="757" y="719.0625" />
        <rect fill="#FFFFFF" filter="url(#fmlbcts7acfao)" height="30" style="stroke: #A80036; stroke-width: 1.0;" width="10" x="966" y="290.4219" />
        <rect fill="#FFFFFF" filter="url(#fmlbcts7acfao)" height="184.2734" style="stroke: #A80036; stroke-width: 1.0;" width="10" x="1135" y="367.125" />
        <rect fill="#FFFFFF" filter="url(#fmlbcts7acfao)" height="30" style="stroke: #A80036; stroke-width: 1.0;" width="10" x="1135" y="598.0078" />
        <rect fill="#FFFFFF" filter="url(#fmlbcts7acfao)" height="127.4063" style="stroke: #A80036; stroke-width: 1.0;" width="10" x="1135" y="749.4141" />
        <rect fill="#FFFFFF" filter="url(#fmlbcts7acfao)" height="30.3516" style="stroke: #A80036; stroke-width: 1.0;" width="10" x="1517" y="397.4766" />
        <rect fill="#FFFFFF" filter="url(#fmlbcts7acfao)" height="30.3516" style="stroke: #A80036; stroke-width: 1.0;" width="10" x="1517" y="474.4375" />
        <line style="stroke: #A80036; stroke-width: 1.0; stroke-dasharray: 5.0,5.0;" x1="88" x2="88" y1="87.6094" y2="932.1719" />
        <line style="stroke: #A80036; stroke-width: 1.0; stroke-dasharray: 5.0,5.0;" x1="400" x2="400" y1="87.6094" y2="932.1719" />
        <line style="stroke: #A80036; stroke-width: 1.0; stroke-dasharray: 5.0,5.0;" x1="761.5" x2="761.5" y1="87.6094" y2="932.1719" />
        <line style="stroke: #A80036; stroke-width: 1.0; stroke-dasharray: 5.0,5.0;" x1="971" x2="971" y1="87.6094" y2="932.1719" />
        <line style="stroke: #A80036; stroke-width: 1.0; stroke-dasharray: 5.0,5.0;" x1="1140" x2="1140" y1="87.6094" y2="932.1719" />
        <line style="stroke: #A80036; stroke-width: 1.0; stroke-dasharray: 5.0,5.0;" x1="1522" x2="1522" y1="87.6094" y2="932.1719" />
        <line style="stroke: #A80036; stroke-width: 1.0; stroke-dasharray: 5.0,5.0;" x1="1642" x2="1642" y1="562.3516" y2="932.1719" />
        <line style="stroke: #A80036; stroke-width: 1.0; stroke-dasharray: 5.0,5.0;" x1="1903" x2="1903" y1="438.7813" y2="932.1719" />
        <line style="stroke: #A80036; stroke-width: 1.0; stroke-dasharray: 5.0,5.0;" x1="2053" x2="2053" y1="515.7422" y2="932.1719" /><text fill="#000000" font-family="sans-serif" font-size="14" lengthAdjust="spacingAndGlyphs" textLength="154" x="8" y="84.5332">Utilizador Não Registado</text>
        <ellipse cx="88" cy="13" fill="#FEFECE" filter="url(#fmlbcts7acfao)" rx="8" ry="8" style="stroke: #A80036; stroke-width: 2.0;" />
        <path d="M88,21 L88,48 M75,29 L101,29 M88,48 L75,63 M88,48 L101,63 " fill="none" filter="url(#fmlbcts7acfao)" style="stroke: #A80036; stroke-width: 2.0;" /><text fill="#000000" font-family="sans-serif" font-size="14" lengthAdjust="spacingAndGlyphs" textLength="154" x="8" y="945.7051">Utilizador Não Registado</text>
        <ellipse cx="88" cy="958.7813" fill="#FEFECE" filter="url(#fmlbcts7acfao)" rx="8" ry="8" style="stroke: #A80036; stroke-width: 2.0;" />
        <path d="M88,966.7813 L88,993.7813 M75,974.7813 L101,974.7813 M88,993.7813 L75,1008.7813 M88,993.7813 L101,1008.7813 " fill="none" filter="url(#fmlbcts7acfao)" style="stroke: #A80036; stroke-width: 2.0;" />
        <rect fill="#FEFECE" filter="url(#fmlbcts7acfao)" height="49.2188" style="stroke: #A80036; stroke-width: 1.5;" width="106" x="345" y="33.3906" /><text fill="#000000" font-family="sans-serif" font-size="14" lengthAdjust="spacingAndGlyphs" textLength="57" x="369.5" y="54.9238">:Registar</text><text fill="#000000" font-family="sans-serif" font-size="14" lengthAdjust="spacingAndGlyphs" textLength="92" x="352" y="72.5332">OrganizacaoUI</text>
        <rect fill="#FEFECE" filter="url(#fmlbcts7acfao)" height="49.2188" style="stroke: #A80036; stroke-width: 1.5;" width="106" x="345" y="931.1719" /><text fill="#000000" font-family="sans-serif" font-size="14" lengthAdjust="spacingAndGlyphs" textLength="57" x="369.5" y="952.7051">:Registar</text><text fill="#000000" font-family="sans-serif" font-size="14" lengthAdjust="spacingAndGlyphs" textLength="92" x="352" y="970.3145">OrganizacaoUI</text>
        <rect fill="#FEFECE" filter="url(#fmlbcts7acfao)" height="49.2188" style="stroke: #A80036; stroke-width: 1.5;" width="151" x="684.5" y="33.3906" /><text fill="#000000" font-family="sans-serif" font-size="14" lengthAdjust="spacingAndGlyphs" textLength="137" x="691.5" y="54.9238">:RegistarOrganizacao</text><text fill="#000000" font-family="sans-serif" font-size="14" lengthAdjust="spacingAndGlyphs" textLength="62" x="729" y="72.5332">Controller</text>
        <rect fill="#FEFECE" filter="url(#fmlbcts7acfao)" height="49.2188" style="stroke: #A80036; stroke-width: 1.5;" width="151" x="684.5" y="931.1719" /><text fill="#000000" font-family="sans-serif" font-size="14" lengthAdjust="spacingAndGlyphs" textLength="137" x="691.5" y="952.7051">:RegistarOrganizacao</text><text fill="#000000" font-family="sans-serif" font-size="14" lengthAdjust="spacingAndGlyphs" textLength="62" x="729" y="970.3145">Controller</text>
        <rect fill="#FEFECE" filter="url(#fmlbcts7acfao)" height="31.6094" style="stroke: #A80036; stroke-width: 1.5;" width="86" x="926" y="51" /><text fill="#000000" font-family="sans-serif" font-size="14" lengthAdjust="spacingAndGlyphs" textLength="72" x="933" y="72.5332">:Plataforma</text>
        <rect fill="#FEFECE" filter="url(#fmlbcts7acfao)" height="31.6094" style="stroke: #A80036; stroke-width: 1.5;" width="86" x="926" y="931.1719" /><text fill="#000000" font-family="sans-serif" font-size="14" lengthAdjust="spacingAndGlyphs" textLength="72" x="933" y="952.7051">:Plataforma</text>
        <rect fill="#FEFECE" filter="url(#fmlbcts7acfao)" height="31.6094" style="stroke: #A80036; stroke-width: 1.5;" width="166" x="1055" y="51" /><text fill="#000000" font-family="sans-serif" font-size="14" lengthAdjust="spacingAndGlyphs" textLength="152" x="1062" y="72.5332">ro:RegistoOrganizacoes</text>
        <rect fill="#FEFECE" filter="url(#fmlbcts7acfao)" height="31.6094" style="stroke: #A80036; stroke-width: 1.5;" width="166" x="1055" y="931.1719" /><text fill="#000000" font-family="sans-serif" font-size="14" lengthAdjust="spacingAndGlyphs" textLength="152" x="1062" y="952.7051">ro:RegistoOrganizacoes</text>
        <rect fill="#FEFECE" filter="url(#fmlbcts7acfao)" height="31.6094" style="stroke: #A80036; stroke-width: 1.5;" width="94" x="1473" y="51" /><text fill="#000000" font-family="sans-serif" font-size="14" lengthAdjust="spacingAndGlyphs" textLength="80" x="1480" y="72.5332">Organizacao</text>
        <rect fill="#FEFECE" filter="url(#fmlbcts7acfao)" height="31.6094" style="stroke: #A80036; stroke-width: 1.5;" width="94" x="1473" y="931.1719" /><text fill="#000000" font-family="sans-serif" font-size="14" lengthAdjust="spacingAndGlyphs" textLength="80" x="1480" y="952.7051">Organizacao</text>
        <rect fill="#FEFECE" filter="url(#fmlbcts7acfao)" height="31.6094" style="stroke: #A80036; stroke-width: 1.5;" width="119" x="1581" y="931.1719" /><text fill="#000000" font-family="sans-serif" font-size="14" lengthAdjust="spacingAndGlyphs" textLength="105" x="1588" y="952.7051">org:Organizacao</text>
        <rect fill="#FEFECE" filter="url(#fmlbcts7acfao)" height="31.6094" style="stroke: #A80036; stroke-width: 1.5;" width="142" x="1830" y="931.1719" /><text fill="#000000" font-family="sans-serif" font-size="14" lengthAdjust="spacingAndGlyphs" textLength="128" x="1837" y="952.7051">end:EnderecoPostal</text>
        <rect fill="#FEFECE" filter="url(#fmlbcts7acfao)" height="31.6094" style="stroke: #A80036; stroke-width: 1.5;" width="131" x="1986" y="931.1719" /><text fill="#000000" font-family="sans-serif" font-size="14" lengthAdjust="spacingAndGlyphs" textLength="117" x="1993" y="952.7051">colab:Colaborador</text>
        <rect fill="#FFFFFF" filter="url(#fmlbcts7acfao)" height="816.5625" style="stroke: #A80036; stroke-width: 1.0;" width="10" x="83" y="97.6094" />
        <rect fill="#FFFFFF" filter="url(#fmlbcts7acfao)" height="63.0547" style="stroke: #A80036; stroke-width: 1.0;" width="10" x="395" y="119.9609" />
        <rect fill="#FFFFFF" filter="url(#fmlbcts7acfao)" height="444.9922" style="stroke: #A80036; stroke-width: 1.0;" width="10" x="395" y="213.3672" />
        <rect fill="#FFFFFF" filter="url(#fmlbcts7acfao)" height="225.4609" style="stroke: #A80036; stroke-width: 1.0;" width="10" x="395" y="688.7109" />
        <rect fill="#FFFFFF" filter="url(#fmlbcts7acfao)" height="367.9375" style="stroke: #A80036; stroke-width: 1.0;" width="10" x="757" y="260.0703" />
        <rect fill="#FFFFFF" filter="url(#fmlbcts7acfao)" height="157.7578" style="stroke: #A80036; stroke-width: 1.0;" width="10" x="757" y="719.0625" />
        <rect fill="#FFFFFF" filter="url(#fmlbcts7acfao)" height="30" style="stroke: #A80036; stroke-width: 1.0;" width="10" x="966" y="290.4219" />
        <rect fill="#FFFFFF" filter="url(#fmlbcts7acfao)" height="184.2734" style="stroke: #A80036; stroke-width: 1.0;" width="10" x="1135" y="367.125" />
        <rect fill="#FFFFFF" filter="url(#fmlbcts7acfao)" height="30" style="stroke: #A80036; stroke-width: 1.0;" width="10" x="1135" y="598.0078" />
        <rect fill="#FFFFFF" filter="url(#fmlbcts7acfao)" height="127.4063" style="stroke: #A80036; stroke-width: 1.0;" width="10" x="1135" y="749.4141" />
        <rect fill="#FFFFFF" filter="url(#fmlbcts7acfao)" height="30.3516" style="stroke: #A80036; stroke-width: 1.0;" width="10" x="1517" y="397.4766" />
        <rect fill="#FFFFFF" filter="url(#fmlbcts7acfao)" height="30.3516" style="stroke: #A80036; stroke-width: 1.0;" width="10" x="1517" y="474.4375" />
        <polygon fill="#A80036" points="383,115.9609,393,119.9609,383,123.9609,387,119.9609" style="stroke: #A80036; stroke-width: 1.0;" />
        <line style="stroke: #A80036; stroke-width: 1.0;" x1="93" x2="389" y1="119.9609" y2="119.9609" /><text fill="#000000" font-family="sans-serif" font-size="13" font-weight="bold" lengthAdjust="spacingAndGlyphs" textLength="7" x="100" y="115.1045">1</text><text fill="#000000" font-family="sans-serif" font-size="13" lengthAdjust="spacingAndGlyphs" textLength="117" x="111" y="115.1045">registar organização</text>
        <polygon fill="#A80036" points="104,179.0156,94,183.0156,104,187.0156,100,183.0156" style="stroke: #A80036; stroke-width: 1.0;" />
        <line style="stroke: #A80036; stroke-width: 1.0; stroke-dasharray: 2.0,2.0;" x1="98" x2="399" y1="183.0156" y2="183.0156" /><text fill="#000000" font-family="sans-serif" font-size="13" font-weight="bold" lengthAdjust="spacingAndGlyphs" textLength="7" x="110" y="161.8076">2</text><text fill="#000000" font-family="sans-serif" font-size="13" lengthAdjust="spacingAndGlyphs" textLength="154" x="121" y="145.4561">solicita dados organização</text><text fill="#000000" font-family="sans-serif" font-size="13" lengthAdjust="spacingAndGlyphs" textLength="195" x="121" y="161.8076">(nome,NIF,endereço,tlf,site,email)</text><text fill="#000000" font-family="sans-serif" font-size="13" lengthAdjust="spacingAndGlyphs" textLength="263" x="125" y="178.1592">e sobre o gestor (nomeG,função,tlfG, emailG)</text>
        <polygon fill="#A80036" points="383,209.3672,393,213.3672,383,217.3672,387,213.3672" style="stroke: #A80036; stroke-width: 1.0;" />
        <line style="stroke: #A80036; stroke-width: 1.0;" x1="93" x2="389" y1="213.3672" y2="213.3672" /><text fill="#000000" font-family="sans-serif" font-size="13" font-weight="bold" lengthAdjust="spacingAndGlyphs" textLength="7" x="100" y="208.5107">3</text><text fill="#000000" font-family="sans-serif" font-size="13" lengthAdjust="spacingAndGlyphs" textLength="169" x="111" y="208.5107">introduz os dados solicitados</text>
        <polygon fill="#A80036" points="745,256.0703,755,260.0703,745,264.0703,749,260.0703" style="stroke: #A80036; stroke-width: 1.0;" />
        <line style="stroke: #A80036; stroke-width: 1.0;" x1="405" x2="751" y1="260.0703" y2="260.0703" /><text fill="#000000" font-family="sans-serif" font-size="13" font-weight="bold" lengthAdjust="spacingAndGlyphs" textLength="7" x="412" y="247.0381">4</text><text fill="#000000" font-family="sans-serif" font-size="13" lengthAdjust="spacingAndGlyphs" textLength="304" x="423" y="238.8623">novaOrganizacao(nome,NIF,endLocal,endCodPostal,</text><text fill="#000000" font-family="sans-serif" font-size="13" lengthAdjust="spacingAndGlyphs" textLength="322" x="423" y="255.2139">endLocalidade,tlf,site,email,nomeG,função,tlfG, emailG)</text>
        <polygon fill="#A80036" points="954,286.4219,964,290.4219,954,294.4219,958,290.4219" style="stroke: #A80036; stroke-width: 1.0;" />
        <line style="stroke: #A80036; stroke-width: 1.0;" x1="767" x2="960" y1="290.4219" y2="290.4219" /><text fill="#000000" font-family="sans-serif" font-size="13" font-weight="bold" lengthAdjust="spacingAndGlyphs" textLength="7" x="774" y="285.5654">5</text><text fill="#000000" font-family="sans-serif" font-size="13" lengthAdjust="spacingAndGlyphs" textLength="169" x="785" y="285.5654">ro=getRegistoOrganizacoes()</text>
        <polygon fill="#A80036" points="1123,363.125,1133,367.125,1123,371.125,1127,367.125" style="stroke: #A80036; stroke-width: 1.0;" />
        <line style="stroke: #A80036; stroke-width: 1.0;" x1="767" x2="1129" y1="367.125" y2="367.125" /><text fill="#000000" font-family="sans-serif" font-size="13" font-weight="bold" lengthAdjust="spacingAndGlyphs" textLength="7" x="774" y="354.0928">6</text><text fill="#000000" font-family="sans-serif" font-size="13" lengthAdjust="spacingAndGlyphs" textLength="338" x="785" y="345.917">org = novaOrganizacao(nome,NIF,endLocal,endCodPostal,</text><text fill="#000000" font-family="sans-serif" font-size="13" lengthAdjust="spacingAndGlyphs" textLength="322" x="785" y="362.2686">endLocalidade,tlf,site,email,nomeG,função,tlfG, emailG)</text>
        <polygon fill="#A80036" points="1505,393.4766,1515,397.4766,1505,401.4766,1509,397.4766" style="stroke: #A80036; stroke-width: 1.0;" />
        <line style="stroke: #A80036; stroke-width: 1.0;" x1="1145" x2="1511" y1="397.4766" y2="397.4766" /><text fill="#000000" font-family="sans-serif" font-size="13" font-weight="bold" lengthAdjust="spacingAndGlyphs" textLength="7" x="1152" y="392.6201">7</text><text fill="#000000" font-family="sans-serif" font-size="13" lengthAdjust="spacingAndGlyphs" textLength="342" x="1163" y="392.6201">end=novoEndereco(endLocal,endCodPostal,endLocalidade)</text>
        <polygon fill="#A80036" points="1818,423.8281,1828,427.8281,1818,431.8281,1822,427.8281" style="stroke: #A80036; stroke-width: 1.0;" />
        <line style="stroke: #A80036; stroke-width: 1.0; stroke-dasharray: 2.0,2.0;" x1="1522" x2="1824" y1="427.8281" y2="427.8281" /><text fill="#000000" font-family="sans-serif" font-size="13" font-weight="bold" lengthAdjust="spacingAndGlyphs" textLength="7" x="1529" y="422.9717">8</text><text fill="#000000" font-family="sans-serif" font-size="13" lengthAdjust="spacingAndGlyphs" textLength="268" x="1540" y="422.9717">create(endLocal,endCodPostal,endLocalidade)</text>
        <rect fill="#FEFECE" filter="url(#fmlbcts7acfao)" height="31.6094" style="stroke: #A80036; stroke-width: 1.5;" width="142" x="1830" y="405.4766" /><text fill="#000000" font-family="sans-serif" font-size="14" lengthAdjust="spacingAndGlyphs" textLength="128" x="1837" y="427.0098">end:EnderecoPostal</text>
        <polygon fill="#A80036" points="1505,470.4375,1515,474.4375,1505,478.4375,1509,474.4375" style="stroke: #A80036; stroke-width: 1.0;" />
        <line style="stroke: #A80036; stroke-width: 1.0;" x1="1145" x2="1511" y1="474.4375" y2="474.4375" /><text fill="#000000" font-family="sans-serif" font-size="13" font-weight="bold" lengthAdjust="spacingAndGlyphs" textLength="7" x="1152" y="469.5811">9</text><text fill="#000000" font-family="sans-serif" font-size="13" lengthAdjust="spacingAndGlyphs" textLength="299" x="1163" y="469.5811">colab=novoColaborador(nomeG,função,tlfG, emailG)</text>
        <polygon fill="#A80036" points="1974,500.7891,1984,504.7891,1974,508.7891,1978,504.7891" style="stroke: #A80036; stroke-width: 1.0;" />
        <line style="stroke: #A80036; stroke-width: 1.0; stroke-dasharray: 2.0,2.0;" x1="1522" x2="1980" y1="504.7891" y2="504.7891" /><text fill="#000000" font-family="sans-serif" font-size="13" font-weight="bold" lengthAdjust="spacingAndGlyphs" textLength="14" x="1529" y="499.9326">10</text><text fill="#000000" font-family="sans-serif" font-size="13" lengthAdjust="spacingAndGlyphs" textLength="201" x="1547" y="499.9326">create(nomeG,função,tlfG, emailG)</text>
        <rect fill="#FEFECE" filter="url(#fmlbcts7acfao)" height="31.6094" style="stroke: #A80036; stroke-width: 1.5;" width="131" x="1986" y="482.4375" /><text fill="#000000" font-family="sans-serif" font-size="14" lengthAdjust="spacingAndGlyphs" textLength="117" x="1993" y="503.9707">colab:Colaborador</text>
        <polygon fill="#A80036" points="1569,547.3984,1579,551.3984,1569,555.3984,1573,551.3984" style="stroke: #A80036; stroke-width: 1.0;" />
        <line style="stroke: #A80036; stroke-width: 1.0; stroke-dasharray: 2.0,2.0;" x1="1140" x2="1575" y1="551.3984" y2="551.3984" /><text fill="#000000" font-family="sans-serif" font-size="13" font-weight="bold" lengthAdjust="spacingAndGlyphs" textLength="14" x="1147" y="546.542">11</text><text fill="#000000" font-family="sans-serif" font-size="13" lengthAdjust="spacingAndGlyphs" textLength="234" x="1165" y="546.542">create(nome,NIF,end,tlf,site,email,colab)</text>
        <rect fill="#FEFECE" filter="url(#fmlbcts7acfao)" height="31.6094" style="stroke: #A80036; stroke-width: 1.5;" width="119" x="1581" y="529.0469" /><text fill="#000000" font-family="sans-serif" font-size="14" lengthAdjust="spacingAndGlyphs" textLength="105" x="1588" y="550.5801">org:Organizacao</text>
        <polygon fill="#A80036" points="1123,594.0078,1133,598.0078,1123,602.0078,1127,598.0078" style="stroke: #A80036; stroke-width: 1.0;" />
        <line style="stroke: #A80036; stroke-width: 1.0;" x1="767" x2="1129" y1="598.0078" y2="598.0078" /><text fill="#000000" font-family="sans-serif" font-size="13" font-weight="bold" lengthAdjust="spacingAndGlyphs" textLength="14" x="774" y="593.1514">12</text><text fill="#000000" font-family="sans-serif" font-size="13" lengthAdjust="spacingAndGlyphs" textLength="131" x="792" y="593.1514">validaOrganizacao(org)</text>
        <polygon fill="#A80036" points="104,654.3594,94,658.3594,104,662.3594,100,658.3594" style="stroke: #A80036; stroke-width: 1.0;" />
        <line style="stroke: #A80036; stroke-width: 1.0; stroke-dasharray: 2.0,2.0;" x1="98" x2="399" y1="658.3594" y2="658.3594" /><text fill="#000000" font-family="sans-serif" font-size="13" font-weight="bold" lengthAdjust="spacingAndGlyphs" textLength="14" x="110" y="653.5029">13</text><text fill="#000000" font-family="sans-serif" font-size="13" lengthAdjust="spacingAndGlyphs" textLength="226" x="128" y="653.5029">apresenta dados e solicita confirmação</text>
        <polygon fill="#A80036" points="383,684.7109,393,688.7109,383,692.7109,387,688.7109" style="stroke: #A80036; stroke-width: 1.0;" />
        <line style="stroke: #A80036; stroke-width: 1.0;" x1="93" x2="389" y1="688.7109" y2="688.7109" /><text fill="#000000" font-family="sans-serif" font-size="13" font-weight="bold" lengthAdjust="spacingAndGlyphs" textLength="14" x="100" y="683.8545">14</text><text fill="#000000" font-family="sans-serif" font-size="13" lengthAdjust="spacingAndGlyphs" textLength="49" x="118" y="683.8545">confirma</text>
        <polygon fill="#A80036" points="745,715.0625,755,719.0625,745,723.0625,749,719.0625" style="stroke: #A80036; stroke-width: 1.0;" />
        <line style="stroke: #A80036; stroke-width: 1.0;" x1="405" x2="751" y1="719.0625" y2="719.0625" /><text fill="#000000" font-family="sans-serif" font-size="13" font-weight="bold" lengthAdjust="spacingAndGlyphs" textLength="14" x="412" y="714.2061">15</text><text fill="#000000" font-family="sans-serif" font-size="13" lengthAdjust="spacingAndGlyphs" textLength="120" x="430" y="714.2061">registaOrganizacao()</text>
        <polygon fill="#A80036" points="1123,745.4141,1133,749.4141,1123,753.4141,1127,749.4141" style="stroke: #A80036; stroke-width: 1.0;" />
        <line style="stroke: #A80036; stroke-width: 1.0;" x1="767" x2="1129" y1="749.4141" y2="749.4141" /><text fill="#000000" font-family="sans-serif" font-size="13" font-weight="bold" lengthAdjust="spacingAndGlyphs" textLength="14" x="774" y="744.5576">16</text><text fill="#000000" font-family="sans-serif" font-size="13" lengthAdjust="spacingAndGlyphs" textLength="138" x="792" y="744.5576">registaOrganizacao(org)</text>
        <line style="stroke: #A80036; stroke-width: 1.0;" x1="1145" x2="1187" y1="779.7656" y2="779.7656" />
        <line style="stroke: #A80036; stroke-width: 1.0;" x1="1187" x2="1187" y1="779.7656" y2="792.7656" />
        <line style="stroke: #A80036; stroke-width: 1.0;" x1="1146" x2="1187" y1="792.7656" y2="792.7656" />
        <polygon fill="#A80036" points="1156,788.7656,1146,792.7656,1156,796.7656,1152,792.7656" style="stroke: #A80036; stroke-width: 1.0;" /><text fill="#000000" font-family="sans-serif" font-size="13" font-weight="bold" lengthAdjust="spacingAndGlyphs" textLength="14" x="1152" y="774.9092">17</text><text fill="#000000" font-family="sans-serif" font-size="13" lengthAdjust="spacingAndGlyphs" textLength="117" x="1170" y="774.9092">validaOrganizao(org)</text>
        <rect fill="#FFFFFF" filter="url(#fmlbcts7acfao)" height="42.7031" style="stroke: #000000; stroke-width: 2.0;" width="1197" x="923" y="800.7656" />
        <polygon fill="#EEEEEE" points="923,800.7656,985,800.7656,985,808.7656,975,818.7656,923,818.7656,923,800.7656" style="stroke: #000000; stroke-width: 2.0;" /><text fill="#000000" font-family="sans-serif" font-size="13" font-weight="bold" lengthAdjust="spacingAndGlyphs" textLength="17" x="936" y="816.2607">ref</text><text fill="#000000" font-family="sans-serif" font-size="13" lengthAdjust="spacingAndGlyphs" textLength="228" x="1409.5" y="836.2607">UC1_RegistaGestorComoUtilizador_SD</text>
        <line style="stroke: #A80036; stroke-width: 1.0;" x1="1145" x2="1187" y1="875.8203" y2="875.8203" />
        <line style="stroke: #A80036; stroke-width: 1.0;" x1="1187" x2="1187" y1="875.8203" y2="888.8203" />
        <line style="stroke: #A80036; stroke-width: 1.0;" x1="1140" x2="1187" y1="888.8203" y2="888.8203" />
        <polygon fill="#A80036" points="1150,884.8203,1140,888.8203,1150,892.8203,1146,888.8203" style="stroke: #A80036; stroke-width: 1.0;" /><text fill="#000000" font-family="sans-serif" font-size="13" font-weight="bold" lengthAdjust="spacingAndGlyphs" textLength="14" x="1152" y="870.9639">18</text><text fill="#000000" font-family="sans-serif" font-size="13" lengthAdjust="spacingAndGlyphs" textLength="106" x="1170" y="870.9639">addOrganizao(org)</text>
        <polygon fill="#A80036" points="99,910.1719,89,914.1719,99,918.1719,95,914.1719" style="stroke: #A80036; stroke-width: 1.0;" />
        <line style="stroke: #A80036; stroke-width: 1.0; stroke-dasharray: 2.0,2.0;" x1="93" x2="399" y1="914.1719" y2="914.1719" /><text fill="#000000" font-family="sans-serif" font-size="13" font-weight="bold" lengthAdjust="spacingAndGlyphs" textLength="14" x="105" y="909.3154">19</text><text fill="#000000" font-family="sans-serif" font-size="13" lengthAdjust="spacingAndGlyphs" textLength="138" x="123" y="909.3154">operação bem sucedida</text>
        <!--MD5=[048a20d859f032867839b857be4191c1]
@startuml
autonumber

actor "Utilizador Não Registado" as UNR
participant ":Registar\nOrganizacaoUI" as UI
participant ":RegistarOrganizacao\nController" as CTRL
participant ":Plataforma" as PLAT
participant "ro:RegistoOrganizacoes" as RO
participant "Organizacao" as _ORG
participant "org:Organizacao" as ORG
participant "end:EnderecoPostal" as END
participant "colab:Colaborador" as COLAB




activate UNR
UNR -> UI : registar organização
activate UI
UI - -> UNR : solicita dados organização \n(nome,NIF,endereço,tlf,site,email)\n e sobre o gestor (nomeG,função,tlfG, emailG)
deactivate UI

UNR -> UI : introduz os dados solicitados
activate UI

UI -> CTRL : novaOrganizacao(nome,NIF,endLocal,endCodPostal,\nendLocalidade,tlf,site,email,nomeG,função,tlfG, emailG)
activate CTRL

CTRL -> PLAT : ro=getRegistoOrganizacoes()
activate PLAT
deactivate PLAT

CTRL -> RO: org = novaOrganizacao(nome,NIF,endLocal,endCodPostal,\nendLocalidade,tlf,site,email,nomeG,função,tlfG, emailG)
activate RO


RO -> _ORG: end=novoEndereco(endLocal,endCodPostal,endLocalidade)
activate _ORG
_ORG - -> END ** : create(endLocal,endCodPostal,endLocalidade)
deactivate _ORG

RO -> _ORG: colab=novoColaborador(nomeG,função,tlfG, emailG)
activate _ORG
_ORG - -> COLAB ** : create(nomeG,função,tlfG, emailG)
deactivate _ORG

RO - -> ORG ** : create(nome,NIF,end,tlf,site,email,colab)
deactivate RO

CTRL -> RO : validaOrganizacao(org)
activate RO
deactivate RO

deactivate CTRL
UI - -> UNR : apresenta dados e solicita confirmação
deactivate UI

UNR -> UI : confirma
activate UI

UI -> CTRL: registaOrganizacao()
activate CTRL
CTRL -> RO: registaOrganizacao(org)
activate RO

RO -> RO: validaOrganizao(org)

ref over PLAT, COLAB: UC1_RegistaGestorComoUtilizador_SD


RO -> RO: addOrganizao(org)


deactivate RO
deactivate CTRL
UI - -> UNR : operação bem sucedida
deactivate UI

deactivate UNR
@enduml

PlantUML version 1.2020.02(Sun Mar 01 10:22:07 GMT 2020)
(GPL source distribution)
Java Runtime: Java(TM) SE Runtime Environment
JVM: Java HotSpot(TM) Client VM
Java Version: 1.8.0_201-b09
Operating System: Windows 10
Default Encoding: Cp1252
Language: pt
Country: PT
-->
    </g>
</svg>