@startuml
autonumber

actor "Utilizador Não Registado" as UNR
participant ":Registar\nOrganizacaoUI" as UI
participant ":RegistarOrganizacao\nController" as CTRL
participant ":Plataforma" as PLAT
participant "ro:RegistoOrganizacoes" as RO
participant "Organizacao" as _ORG
participant "org:Organizacao" as ORG
participant "end:EnderecoPostal" as END
participant "colab:Colaborador" as COLAB




activate UNR
UNR -> UI : registar organização
activate UI
UI --> UNR : solicita dados organização \n(nome,NIF,endereço,tlf,site,email)\n e sobre o gestor (nomeG,função,tlfG, emailG)
deactivate UI

UNR -> UI : introduz os dados solicitados
activate UI

UI -> CTRL : novaOrganizacao(nome,NIF,endLocal,endCodPostal,\nendLocalidade,tlf,site,email,nomeG,função,tlfG, emailG)
activate CTRL

CTRL -> PLAT : ro=getRegistoOrganizacoes()
activate PLAT
deactivate PLAT

CTRL -> RO: org = novaOrganizacao(nome,NIF,endLocal,endCodPostal,\nendLocalidade,tlf,site,email,nomeG,função,tlfG, emailG)
activate RO


RO -> _ORG: end=novoEndereco(endLocal,endCodPostal,endLocalidade)
activate _ORG
_ORG --> END ** : create(endLocal,endCodPostal,endLocalidade)
deactivate _ORG

RO -> _ORG: colab=novoColaborador(nomeG,função,tlfG, emailG)
activate _ORG
_ORG --> COLAB ** : create(nomeG,função,tlfG, emailG)
deactivate _ORG

RO --> ORG ** : create(nome,NIF,end,tlf,site,email,colab)
deactivate RO

CTRL -> RO : validaOrganizacao(org)
activate RO
deactivate RO

deactivate CTRL
UI --> UNR : apresenta dados e solicita confirmação
deactivate UI

UNR -> UI : confirma
activate UI

UI -> CTRL: registaOrganizacao()
activate CTRL
CTRL -> RO: registaOrganizacao(org)
activate RO

RO -> RO: validaOrganizao(org)

ref over PLAT, COLAB: UC1_RegistaGestorComoUtilizador_SD


RO -> RO: addOrganizao(org)


deactivate RO
deactivate CTRL
UI --> UNR : operação bem sucedida
deactivate UI

deactivate UNR
@enduml
@enduml
