<?xml version="1.0" encoding="UTF-8" standalone="no"?><svg xmlns="http://www.w3.org/2000/svg" xmlns:xlink="http://www.w3.org/1999/xlink" contentScriptType="application/ecmascript" contentStyleType="text/css" height="255px" preserveAspectRatio="none" style="width:981px;height:255px;" version="1.1" viewBox="0 0 981 255" width="981px" zoomAndPan="magnify">
    <defs>
        <filter height="300%" id="f1frvofjwa5tu4" width="300%" x="-1" y="-1">
            <feGaussianBlur result="blurOut" stdDeviation="2.0" />
            <feColorMatrix in="blurOut" result="blurOut2" type="matrix" values="0 0 0 0 0 0 0 0 0 0 0 0 0 0 0 0 0 0 .4 0" />
            <feOffset dx="4.0" dy="4.0" in="blurOut2" result="blurOut3" />
            <feBlend in="SourceGraphic" in2="blurOut3" mode="normal" />
        </filter>
    </defs>
    <g>
        <!--MD5=[ecaed46f78f8cfe1e9ce18477649be18]
class Plataforma-->
        <rect fill="#FEFECE" filter="url(#f1frvofjwa5tu4)" height="53.8359" id="Plataforma" style="stroke: #A80036; stroke-width: 1.5;" width="103" x="6" y="155" />
        <ellipse cx="25.95" cy="171" fill="#ADD1B2" rx="11" ry="11" style="stroke: #A80036; stroke-width: 1.0;" />
        <path d="M28.7156,166.875 Q28.8719,166.6563 29.0594,166.5469 Q29.2469,166.4375 29.4656,166.4375 Q29.8406,166.4375 30.075,166.6953 Q30.3094,166.9531 30.3094,167.5625 L30.3094,169.0156 Q30.3094,169.625 30.075,169.8906 Q29.8406,170.1563 29.4656,170.1563 Q29.1219,170.1563 28.9188,169.9531 Q28.7156,169.7656 28.6063,169.25 Q28.5594,168.8906 28.3719,168.7031 Q28.0438,168.3281 27.4344,168.1094 Q26.825,167.8906 26.2,167.8906 Q25.4344,167.8906 24.8016,168.2188 Q24.1688,168.5469 23.6766,169.2969 Q23.1844,170.0469 23.1844,171.0781 L23.1844,172.1719 Q23.1844,173.4063 24.075,174.2266 Q24.9656,175.0469 26.5594,175.0469 Q27.4969,175.0469 28.1531,174.7969 Q28.5438,174.6406 28.9656,174.2031 Q29.2313,173.9375 29.3797,173.8594 Q29.5281,173.7813 29.7313,173.7813 Q30.0594,173.7813 30.3172,174.0391 Q30.575,174.2969 30.575,174.6406 Q30.575,174.9844 30.2313,175.3906 Q29.7313,175.9688 28.9344,176.2969 Q27.8563,176.75 26.5594,176.75 Q25.0438,176.75 23.8406,176.125 Q22.8563,175.625 22.1688,174.5547 Q21.4813,173.4844 21.4813,172.2031 L21.4813,171.0469 Q21.4813,169.7188 22.0984,168.5703 Q22.7156,167.4219 23.8094,166.8047 Q24.9031,166.1875 26.1375,166.1875 Q26.8719,166.1875 27.5203,166.3516 Q28.1688,166.5156 28.7156,166.875 Z " /><text fill="#000000" font-family="sans-serif" font-size="12" lengthAdjust="spacingAndGlyphs" textLength="60" x="41.05" y="175.9102">Plataforma</text>
        <line style="stroke: #A80036; stroke-width: 1.5;" x1="7" x2="108" y1="187" y2="187" /><text fill="#000000" font-family="sans-serif" font-size="11" lengthAdjust="spacingAndGlyphs" textLength="91" x="12" y="202.4189">-String designacao</text>
        <!--MD5=[807977ceb130c090ed5febfb6de2bdea]
class Organizacao-->
        <rect fill="#FEFECE" filter="url(#f1frvofjwa5tu4)" height="109.1797" id="Organizacao" style="stroke: #A80036; stroke-width: 1.5;" width="101" x="315.5" y="59.5" />
        <ellipse cx="330.5" cy="75.5" fill="#ADD1B2" rx="11" ry="11" style="stroke: #A80036; stroke-width: 1.0;" />
        <path d="M333.2656,71.375 Q333.4219,71.1563 333.6094,71.0469 Q333.7969,70.9375 334.0156,70.9375 Q334.3906,70.9375 334.625,71.1953 Q334.8594,71.4531 334.8594,72.0625 L334.8594,73.5156 Q334.8594,74.125 334.625,74.3906 Q334.3906,74.6563 334.0156,74.6563 Q333.6719,74.6563 333.4688,74.4531 Q333.2656,74.2656 333.1563,73.75 Q333.1094,73.3906 332.9219,73.2031 Q332.5938,72.8281 331.9844,72.6094 Q331.375,72.3906 330.75,72.3906 Q329.9844,72.3906 329.3516,72.7188 Q328.7188,73.0469 328.2266,73.7969 Q327.7344,74.5469 327.7344,75.5781 L327.7344,76.6719 Q327.7344,77.9063 328.625,78.7266 Q329.5156,79.5469 331.1094,79.5469 Q332.0469,79.5469 332.7031,79.2969 Q333.0938,79.1406 333.5156,78.7031 Q333.7813,78.4375 333.9297,78.3594 Q334.0781,78.2813 334.2813,78.2813 Q334.6094,78.2813 334.8672,78.5391 Q335.125,78.7969 335.125,79.1406 Q335.125,79.4844 334.7813,79.8906 Q334.2813,80.4688 333.4844,80.7969 Q332.4063,81.25 331.1094,81.25 Q329.5938,81.25 328.3906,80.625 Q327.4063,80.125 326.7188,79.0547 Q326.0313,77.9844 326.0313,76.7031 L326.0313,75.5469 Q326.0313,74.2188 326.6484,73.0703 Q327.2656,71.9219 328.3594,71.3047 Q329.4531,70.6875 330.6875,70.6875 Q331.4219,70.6875 332.0703,70.8516 Q332.7188,71.0156 333.2656,71.375 Z " /><text fill="#000000" font-family="sans-serif" font-size="12" lengthAdjust="spacingAndGlyphs" textLength="69" x="344.5" y="80.4102">Organizacao</text>
        <line style="stroke: #A80036; stroke-width: 1.5;" x1="316.5" x2="415.5" y1="91.5" y2="91.5" /><text fill="#000000" font-family="sans-serif" font-size="11" lengthAdjust="spacingAndGlyphs" textLength="61" x="321.5" y="106.9189">-String nome</text><text fill="#000000" font-family="sans-serif" font-size="11" lengthAdjust="spacingAndGlyphs" textLength="50" x="321.5" y="120.7549">-String NIF</text><text fill="#000000" font-family="sans-serif" font-size="11" lengthAdjust="spacingAndGlyphs" textLength="74" x="321.5" y="134.5908">-String website</text><text fill="#000000" font-family="sans-serif" font-size="11" lengthAdjust="spacingAndGlyphs" textLength="74" x="321.5" y="148.4268">-String telefone</text><text fill="#000000" font-family="sans-serif" font-size="11" lengthAdjust="spacingAndGlyphs" textLength="59" x="321.5" y="162.2627">-String email</text>
        <!--MD5=[ac8682ea5466d223e49472789fb200d2]
class Colaborador-->
        <rect fill="#FEFECE" filter="url(#f1frvofjwa5tu4)" height="95.3438" id="Colaborador" style="stroke: #A80036; stroke-width: 1.5;" width="101" x="626.5" y="8.5" />
        <ellipse cx="641.5" cy="24.5" fill="#ADD1B2" rx="11" ry="11" style="stroke: #A80036; stroke-width: 1.0;" />
        <path d="M644.2656,20.375 Q644.4219,20.1563 644.6094,20.0469 Q644.7969,19.9375 645.0156,19.9375 Q645.3906,19.9375 645.625,20.1953 Q645.8594,20.4531 645.8594,21.0625 L645.8594,22.5156 Q645.8594,23.125 645.625,23.3906 Q645.3906,23.6563 645.0156,23.6563 Q644.6719,23.6563 644.4688,23.4531 Q644.2656,23.2656 644.1563,22.75 Q644.1094,22.3906 643.9219,22.2031 Q643.5938,21.8281 642.9844,21.6094 Q642.375,21.3906 641.75,21.3906 Q640.9844,21.3906 640.3516,21.7188 Q639.7188,22.0469 639.2266,22.7969 Q638.7344,23.5469 638.7344,24.5781 L638.7344,25.6719 Q638.7344,26.9063 639.625,27.7266 Q640.5156,28.5469 642.1094,28.5469 Q643.0469,28.5469 643.7031,28.2969 Q644.0938,28.1406 644.5156,27.7031 Q644.7813,27.4375 644.9297,27.3594 Q645.0781,27.2813 645.2813,27.2813 Q645.6094,27.2813 645.8672,27.5391 Q646.125,27.7969 646.125,28.1406 Q646.125,28.4844 645.7813,28.8906 Q645.2813,29.4688 644.4844,29.7969 Q643.4063,30.25 642.1094,30.25 Q640.5938,30.25 639.3906,29.625 Q638.4063,29.125 637.7188,28.0547 Q637.0313,26.9844 637.0313,25.7031 L637.0313,24.5469 Q637.0313,23.2188 637.6484,22.0703 Q638.2656,20.9219 639.3594,20.3047 Q640.4531,19.6875 641.6875,19.6875 Q642.4219,19.6875 643.0703,19.8516 Q643.7188,20.0156 644.2656,20.375 Z " /><text fill="#000000" font-family="sans-serif" font-size="12" lengthAdjust="spacingAndGlyphs" textLength="69" x="655.5" y="29.4102">Colaborador</text>
        <line style="stroke: #A80036; stroke-width: 1.5;" x1="627.5" x2="726.5" y1="40.5" y2="40.5" /><text fill="#000000" font-family="sans-serif" font-size="11" lengthAdjust="spacingAndGlyphs" textLength="61" x="632.5" y="55.9189">-String nome</text><text fill="#000000" font-family="sans-serif" font-size="11" lengthAdjust="spacingAndGlyphs" textLength="69" x="632.5" y="69.7549">-String funcao</text><text fill="#000000" font-family="sans-serif" font-size="11" lengthAdjust="spacingAndGlyphs" textLength="74" x="632.5" y="83.5908">-String telefone</text><text fill="#000000" font-family="sans-serif" font-size="11" lengthAdjust="spacingAndGlyphs" textLength="59" x="632.5" y="97.4268">-String email</text>
        <!--MD5=[dcda844062f930f807532403427d3023]
class EnderecoPostal-->
        <rect fill="#FEFECE" filter="url(#f1frvofjwa5tu4)" height="81.5078" id="EnderecoPostal" style="stroke: #A80036; stroke-width: 1.5;" width="120" x="617" y="139" />
        <ellipse cx="632" cy="155" fill="#ADD1B2" rx="11" ry="11" style="stroke: #A80036; stroke-width: 1.0;" />
        <path d="M634.7656,150.875 Q634.9219,150.6563 635.1094,150.5469 Q635.2969,150.4375 635.5156,150.4375 Q635.8906,150.4375 636.125,150.6953 Q636.3594,150.9531 636.3594,151.5625 L636.3594,153.0156 Q636.3594,153.625 636.125,153.8906 Q635.8906,154.1563 635.5156,154.1563 Q635.1719,154.1563 634.9688,153.9531 Q634.7656,153.7656 634.6563,153.25 Q634.6094,152.8906 634.4219,152.7031 Q634.0938,152.3281 633.4844,152.1094 Q632.875,151.8906 632.25,151.8906 Q631.4844,151.8906 630.8516,152.2188 Q630.2188,152.5469 629.7266,153.2969 Q629.2344,154.0469 629.2344,155.0781 L629.2344,156.1719 Q629.2344,157.4063 630.125,158.2266 Q631.0156,159.0469 632.6094,159.0469 Q633.5469,159.0469 634.2031,158.7969 Q634.5938,158.6406 635.0156,158.2031 Q635.2813,157.9375 635.4297,157.8594 Q635.5781,157.7813 635.7813,157.7813 Q636.1094,157.7813 636.3672,158.0391 Q636.625,158.2969 636.625,158.6406 Q636.625,158.9844 636.2813,159.3906 Q635.7813,159.9688 634.9844,160.2969 Q633.9063,160.75 632.6094,160.75 Q631.0938,160.75 629.8906,160.125 Q628.9063,159.625 628.2188,158.5547 Q627.5313,157.4844 627.5313,156.2031 L627.5313,155.0469 Q627.5313,153.7188 628.1484,152.5703 Q628.7656,151.4219 629.8594,150.8047 Q630.9531,150.1875 632.1875,150.1875 Q632.9219,150.1875 633.5703,150.3516 Q634.2188,150.5156 634.7656,150.875 Z " /><text fill="#000000" font-family="sans-serif" font-size="12" lengthAdjust="spacingAndGlyphs" textLength="88" x="646" y="159.9102">EnderecoPostal</text>
        <line style="stroke: #A80036; stroke-width: 1.5;" x1="618" x2="736" y1="171" y2="171" /><text fill="#000000" font-family="sans-serif" font-size="11" lengthAdjust="spacingAndGlyphs" textLength="57" x="623" y="186.4189">-String local</text><text fill="#000000" font-family="sans-serif" font-size="11" lengthAdjust="spacingAndGlyphs" textLength="82" x="623" y="200.2549">-String codPostal</text><text fill="#000000" font-family="sans-serif" font-size="11" lengthAdjust="spacingAndGlyphs" textLength="83" x="623" y="214.0908">-String localidade</text>
        <!--MD5=[5dd1d6732c071e710b9290b531f2fa3b]
class Utilizador-->
        <rect fill="#FEFECE" filter="url(#f1frvofjwa5tu4)" height="81.5078" id="Utilizador" style="stroke: #A80036; stroke-width: 1.5;" width="97" x="873" y="15" />
        <ellipse cx="894.3" cy="31" fill="#ADD1B2" rx="11" ry="11" style="stroke: #A80036; stroke-width: 1.0;" />
        <path d="M897.0656,26.875 Q897.2219,26.6563 897.4094,26.5469 Q897.5969,26.4375 897.8156,26.4375 Q898.1906,26.4375 898.425,26.6953 Q898.6594,26.9531 898.6594,27.5625 L898.6594,29.0156 Q898.6594,29.625 898.425,29.8906 Q898.1906,30.1563 897.8156,30.1563 Q897.4719,30.1563 897.2688,29.9531 Q897.0656,29.7656 896.9563,29.25 Q896.9094,28.8906 896.7219,28.7031 Q896.3938,28.3281 895.7844,28.1094 Q895.175,27.8906 894.55,27.8906 Q893.7844,27.8906 893.1516,28.2188 Q892.5188,28.5469 892.0266,29.2969 Q891.5344,30.0469 891.5344,31.0781 L891.5344,32.1719 Q891.5344,33.4063 892.425,34.2266 Q893.3156,35.0469 894.9094,35.0469 Q895.8469,35.0469 896.5031,34.7969 Q896.8938,34.6406 897.3156,34.2031 Q897.5813,33.9375 897.7297,33.8594 Q897.8781,33.7813 898.0813,33.7813 Q898.4094,33.7813 898.6672,34.0391 Q898.925,34.2969 898.925,34.6406 Q898.925,34.9844 898.5813,35.3906 Q898.0813,35.9688 897.2844,36.2969 Q896.2063,36.75 894.9094,36.75 Q893.3938,36.75 892.1906,36.125 Q891.2063,35.625 890.5188,34.5547 Q889.8313,33.4844 889.8313,32.2031 L889.8313,31.0469 Q889.8313,29.7188 890.4484,28.5703 Q891.0656,27.4219 892.1594,26.8047 Q893.2531,26.1875 894.4875,26.1875 Q895.2219,26.1875 895.8703,26.3516 Q896.5188,26.5156 897.0656,26.875 Z " /><text fill="#000000" font-family="sans-serif" font-size="12" lengthAdjust="spacingAndGlyphs" textLength="51" x="909.7" y="35.9102">Utilizador</text>
        <line style="stroke: #A80036; stroke-width: 1.5;" x1="874" x2="969" y1="47" y2="47" /><text fill="#000000" font-family="sans-serif" font-size="11" lengthAdjust="spacingAndGlyphs" textLength="61" x="879" y="62.4189">-String nome</text><text fill="#000000" font-family="sans-serif" font-size="11" lengthAdjust="spacingAndGlyphs" textLength="59" x="879" y="76.2549">-String email</text><text fill="#000000" font-family="sans-serif" font-size="11" lengthAdjust="spacingAndGlyphs" textLength="85" x="879" y="90.0908">-String password</text>
        <!--MD5=[37bf6c08f758502d5d1a5531d651ab43]
class AlgoritmoGeradorPasswords-->
        <rect fill="#FEFECE" filter="url(#f1frvofjwa5tu4)" height="40" id="AlgoritmoGeradorPasswords" style="stroke: #A80036; stroke-width: 1.5;" width="192" x="270" y="204" />
        <ellipse cx="285" cy="220" fill="#ADD1B2" rx="11" ry="11" style="stroke: #A80036; stroke-width: 1.0;" />
        <path d="M287.7656,215.875 Q287.9219,215.6563 288.1094,215.5469 Q288.2969,215.4375 288.5156,215.4375 Q288.8906,215.4375 289.125,215.6953 Q289.3594,215.9531 289.3594,216.5625 L289.3594,218.0156 Q289.3594,218.625 289.125,218.8906 Q288.8906,219.1563 288.5156,219.1563 Q288.1719,219.1563 287.9688,218.9531 Q287.7656,218.7656 287.6563,218.25 Q287.6094,217.8906 287.4219,217.7031 Q287.0938,217.3281 286.4844,217.1094 Q285.875,216.8906 285.25,216.8906 Q284.4844,216.8906 283.8516,217.2188 Q283.2188,217.5469 282.7266,218.2969 Q282.2344,219.0469 282.2344,220.0781 L282.2344,221.1719 Q282.2344,222.4063 283.125,223.2266 Q284.0156,224.0469 285.6094,224.0469 Q286.5469,224.0469 287.2031,223.7969 Q287.5938,223.6406 288.0156,223.2031 Q288.2813,222.9375 288.4297,222.8594 Q288.5781,222.7813 288.7813,222.7813 Q289.1094,222.7813 289.3672,223.0391 Q289.625,223.2969 289.625,223.6406 Q289.625,223.9844 289.2813,224.3906 Q288.7813,224.9688 287.9844,225.2969 Q286.9063,225.75 285.6094,225.75 Q284.0938,225.75 282.8906,225.125 Q281.9063,224.625 281.2188,223.5547 Q280.5313,222.4844 280.5313,221.2031 L280.5313,220.0469 Q280.5313,218.7188 281.1484,217.5703 Q281.7656,216.4219 282.8594,215.8047 Q283.9531,215.1875 285.1875,215.1875 Q285.9219,215.1875 286.5703,215.3516 Q287.2188,215.5156 287.7656,215.875 Z " /><text fill="#000000" font-family="sans-serif" font-size="12" lengthAdjust="spacingAndGlyphs" textLength="160" x="299" y="224.9102">AlgoritmoGeradorPasswords</text>
        <line style="stroke: #A80036; stroke-width: 1.5;" x1="271" x2="461" y1="236" y2="236" />
        <!--MD5=[49996cf4319f45f78007483382b2a228]
link Plataforma to AlgoritmoGeradorPasswords-->
        <path d="M109.398,195.0706 C119.177,197.2811 129.371,199.3807 139,201 C181.685,208.1779 229.308,213.4285 269.79,217.0852 " fill="none" id="Plataforma-AlgoritmoGeradorPasswords" style="stroke: #A80036; stroke-width: 1.0;" /><text fill="#000000" font-family="sans-serif" font-size="13" lengthAdjust="spacingAndGlyphs" textLength="51" x="157.5" y="197.4951">recorre a</text>
        <polygon fill="#000000" points="211.5,190.6758,217.5,193.6758,211.5,196.6758,211.5,190.6758" style="stroke: #000000; stroke-width: 1.0;" /><text fill="#000000" font-family="sans-serif" font-size="13" lengthAdjust="spacingAndGlyphs" textLength="5" x="117.0477" y="211.565">*</text><text fill="#000000" font-family="sans-serif" font-size="13" lengthAdjust="spacingAndGlyphs" textLength="5" x="256.924" y="230.6808">*</text>
        <!--MD5=[1c2ad462e362697fcdc859a6327d55c7]
link Plataforma to Organizacao-->
        <path d="M109.112,170.7712 C166.242,158.0964 258.59,137.608 315.33,125.02 " fill="none" id="Plataforma-Organizacao" style="stroke: #A80036; stroke-width: 1.0;" /><text fill="#000000" font-family="sans-serif" font-size="13" lengthAdjust="spacingAndGlyphs" textLength="86" x="140" y="137.4951">tem registadas</text>
        <polygon fill="#000000" points="229,130.6758,235,133.6758,229,136.6758,229,130.6758" style="stroke: #000000; stroke-width: 1.0;" /><text fill="#000000" font-family="sans-serif" font-size="13" lengthAdjust="spacingAndGlyphs" textLength="7" x="116.8621" y="183.8485">1</text><text fill="#000000" font-family="sans-serif" font-size="13" lengthAdjust="spacingAndGlyphs" textLength="5" x="302.5207" y="141.3213">*</text>
        <!--MD5=[567db691f9836c63f305bad1024cbc66]
link Organizacao to Colaborador-->
        <path d="M416.646,104.681 C474.309,93.858 568.867,76.109 626.477,65.296 " fill="none" id="Organizacao-Colaborador" style="stroke: #A80036; stroke-width: 1.0;" /><text fill="#000000" font-family="sans-serif" font-size="13" lengthAdjust="spacingAndGlyphs" textLength="22" x="522" y="69.4951">tem</text>
        <polygon fill="#000000" points="547,62.6758,553,65.6758,547,68.6758,547,62.6758" style="stroke: #000000; stroke-width: 1.0;" /><text fill="#000000" font-family="sans-serif" font-size="13" lengthAdjust="spacingAndGlyphs" textLength="7" x="424.5987" y="117.995">1</text><text fill="#000000" font-family="sans-serif" font-size="13" lengthAdjust="spacingAndGlyphs" textLength="20" x="598.3442" y="81.1158">1..*</text>
        <!--MD5=[567db691f9836c63f305bad1024cbc66]
link Organizacao to Colaborador-->
        <path d="M416.713,122.828 C462.117,128.948 530.564,133.247 587,116 C600.722,111.806 614.241,104.707 626.438,96.83 " fill="none" id="Organizacao-Colaborador-1" style="stroke: #A80036; stroke-width: 1.0;" /><text fill="#000000" font-family="sans-serif" font-size="13" lengthAdjust="spacingAndGlyphs" textLength="62" x="502" y="112.4951">tem gestor</text>
        <polygon fill="#000000" points="567,105.6758,573,108.6758,567,111.6758,567,105.6758" style="stroke: #000000; stroke-width: 1.0;" /><text fill="#000000" font-family="sans-serif" font-size="13" lengthAdjust="spacingAndGlyphs" textLength="7" x="424.3367" y="138.7016">1</text><text fill="#000000" font-family="sans-serif" font-size="13" lengthAdjust="spacingAndGlyphs" textLength="7" x="611.4976" y="117.4976">1</text>
        <!--MD5=[ca49ec1e86bb5e8c049c02c54bfc3088]
link Organizacao to EnderecoPostal-->
        <path d="M416.641,132.02 C439.364,139.713 466.791,148.2292 492,154 C533.197,163.4307 580.413,170.018 616.7,174.2023 " fill="none" id="Organizacao-EnderecoPostal" style="stroke: #A80036; stroke-width: 1.0;" /><text fill="#000000" font-family="sans-serif" font-size="13" lengthAdjust="spacingAndGlyphs" textLength="80" x="493" y="150.4951">localizada em</text>
        <polygon fill="#000000" points="576,143.6758,582,146.6758,576,149.6758,576,143.6758" style="stroke: #000000; stroke-width: 1.0;" /><text fill="#000000" font-family="sans-serif" font-size="13" lengthAdjust="spacingAndGlyphs" textLength="7" x="424.593" y="149.3494">1</text><text fill="#000000" font-family="sans-serif" font-size="13" lengthAdjust="spacingAndGlyphs" textLength="7" x="601.9244" y="188.0172">1</text>
        <!--MD5=[bcb5794e8184ce78d304f04a5beabbc0]
link Colaborador to Utilizador-->
        <path d="M727.659,56 C770.199,56 831.057,56 872.971,56 " fill="none" id="Colaborador-Utilizador" style="stroke: #A80036; stroke-width: 1.0;" /><text fill="#000000" font-family="sans-serif" font-size="13" lengthAdjust="spacingAndGlyphs" textLength="61" x="768" y="52.4951">atua como</text>
        <polygon fill="#000000" points="832,45.6758,838,48.6758,832,51.6758,832,45.6758" style="stroke: #000000; stroke-width: 1.0;" /><text fill="#000000" font-family="sans-serif" font-size="13" lengthAdjust="spacingAndGlyphs" textLength="22" x="735.5591" y="70.5206">0..1</text><text fill="#000000" font-family="sans-serif" font-size="13" lengthAdjust="spacingAndGlyphs" textLength="7" x="858.0041" y="70.7847">1</text>
        <!--MD5=[66e54c7f1cf38a32f63636b447447a39]
@startuml
skinparam classAttributeIconSize 0
hide methods
left to right direction

class Plataforma {
  -String designacao
}

class Organizacao {
  -String nome
  -String NIF
  -String website
  -String telefone
  -String email
}

class Colaborador {
  -String nome
  -String funcao
  -String telefone
  -String email
}

class EnderecoPostal {
  -String local
  -String codPostal
  -String localidade
}


class Utilizador {
  -String nome
  -String email
  -String password
}


class AlgoritmoGeradorPasswords {

}


Plataforma "*" - - "*" AlgoritmoGeradorPasswords: recorre a >
Plataforma "1" - - "*" Organizacao : tem registadas >
Organizacao "1" - - "1..*" Colaborador: tem >
Organizacao "1" - - "1" Colaborador: tem gestor >
Organizacao "1" - - "1" EnderecoPostal: localizada em >
Colaborador "0..1" - - "1" Utilizador: atua como >
@enduml

PlantUML version 1.2020.02(Sun Mar 01 10:22:07 GMT 2020)
(GPL source distribution)
Java Runtime: Java(TM) SE Runtime Environment
JVM: Java HotSpot(TM) Client VM
Java Version: 1.8.0_201-b09
Operating System: Windows 10
Default Encoding: Cp1252
Language: pt
Country: PT
-->
    </g>
</svg>