<?xml version="1.0" encoding="UTF-8"?><svg xmlns="http://www.w3.org/2000/svg" xmlns:xlink="http://www.w3.org/1999/xlink" contentScriptType="application/ecmascript" contentStyleType="text/css" height="1832px" preserveAspectRatio="none" style="width:1937px;height:1832px;" version="1.1" viewBox="0 0 1937 1832" width="1937px" zoomAndPan="magnify">
    <defs>
        <filter height="300%" id="ft0e6443i5bnl" width="300%" x="-1" y="-1">
            <feGaussianBlur result="blurOut" stdDeviation="2.0"/>
            <feColorMatrix in="blurOut" result="blurOut2" type="matrix" values="0 0 0 0 0 0 0 0 0 0 0 0 0 0 0 0 0 0 .4 0"/>
            <feOffset dx="4.0" dy="4.0" in="blurOut2" result="blurOut3"/>
            <feBlend in="SourceGraphic" in2="blurOut3" mode="normal"/>
        </filter>
    </defs>
    <g>
        <rect fill="#FFFFFF" filter="url(#ft0e6443i5bnl)" height="1630.6641" style="stroke: #A80036; stroke-width: 1.0;" width="10" x="65" y="97.6094"/>
        <rect fill="#FFFFFF" filter="url(#ft0e6443i5bnl)" height="30.3516" style="stroke: #A80036; stroke-width: 1.0;" width="10" x="410" y="119.6094"/>
        <rect fill="#FFFFFF" filter="url(#ft0e6443i5bnl)" height="258.9766" style="stroke: #A80036; stroke-width: 1.0;" width="10" x="410" y="180.3125"/>
        <rect fill="#FFFFFF" filter="url(#ft0e6443i5bnl)" height="241.7578" style="stroke: #A80036; stroke-width: 1.0;" width="10" x="410" y="469.6406"/>
        <rect fill="#FFFFFF" filter="url(#ft0e6443i5bnl)" height="30.3516" style="stroke: #A80036; stroke-width: 1.0;" width="10" x="410" y="767.1016"/>
        <rect fill="#FFFFFF" filter="url(#ft0e6443i5bnl)" height="359.6797" style="stroke: #A80036; stroke-width: 1.0;" width="10" x="410" y="827.8047"/>
        <rect fill="#FFFFFF" filter="url(#ft0e6443i5bnl)" height="241.9766" style="stroke: #A80036; stroke-width: 1.0;" width="10" x="410" y="1217.8359"/>
        <rect fill="#FFFFFF" filter="url(#ft0e6443i5bnl)" height="238.1094" style="stroke: #A80036; stroke-width: 1.0;" width="10" x="410" y="1490.1641"/>
        <rect fill="#FFFFFF" filter="url(#ft0e6443i5bnl)" height="198.2734" style="stroke: #A80036; stroke-width: 1.0;" width="10" x="681" y="210.6641"/>
        <rect fill="#FFFFFF" filter="url(#ft0e6443i5bnl)" height="181.0547" style="stroke: #A80036; stroke-width: 1.0;" width="10" x="681" y="499.9922"/>
        <rect fill="#FFFFFF" filter="url(#ft0e6443i5bnl)" height="234.625" style="stroke: #A80036; stroke-width: 1.0;" width="10" x="681" y="858.1563"/>
        <rect fill="#FFFFFF" filter="url(#ft0e6443i5bnl)" height="489.4375" style="stroke: #A80036; stroke-width: 1.0;" width="10" x="681" y="1248.1875"/>
        <rect fill="#FFFFFF" filter="url(#ft0e6443i5bnl)" height="207.7578" style="stroke: #A80036; stroke-width: 1.0;" width="10" x="686" y="1520.5156"/>
        <rect fill="#FFFFFF" filter="url(#ft0e6443i5bnl)" height="73.7031" style="stroke: #A80036; stroke-width: 1.0;" width="10" x="864" y="241.0156"/>
        <rect fill="#FFFFFF" filter="url(#ft0e6443i5bnl)" height="30" style="stroke: #A80036; stroke-width: 1.0;" width="10" x="864" y="378.9375"/>
        <rect fill="#FFFFFF" filter="url(#ft0e6443i5bnl)" height="30" style="stroke: #A80036; stroke-width: 1.0;" width="10" x="864" y="530.3438"/>
        <rect fill="#FFFFFF" filter="url(#ft0e6443i5bnl)" height="30" style="stroke: #A80036; stroke-width: 1.0;" width="10" x="864" y="651.0469"/>
        <rect fill="#FFFFFF" filter="url(#ft0e6443i5bnl)" height="30" style="stroke: #A80036; stroke-width: 1.0;" width="10" x="864" y="888.5078"/>
        <rect fill="#FFFFFF" filter="url(#ft0e6443i5bnl)" height="177.4063" style="stroke: #A80036; stroke-width: 1.0;" width="10" x="864" y="1550.8672"/>
        <rect fill="#FFFFFF" filter="url(#ft0e6443i5bnl)" height="30" style="stroke: #A80036; stroke-width: 1.0;" width="10" x="1279" y="590.6953"/>
        <rect fill="#FFFFFF" filter="url(#ft0e6443i5bnl)" height="143.9219" style="stroke: #A80036; stroke-width: 1.0;" width="10" x="1279" y="948.8594"/>
        <rect fill="#FFFFFF" filter="url(#ft0e6443i5bnl)" height="143.9219" style="stroke: #A80036; stroke-width: 1.0;" width="10" x="1279" y="1278.5391"/>
        <rect fill="#FFFFFF" filter="url(#ft0e6443i5bnl)" height="30" style="stroke: #A80036; stroke-width: 1.0;" width="10" x="1279" y="1581.2188"/>
        <rect fill="#FEFECE" filter="url(#ft0e6443i5bnl)" height="49.2188" style="stroke: #A80036; stroke-width: 1.5;" width="80" x="1242" y="292.7188"/>
        <text fill="#000000" font-family="sans-serif" font-size="14" lengthAdjust="spacingAndGlyphs" textLength="19" x="1272.5" y="314.252">cat</text>
        <text fill="#000000" font-family="sans-serif" font-size="14" lengthAdjust="spacingAndGlyphs" textLength="66" x="1249" y="331.8613">:Categoria</text>
        <rect fill="#FFFFFF" filter="url(#ft0e6443i5bnl)" height="406.3828" style="stroke: #000000; stroke-width: 2.0;" width="1828.5" x="13" y="726.75"/>
        <rect fill="#FEFECE" filter="url(#ft0e6443i5bnl)" height="49.2188" style="stroke: #A80036; stroke-width: 1.5;" width="85" x="1742.5" y="957.2109"/>
        <text fill="#000000" font-family="sans-serif" font-size="14" lengthAdjust="spacingAndGlyphs" textLength="18" x="1776" y="978.7441">cct</text>
        <text fill="#000000" font-family="sans-serif" font-size="14" lengthAdjust="spacingAndGlyphs" textLength="71" x="1749.5" y="996.3535">:CaraterCT</text>
        <rect fill="#FEFECE" filter="url(#ft0e6443i5bnl)" height="49.2188" style="stroke: #A80036; stroke-width: 1.5;" width="87" x="1841.5" y="1286.8906"/>
        <text fill="#000000" font-family="sans-serif" font-size="14" lengthAdjust="spacingAndGlyphs" textLength="52" x="1859" y="1308.4238">gp:Grau</text>
        <text fill="#000000" font-family="sans-serif" font-size="14" lengthAdjust="spacingAndGlyphs" textLength="73" x="1848.5" y="1326.0332">Proficiencia</text>
        <line style="stroke: #A80036; stroke-width: 1.0; stroke-dasharray: 5.0,5.0;" x1="70" x2="70" y1="87.6094" y2="1746.625"/>
        <line style="stroke: #A80036; stroke-width: 1.0; stroke-dasharray: 5.0,5.0;" x1="414.5" x2="414.5" y1="87.6094" y2="1746.625"/>
        <line style="stroke: #A80036; stroke-width: 1.0; stroke-dasharray: 5.0,5.0;" x1="686" x2="686" y1="87.6094" y2="1746.625"/>
        <line style="stroke: #A80036; stroke-width: 1.0; stroke-dasharray: 5.0,5.0;" x1="869" x2="869" y1="87.6094" y2="1746.625"/>
        <line style="stroke: #A80036; stroke-width: 1.0; stroke-dasharray: 5.0,5.0;" x1="1038" x2="1038" y1="87.6094" y2="1746.625"/>
        <line style="stroke: #A80036; stroke-width: 1.0; stroke-dasharray: 5.0,5.0;" x1="1177" x2="1177" y1="87.6094" y2="1746.625"/>
        <line style="stroke: #A80036; stroke-width: 1.0; stroke-dasharray: 5.0,5.0;" x1="1284" x2="1284" y1="334.8281" y2="1746.625"/>
        <line style="stroke: #A80036; stroke-width: 1.0; stroke-dasharray: 5.0,5.0;" x1="1474.5" x2="1474.5" y1="87.6094" y2="1746.625"/>
        <line style="stroke: #A80036; stroke-width: 1.0; stroke-dasharray: 5.0,5.0;" x1="1656.5" x2="1656.5" y1="87.6094" y2="1746.625"/>
        <line style="stroke: #A80036; stroke-width: 1.0; stroke-dasharray: 5.0,5.0;" x1="1786.5" x2="1786.5" y1="999.3203" y2="1746.625"/>
        <line style="stroke: #A80036; stroke-width: 1.0; stroke-dasharray: 5.0,5.0;" x1="1886.5" x2="1886.5" y1="1329" y2="1746.625"/>
        <text fill="#000000" font-family="sans-serif" font-size="14" lengthAdjust="spacingAndGlyphs" textLength="88" x="23" y="84.5332">Administrativo</text>
        <ellipse cx="70" cy="13" fill="#FEFECE" filter="url(#ft0e6443i5bnl)" rx="8" ry="8" style="stroke: #A80036; stroke-width: 2.0;"/>
        <path d="M70,21 L70,48 M57,29 L83,29 M70,48 L57,63 M70,48 L83,63 " fill="#FEFECE" filter="url(#ft0e6443i5bnl)" style="stroke: #A80036; stroke-width: 2.0;"/>
        <text fill="#000000" font-family="sans-serif" font-size="14" lengthAdjust="spacingAndGlyphs" textLength="88" x="23" y="1760.1582">Administrativo</text>
        <ellipse cx="70" cy="1773.2344" fill="#FEFECE" filter="url(#ft0e6443i5bnl)" rx="8" ry="8" style="stroke: #A80036; stroke-width: 2.0;"/>
        <path d="M70,1781.2344 L70,1808.2344 M57,1789.2344 L83,1789.2344 M70,1808.2344 L57,1823.2344 M70,1808.2344 L83,1823.2344 " fill="#FEFECE" filter="url(#ft0e6443i5bnl)" style="stroke: #A80036; stroke-width: 2.0;"/>
        <rect fill="#FEFECE" filter="url(#ft0e6443i5bnl)" height="31.6094" style="stroke: #A80036; stroke-width: 1.5;" width="133" x="346.5" y="51"/>
        <text fill="#000000" font-family="sans-serif" font-size="14" lengthAdjust="spacingAndGlyphs" textLength="119" x="353.5" y="72.5332">:DefinirCategoriaUI</text>
        <rect fill="#FEFECE" filter="url(#ft0e6443i5bnl)" height="31.6094" style="stroke: #A80036; stroke-width: 1.5;" width="133" x="346.5" y="1745.625"/>
        <text fill="#000000" font-family="sans-serif" font-size="14" lengthAdjust="spacingAndGlyphs" textLength="119" x="353.5" y="1767.1582">:DefinirCategoriaUI</text>
        <rect fill="#FEFECE" filter="url(#ft0e6443i5bnl)" height="31.6094" style="stroke: #A80036; stroke-width: 1.5;" width="180" x="594" y="51"/>
        <text fill="#000000" font-family="sans-serif" font-size="14" lengthAdjust="spacingAndGlyphs" textLength="166" x="601" y="72.5332">:DefinircategoriaController</text>
        <rect fill="#FEFECE" filter="url(#ft0e6443i5bnl)" height="31.6094" style="stroke: #A80036; stroke-width: 1.5;" width="180" x="594" y="1745.625"/>
        <text fill="#000000" font-family="sans-serif" font-size="14" lengthAdjust="spacingAndGlyphs" textLength="166" x="601" y="1767.1582">:DefinircategoriaController</text>
        <rect fill="#FEFECE" filter="url(#ft0e6443i5bnl)" height="31.6094" style="stroke: #A80036; stroke-width: 1.5;" width="86" x="824" y="51"/>
        <text fill="#000000" font-family="sans-serif" font-size="14" lengthAdjust="spacingAndGlyphs" textLength="72" x="831" y="72.5332">:Plataforma</text>
        <rect fill="#FEFECE" filter="url(#ft0e6443i5bnl)" height="31.6094" style="stroke: #A80036; stroke-width: 1.5;" width="86" x="824" y="1745.625"/>
        <text fill="#000000" font-family="sans-serif" font-size="14" lengthAdjust="spacingAndGlyphs" textLength="72" x="831" y="1767.1582">:Plataforma</text>
        <rect fill="#FEFECE" filter="url(#ft0e6443i5bnl)" height="49.2188" style="stroke: #A80036; stroke-width: 1.5;" width="144" x="964" y="33.3906"/>
        <text fill="#000000" font-family="sans-serif" font-size="14" lengthAdjust="spacingAndGlyphs" textLength="11" x="1030.5" y="54.9238">la</text>
        <text fill="#000000" font-family="sans-serif" font-size="14" lengthAdjust="spacingAndGlyphs" textLength="130" x="971" y="72.5332">:List&lt;AreaAtividade&gt;</text>
        <rect fill="#FEFECE" filter="url(#ft0e6443i5bnl)" height="49.2188" style="stroke: #A80036; stroke-width: 1.5;" width="144" x="964" y="1745.625"/>
        <text fill="#000000" font-family="sans-serif" font-size="14" lengthAdjust="spacingAndGlyphs" textLength="11" x="1030.5" y="1767.1582">la</text>
        <text fill="#000000" font-family="sans-serif" font-size="14" lengthAdjust="spacingAndGlyphs" textLength="130" x="971" y="1784.7676">:List&lt;AreaAtividade&gt;</text>
        <rect fill="#FEFECE" filter="url(#ft0e6443i5bnl)" height="49.2188" style="stroke: #A80036; stroke-width: 1.5;" width="106" x="1122" y="33.3906"/>
        <text fill="#000000" font-family="sans-serif" font-size="14" lengthAdjust="spacingAndGlyphs" textLength="12" x="1169" y="54.9238">at</text>
        <text fill="#000000" font-family="sans-serif" font-size="14" lengthAdjust="spacingAndGlyphs" textLength="92" x="1129" y="72.5332">:AreaAtividade</text>
        <rect fill="#FEFECE" filter="url(#ft0e6443i5bnl)" height="49.2188" style="stroke: #A80036; stroke-width: 1.5;" width="106" x="1122" y="1745.625"/>
        <text fill="#000000" font-family="sans-serif" font-size="14" lengthAdjust="spacingAndGlyphs" textLength="12" x="1169" y="1767.1582">at</text>
        <text fill="#000000" font-family="sans-serif" font-size="14" lengthAdjust="spacingAndGlyphs" textLength="92" x="1129" y="1784.7676">:AreaAtividade</text>
        <rect fill="#FEFECE" filter="url(#ft0e6443i5bnl)" height="49.2188" style="stroke: #A80036; stroke-width: 1.5;" width="80" x="1242" y="1745.625"/>
        <text fill="#000000" font-family="sans-serif" font-size="14" lengthAdjust="spacingAndGlyphs" textLength="19" x="1272.5" y="1767.1582">cat</text>
        <text fill="#000000" font-family="sans-serif" font-size="14" lengthAdjust="spacingAndGlyphs" textLength="66" x="1249" y="1784.7676">:Categoria</text>
        <rect fill="#FEFECE" filter="url(#ft0e6443i5bnl)" height="49.2188" style="stroke: #A80036; stroke-width: 1.5;" width="189" x="1378.5" y="33.3906"/>
        <text fill="#000000" font-family="sans-serif" font-size="14" lengthAdjust="spacingAndGlyphs" textLength="14" x="1466" y="54.9238">lct</text>
        <text fill="#000000" font-family="sans-serif" font-size="14" lengthAdjust="spacingAndGlyphs" textLength="175" x="1385.5" y="72.5332">:List&lt;CompetenciaTecnica&gt;</text>
        <rect fill="#FEFECE" filter="url(#ft0e6443i5bnl)" height="49.2188" style="stroke: #A80036; stroke-width: 1.5;" width="189" x="1378.5" y="1745.625"/>
        <text fill="#000000" font-family="sans-serif" font-size="14" lengthAdjust="spacingAndGlyphs" textLength="14" x="1466" y="1767.1582">lct</text>
        <text fill="#000000" font-family="sans-serif" font-size="14" lengthAdjust="spacingAndGlyphs" textLength="175" x="1385.5" y="1784.7676">:List&lt;CompetenciaTecnica&gt;</text>
        <rect fill="#FEFECE" filter="url(#ft0e6443i5bnl)" height="49.2188" style="stroke: #A80036; stroke-width: 1.5;" width="147" x="1581.5" y="33.3906"/>
        <text fill="#000000" font-family="sans-serif" font-size="14" lengthAdjust="spacingAndGlyphs" textLength="15" x="1647.5" y="54.9238">ct:</text>
        <text fill="#000000" font-family="sans-serif" font-size="14" lengthAdjust="spacingAndGlyphs" textLength="133" x="1588.5" y="72.5332">CompetenciaTecnica</text>
        <rect fill="#FEFECE" filter="url(#ft0e6443i5bnl)" height="49.2188" style="stroke: #A80036; stroke-width: 1.5;" width="147" x="1581.5" y="1745.625"/>
        <text fill="#000000" font-family="sans-serif" font-size="14" lengthAdjust="spacingAndGlyphs" textLength="15" x="1647.5" y="1767.1582">ct:</text>
        <text fill="#000000" font-family="sans-serif" font-size="14" lengthAdjust="spacingAndGlyphs" textLength="133" x="1588.5" y="1784.7676">CompetenciaTecnica</text>
        <rect fill="#FEFECE" filter="url(#ft0e6443i5bnl)" height="49.2188" style="stroke: #A80036; stroke-width: 1.5;" width="85" x="1742.5" y="1745.625"/>
        <text fill="#000000" font-family="sans-serif" font-size="14" lengthAdjust="spacingAndGlyphs" textLength="18" x="1776" y="1767.1582">cct</text>
        <text fill="#000000" font-family="sans-serif" font-size="14" lengthAdjust="spacingAndGlyphs" textLength="71" x="1749.5" y="1784.7676">:CaraterCT</text>
        <rect fill="#FEFECE" filter="url(#ft0e6443i5bnl)" height="49.2188" style="stroke: #A80036; stroke-width: 1.5;" width="87" x="1841.5" y="1745.625"/>
        <text fill="#000000" font-family="sans-serif" font-size="14" lengthAdjust="spacingAndGlyphs" textLength="52" x="1859" y="1767.1582">gp:Grau</text>
        <text fill="#000000" font-family="sans-serif" font-size="14" lengthAdjust="spacingAndGlyphs" textLength="73" x="1848.5" y="1784.7676">Proficiencia</text>
        <rect fill="#FFFFFF" filter="url(#ft0e6443i5bnl)" height="1630.6641" style="stroke: #A80036; stroke-width: 1.0;" width="10" x="65" y="97.6094"/>
        <rect fill="#FFFFFF" filter="url(#ft0e6443i5bnl)" height="30.3516" style="stroke: #A80036; stroke-width: 1.0;" width="10" x="410" y="119.6094"/>
        <rect fill="#FFFFFF" filter="url(#ft0e6443i5bnl)" height="258.9766" style="stroke: #A80036; stroke-width: 1.0;" width="10" x="410" y="180.3125"/>
        <rect fill="#FFFFFF" filter="url(#ft0e6443i5bnl)" height="241.7578" style="stroke: #A80036; stroke-width: 1.0;" width="10" x="410" y="469.6406"/>
        <rect fill="#FFFFFF" filter="url(#ft0e6443i5bnl)" height="30.3516" style="stroke: #A80036; stroke-width: 1.0;" width="10" x="410" y="767.1016"/>
        <rect fill="#FFFFFF" filter="url(#ft0e6443i5bnl)" height="359.6797" style="stroke: #A80036; stroke-width: 1.0;" width="10" x="410" y="827.8047"/>
        <rect fill="#FFFFFF" filter="url(#ft0e6443i5bnl)" height="241.9766" style="stroke: #A80036; stroke-width: 1.0;" width="10" x="410" y="1217.8359"/>
        <rect fill="#FFFFFF" filter="url(#ft0e6443i5bnl)" height="238.1094" style="stroke: #A80036; stroke-width: 1.0;" width="10" x="410" y="1490.1641"/>
        <rect fill="#FFFFFF" filter="url(#ft0e6443i5bnl)" height="198.2734" style="stroke: #A80036; stroke-width: 1.0;" width="10" x="681" y="210.6641"/>
        <rect fill="#FFFFFF" filter="url(#ft0e6443i5bnl)" height="181.0547" style="stroke: #A80036; stroke-width: 1.0;" width="10" x="681" y="499.9922"/>
        <rect fill="#FFFFFF" filter="url(#ft0e6443i5bnl)" height="234.625" style="stroke: #A80036; stroke-width: 1.0;" width="10" x="681" y="858.1563"/>
        <rect fill="#FFFFFF" filter="url(#ft0e6443i5bnl)" height="489.4375" style="stroke: #A80036; stroke-width: 1.0;" width="10" x="681" y="1248.1875"/>
        <rect fill="#FFFFFF" filter="url(#ft0e6443i5bnl)" height="207.7578" style="stroke: #A80036; stroke-width: 1.0;" width="10" x="686" y="1520.5156"/>
        <rect fill="#FFFFFF" filter="url(#ft0e6443i5bnl)" height="73.7031" style="stroke: #A80036; stroke-width: 1.0;" width="10" x="864" y="241.0156"/>
        <rect fill="#FFFFFF" filter="url(#ft0e6443i5bnl)" height="30" style="stroke: #A80036; stroke-width: 1.0;" width="10" x="864" y="378.9375"/>
        <rect fill="#FFFFFF" filter="url(#ft0e6443i5bnl)" height="30" style="stroke: #A80036; stroke-width: 1.0;" width="10" x="864" y="530.3438"/>
        <rect fill="#FFFFFF" filter="url(#ft0e6443i5bnl)" height="30" style="stroke: #A80036; stroke-width: 1.0;" width="10" x="864" y="651.0469"/>
        <rect fill="#FFFFFF" filter="url(#ft0e6443i5bnl)" height="30" style="stroke: #A80036; stroke-width: 1.0;" width="10" x="864" y="888.5078"/>
        <rect fill="#FFFFFF" filter="url(#ft0e6443i5bnl)" height="177.4063" style="stroke: #A80036; stroke-width: 1.0;" width="10" x="864" y="1550.8672"/>
        <rect fill="#FFFFFF" filter="url(#ft0e6443i5bnl)" height="30" style="stroke: #A80036; stroke-width: 1.0;" width="10" x="1279" y="590.6953"/>
        <rect fill="#FFFFFF" filter="url(#ft0e6443i5bnl)" height="143.9219" style="stroke: #A80036; stroke-width: 1.0;" width="10" x="1279" y="948.8594"/>
        <rect fill="#FFFFFF" filter="url(#ft0e6443i5bnl)" height="143.9219" style="stroke: #A80036; stroke-width: 1.0;" width="10" x="1279" y="1278.5391"/>
        <rect fill="#FFFFFF" filter="url(#ft0e6443i5bnl)" height="30" style="stroke: #A80036; stroke-width: 1.0;" width="10" x="1279" y="1581.2188"/>
        <polygon fill="#A80036" points="398,115.6094,408,119.6094,398,123.6094,402,119.6094" style="stroke: #A80036; stroke-width: 1.0;"/>
        <line style="stroke: #A80036; stroke-width: 1.0;" x1="75" x2="404" y1="119.6094" y2="119.6094"/>
        <text fill="#000000" font-family="sans-serif" font-size="13" font-weight="bold" lengthAdjust="spacingAndGlyphs" textLength="7" x="82" y="115.1045">1</text>
        <text fill="#000000" font-family="sans-serif" font-size="13" lengthAdjust="spacingAndGlyphs" textLength="255" x="93" y="115.1045">inicia a definição de nova categoria de tarefa</text>
        <polygon fill="#A80036" points="86,145.9609,76,149.9609,86,153.9609,82,149.9609" style="stroke: #A80036; stroke-width: 1.0;"/>
        <line style="stroke: #A80036; stroke-width: 1.0; stroke-dasharray: 2.0,2.0;" x1="80" x2="414" y1="149.9609" y2="149.9609"/>
        <text fill="#000000" font-family="sans-serif" font-size="13" font-weight="bold" lengthAdjust="spacingAndGlyphs" textLength="7" x="92" y="145.4561">2</text>
        <text fill="#000000" font-family="sans-serif" font-size="13" lengthAdjust="spacingAndGlyphs" textLength="112" x="103" y="145.4561">solicita a descrição</text>
        <polygon fill="#A80036" points="398,176.3125,408,180.3125,398,184.3125,402,180.3125" style="stroke: #A80036; stroke-width: 1.0;"/>
        <line style="stroke: #A80036; stroke-width: 1.0;" x1="75" x2="404" y1="180.3125" y2="180.3125"/>
        <text fill="#000000" font-family="sans-serif" font-size="13" font-weight="bold" lengthAdjust="spacingAndGlyphs" textLength="7" x="82" y="175.8076">3</text>
        <text fill="#000000" font-family="sans-serif" font-size="13" lengthAdjust="spacingAndGlyphs" textLength="176" x="93" y="175.8076">introduz a descrição solicitada</text>
        <polygon fill="#A80036" points="669,206.6641,679,210.6641,669,214.6641,673,210.6641" style="stroke: #A80036; stroke-width: 1.0;"/>
        <line style="stroke: #A80036; stroke-width: 1.0;" x1="420" x2="675" y1="210.6641" y2="210.6641"/>
        <text fill="#000000" font-family="sans-serif" font-size="13" font-weight="bold" lengthAdjust="spacingAndGlyphs" textLength="7" x="427" y="206.1592">4</text>
        <text fill="#000000" font-family="sans-serif" font-size="13" lengthAdjust="spacingAndGlyphs" textLength="135" x="438" y="206.1592">la=novaCategoria(desc)</text>
        <polygon fill="#A80036" points="852,237.0156,862,241.0156,852,245.0156,856,241.0156" style="stroke: #A80036; stroke-width: 1.0;"/>
        <line style="stroke: #A80036; stroke-width: 1.0;" x1="691" x2="858" y1="241.0156" y2="241.0156"/>
        <text fill="#000000" font-family="sans-serif" font-size="13" font-weight="bold" lengthAdjust="spacingAndGlyphs" textLength="7" x="698" y="236.5107">5</text>
        <text fill="#000000" font-family="sans-serif" font-size="13" lengthAdjust="spacingAndGlyphs" textLength="143" x="709" y="236.5107">cat=novaCategoria(desc)</text>
        <line style="stroke: #A80036; stroke-width: 1.0;" x1="874" x2="916" y1="271.7188" y2="271.7188"/>
        <line style="stroke: #A80036; stroke-width: 1.0;" x1="916" x2="916" y1="271.7188" y2="284.7188"/>
        <line style="stroke: #A80036; stroke-width: 1.0;" x1="875" x2="916" y1="284.7188" y2="284.7188"/>
        <polygon fill="#A80036" points="885,280.7188,875,284.7188,885,288.7188,881,284.7188" style="stroke: #A80036; stroke-width: 1.0;"/>
        <text fill="#000000" font-family="sans-serif" font-size="13" font-weight="bold" lengthAdjust="spacingAndGlyphs" textLength="7" x="881" y="266.8623">6</text>
        <text fill="#000000" font-family="sans-serif" font-size="13" lengthAdjust="spacingAndGlyphs" textLength="134" x="892" y="266.8623">catId=geraCategoriaId()</text>
        <polygon fill="#A80036" points="1230,310.7188,1240,314.7188,1230,318.7188,1234,314.7188" style="stroke: #A80036; stroke-width: 1.0;"/>
        <line style="stroke: #A80036; stroke-width: 1.0; stroke-dasharray: 2.0,2.0;" x1="869" x2="1236" y1="314.7188" y2="314.7188"/>
        <text fill="#000000" font-family="sans-serif" font-size="13" font-weight="bold" lengthAdjust="spacingAndGlyphs" textLength="7" x="876" y="310.2139">7</text>
        <text fill="#000000" font-family="sans-serif" font-size="13" lengthAdjust="spacingAndGlyphs" textLength="104" x="887" y="310.2139">create(catId,desc)</text>
        <rect fill="#FEFECE" filter="url(#ft0e6443i5bnl)" height="49.2188" style="stroke: #A80036; stroke-width: 1.5;" width="80" x="1242" y="292.7188"/>
        <text fill="#000000" font-family="sans-serif" font-size="14" lengthAdjust="spacingAndGlyphs" textLength="19" x="1272.5" y="314.252">cat</text>
        <text fill="#000000" font-family="sans-serif" font-size="14" lengthAdjust="spacingAndGlyphs" textLength="66" x="1249" y="331.8613">:Categoria</text>
        <polygon fill="#A80036" points="852,374.9375,862,378.9375,852,382.9375,856,378.9375" style="stroke: #A80036; stroke-width: 1.0;"/>
        <line style="stroke: #A80036; stroke-width: 1.0;" x1="691" x2="858" y1="378.9375" y2="378.9375"/>
        <text fill="#000000" font-family="sans-serif" font-size="13" font-weight="bold" lengthAdjust="spacingAndGlyphs" textLength="7" x="698" y="374.4326">8</text>
        <text fill="#000000" font-family="sans-serif" font-size="13" lengthAdjust="spacingAndGlyphs" textLength="88" x="709" y="374.4326">la=getListaAT()</text>
        <polygon fill="#A80036" points="86,435.2891,76,439.2891,86,443.2891,82,439.2891" style="stroke: #A80036; stroke-width: 1.0;"/>
        <line style="stroke: #A80036; stroke-width: 1.0; stroke-dasharray: 2.0,2.0;" x1="80" x2="414" y1="439.2891" y2="439.2891"/>
        <text fill="#000000" font-family="sans-serif" font-size="13" font-weight="bold" lengthAdjust="spacingAndGlyphs" textLength="7" x="92" y="434.7842">9</text>
        <text fill="#000000" font-family="sans-serif" font-size="13" lengthAdjust="spacingAndGlyphs" textLength="293" x="103" y="434.7842">mostra lista de AT e solicita escolha de uma delas</text>
        <polygon fill="#A80036" points="398,465.6406,408,469.6406,398,473.6406,402,469.6406" style="stroke: #A80036; stroke-width: 1.0;"/>
        <line style="stroke: #A80036; stroke-width: 1.0;" x1="75" x2="404" y1="469.6406" y2="469.6406"/>
        <text fill="#000000" font-family="sans-serif" font-size="13" font-weight="bold" lengthAdjust="spacingAndGlyphs" textLength="14" x="82" y="465.1357">10</text>
        <text fill="#000000" font-family="sans-serif" font-size="13" lengthAdjust="spacingAndGlyphs" textLength="104" x="100" y="465.1357">seleciona uma AT</text>
        <polygon fill="#A80036" points="669,495.9922,679,499.9922,669,503.9922,673,499.9922" style="stroke: #A80036; stroke-width: 1.0;"/>
        <line style="stroke: #A80036; stroke-width: 1.0;" x1="420" x2="675" y1="499.9922" y2="499.9922"/>
        <text fill="#000000" font-family="sans-serif" font-size="13" font-weight="bold" lengthAdjust="spacingAndGlyphs" textLength="14" x="427" y="495.4873">11</text>
        <text fill="#000000" font-family="sans-serif" font-size="13" lengthAdjust="spacingAndGlyphs" textLength="98" x="445" y="495.4873">lct=setAT(atCod)</text>
        <polygon fill="#A80036" points="852,526.3438,862,530.3438,852,534.3438,856,530.3438" style="stroke: #A80036; stroke-width: 1.0;"/>
        <line style="stroke: #A80036; stroke-width: 1.0;" x1="691" x2="858" y1="530.3438" y2="530.3438"/>
        <text fill="#000000" font-family="sans-serif" font-size="13" font-weight="bold" lengthAdjust="spacingAndGlyphs" textLength="14" x="698" y="525.8389">12</text>
        <text fill="#000000" font-family="sans-serif" font-size="13" lengthAdjust="spacingAndGlyphs" textLength="95" x="716" y="525.8389">at=getAT(atCod)</text>
        <polygon fill="#A80036" points="1267,586.6953,1277,590.6953,1267,594.6953,1271,590.6953" style="stroke: #A80036; stroke-width: 1.0;"/>
        <line style="stroke: #A80036; stroke-width: 1.0;" x1="691" x2="1273" y1="590.6953" y2="590.6953"/>
        <text fill="#000000" font-family="sans-serif" font-size="13" font-weight="bold" lengthAdjust="spacingAndGlyphs" textLength="14" x="698" y="586.1904">13</text>
        <text fill="#000000" font-family="sans-serif" font-size="13" lengthAdjust="spacingAndGlyphs" textLength="53" x="716" y="586.1904">setAT(at)</text>
        <polygon fill="#A80036" points="852,647.0469,862,651.0469,852,655.0469,856,651.0469" style="stroke: #A80036; stroke-width: 1.0;"/>
        <line style="stroke: #A80036; stroke-width: 1.0;" x1="691" x2="858" y1="651.0469" y2="651.0469"/>
        <text fill="#000000" font-family="sans-serif" font-size="13" font-weight="bold" lengthAdjust="spacingAndGlyphs" textLength="14" x="698" y="646.542">14</text>
        <text fill="#000000" font-family="sans-serif" font-size="13" lengthAdjust="spacingAndGlyphs" textLength="92" x="716" y="646.542">lct=getListaCT()</text>
        <polygon fill="#A80036" points="86,707.3984,76,711.3984,86,715.3984,82,711.3984" style="stroke: #A80036; stroke-width: 1.0;"/>
        <line style="stroke: #A80036; stroke-width: 1.0; stroke-dasharray: 2.0,2.0;" x1="80" x2="414" y1="711.3984" y2="711.3984"/>
        <text fill="#000000" font-family="sans-serif" font-size="13" font-weight="bold" lengthAdjust="spacingAndGlyphs" textLength="14" x="92" y="706.8936">15</text>
        <text fill="#000000" font-family="sans-serif" font-size="13" lengthAdjust="spacingAndGlyphs" textLength="293" x="110" y="706.8936">mostra lista de CT e solicita escolha de uma delas</text>
        <rect fill="none" height="406.3828" style="stroke: #000000; stroke-width: 2.0;" width="1828.5" x="13" y="726.75"/>
        <polygon fill="#EEEEEE" points="13,726.75,86,726.75,86,734.75,76,744.75,13,744.75,13,726.75" style="stroke: #000000; stroke-width: 2.0;"/>
        <text fill="#000000" font-family="sans-serif" font-size="13" font-weight="bold" lengthAdjust="spacingAndGlyphs" textLength="28" x="28" y="741.2451">loop</text>
        <polygon fill="#A80036" points="398,763.1016,408,767.1016,398,771.1016,402,767.1016" style="stroke: #A80036; stroke-width: 1.0;"/>
        <line style="stroke: #A80036; stroke-width: 1.0;" x1="75" x2="404" y1="767.1016" y2="767.1016"/>
        <text fill="#000000" font-family="sans-serif" font-size="13" font-weight="bold" lengthAdjust="spacingAndGlyphs" textLength="14" x="82" y="762.5967">16</text>
        <text fill="#000000" font-family="sans-serif" font-size="13" lengthAdjust="spacingAndGlyphs" textLength="104" x="100" y="762.5967">seleciona uma CT</text>
        <polygon fill="#A80036" points="86,793.4531,76,797.4531,86,801.4531,82,797.4531" style="stroke: #A80036; stroke-width: 1.0;"/>
        <line style="stroke: #A80036; stroke-width: 1.0; stroke-dasharray: 2.0,2.0;" x1="80" x2="414" y1="797.4531" y2="797.4531"/>
        <text fill="#000000" font-family="sans-serif" font-size="13" font-weight="bold" lengthAdjust="spacingAndGlyphs" textLength="14" x="92" y="792.9482">17</text>
        <text fill="#000000" font-family="sans-serif" font-size="13" lengthAdjust="spacingAndGlyphs" textLength="207" x="110" y="792.9482">solicita o caráter da CT selecionada</text>
        <polygon fill="#A80036" points="398,823.8047,408,827.8047,398,831.8047,402,827.8047" style="stroke: #A80036; stroke-width: 1.0;"/>
        <line style="stroke: #A80036; stroke-width: 1.0;" x1="75" x2="404" y1="827.8047" y2="827.8047"/>
        <text fill="#000000" font-family="sans-serif" font-size="13" font-weight="bold" lengthAdjust="spacingAndGlyphs" textLength="14" x="82" y="823.2998">18</text>
        <text fill="#000000" font-family="sans-serif" font-size="13" lengthAdjust="spacingAndGlyphs" textLength="212" x="100" y="823.2998">introduz o caráter da CT selecionada</text>
        <polygon fill="#A80036" points="669,854.1563,679,858.1563,669,862.1563,673,858.1563" style="stroke: #A80036; stroke-width: 1.0;"/>
        <line style="stroke: #A80036; stroke-width: 1.0;" x1="420" x2="675" y1="858.1563" y2="858.1563"/>
        <text fill="#000000" font-family="sans-serif" font-size="13" font-weight="bold" lengthAdjust="spacingAndGlyphs" textLength="14" x="427" y="853.6514">19</text>
        <text fill="#000000" font-family="sans-serif" font-size="13" lengthAdjust="spacingAndGlyphs" textLength="139" x="445" y="853.6514">addCaraterCT(ctCod,ob)</text>
        <polygon fill="#A80036" points="852,884.5078,862,888.5078,852,892.5078,856,888.5078" style="stroke: #A80036; stroke-width: 1.0;"/>
        <line style="stroke: #A80036; stroke-width: 1.0;" x1="691" x2="858" y1="888.5078" y2="888.5078"/>
        <text fill="#000000" font-family="sans-serif" font-size="13" font-weight="bold" lengthAdjust="spacingAndGlyphs" textLength="14" x="698" y="884.0029">20</text>
        <text fill="#000000" font-family="sans-serif" font-size="13" lengthAdjust="spacingAndGlyphs" textLength="102" x="716" y="884.0029">ct=getCT(catCod)</text>
        <polygon fill="#A80036" points="1267,944.8594,1277,948.8594,1267,952.8594,1271,948.8594" style="stroke: #A80036; stroke-width: 1.0;"/>
        <line style="stroke: #A80036; stroke-width: 1.0;" x1="691" x2="1273" y1="948.8594" y2="948.8594"/>
        <text fill="#000000" font-family="sans-serif" font-size="13" font-weight="bold" lengthAdjust="spacingAndGlyphs" textLength="14" x="698" y="944.3545">21</text>
        <text fill="#000000" font-family="sans-serif" font-size="13" lengthAdjust="spacingAndGlyphs" textLength="116" x="716" y="944.3545">addCaraterCT(ct,ob)</text>
        <polygon fill="#A80036" points="1730.5,975.2109,1740.5,979.2109,1730.5,983.2109,1734.5,979.2109" style="stroke: #A80036; stroke-width: 1.0;"/>
        <line style="stroke: #A80036; stroke-width: 1.0; stroke-dasharray: 2.0,2.0;" x1="1289" x2="1736.5" y1="979.2109" y2="979.2109"/>
        <text fill="#000000" font-family="sans-serif" font-size="13" font-weight="bold" lengthAdjust="spacingAndGlyphs" textLength="14" x="1296" y="974.7061">22</text>
        <text fill="#000000" font-family="sans-serif" font-size="13" lengthAdjust="spacingAndGlyphs" textLength="73" x="1314" y="974.7061">create(ct,ob)</text>
        <rect fill="#FEFECE" filter="url(#ft0e6443i5bnl)" height="49.2188" style="stroke: #A80036; stroke-width: 1.5;" width="85" x="1742.5" y="957.2109"/>
        <text fill="#000000" font-family="sans-serif" font-size="14" lengthAdjust="spacingAndGlyphs" textLength="18" x="1776" y="978.7441">cct</text>
        <text fill="#000000" font-family="sans-serif" font-size="14" lengthAdjust="spacingAndGlyphs" textLength="71" x="1749.5" y="996.3535">:CaraterCT</text>
        <line style="stroke: #A80036; stroke-width: 1.0;" x1="1289" x2="1331" y1="1043.7813" y2="1043.7813"/>
        <line style="stroke: #A80036; stroke-width: 1.0;" x1="1331" x2="1331" y1="1043.7813" y2="1056.7813"/>
        <line style="stroke: #A80036; stroke-width: 1.0;" x1="1290" x2="1331" y1="1056.7813" y2="1056.7813"/>
        <polygon fill="#A80036" points="1300,1052.7813,1290,1056.7813,1300,1060.7813,1296,1056.7813" style="stroke: #A80036; stroke-width: 1.0;"/>
        <text fill="#000000" font-family="sans-serif" font-size="13" font-weight="bold" lengthAdjust="spacingAndGlyphs" textLength="14" x="1296" y="1038.9248">23</text>
        <text fill="#000000" font-family="sans-serif" font-size="13" lengthAdjust="spacingAndGlyphs" textLength="116" x="1314" y="1038.9248">validaCaraterCT(cct)</text>
        <line style="stroke: #A80036; stroke-width: 1.0;" x1="1289" x2="1331" y1="1092.1328" y2="1092.1328"/>
        <line style="stroke: #A80036; stroke-width: 1.0;" x1="1331" x2="1331" y1="1092.1328" y2="1105.1328"/>
        <line style="stroke: #A80036; stroke-width: 1.0;" x1="1284" x2="1331" y1="1105.1328" y2="1105.1328"/>
        <polygon fill="#A80036" points="1294,1101.1328,1284,1105.1328,1294,1109.1328,1290,1105.1328" style="stroke: #A80036; stroke-width: 1.0;"/>
        <text fill="#000000" font-family="sans-serif" font-size="13" font-weight="bold" lengthAdjust="spacingAndGlyphs" textLength="14" x="1296" y="1087.2764">24</text>
        <text fill="#000000" font-family="sans-serif" font-size="13" lengthAdjust="spacingAndGlyphs" textLength="105" x="1314" y="1087.2764">addCaraterCT(cct)</text>
        <polygon fill="#A80036" points="86,1183.4844,76,1187.4844,86,1191.4844,82,1187.4844" style="stroke: #A80036; stroke-width: 1.0;"/>
        <line style="stroke: #A80036; stroke-width: 1.0; stroke-dasharray: 2.0,2.0;" x1="80" x2="414" y1="1187.4844" y2="1187.4844"/>
        <text fill="#000000" font-family="sans-serif" font-size="13" font-weight="bold" lengthAdjust="spacingAndGlyphs" textLength="14" x="92" y="1182.9795">25</text>
        <text fill="#000000" font-family="sans-serif" font-size="13" lengthAdjust="spacingAndGlyphs" textLength="272" x="110" y="1182.9795">solicita o grau de proficiêcia da CT selecionada</text>
        <polygon fill="#A80036" points="398,1213.8359,408,1217.8359,398,1221.8359,402,1217.8359" style="stroke: #A80036; stroke-width: 1.0;"/>
        <line style="stroke: #A80036; stroke-width: 1.0;" x1="75" x2="404" y1="1217.8359" y2="1217.8359"/>
        <text fill="#000000" font-family="sans-serif" font-size="13" font-weight="bold" lengthAdjust="spacingAndGlyphs" textLength="14" x="82" y="1213.3311">26</text>
        <text fill="#000000" font-family="sans-serif" font-size="13" lengthAdjust="spacingAndGlyphs" textLength="281" x="100" y="1213.3311">introduz o grau de proficiêcia  da CT selecionada</text>
        <polygon fill="#A80036" points="669,1244.1875,679,1248.1875,669,1252.1875,673,1248.1875" style="stroke: #A80036; stroke-width: 1.0;"/>
        <line style="stroke: #A80036; stroke-width: 1.0;" x1="420" x2="675" y1="1248.1875" y2="1248.1875"/>
        <text fill="#000000" font-family="sans-serif" font-size="13" font-weight="bold" lengthAdjust="spacingAndGlyphs" textLength="14" x="427" y="1243.6826">27</text>
        <text fill="#000000" font-family="sans-serif" font-size="13" lengthAdjust="spacingAndGlyphs" textLength="224" x="445" y="1243.6826">addGrauProficiencia(valor, designacao)</text>
        <polygon fill="#A80036" points="1267,1274.5391,1277,1278.5391,1267,1282.5391,1271,1278.5391" style="stroke: #A80036; stroke-width: 1.0;"/>
        <line style="stroke: #A80036; stroke-width: 1.0;" x1="691" x2="1273" y1="1278.5391" y2="1278.5391"/>
        <text fill="#000000" font-family="sans-serif" font-size="13" font-weight="bold" lengthAdjust="spacingAndGlyphs" textLength="14" x="698" y="1274.0342">28</text>
        <text fill="#000000" font-family="sans-serif" font-size="13" lengthAdjust="spacingAndGlyphs" textLength="224" x="716" y="1274.0342">addGrauProficiencia(valor, designacao)</text>
        <polygon fill="#A80036" points="1829.5,1304.8906,1839.5,1308.8906,1829.5,1312.8906,1833.5,1308.8906" style="stroke: #A80036; stroke-width: 1.0;"/>
        <line style="stroke: #A80036; stroke-width: 1.0; stroke-dasharray: 2.0,2.0;" x1="1289" x2="1835.5" y1="1308.8906" y2="1308.8906"/>
        <text fill="#000000" font-family="sans-serif" font-size="13" font-weight="bold" lengthAdjust="spacingAndGlyphs" textLength="14" x="1296" y="1304.3857">29</text>
        <text fill="#000000" font-family="sans-serif" font-size="13" lengthAdjust="spacingAndGlyphs" textLength="144" x="1314" y="1304.3857">create(valor, designacao)</text>
        <rect fill="#FEFECE" filter="url(#ft0e6443i5bnl)" height="49.2188" style="stroke: #A80036; stroke-width: 1.5;" width="87" x="1841.5" y="1286.8906"/>
        <text fill="#000000" font-family="sans-serif" font-size="14" lengthAdjust="spacingAndGlyphs" textLength="52" x="1859" y="1308.4238">gp:Grau</text>
        <text fill="#000000" font-family="sans-serif" font-size="14" lengthAdjust="spacingAndGlyphs" textLength="73" x="1848.5" y="1326.0332">Proficiencia</text>
        <line style="stroke: #A80036; stroke-width: 1.0;" x1="1289" x2="1331" y1="1373.4609" y2="1373.4609"/>
        <line style="stroke: #A80036; stroke-width: 1.0;" x1="1331" x2="1331" y1="1373.4609" y2="1386.4609"/>
        <line style="stroke: #A80036; stroke-width: 1.0;" x1="1290" x2="1331" y1="1386.4609" y2="1386.4609"/>
        <polygon fill="#A80036" points="1300,1382.4609,1290,1386.4609,1300,1390.4609,1296,1386.4609" style="stroke: #A80036; stroke-width: 1.0;"/>
        <text fill="#000000" font-family="sans-serif" font-size="13" font-weight="bold" lengthAdjust="spacingAndGlyphs" textLength="14" x="1296" y="1368.6045">30</text>
        <text fill="#000000" font-family="sans-serif" font-size="13" lengthAdjust="spacingAndGlyphs" textLength="149" x="1314" y="1368.6045">validaGrauProficiencia(gp)</text>
        <line style="stroke: #A80036; stroke-width: 1.0;" x1="1289" x2="1331" y1="1421.8125" y2="1421.8125"/>
        <line style="stroke: #A80036; stroke-width: 1.0;" x1="1331" x2="1331" y1="1421.8125" y2="1434.8125"/>
        <line style="stroke: #A80036; stroke-width: 1.0;" x1="1284" x2="1331" y1="1434.8125" y2="1434.8125"/>
        <polygon fill="#A80036" points="1294,1430.8125,1284,1434.8125,1294,1438.8125,1290,1434.8125" style="stroke: #A80036; stroke-width: 1.0;"/>
        <text fill="#000000" font-family="sans-serif" font-size="13" font-weight="bold" lengthAdjust="spacingAndGlyphs" textLength="14" x="1296" y="1416.9561">31</text>
        <text fill="#000000" font-family="sans-serif" font-size="13" lengthAdjust="spacingAndGlyphs" textLength="138" x="1314" y="1416.9561">addGrauProficiencia(gp)</text>
        <polygon fill="#A80036" points="86,1455.8125,76,1459.8125,86,1463.8125,82,1459.8125" style="stroke: #A80036; stroke-width: 1.0;"/>
        <line style="stroke: #A80036; stroke-width: 1.0; stroke-dasharray: 2.0,2.0;" x1="80" x2="414" y1="1459.8125" y2="1459.8125"/>
        <text fill="#000000" font-family="sans-serif" font-size="13" font-weight="bold" lengthAdjust="spacingAndGlyphs" textLength="14" x="92" y="1455.3076">32</text>
        <text fill="#000000" font-family="sans-serif" font-size="13" lengthAdjust="spacingAndGlyphs" textLength="226" x="110" y="1455.3076">apresenta dados e solicita confirmação</text>
        <polygon fill="#A80036" points="398,1486.1641,408,1490.1641,398,1494.1641,402,1490.1641" style="stroke: #A80036; stroke-width: 1.0;"/>
        <line style="stroke: #A80036; stroke-width: 1.0;" x1="75" x2="404" y1="1490.1641" y2="1490.1641"/>
        <text fill="#000000" font-family="sans-serif" font-size="13" font-weight="bold" lengthAdjust="spacingAndGlyphs" textLength="14" x="82" y="1485.6592">33</text>
        <text fill="#000000" font-family="sans-serif" font-size="13" lengthAdjust="spacingAndGlyphs" textLength="49" x="100" y="1485.6592">confirma</text>
        <polygon fill="#A80036" points="674,1516.5156,684,1520.5156,674,1524.5156,678,1520.5156" style="stroke: #A80036; stroke-width: 1.0;"/>
        <line style="stroke: #A80036; stroke-width: 1.0;" x1="420" x2="680" y1="1520.5156" y2="1520.5156"/>
        <text fill="#000000" font-family="sans-serif" font-size="13" font-weight="bold" lengthAdjust="spacingAndGlyphs" textLength="14" x="427" y="1516.0107">34</text>
        <text fill="#000000" font-family="sans-serif" font-size="13" lengthAdjust="spacingAndGlyphs" textLength="102" x="445" y="1516.0107">registaCategoria()</text>
        <polygon fill="#A80036" points="852,1546.8672,862,1550.8672,852,1554.8672,856,1550.8672" style="stroke: #A80036; stroke-width: 1.0;"/>
        <line style="stroke: #A80036; stroke-width: 1.0;" x1="696" x2="858" y1="1550.8672" y2="1550.8672"/>
        <text fill="#000000" font-family="sans-serif" font-size="13" font-weight="bold" lengthAdjust="spacingAndGlyphs" textLength="14" x="703" y="1546.3623">35</text>
        <text fill="#000000" font-family="sans-serif" font-size="13" lengthAdjust="spacingAndGlyphs" textLength="120" x="721" y="1546.3623">registaCategoria(cat)</text>
        <polygon fill="#A80036" points="1267,1577.2188,1277,1581.2188,1267,1585.2188,1271,1581.2188" style="stroke: #A80036; stroke-width: 1.0;"/>
        <line style="stroke: #A80036; stroke-width: 1.0;" x1="874" x2="1273" y1="1581.2188" y2="1581.2188"/>
        <text fill="#000000" font-family="sans-serif" font-size="13" font-weight="bold" lengthAdjust="spacingAndGlyphs" textLength="14" x="881" y="1576.7139">36</text>
        <text fill="#000000" font-family="sans-serif" font-size="13" lengthAdjust="spacingAndGlyphs" textLength="40" x="899" y="1576.7139">valida()</text>
        <line style="stroke: #A80036; stroke-width: 1.0;" x1="874" x2="916" y1="1641.9219" y2="1641.9219"/>
        <line style="stroke: #A80036; stroke-width: 1.0;" x1="916" x2="916" y1="1641.9219" y2="1654.9219"/>
        <line style="stroke: #A80036; stroke-width: 1.0;" x1="875" x2="916" y1="1654.9219" y2="1654.9219"/>
        <polygon fill="#A80036" points="885,1650.9219,875,1654.9219,885,1658.9219,881,1654.9219" style="stroke: #A80036; stroke-width: 1.0;"/>
        <text fill="#000000" font-family="sans-serif" font-size="13" font-weight="bold" lengthAdjust="spacingAndGlyphs" textLength="14" x="881" y="1637.0654">37</text>
        <text fill="#000000" font-family="sans-serif" font-size="13" lengthAdjust="spacingAndGlyphs" textLength="113" x="899" y="1637.0654">validaCategoria(cat)</text>
        <line style="stroke: #A80036; stroke-width: 1.0;" x1="874" x2="916" y1="1685.2734" y2="1685.2734"/>
        <line style="stroke: #A80036; stroke-width: 1.0;" x1="916" x2="916" y1="1685.2734" y2="1698.2734"/>
        <line style="stroke: #A80036; stroke-width: 1.0;" x1="875" x2="916" y1="1698.2734" y2="1698.2734"/>
        <polygon fill="#A80036" points="885,1694.2734,875,1698.2734,885,1702.2734,881,1698.2734" style="stroke: #A80036; stroke-width: 1.0;"/>
        <text fill="#000000" font-family="sans-serif" font-size="13" font-weight="bold" lengthAdjust="spacingAndGlyphs" textLength="14" x="881" y="1680.417">38</text>
        <text fill="#000000" font-family="sans-serif" font-size="13" lengthAdjust="spacingAndGlyphs" textLength="102" x="899" y="1680.417">addCategoria(cat)</text>
        <polygon fill="#A80036" points="81,1724.2734,71,1728.2734,81,1732.2734,77,1728.2734" style="stroke: #A80036; stroke-width: 1.0;"/>
        <line style="stroke: #A80036; stroke-width: 1.0; stroke-dasharray: 2.0,2.0;" x1="75" x2="414" y1="1728.2734" y2="1728.2734"/>
        <text fill="#000000" font-family="sans-serif" font-size="13" font-weight="bold" lengthAdjust="spacingAndGlyphs" textLength="14" x="87" y="1723.7686">39</text>
        <text fill="#000000" font-family="sans-serif" font-size="13" lengthAdjust="spacingAndGlyphs" textLength="170" x="105" y="1723.7686">informa sucesso da operação</text>
        <!--
@startuml
autonumber
'hide footbox
actor "Administrativo" as ADM

participant ":DefinirCategoriaUI" as UI
participant ":DefinircategoriaController" as CTRL
participant ":Plataforma" as PLAT
participant "la\n:List<AreaAtividade>" as LIST_AT
participant "at\n:AreaAtividade" as AT
participant "cat\n:Categoria" as CAT
participant "lct\n:List<CompetenciaTecnica>" as LIST_CT
participant "ct:\nCompetenciaTecnica" as CT
participant "cct\n:CaraterCT" as CARACT_CT
participant "gp:Grau\nProficiencia" as GR

activate ADM

ADM -> UI : inicia a definição de nova categoria de tarefa
activate UI
UI - -> ADM : solicita a descrição
deactivate UI

ADM -> UI : introduz a descrição solicitada
activate UI
UI -> CTRL : la=novaCategoria(desc)
activate CTRL
CTRL -> PLAT : cat=novaCategoria(desc)
activate PLAT
PLAT -> PLAT : catId=geraCategoriaId()
PLAT- -> CAT**: create(catId,desc)
deactivate PLAT
CTRL -> PLAT : la=getListaAT()
activate PLAT
deactivate PLAT
deactivate CTRL
UI - -> ADM : mostra lista de AT e solicita escolha de uma delas
deactivate UI

ADM -> UI : seleciona uma AT
activate UI
UI -> CTRL : lct=setAT(atCod)
activate CTRL
CTRL -> PLAT : at=getAT(atCod)
activate PLAT
deactivate PLAT
CTRL -> CAT : setAT(at)
activate CAT
deactivate CAT
CTRL -> PLAT : lct=getListaCT()
activate PLAT
deactivate PLAT
deactivate CTRL
UI - -> ADM : mostra lista de CT e solicita escolha de uma delas
deactivate UI

loop
ADM -> UI : seleciona uma CT
activate UI
UI - -> ADM : solicita o caráter da CT selecionada
deactivate UI

ADM -> UI : introduz o caráter da CT selecionada
activate UI
UI -> CTRL : addCaraterCT(ctCod,ob)
activate CTRL
CTRL -> PLAT : ct=getCT(catCod)
activate PLAT
deactivate PLAT
CTRL -> CAT : addCaraterCT(ct,ob)
activate CAT
CAT - -> CARACT_CT** : create(ct,ob)
CAT -> CAT : validaCaraterCT(cct)
CAT -> CAT : addCaraterCT(cct)
|||
deactivate CAT
deactivate CTRL
end loop

loop enquanto não forem inseridos todos os graus de proficiencia

UI - -> ADM : solicita o grau de proficiêcia da CT selecionada
deactivate UI
ADM -> UI : introduz o grau de proficiêcia  da CT selecionada
activate UI
UI ->CTRL : addGrauProficiencia(valor, designacao)
activate CTRL
CTRL -> CAT : addGrauProficiencia(valor, designacao)
activate CAT

CAT - -> GR**: create(valor, designacao)

CAT -> CAT : validaGrauProficiencia(gp)
CAT -> CAT : addGrauProficiencia(gp)
deactivate CAT

UI - -> ADM : apresenta dados e solicita confirmação
deactivate UI

ADM -> UI : confirma
activate UI
UI -> CTRL : registaCategoria()
activate CTRL
CTRL -> PLAT : registaCategoria(cat)
activate PLAT
PLAT -> CAT : valida()
activate CAT
deactivate CAT
PLAT -> PLAT : validaCategoria(cat)
PLAT -> PLAT : addCategoria(cat)
UI - -> ADM : informa sucesso da operação
deactivate CTRL
deactivate PLAT
deactivate UI

deactivate ADM

@enduml

PlantUML version 2017.11(Wed Apr 19 17:18:59 BST 2017)
(GPL source distribution)
Java Runtime: Java(TM) SE Runtime Environment
JVM: Java HotSpot(TM) 64-Bit Server VM
Java Version: 1.8.0_231-b11
Operating System: Windows 10
OS Version: 10.0
Default Encoding: UTF-8
Language: pt
Country: PT
-->
    </g>
</svg>
