@startuml
skinparam classAttributeIconSize 0
left to right direction
class DefinirCategoriaUI {
}

class DefinirCategoriaController {
  +novaCategoria(desc)
  +setAT(atCod)
  +addCaraterCT(ctCod,ob)
  +addGrauProficiencia(valor, designacao)
  +registaCategoria()
}

class Plataforma {
  -String designacao
  +RegistoAreasAtividade getRegistoAreasAtividade()
  +RegistoCompetenciasTecnicas getRegistoCompetenciasTecnicas()
}

class RegistoCategoria {
  +Categoria novaCategoria(Categoria desc)
  +void -validaCategoria(Categoria cat)
  +void +registaCategoria(Categoria cat)
  -void geraCategoriaId()
  -void addCategoria(Categoria cat)

class RegistoCompetenciasTecnicas {
  +CompetenciaTecnica novaCompetencia(String cod, String dsBreve, String dsDet, String atCod)
  +void validaCompetencia(CompetenciaTecnica ct)
  +void registaCompetencia(CompetenciaTecnica ct)
  -void addCompetencia(CompetenciaTecnica ct)
}

class RegistoAreasAtividade{
  +List<AreaAtividade> getAreasAtividade()
  +AreaAtividade getAreaAtividadeByCod(String atCod)
}

class CompetenciaTecnica {
  -String codigo
  -String descBreve
  -String descDetalhada
  +CompetenciaTecnica(String cod, String dsBreve, String dsDet, AreaAtividade at)
  -validaGrauProficiencia(gp)
  -addGrauProficiencia(gp)
}

class CaraterCT {
  -boolean obrigatoria
  +CaraterCT(ct,ob)
}


class Categoria {
  -String id
  -String descricao
  +Categoria(id,desc)
  +setAT(at)
  +addCaraterCT(ct,ob)
  +valida()
  -validaCaraterCT(cct)
  -addCaraterCT(cct)
  -validaGrauProficiencia(gp)
  -addGrauProficiencia(gp)
}

class AreaAtividade {
  -String codigo
  -String descBreve
  -String descDetalhada
}

class GrauProficiencia {
  -Integer valor
  -String designacao
  +GrauProficiencia(valor, designacao)
}

DefinirCategoriaUI ..> DefinirCategoriaController
DefinirCategoriaController ..> Plataforma
DefinirCategoriaController ..> AreaAtividade
DefinirCategoriaController ..> CompetenciaTecnica
DefinirCategoriaController ..> Categoria
Plataforma "1" --> "*" RegistoCategoria : possui
Plataforma "1" --> "1" RegistoAreasAtividade : possui
Plataforma "1" --> "1" RegistoCompetenciasTecnicas : possui
RegistoCategoria  "1" --> "*" Categoria : possui
RegistoAreasAtividade "1" --> "*" AreaAtividade : possui
RegistoCompetenciasTecnicas "1" --> "*" CompetenciaTecnica : possui
CompetenciaTecnica "*" -> "1" AreaAtividade : referente a
Categoria "*" --> "1" AreaAtividade : tem/requer
Categoria "1" --> "*" CaraterCT : tem/requer
CaraterCT "*" -> "1" CompetenciaTecnica : referente a
CaraterCT "*" -> "1" GrauProficiencia : exige (como minimo)
GrauProficiencia "*" -> "1" CompetenciaTecnica : aplica-se a

@enduml
