<?xml version="1.0" encoding="UTF-8" standalone="no"?><svg xmlns="http://www.w3.org/2000/svg" xmlns:xlink="http://www.w3.org/1999/xlink" contentScriptType="application/ecmascript" contentStyleType="text/css" height="1333px" preserveAspectRatio="none" style="width:2345px;height:1333px;" version="1.1" viewBox="0 0 2345 1333" width="2345px" zoomAndPan="magnify">
    <defs>
        <filter height="300%" id="fext27jrbia1" width="300%" x="-1" y="-1">
            <feGaussianBlur result="blurOut" stdDeviation="2.0" />
            <feColorMatrix in="blurOut" result="blurOut2" type="matrix" values="0 0 0 0 0 0 0 0 0 0 0 0 0 0 0 0 0 0 .4 0" />
            <feOffset dx="4.0" dy="4.0" in="blurOut2" result="blurOut3" />
            <feBlend in="SourceGraphic" in2="blurOut3" mode="normal" />
        </filter>
    </defs>
    <g>
        <rect fill="#FFFFFF" filter="url(#fext27jrbia1)" height="1131.1367" style="stroke: #A80036; stroke-width: 1.0;" width="10" x="71" y="96.4883" />
        <rect fill="#FFFFFF" filter="url(#fext27jrbia1)" height="44.6211" style="stroke: #A80036; stroke-width: 1.0;" width="10" x="526" y="117.7988" />
        <rect fill="#FFFFFF" filter="url(#fext27jrbia1)" height="177.2422" style="stroke: #A80036; stroke-width: 1.0;" width="10" x="526" y="191.7305" />
        <rect fill="#FFFFFF" filter="url(#fext27jrbia1)" height="363.6387" style="stroke: #A80036; stroke-width: 1.0;" width="10" x="526" y="398.2832" />
        <rect fill="#FFFFFF" filter="url(#fext27jrbia1)" height="234.5293" style="stroke: #A80036; stroke-width: 1.0;" width="10" x="526" y="791.2324" />
        <rect fill="#FFFFFF" filter="url(#fext27jrbia1)" height="172.5527" style="stroke: #A80036; stroke-width: 1.0;" width="10" x="526" y="1055.0723" />
        <rect fill="#FFFFFF" filter="url(#fext27jrbia1)" height="118.6211" style="stroke: #A80036; stroke-width: 1.0;" width="10" x="845" y="221.041" />
        <rect fill="#FFFFFF" filter="url(#fext27jrbia1)" height="334.3281" style="stroke: #A80036; stroke-width: 1.0;" width="10" x="845" y="427.5938" />
        <rect fill="#FFFFFF" filter="url(#fext27jrbia1)" height="205.2188" style="stroke: #A80036; stroke-width: 1.0;" width="10" x="845" y="820.543" />
        <rect fill="#FFFFFF" filter="url(#fext27jrbia1)" height="143.2422" style="stroke: #A80036; stroke-width: 1.0;" width="10" x="845" y="1084.3828" />
        <rect fill="#FFFFFF" filter="url(#fext27jrbia1)" height="30" style="stroke: #A80036; stroke-width: 1.0;" width="10" x="1150" y="250.3516" />
        <rect fill="#FFFFFF" filter="url(#fext27jrbia1)" height="30" style="stroke: #A80036; stroke-width: 1.0;" width="10" x="1150" y="541.2148" />
        <rect fill="#FFFFFF" filter="url(#fext27jrbia1)" height="30" style="stroke: #A80036; stroke-width: 1.0;" width="10" x="1273.5" y="309.6621" />
        <rect fill="#FFFFFF" filter="url(#fext27jrbia1)" height="30" style="stroke: #A80036; stroke-width: 1.0;" width="10" x="1273.5" y="456.9043" />
        <rect fill="#FFFFFF" filter="url(#fext27jrbia1)" height="29.3105" style="stroke: #A80036; stroke-width: 1.0;" width="10" x="1443" y="600.5254" />
        <rect fill="#FFFFFF" filter="url(#fext27jrbia1)" height="53.6211" style="stroke: #A80036; stroke-width: 1.0;" width="10" x="1443" y="708.3008" />
        <rect fill="#FFFFFF" filter="url(#fext27jrbia1)" height="113.9316" style="stroke: #A80036; stroke-width: 1.0;" width="10" x="1443" y="1113.6934" />
        <rect fill="#FFFFFF" filter="url(#fext27jrbia1)" height="139.5977" style="stroke: #A80036; stroke-width: 1.0;" width="10" x="1728" y="849.8535" />
        <line style="stroke: #A80036; stroke-width: 1.0; stroke-dasharray: 5.0,5.0;" x1="76" x2="76" y1="86.4883" y2="1245.625" />
        <line style="stroke: #A80036; stroke-width: 1.0; stroke-dasharray: 5.0,5.0;" x1="530.5" x2="530.5" y1="86.4883" y2="1245.625" />
        <line style="stroke: #A80036; stroke-width: 1.0; stroke-dasharray: 5.0,5.0;" x1="849.5" x2="849.5" y1="86.4883" y2="1245.625" />
        <line style="stroke: #A80036; stroke-width: 1.0; stroke-dasharray: 5.0,5.0;" x1="1155" x2="1155" y1="86.4883" y2="1245.625" />
        <line style="stroke: #A80036; stroke-width: 1.0; stroke-dasharray: 5.0,5.0;" x1="1278" x2="1278" y1="86.4883" y2="1245.625" />
        <line style="stroke: #A80036; stroke-width: 1.0; stroke-dasharray: 5.0,5.0;" x1="1448" x2="1448" y1="86.4883" y2="1245.625" />
        <line style="stroke: #A80036; stroke-width: 1.0; stroke-dasharray: 5.0,5.0;" x1="1733" x2="1733" y1="657.7578" y2="1245.625" />
        <line style="stroke: #A80036; stroke-width: 1.0; stroke-dasharray: 5.0,5.0;" x1="1988" x2="1988" y1="898.8418" y2="1245.625" />
        <line style="stroke: #A80036; stroke-width: 1.0; stroke-dasharray: 5.0,5.0;" x1="2128" x2="2128" y1="86.4883" y2="1245.625" />
        <line style="stroke: #A80036; stroke-width: 1.0; stroke-dasharray: 5.0,5.0;" x1="2279" x2="2279" y1="86.4883" y2="1245.625" /><text fill="#000000" font-family="sans-serif" font-size="14" lengthAdjust="spacingAndGlyphs" textLength="100" x="23" y="83.5352">Administrativo</text>
        <ellipse cx="76" cy="13" fill="#FEFECE" filter="url(#fext27jrbia1)" rx="8" ry="8" style="stroke: #A80036; stroke-width: 2.0;" />
        <path d="M76,21 L76,48 M63,29 L89,29 M76,48 L63,63 M76,48 L89,63 " fill="none" filter="url(#fext27jrbia1)" style="stroke: #A80036; stroke-width: 2.0;" /><text fill="#000000" font-family="sans-serif" font-size="14" lengthAdjust="spacingAndGlyphs" textLength="100" x="23" y="1258.1602">Administrativo</text>
        <ellipse cx="76" cy="1271.1133" fill="#FEFECE" filter="url(#fext27jrbia1)" rx="8" ry="8" style="stroke: #A80036; stroke-width: 2.0;" />
        <path d="M76,1279.1133 L76,1306.1133 M63,1287.1133 L89,1287.1133 M76,1306.1133 L63,1321.1133 M76,1306.1133 L89,1321.1133 " fill="none" filter="url(#fext27jrbia1)" style="stroke: #A80036; stroke-width: 2.0;" />
        <rect fill="#FEFECE" filter="url(#fext27jrbia1)" height="30.4883" style="stroke: #A80036; stroke-width: 1.5;" width="247" x="405.5" y="51" /><text fill="#000000" font-family="sans-serif" font-size="14" lengthAdjust="spacingAndGlyphs" textLength="233" x="412.5" y="71.5352">:EspecificarCompetenciaTecnicaUI</text>
        <rect fill="#FEFECE" filter="url(#fext27jrbia1)" height="30.4883" style="stroke: #A80036; stroke-width: 1.5;" width="247" x="405.5" y="1244.625" /><text fill="#000000" font-family="sans-serif" font-size="14" lengthAdjust="spacingAndGlyphs" textLength="233" x="412.5" y="1265.1602">:EspecificarCompetenciaTecnicaUI</text>
        <rect fill="#FEFECE" filter="url(#fext27jrbia1)" height="30.4883" style="stroke: #A80036; stroke-width: 1.5;" width="303" x="696.5" y="51" /><text fill="#000000" font-family="sans-serif" font-size="14" lengthAdjust="spacingAndGlyphs" textLength="289" x="703.5" y="71.5352">:EspecificarCompetenciaTecnicaController</text>
        <rect fill="#FEFECE" filter="url(#fext27jrbia1)" height="30.4883" style="stroke: #A80036; stroke-width: 1.5;" width="303" x="696.5" y="1244.625" /><text fill="#000000" font-family="sans-serif" font-size="14" lengthAdjust="spacingAndGlyphs" textLength="289" x="703.5" y="1265.1602">:EspecificarCompetenciaTecnicaController</text>
        <rect fill="#FEFECE" filter="url(#fext27jrbia1)" height="30.4883" style="stroke: #A80036; stroke-width: 1.5;" width="92" x="1107" y="51" /><text fill="#000000" font-family="sans-serif" font-size="14" lengthAdjust="spacingAndGlyphs" textLength="78" x="1114" y="71.5352">:Plataforma</text>
        <rect fill="#FEFECE" filter="url(#fext27jrbia1)" height="30.4883" style="stroke: #A80036; stroke-width: 1.5;" width="92" x="1107" y="1244.625" /><text fill="#000000" font-family="sans-serif" font-size="14" lengthAdjust="spacingAndGlyphs" textLength="78" x="1114" y="1265.1602">:Plataforma</text>
        <rect fill="#FEFECE" filter="url(#fext27jrbia1)" height="46.9766" style="stroke: #A80036; stroke-width: 1.5;" width="127" x="1213" y="34.5117" /><text fill="#000000" font-family="sans-serif" font-size="14" lengthAdjust="spacingAndGlyphs" textLength="113" x="1220" y="55.0469">rat:RegistoAreas</text><text fill="#000000" font-family="sans-serif" font-size="14" lengthAdjust="spacingAndGlyphs" textLength="64" x="1244.5" y="71.5352">Atividade</text>
        <rect fill="#FEFECE" filter="url(#fext27jrbia1)" height="46.9766" style="stroke: #A80036; stroke-width: 1.5;" width="127" x="1213" y="1244.625" /><text fill="#000000" font-family="sans-serif" font-size="14" lengthAdjust="spacingAndGlyphs" textLength="113" x="1220" y="1265.1602">rat:RegistoAreas</text><text fill="#000000" font-family="sans-serif" font-size="14" lengthAdjust="spacingAndGlyphs" textLength="64" x="1244.5" y="1281.6484">Atividade</text>
        <rect fill="#FEFECE" filter="url(#fext27jrbia1)" height="46.9766" style="stroke: #A80036; stroke-width: 1.5;" width="184" x="1354" y="34.5117" /><text fill="#000000" font-family="sans-serif" font-size="14" lengthAdjust="spacingAndGlyphs" textLength="170" x="1361" y="55.0469">rct:RegistoCompetencias</text><text fill="#000000" font-family="sans-serif" font-size="14" lengthAdjust="spacingAndGlyphs" textLength="59" x="1416.5" y="71.5352">Tecnicas</text>
        <rect fill="#FEFECE" filter="url(#fext27jrbia1)" height="46.9766" style="stroke: #A80036; stroke-width: 1.5;" width="184" x="1354" y="1244.625" /><text fill="#000000" font-family="sans-serif" font-size="14" lengthAdjust="spacingAndGlyphs" textLength="170" x="1361" y="1265.1602">rct:RegistoCompetencias</text><text fill="#000000" font-family="sans-serif" font-size="14" lengthAdjust="spacingAndGlyphs" textLength="59" x="1416.5" y="1281.6484">Tecnicas</text>
        <rect fill="#FEFECE" filter="url(#fext27jrbia1)" height="63.4648" style="stroke: #A80036; stroke-width: 1.5;" width="108" x="1677" y="1244.625" /><text fill="#000000" font-family="sans-serif" font-size="14" lengthAdjust="spacingAndGlyphs" textLength="12" x="1725" y="1265.1602">ct</text><text fill="#000000" font-family="sans-serif" font-size="14" lengthAdjust="spacingAndGlyphs" textLength="94" x="1684" y="1281.6484">:Competencia</text><text fill="#000000" font-family="sans-serif" font-size="14" lengthAdjust="spacingAndGlyphs" textLength="52" x="1705" y="1298.1367">Tecnica</text>
        <rect fill="#FEFECE" filter="url(#fext27jrbia1)" height="46.9766" style="stroke: #A80036; stroke-width: 1.5;" width="93" x="1940" y="1244.625" /><text fill="#000000" font-family="sans-serif" font-size="14" lengthAdjust="spacingAndGlyphs" textLength="55" x="1959" y="1265.1602">gp:Grau</text><text fill="#000000" font-family="sans-serif" font-size="14" lengthAdjust="spacingAndGlyphs" textLength="79" x="1947" y="1281.6484">Proficiencia</text>
        <rect fill="#FEFECE" filter="url(#fext27jrbia1)" height="46.9766" style="stroke: #A80036; stroke-width: 1.5;" width="159" x="2047" y="34.5117" /><text fill="#000000" font-family="sans-serif" font-size="14" lengthAdjust="spacingAndGlyphs" textLength="12" x="2120.5" y="55.0469">la</text><text fill="#000000" font-family="sans-serif" font-size="14" lengthAdjust="spacingAndGlyphs" textLength="145" x="2054" y="71.5352">:List&lt;AreaAtividade&gt;</text>
        <rect fill="#FEFECE" filter="url(#fext27jrbia1)" height="46.9766" style="stroke: #A80036; stroke-width: 1.5;" width="159" x="2047" y="1244.625" /><text fill="#000000" font-family="sans-serif" font-size="14" lengthAdjust="spacingAndGlyphs" textLength="12" x="2120.5" y="1265.1602">la</text><text fill="#000000" font-family="sans-serif" font-size="14" lengthAdjust="spacingAndGlyphs" textLength="145" x="2054" y="1281.6484">:List&lt;AreaAtividade&gt;</text>
        <rect fill="#FEFECE" filter="url(#fext27jrbia1)" height="46.9766" style="stroke: #A80036; stroke-width: 1.5;" width="114" x="2220" y="34.5117" /><text fill="#000000" font-family="sans-serif" font-size="14" lengthAdjust="spacingAndGlyphs" textLength="13" x="2270.5" y="55.0469">at</text><text fill="#000000" font-family="sans-serif" font-size="14" lengthAdjust="spacingAndGlyphs" textLength="100" x="2227" y="71.5352">:AreaAtividade</text>
        <rect fill="#FEFECE" filter="url(#fext27jrbia1)" height="46.9766" style="stroke: #A80036; stroke-width: 1.5;" width="114" x="2220" y="1244.625" /><text fill="#000000" font-family="sans-serif" font-size="14" lengthAdjust="spacingAndGlyphs" textLength="13" x="2270.5" y="1265.1602">at</text><text fill="#000000" font-family="sans-serif" font-size="14" lengthAdjust="spacingAndGlyphs" textLength="100" x="2227" y="1281.6484">:AreaAtividade</text>
        <rect fill="#FFFFFF" filter="url(#fext27jrbia1)" height="1131.1367" style="stroke: #A80036; stroke-width: 1.0;" width="10" x="71" y="96.4883" />
        <rect fill="#FFFFFF" filter="url(#fext27jrbia1)" height="44.6211" style="stroke: #A80036; stroke-width: 1.0;" width="10" x="526" y="117.7988" />
        <rect fill="#FFFFFF" filter="url(#fext27jrbia1)" height="177.2422" style="stroke: #A80036; stroke-width: 1.0;" width="10" x="526" y="191.7305" />
        <rect fill="#FFFFFF" filter="url(#fext27jrbia1)" height="363.6387" style="stroke: #A80036; stroke-width: 1.0;" width="10" x="526" y="398.2832" />
        <rect fill="#FFFFFF" filter="url(#fext27jrbia1)" height="234.5293" style="stroke: #A80036; stroke-width: 1.0;" width="10" x="526" y="791.2324" />
        <rect fill="#FFFFFF" filter="url(#fext27jrbia1)" height="172.5527" style="stroke: #A80036; stroke-width: 1.0;" width="10" x="526" y="1055.0723" />
        <rect fill="#FFFFFF" filter="url(#fext27jrbia1)" height="118.6211" style="stroke: #A80036; stroke-width: 1.0;" width="10" x="845" y="221.041" />
        <rect fill="#FFFFFF" filter="url(#fext27jrbia1)" height="334.3281" style="stroke: #A80036; stroke-width: 1.0;" width="10" x="845" y="427.5938" />
        <rect fill="#FFFFFF" filter="url(#fext27jrbia1)" height="205.2188" style="stroke: #A80036; stroke-width: 1.0;" width="10" x="845" y="820.543" />
        <rect fill="#FFFFFF" filter="url(#fext27jrbia1)" height="143.2422" style="stroke: #A80036; stroke-width: 1.0;" width="10" x="845" y="1084.3828" />
        <rect fill="#FFFFFF" filter="url(#fext27jrbia1)" height="30" style="stroke: #A80036; stroke-width: 1.0;" width="10" x="1150" y="250.3516" />
        <rect fill="#FFFFFF" filter="url(#fext27jrbia1)" height="30" style="stroke: #A80036; stroke-width: 1.0;" width="10" x="1150" y="541.2148" />
        <rect fill="#FFFFFF" filter="url(#fext27jrbia1)" height="30" style="stroke: #A80036; stroke-width: 1.0;" width="10" x="1273.5" y="309.6621" />
        <rect fill="#FFFFFF" filter="url(#fext27jrbia1)" height="30" style="stroke: #A80036; stroke-width: 1.0;" width="10" x="1273.5" y="456.9043" />
        <rect fill="#FFFFFF" filter="url(#fext27jrbia1)" height="29.3105" style="stroke: #A80036; stroke-width: 1.0;" width="10" x="1443" y="600.5254" />
        <rect fill="#FFFFFF" filter="url(#fext27jrbia1)" height="53.6211" style="stroke: #A80036; stroke-width: 1.0;" width="10" x="1443" y="708.3008" />
        <rect fill="#FFFFFF" filter="url(#fext27jrbia1)" height="113.9316" style="stroke: #A80036; stroke-width: 1.0;" width="10" x="1443" y="1113.6934" />
        <rect fill="#FFFFFF" filter="url(#fext27jrbia1)" height="139.5977" style="stroke: #A80036; stroke-width: 1.0;" width="10" x="1728" y="849.8535" />
        <polygon fill="#A80036" points="514,113.7988,524,117.7988,514,121.7988,518,117.7988" style="stroke: #A80036; stroke-width: 1.0;" />
        <line style="stroke: #A80036; stroke-width: 1.0;" x1="81" x2="520" y1="117.7988" y2="117.7988" /><text fill="#000000" font-family="sans-serif" font-size="13" font-weight="bold" lengthAdjust="spacingAndGlyphs" textLength="9" x="88" y="113.0566">1</text><text fill="#000000" font-family="sans-serif" font-size="13" lengthAdjust="spacingAndGlyphs" textLength="317" x="101" y="113.0566">inicia a especificação de uma competência técnica</text>
        <polygon fill="#A80036" points="92,158.4199,82,162.4199,92,166.4199,88,162.4199" style="stroke: #A80036; stroke-width: 1.0;" />
        <line style="stroke: #A80036; stroke-width: 1.0; stroke-dasharray: 2.0,2.0;" x1="86" x2="530" y1="162.4199" y2="162.4199" /><text fill="#000000" font-family="sans-serif" font-size="13" font-weight="bold" lengthAdjust="spacingAndGlyphs" textLength="9" x="98" y="150.0225">2</text><text fill="#000000" font-family="sans-serif" font-size="13" lengthAdjust="spacingAndGlyphs" textLength="107" x="111" y="142.3672">solicita os dados</text><text fill="#000000" font-family="sans-serif" font-size="13" lengthAdjust="spacingAndGlyphs" textLength="272" x="111" y="157.6777">(código único, descrição breve e detalhada)</text>
        <polygon fill="#A80036" points="514,187.7305,524,191.7305,514,195.7305,518,191.7305" style="stroke: #A80036; stroke-width: 1.0;" />
        <line style="stroke: #A80036; stroke-width: 1.0;" x1="81" x2="520" y1="191.7305" y2="191.7305" /><text fill="#000000" font-family="sans-serif" font-size="13" font-weight="bold" lengthAdjust="spacingAndGlyphs" textLength="9" x="88" y="186.9883">3</text><text fill="#000000" font-family="sans-serif" font-size="13" lengthAdjust="spacingAndGlyphs" textLength="187" x="101" y="186.9883">introduz os dados solicitados</text>
        <polygon fill="#A80036" points="833,217.041,843,221.041,833,225.041,837,221.041" style="stroke: #A80036; stroke-width: 1.0;" />
        <line style="stroke: #A80036; stroke-width: 1.0;" x1="536" x2="839" y1="221.041" y2="221.041" /><text fill="#000000" font-family="sans-serif" font-size="13" font-weight="bold" lengthAdjust="spacingAndGlyphs" textLength="9" x="543" y="216.2988">4</text><text fill="#000000" font-family="sans-serif" font-size="13" lengthAdjust="spacingAndGlyphs" textLength="143" x="556" y="216.2988">la=getAreasAtividade()</text>
        <polygon fill="#A80036" points="1138,246.3516,1148,250.3516,1138,254.3516,1142,250.3516" style="stroke: #A80036; stroke-width: 1.0;" />
        <line style="stroke: #A80036; stroke-width: 1.0;" x1="855" x2="1144" y1="250.3516" y2="250.3516" /><text fill="#000000" font-family="sans-serif" font-size="13" font-weight="bold" lengthAdjust="spacingAndGlyphs" textLength="9" x="862" y="245.6094">5</text><text fill="#000000" font-family="sans-serif" font-size="13" lengthAdjust="spacingAndGlyphs" textLength="204" x="875" y="245.6094">rat = getRegistoAreasAtividade()</text>
        <polygon fill="#A80036" points="1261.5,305.6621,1271.5,309.6621,1261.5,313.6621,1265.5,309.6621" style="stroke: #A80036; stroke-width: 1.0;" />
        <line style="stroke: #A80036; stroke-width: 1.0;" x1="855" x2="1267.5" y1="309.6621" y2="309.6621" /><text fill="#000000" font-family="sans-serif" font-size="13" font-weight="bold" lengthAdjust="spacingAndGlyphs" textLength="9" x="862" y="304.9199">6</text><text fill="#000000" font-family="sans-serif" font-size="13" lengthAdjust="spacingAndGlyphs" textLength="143" x="875" y="304.9199">la=getAreasAtividade()</text>
        <polygon fill="#A80036" points="92,364.9727,82,368.9727,92,372.9727,88,368.9727" style="stroke: #A80036; stroke-width: 1.0;" />
        <line style="stroke: #A80036; stroke-width: 1.0; stroke-dasharray: 2.0,2.0;" x1="86" x2="530" y1="368.9727" y2="368.9727" /><text fill="#000000" font-family="sans-serif" font-size="13" font-weight="bold" lengthAdjust="spacingAndGlyphs" textLength="9" x="98" y="364.2305">7</text><text fill="#000000" font-family="sans-serif" font-size="13" lengthAdjust="spacingAndGlyphs" textLength="397" x="111" y="364.2305">mostra a lista de áreas de atividade e pede para selecionar uma</text>
        <polygon fill="#A80036" points="514,394.2832,524,398.2832,514,402.2832,518,398.2832" style="stroke: #A80036; stroke-width: 1.0;" />
        <line style="stroke: #A80036; stroke-width: 1.0;" x1="81" x2="520" y1="398.2832" y2="398.2832" /><text fill="#000000" font-family="sans-serif" font-size="13" font-weight="bold" lengthAdjust="spacingAndGlyphs" textLength="9" x="88" y="393.541">8</text><text fill="#000000" font-family="sans-serif" font-size="13" lengthAdjust="spacingAndGlyphs" textLength="200" x="101" y="393.541">seleciona uma área de atividade</text>
        <polygon fill="#A80036" points="833,423.5938,843,427.5938,833,431.5938,837,427.5938" style="stroke: #A80036; stroke-width: 1.0;" />
        <line style="stroke: #A80036; stroke-width: 1.0;" x1="536" x2="839" y1="427.5938" y2="427.5938" /><text fill="#000000" font-family="sans-serif" font-size="13" font-weight="bold" lengthAdjust="spacingAndGlyphs" textLength="9" x="543" y="422.8516">9</text><text fill="#000000" font-family="sans-serif" font-size="13" lengthAdjust="spacingAndGlyphs" textLength="277" x="556" y="422.8516">novaCompetencia(cod,dsBreve,dsDet,atCod)</text>
        <polygon fill="#A80036" points="1261.5,452.9043,1271.5,456.9043,1261.5,460.9043,1265.5,456.9043" style="stroke: #A80036; stroke-width: 1.0;" />
        <line style="stroke: #A80036; stroke-width: 1.0;" x1="855" x2="1267.5" y1="456.9043" y2="456.9043" /><text fill="#000000" font-family="sans-serif" font-size="13" font-weight="bold" lengthAdjust="spacingAndGlyphs" textLength="18" x="862" y="452.1621">10</text><text fill="#000000" font-family="sans-serif" font-size="13" lengthAdjust="spacingAndGlyphs" textLength="213" x="884" y="452.1621">at=getAreaAtividadeByCod(atCod)</text>
        <polygon fill="#A80036" points="1138,537.2148,1148,541.2148,1138,545.2148,1142,541.2148" style="stroke: #A80036; stroke-width: 1.0;" />
        <line style="stroke: #A80036; stroke-width: 1.0;" x1="855" x2="1144" y1="541.2148" y2="541.2148" /><text fill="#000000" font-family="sans-serif" font-size="13" font-weight="bold" lengthAdjust="spacingAndGlyphs" textLength="18" x="862" y="536.4727">11</text><text fill="#000000" font-family="sans-serif" font-size="13" lengthAdjust="spacingAndGlyphs" textLength="254" x="884" y="536.4727">rct = getRegistoCompetenciasTecnicas()</text>
        <polygon fill="#A80036" points="1431,596.5254,1441,600.5254,1431,604.5254,1435,600.5254" style="stroke: #A80036; stroke-width: 1.0;" />
        <line style="stroke: #A80036; stroke-width: 1.0;" x1="855" x2="1437" y1="600.5254" y2="600.5254" /><text fill="#000000" font-family="sans-serif" font-size="13" font-weight="bold" lengthAdjust="spacingAndGlyphs" textLength="18" x="862" y="595.7832">12</text><text fill="#000000" font-family="sans-serif" font-size="13" lengthAdjust="spacingAndGlyphs" textLength="274" x="884" y="595.7832">ct=novaCompetencia(cod,dsBreve,dsDet,at)</text>
        <polygon fill="#A80036" points="1665,625.8359,1675,629.8359,1665,633.8359,1669,629.8359" style="stroke: #A80036; stroke-width: 1.0;" />
        <line style="stroke: #A80036; stroke-width: 1.0; stroke-dasharray: 2.0,2.0;" x1="1448" x2="1671" y1="629.8359" y2="629.8359" /><text fill="#000000" font-family="sans-serif" font-size="13" font-weight="bold" lengthAdjust="spacingAndGlyphs" textLength="18" x="1455" y="625.0938">13</text><text fill="#000000" font-family="sans-serif" font-size="13" lengthAdjust="spacingAndGlyphs" textLength="178" x="1477" y="625.0938">create(cod,dsBreve,dsDet,at)</text>
        <rect fill="#FEFECE" filter="url(#fext27jrbia1)" height="63.4648" style="stroke: #A80036; stroke-width: 1.5;" width="108" x="1677" y="608.5254" /><text fill="#000000" font-family="sans-serif" font-size="14" lengthAdjust="spacingAndGlyphs" textLength="12" x="1725" y="629.0605">ct</text><text fill="#000000" font-family="sans-serif" font-size="14" lengthAdjust="spacingAndGlyphs" textLength="94" x="1684" y="645.5488">:Competencia</text><text fill="#000000" font-family="sans-serif" font-size="14" lengthAdjust="spacingAndGlyphs" textLength="52" x="1705" y="662.0371">Tecnica</text>
        <polygon fill="#A80036" points="1431,704.3008,1441,708.3008,1431,712.3008,1435,708.3008" style="stroke: #A80036; stroke-width: 1.0;" />
        <line style="stroke: #A80036; stroke-width: 1.0; stroke-dasharray: 2.0,2.0;" x1="855" x2="1437" y1="708.3008" y2="708.3008" /><text fill="#000000" font-family="sans-serif" font-size="13" font-weight="bold" lengthAdjust="spacingAndGlyphs" textLength="18" x="862" y="703.5586">14</text><text fill="#000000" font-family="sans-serif" font-size="13" lengthAdjust="spacingAndGlyphs" textLength="139" x="884" y="703.5586">validaCompetencia(ct)</text>
        <polygon fill="#A80036" points="92,757.9219,82,761.9219,92,765.9219,88,761.9219" style="stroke: #A80036; stroke-width: 1.0;" />
        <line style="stroke: #A80036; stroke-width: 1.0; stroke-dasharray: 2.0,2.0;" x1="86" x2="530" y1="761.9219" y2="761.9219" /><text fill="#000000" font-family="sans-serif" font-size="13" font-weight="bold" lengthAdjust="spacingAndGlyphs" textLength="18" x="98" y="757.1797">15</text><text fill="#000000" font-family="sans-serif" font-size="13" lengthAdjust="spacingAndGlyphs" textLength="399" x="120" y="757.1797">introduza os dados do grau de proficiencia (valor e designacao)</text>
        <polygon fill="#A80036" points="514,787.2324,524,791.2324,514,795.2324,518,791.2324" style="stroke: #A80036; stroke-width: 1.0;" />
        <line style="stroke: #A80036; stroke-width: 1.0;" x1="81" x2="520" y1="791.2324" y2="791.2324" /><text fill="#000000" font-family="sans-serif" font-size="13" font-weight="bold" lengthAdjust="spacingAndGlyphs" textLength="18" x="88" y="786.4902">16</text><text fill="#000000" font-family="sans-serif" font-size="13" lengthAdjust="spacingAndGlyphs" textLength="187" x="110" y="786.4902">introduz os dados solicitados</text>
        <polygon fill="#A80036" points="833,816.543,843,820.543,833,824.543,837,820.543" style="stroke: #A80036; stroke-width: 1.0;" />
        <line style="stroke: #A80036; stroke-width: 1.0;" x1="536" x2="839" y1="820.543" y2="820.543" /><text fill="#000000" font-family="sans-serif" font-size="13" font-weight="bold" lengthAdjust="spacingAndGlyphs" textLength="18" x="543" y="815.8008">17</text><text fill="#000000" font-family="sans-serif" font-size="13" lengthAdjust="spacingAndGlyphs" textLength="243" x="565" y="815.8008">addGrauProficiencia(valor, designacao)</text>
        <polygon fill="#A80036" points="1716,845.8535,1726,849.8535,1716,853.8535,1720,849.8535" style="stroke: #A80036; stroke-width: 1.0;" />
        <line style="stroke: #A80036; stroke-width: 1.0;" x1="855" x2="1722" y1="849.8535" y2="849.8535" /><text fill="#000000" font-family="sans-serif" font-size="13" font-weight="bold" lengthAdjust="spacingAndGlyphs" textLength="18" x="862" y="845.1113">18</text><text fill="#000000" font-family="sans-serif" font-size="13" lengthAdjust="spacingAndGlyphs" textLength="243" x="884" y="845.1113">addGrauProficiencia(valor, designacao)</text>
        <polygon fill="#A80036" points="1928,875.1641,1938,879.1641,1928,883.1641,1932,879.1641" style="stroke: #A80036; stroke-width: 1.0;" />
        <line style="stroke: #A80036; stroke-width: 1.0; stroke-dasharray: 2.0,2.0;" x1="1738" x2="1934" y1="879.1641" y2="879.1641" /><text fill="#000000" font-family="sans-serif" font-size="13" font-weight="bold" lengthAdjust="spacingAndGlyphs" textLength="18" x="1745" y="874.4219">19</text><text fill="#000000" font-family="sans-serif" font-size="13" lengthAdjust="spacingAndGlyphs" textLength="156" x="1767" y="874.4219">create(valor, designacao)</text>
        <rect fill="#FEFECE" filter="url(#fext27jrbia1)" height="46.9766" style="stroke: #A80036; stroke-width: 1.5;" width="93" x="1940" y="857.8535" /><text fill="#000000" font-family="sans-serif" font-size="14" lengthAdjust="spacingAndGlyphs" textLength="55" x="1959" y="878.3887">gp:Grau</text><text fill="#000000" font-family="sans-serif" font-size="14" lengthAdjust="spacingAndGlyphs" textLength="79" x="1947" y="894.877">Proficiencia</text>
        <line style="stroke: #A80036; stroke-width: 1.0;" x1="1738" x2="1780" y1="941.1406" y2="941.1406" />
        <line style="stroke: #A80036; stroke-width: 1.0;" x1="1780" x2="1780" y1="941.1406" y2="954.1406" />
        <line style="stroke: #A80036; stroke-width: 1.0;" x1="1739" x2="1780" y1="954.1406" y2="954.1406" />
        <polygon fill="#A80036" points="1749,950.1406,1739,954.1406,1749,958.1406,1745,954.1406" style="stroke: #A80036; stroke-width: 1.0;" /><text fill="#000000" font-family="sans-serif" font-size="13" font-weight="bold" lengthAdjust="spacingAndGlyphs" textLength="18" x="1745" y="936.3984">20</text><text fill="#000000" font-family="sans-serif" font-size="13" lengthAdjust="spacingAndGlyphs" textLength="163" x="1767" y="936.3984">validaGrauProficiencia(gp)</text>
        <line style="stroke: #A80036; stroke-width: 1.0;" x1="1738" x2="1780" y1="988.4512" y2="988.4512" />
        <line style="stroke: #A80036; stroke-width: 1.0;" x1="1780" x2="1780" y1="988.4512" y2="1001.4512" />
        <line style="stroke: #A80036; stroke-width: 1.0;" x1="1733" x2="1780" y1="1001.4512" y2="1001.4512" />
        <polygon fill="#A80036" points="1743,997.4512,1733,1001.4512,1743,1005.4512,1739,1001.4512" style="stroke: #A80036; stroke-width: 1.0;" /><text fill="#000000" font-family="sans-serif" font-size="13" font-weight="bold" lengthAdjust="spacingAndGlyphs" textLength="18" x="1745" y="983.709">21</text><text fill="#000000" font-family="sans-serif" font-size="13" lengthAdjust="spacingAndGlyphs" textLength="149" x="1767" y="983.709">addGrauProficiencia(gp)</text>
        <polygon fill="#A80036" points="92,1021.7617,82,1025.7617,92,1029.7617,88,1025.7617" style="stroke: #A80036; stroke-width: 1.0;" />
        <line style="stroke: #A80036; stroke-width: 1.0; stroke-dasharray: 2.0,2.0;" x1="86" x2="530" y1="1025.7617" y2="1025.7617" /><text fill="#000000" font-family="sans-serif" font-size="13" font-weight="bold" lengthAdjust="spacingAndGlyphs" textLength="18" x="98" y="1021.0195">22</text><text fill="#000000" font-family="sans-serif" font-size="13" lengthAdjust="spacingAndGlyphs" textLength="265" x="120" y="1021.0195">apresenta os dados e solicita confirmação</text>
        <polygon fill="#A80036" points="514,1051.0723,524,1055.0723,514,1059.0723,518,1055.0723" style="stroke: #A80036; stroke-width: 1.0;" />
        <line style="stroke: #A80036; stroke-width: 1.0;" x1="81" x2="520" y1="1055.0723" y2="1055.0723" /><text fill="#000000" font-family="sans-serif" font-size="13" font-weight="bold" lengthAdjust="spacingAndGlyphs" textLength="18" x="88" y="1050.3301">23</text><text fill="#000000" font-family="sans-serif" font-size="13" lengthAdjust="spacingAndGlyphs" textLength="117" x="110" y="1050.3301">confirma os dados</text>
        <polygon fill="#A80036" points="833,1080.3828,843,1084.3828,833,1088.3828,837,1084.3828" style="stroke: #A80036; stroke-width: 1.0;" />
        <line style="stroke: #A80036; stroke-width: 1.0;" x1="536" x2="839" y1="1084.3828" y2="1084.3828" /><text fill="#000000" font-family="sans-serif" font-size="13" font-weight="bold" lengthAdjust="spacingAndGlyphs" textLength="18" x="543" y="1079.6406">24</text><text fill="#000000" font-family="sans-serif" font-size="13" lengthAdjust="spacingAndGlyphs" textLength="133" x="565" y="1079.6406">registaCompetencia()</text>
        <polygon fill="#A80036" points="1431,1109.6934,1441,1113.6934,1431,1117.6934,1435,1113.6934" style="stroke: #A80036; stroke-width: 1.0;" />
        <line style="stroke: #A80036; stroke-width: 1.0;" x1="855" x2="1437" y1="1113.6934" y2="1113.6934" /><text fill="#000000" font-family="sans-serif" font-size="13" font-weight="bold" lengthAdjust="spacingAndGlyphs" textLength="18" x="862" y="1108.9512">25</text><text fill="#000000" font-family="sans-serif" font-size="13" lengthAdjust="spacingAndGlyphs" textLength="145" x="884" y="1108.9512">registaCompetencia(ct)</text>
        <line style="stroke: #A80036; stroke-width: 1.0;" x1="1453" x2="1495" y1="1143.0039" y2="1143.0039" />
        <line style="stroke: #A80036; stroke-width: 1.0;" x1="1495" x2="1495" y1="1143.0039" y2="1156.0039" />
        <line style="stroke: #A80036; stroke-width: 1.0;" x1="1454" x2="1495" y1="1156.0039" y2="1156.0039" />
        <polygon fill="#A80036" points="1464,1152.0039,1454,1156.0039,1464,1160.0039,1460,1156.0039" style="stroke: #A80036; stroke-width: 1.0;" /><text fill="#000000" font-family="sans-serif" font-size="13" font-weight="bold" lengthAdjust="spacingAndGlyphs" textLength="18" x="1460" y="1138.2617">26</text><text fill="#000000" font-family="sans-serif" font-size="13" lengthAdjust="spacingAndGlyphs" textLength="139" x="1482" y="1138.2617">validaCompetencia(ct)</text>
        <line style="stroke: #A80036; stroke-width: 1.0;" x1="1453" x2="1495" y1="1185.3145" y2="1185.3145" />
        <line style="stroke: #A80036; stroke-width: 1.0;" x1="1495" x2="1495" y1="1185.3145" y2="1198.3145" />
        <line style="stroke: #A80036; stroke-width: 1.0;" x1="1454" x2="1495" y1="1198.3145" y2="1198.3145" />
        <polygon fill="#A80036" points="1464,1194.3145,1454,1198.3145,1464,1202.3145,1460,1198.3145" style="stroke: #A80036; stroke-width: 1.0;" /><text fill="#000000" font-family="sans-serif" font-size="13" font-weight="bold" lengthAdjust="spacingAndGlyphs" textLength="18" x="1460" y="1180.5723">27</text><text fill="#000000" font-family="sans-serif" font-size="13" lengthAdjust="spacingAndGlyphs" textLength="125" x="1482" y="1180.5723">addCompetencia(ct)</text>
        <polygon fill="#A80036" points="87,1223.625,77,1227.625,87,1231.625,83,1227.625" style="stroke: #A80036; stroke-width: 1.0;" />
        <line style="stroke: #A80036; stroke-width: 1.0; stroke-dasharray: 2.0,2.0;" x1="81" x2="530" y1="1227.625" y2="1227.625" /><text fill="#000000" font-family="sans-serif" font-size="13" font-weight="bold" lengthAdjust="spacingAndGlyphs" textLength="18" x="93" y="1222.8828">28</text><text fill="#000000" font-family="sans-serif" font-size="13" lengthAdjust="spacingAndGlyphs" textLength="204" x="115" y="1222.8828">informa do sucesso da operação</text>
        <!--MD5=[f01ca66293082e7b14eda81132e9088a]
@startuml
autonumber
actor "Administrativo" as ADM

participant ":EspecificarCompetenciaTecnicaUI" as UI
participant ":EspecificarCompetenciaTecnicaController" as CTRL
participant ":Plataforma" as PLAT
participant "rat:RegistoAreas\nAtividade" as RAT
participant "rct:RegistoCompetencias\nTecnicas" as RCT
participant "ct\n:Competencia\nTecnica" as COMPETENCIA
participant "gp:Grau\nProficiencia" as GR
participant "la\n:List<AreaAtividade>" as LISTA_AREAS
participant "at\n:AreaAtividade" as AREA


activate ADM
ADM -> UI : inicia a especificação de uma competência técnica
activate UI
UI - -> ADM : solicita os dados \n(código único, descrição breve e detalhada)
deactivate UI

ADM -> UI : introduz os dados solicitados
activate UI

UI -> CTRL : la=getAreasAtividade()
activate CTRL

CTRL -> PLAT : rat = getRegistoAreasAtividade()
activate PLAT
deactivate PLAT

CTRL -> RAT : la=getAreasAtividade()
activate RAT
deactivate RAT
deactivate CTRL

UI - -> ADM : mostra a lista de áreas de atividade e pede para selecionar uma
deactivate PLAT
deactivate UI

ADM -> UI : seleciona uma área de atividade
activate UI

UI -> CTRL : novaCompetencia(cod,dsBreve,dsDet,atCod)
activate CTRL

CTRL -> RAT: at=getAreaAtividadeByCod(atCod)
activate RAT
|||
deactivate RAT

CTRL -> PLAT: rct = getRegistoCompetenciasTecnicas()
activate PLAT
deactivate PLAT

CTRL -> RCT: ct=novaCompetencia(cod,dsBreve,dsDet,at)
activate RCT

RCT - -> COMPETENCIA**: create(cod,dsBreve,dsDet,at)
deactivate RCT

CTRL - -> RCT : validaCompetencia(ct)
activate RCT

loop enquanto não forem inseridos todos os graus de proficiencia

UI - -> ADM : introduza os dados do grau de proficiencia (valor e designacao)
deactivate RCT
deactivate CTRL
deactivate UI

ADM -> UI : introduz os dados solicitados
activate UI

UI ->CTRL : addGrauProficiencia(valor, designacao)
activate CTRL

CTRL -> COMPETENCIA : addGrauProficiencia(valor, designacao)
activate COMPETENCIA

COMPETENCIA - -> GR**: create(valor, designacao)

COMPETENCIA -> COMPETENCIA : validaGrauProficiencia(gp)
COMPETENCIA -> COMPETENCIA : addGrauProficiencia(gp)
deactivate COMPETENCIA

UI - -> ADM : apresenta os dados e solicita confirmação
deactivate RCT
deactivate CTRL
deactivate UI

ADM -> UI : confirma os dados
activate UI
UI -> CTRL : registaCompetencia()
activate CTRL

CTRL -> RCT : registaCompetencia(ct)
activate RCT

RCT -> RCT : validaCompetencia(ct)
RCT -> RCT : addCompetencia(ct)

UI - -> ADM : informa do sucesso da operação
deactivate RCT
deactivate CTRL
deactivate UI

deactivate ADM

@enduml

PlantUML version 1.2020.02(Sun Mar 01 10:22:07 WET 2020)
(GPL source distribution)
Java Runtime: Java(TM) SE Runtime Environment
JVM: Java HotSpot(TM) 64-Bit Server VM
Java Version: 13.0.2+8
Operating System: Mac OS X
Default Encoding: UTF-8
Language: pt
Country: PT
-->
    </g>
</svg>