<?xml version="1.0" encoding="UTF-8"?><svg xmlns="http://www.w3.org/2000/svg" xmlns:xlink="http://www.w3.org/1999/xlink" contentScriptType="application/ecmascript" contentStyleType="text/css" height="1370px" preserveAspectRatio="none" style="width:2510px;height:1370px;" version="1.1" viewBox="0 0 2510 1370" width="2510px" zoomAndPan="magnify">
    <defs>
        <filter height="300%" id="f9lqnsckhql0l" width="300%" x="-1" y="-1">
            <feGaussianBlur result="blurOut" stdDeviation="2.0"/>
            <feColorMatrix in="blurOut" result="blurOut2" type="matrix" values="0 0 0 0 0 0 0 0 0 0 0 0 0 0 0 0 0 0 .4 0"/>
            <feOffset dx="4.0" dy="4.0" in="blurOut2" result="blurOut3"/>
            <feBlend in="SourceGraphic" in2="blurOut3" mode="normal"/>
        </filter>
    </defs>
    <g>
        <rect fill="#FFFFFF" filter="url(#f9lqnsckhql0l)" height="1169.3047" style="stroke: #A80036; stroke-width: 1.0;" width="10" x="97.5" y="97.6094"/>
        <rect fill="#FFFFFF" filter="url(#f9lqnsckhql0l)" height="46.3516" style="stroke: #A80036; stroke-width: 1.0;" width="10" x="846.5" y="119.6094"/>
        <rect fill="#FFFFFF" filter="url(#f9lqnsckhql0l)" height="146.0547" style="stroke: #A80036; stroke-width: 1.0;" width="10" x="846.5" y="196.6641"/>
        <rect fill="#FFFFFF" filter="url(#f9lqnsckhql0l)" height="685.7344" style="stroke: #A80036; stroke-width: 1.0;" width="10" x="846.5" y="373.0703"/>
        <rect fill="#FFFFFF" filter="url(#f9lqnsckhql0l)" height="177.7578" style="stroke: #A80036; stroke-width: 1.0;" width="10" x="846.5" y="1089.1563"/>
        <rect fill="#FFFFFF" filter="url(#f9lqnsckhql0l)" height="60.3516" style="stroke: #A80036; stroke-width: 1.0;" width="10" x="1211.5" y="227.0156"/>
        <rect fill="#FFFFFF" filter="url(#f9lqnsckhql0l)" height="655.3828" style="stroke: #A80036; stroke-width: 1.0;" width="10" x="1211.5" y="403.4219"/>
        <rect fill="#FFFFFF" filter="url(#f9lqnsckhql0l)" height="147.4063" style="stroke: #A80036; stroke-width: 1.0;" width="10" x="1211.5" y="1119.5078"/>
        <rect fill="#FFFFFF" filter="url(#f9lqnsckhql0l)" height="30" style="stroke: #A80036; stroke-width: 1.0;" width="10" x="1373" y="519.125"/>
        <rect fill="#FFFFFF" filter="url(#f9lqnsckhql0l)" height="30" style="stroke: #A80036; stroke-width: 1.0;" width="10" x="1493" y="604.4766"/>
        <rect fill="#FFFFFF" filter="url(#f9lqnsckhql0l)" height="30" style="stroke: #A80036; stroke-width: 1.0;" width="10" x="1622" y="689.8281"/>
        <rect fill="#FFFFFF" filter="url(#f9lqnsckhql0l)" height="30" style="stroke: #A80036; stroke-width: 1.0;" width="10" x="1740" y="257.3672"/>
        <rect fill="#FFFFFF" filter="url(#f9lqnsckhql0l)" height="30" style="stroke: #A80036; stroke-width: 1.0;" width="10" x="1740" y="433.7734"/>
        <rect fill="#FFFFFF" filter="url(#f9lqnsckhql0l)" height="30" style="stroke: #A80036; stroke-width: 1.0;" width="10" x="1740" y="775.1797"/>
        <rect fill="#FFFFFF" filter="url(#f9lqnsckhql0l)" height="30" style="stroke: #A80036; stroke-width: 1.0;" width="10" x="1846" y="860.5313"/>
        <rect fill="#FFFFFF" filter="url(#f9lqnsckhql0l)" height="137.9219" style="stroke: #A80036; stroke-width: 1.0;" width="10" x="1967.5" y="920.8828"/>
        <rect fill="#FFFFFF" filter="url(#f9lqnsckhql0l)" height="117.0547" style="stroke: #A80036; stroke-width: 1.0;" width="10" x="1967.5" y="1149.8594"/>
        <rect fill="#FEFECE" filter="url(#f9lqnsckhql0l)" height="49.2188" style="stroke: #A80036; stroke-width: 1.5;" width="60" x="2309.5" y="929.2344"/>
        <text fill="#000000" font-family="sans-serif" font-size="14" lengthAdjust="spacingAndGlyphs" textLength="37" x="2321" y="950.7676">tarefa</text>
        <text fill="#000000" font-family="sans-serif" font-size="14" lengthAdjust="spacingAndGlyphs" textLength="46" x="2316.5" y="968.377">:Tarefa</text>
        <line style="stroke: #A80036; stroke-width: 1.0; stroke-dasharray: 5.0,5.0;" x1="102" x2="102" y1="87.6094" y2="1285.2656"/>
        <line style="stroke: #A80036; stroke-width: 1.0; stroke-dasharray: 5.0,5.0;" x1="851" x2="851" y1="87.6094" y2="1285.2656"/>
        <line style="stroke: #A80036; stroke-width: 1.0; stroke-dasharray: 5.0,5.0;" x1="1216" x2="1216" y1="87.6094" y2="1285.2656"/>
        <line style="stroke: #A80036; stroke-width: 1.0; stroke-dasharray: 5.0,5.0;" x1="1378" x2="1378" y1="87.6094" y2="1285.2656"/>
        <line style="stroke: #A80036; stroke-width: 1.0; stroke-dasharray: 5.0,5.0;" x1="1498" x2="1498" y1="87.6094" y2="1285.2656"/>
        <line style="stroke: #A80036; stroke-width: 1.0; stroke-dasharray: 5.0,5.0;" x1="1627" x2="1627" y1="87.6094" y2="1285.2656"/>
        <line style="stroke: #A80036; stroke-width: 1.0; stroke-dasharray: 5.0,5.0;" x1="1745" x2="1745" y1="87.6094" y2="1285.2656"/>
        <line style="stroke: #A80036; stroke-width: 1.0; stroke-dasharray: 5.0,5.0;" x1="1851" x2="1851" y1="87.6094" y2="1285.2656"/>
        <line style="stroke: #A80036; stroke-width: 1.0; stroke-dasharray: 5.0,5.0;" x1="1972" x2="1972" y1="87.6094" y2="1285.2656"/>
        <line style="stroke: #A80036; stroke-width: 1.0; stroke-dasharray: 5.0,5.0;" x1="2341.5" x2="2341.5" y1="971.3438" y2="1285.2656"/>
        <line style="stroke: #A80036; stroke-width: 1.0; stroke-dasharray: 5.0,5.0;" x1="2444.5" x2="2444.5" y1="87.6094" y2="1285.2656"/>
        <text fill="#000000" font-family="sans-serif" font-size="14" lengthAdjust="spacingAndGlyphs" textLength="183" x="8" y="84.5332">Colaborador de Organização</text>
        <ellipse cx="102.5" cy="13" fill="#FEFECE" filter="url(#f9lqnsckhql0l)" rx="8" ry="8" style="stroke: #A80036; stroke-width: 2.0;"/>
        <path d="M102.5,21 L102.5,48 M89.5,29 L115.5,29 M102.5,48 L89.5,63 M102.5,48 L115.5,63 " fill="#FEFECE" filter="url(#f9lqnsckhql0l)" style="stroke: #A80036; stroke-width: 2.0;"/>
        <text fill="#000000" font-family="sans-serif" font-size="14" lengthAdjust="spacingAndGlyphs" textLength="183" x="8" y="1298.7988">Colaborador de Organização</text>
        <ellipse cx="102.5" cy="1311.875" fill="#FEFECE" filter="url(#f9lqnsckhql0l)" rx="8" ry="8" style="stroke: #A80036; stroke-width: 2.0;"/>
        <path d="M102.5,1319.875 L102.5,1346.875 M89.5,1327.875 L115.5,1327.875 M102.5,1346.875 L89.5,1361.875 M102.5,1346.875 L115.5,1361.875 " fill="#FEFECE" filter="url(#f9lqnsckhql0l)" style="stroke: #A80036; stroke-width: 2.0;"/>
        <rect fill="#FEFECE" filter="url(#f9lqnsckhql0l)" height="31.6094" style="stroke: #A80036; stroke-width: 1.5;" width="141" x="779" y="51"/>
        <text fill="#000000" font-family="sans-serif" font-size="14" lengthAdjust="spacingAndGlyphs" textLength="127" x="786" y="72.5332">:EspecificarTarefaUI</text>
        <rect fill="#FEFECE" filter="url(#f9lqnsckhql0l)" height="31.6094" style="stroke: #A80036; stroke-width: 1.5;" width="141" x="779" y="1284.2656"/>
        <text fill="#000000" font-family="sans-serif" font-size="14" lengthAdjust="spacingAndGlyphs" textLength="127" x="786" y="1305.7988">:EspecificarTarefaUI</text>
        <rect fill="#FEFECE" filter="url(#f9lqnsckhql0l)" height="31.6094" style="stroke: #A80036; stroke-width: 1.5;" width="191" x="1119" y="51"/>
        <text fill="#000000" font-family="sans-serif" font-size="14" lengthAdjust="spacingAndGlyphs" textLength="177" x="1126" y="72.5332">:EspecificarTarefaController</text>
        <rect fill="#FEFECE" filter="url(#f9lqnsckhql0l)" height="31.6094" style="stroke: #A80036; stroke-width: 1.5;" width="191" x="1119" y="1284.2656"/>
        <text fill="#000000" font-family="sans-serif" font-size="14" lengthAdjust="spacingAndGlyphs" textLength="177" x="1126" y="1305.7988">:EspecificarTarefaController</text>
        <rect fill="#FEFECE" filter="url(#f9lqnsckhql0l)" height="31.6094" style="stroke: #A80036; stroke-width: 1.5;" width="104" x="1324" y="51"/>
        <text fill="#000000" font-family="sans-serif" font-size="14" lengthAdjust="spacingAndGlyphs" textLength="90" x="1331" y="72.5332">AplicacaoPOT</text>
        <rect fill="#FEFECE" filter="url(#f9lqnsckhql0l)" height="31.6094" style="stroke: #A80036; stroke-width: 1.5;" width="104" x="1324" y="1284.2656"/>
        <text fill="#000000" font-family="sans-serif" font-size="14" lengthAdjust="spacingAndGlyphs" textLength="90" x="1331" y="1305.7988">AplicacaoPOT</text>
        <rect fill="#FEFECE" filter="url(#f9lqnsckhql0l)" height="49.2188" style="stroke: #A80036; stroke-width: 1.5;" width="108" x="1442" y="33.3906"/>
        <text fill="#000000" font-family="sans-serif" font-size="14" lengthAdjust="spacingAndGlyphs" textLength="24" x="1484" y="54.9238">app</text>
        <text fill="#000000" font-family="sans-serif" font-size="14" lengthAdjust="spacingAndGlyphs" textLength="94" x="1449" y="72.5332">:AplicacaoPOT</text>
        <rect fill="#FEFECE" filter="url(#f9lqnsckhql0l)" height="49.2188" style="stroke: #A80036; stroke-width: 1.5;" width="108" x="1442" y="1284.2656"/>
        <text fill="#000000" font-family="sans-serif" font-size="14" lengthAdjust="spacingAndGlyphs" textLength="24" x="1484" y="1305.7988">app</text>
        <text fill="#000000" font-family="sans-serif" font-size="14" lengthAdjust="spacingAndGlyphs" textLength="94" x="1449" y="1323.4082">:AplicacaoPOT</text>
        <rect fill="#FEFECE" filter="url(#f9lqnsckhql0l)" height="49.2188" style="stroke: #A80036; stroke-width: 1.5;" width="122" x="1564" y="33.3906"/>
        <text fill="#000000" font-family="sans-serif" font-size="14" lengthAdjust="spacingAndGlyphs" textLength="45" x="1602.5" y="54.9238">sessao</text>
        <text fill="#000000" font-family="sans-serif" font-size="14" lengthAdjust="spacingAndGlyphs" textLength="108" x="1571" y="72.5332">:SessaoUtilizador</text>
        <rect fill="#FEFECE" filter="url(#f9lqnsckhql0l)" height="49.2188" style="stroke: #A80036; stroke-width: 1.5;" width="122" x="1564" y="1284.2656"/>
        <text fill="#000000" font-family="sans-serif" font-size="14" lengthAdjust="spacingAndGlyphs" textLength="45" x="1602.5" y="1305.7988">sessao</text>
        <text fill="#000000" font-family="sans-serif" font-size="14" lengthAdjust="spacingAndGlyphs" textLength="108" x="1571" y="1323.4082">:SessaoUtilizador</text>
        <rect fill="#FEFECE" filter="url(#f9lqnsckhql0l)" height="31.6094" style="stroke: #A80036; stroke-width: 1.5;" width="86" x="1700" y="51"/>
        <text fill="#000000" font-family="sans-serif" font-size="14" lengthAdjust="spacingAndGlyphs" textLength="72" x="1707" y="72.5332">:Plataforma</text>
        <rect fill="#FEFECE" filter="url(#f9lqnsckhql0l)" height="31.6094" style="stroke: #A80036; stroke-width: 1.5;" width="86" x="1700" y="1284.2656"/>
        <text fill="#000000" font-family="sans-serif" font-size="14" lengthAdjust="spacingAndGlyphs" textLength="72" x="1707" y="1305.7988">:Plataforma</text>
        <rect fill="#FEFECE" filter="url(#f9lqnsckhql0l)" height="49.2188" style="stroke: #A80036; stroke-width: 1.5;" width="98" x="1800" y="33.3906"/>
        <text fill="#000000" font-family="sans-serif" font-size="14" lengthAdjust="spacingAndGlyphs" textLength="21" x="1838.5" y="54.9238">org</text>
        <text fill="#000000" font-family="sans-serif" font-size="14" lengthAdjust="spacingAndGlyphs" textLength="84" x="1807" y="72.5332">:Organizacao</text>
        <rect fill="#FEFECE" filter="url(#f9lqnsckhql0l)" height="49.2188" style="stroke: #A80036; stroke-width: 1.5;" width="98" x="1800" y="1284.2656"/>
        <text fill="#000000" font-family="sans-serif" font-size="14" lengthAdjust="spacingAndGlyphs" textLength="21" x="1838.5" y="1305.7988">org</text>
        <text fill="#000000" font-family="sans-serif" font-size="14" lengthAdjust="spacingAndGlyphs" textLength="84" x="1807" y="1323.4082">:Organizacao</text>
        <rect fill="#FEFECE" filter="url(#f9lqnsckhql0l)" height="31.6094" style="stroke: #A80036; stroke-width: 1.5;" width="117" x="1912" y="51"/>
        <text fill="#000000" font-family="sans-serif" font-size="14" lengthAdjust="spacingAndGlyphs" textLength="103" x="1919" y="72.5332">rt:RegistoTarefa</text>
        <rect fill="#FEFECE" filter="url(#f9lqnsckhql0l)" height="31.6094" style="stroke: #A80036; stroke-width: 1.5;" width="117" x="1912" y="1284.2656"/>
        <text fill="#000000" font-family="sans-serif" font-size="14" lengthAdjust="spacingAndGlyphs" textLength="103" x="1919" y="1305.7988">rt:RegistoTarefa</text>
        <rect fill="#FEFECE" filter="url(#f9lqnsckhql0l)" height="49.2188" style="stroke: #A80036; stroke-width: 1.5;" width="60" x="2309.5" y="1284.2656"/>
        <text fill="#000000" font-family="sans-serif" font-size="14" lengthAdjust="spacingAndGlyphs" textLength="37" x="2321" y="1305.7988">tarefa</text>
        <text fill="#000000" font-family="sans-serif" font-size="14" lengthAdjust="spacingAndGlyphs" textLength="46" x="2316.5" y="1323.4082">:Tarefa</text>
        <rect fill="#FEFECE" filter="url(#f9lqnsckhql0l)" height="49.2188" style="stroke: #A80036; stroke-width: 1.5;" width="118" x="2383.5" y="33.3906"/>
        <text fill="#000000" font-family="sans-serif" font-size="14" lengthAdjust="spacingAndGlyphs" textLength="10" x="2437.5" y="54.9238">lc</text>
        <text fill="#000000" font-family="sans-serif" font-size="14" lengthAdjust="spacingAndGlyphs" textLength="104" x="2390.5" y="72.5332">:List&lt;Categoria&gt;</text>
        <rect fill="#FEFECE" filter="url(#f9lqnsckhql0l)" height="49.2188" style="stroke: #A80036; stroke-width: 1.5;" width="118" x="2383.5" y="1284.2656"/>
        <text fill="#000000" font-family="sans-serif" font-size="14" lengthAdjust="spacingAndGlyphs" textLength="10" x="2437.5" y="1305.7988">lc</text>
        <text fill="#000000" font-family="sans-serif" font-size="14" lengthAdjust="spacingAndGlyphs" textLength="104" x="2390.5" y="1323.4082">:List&lt;Categoria&gt;</text>
        <rect fill="#FFFFFF" filter="url(#f9lqnsckhql0l)" height="1169.3047" style="stroke: #A80036; stroke-width: 1.0;" width="10" x="97.5" y="97.6094"/>
        <rect fill="#FFFFFF" filter="url(#f9lqnsckhql0l)" height="46.3516" style="stroke: #A80036; stroke-width: 1.0;" width="10" x="846.5" y="119.6094"/>
        <rect fill="#FFFFFF" filter="url(#f9lqnsckhql0l)" height="146.0547" style="stroke: #A80036; stroke-width: 1.0;" width="10" x="846.5" y="196.6641"/>
        <rect fill="#FFFFFF" filter="url(#f9lqnsckhql0l)" height="685.7344" style="stroke: #A80036; stroke-width: 1.0;" width="10" x="846.5" y="373.0703"/>
        <rect fill="#FFFFFF" filter="url(#f9lqnsckhql0l)" height="177.7578" style="stroke: #A80036; stroke-width: 1.0;" width="10" x="846.5" y="1089.1563"/>
        <rect fill="#FFFFFF" filter="url(#f9lqnsckhql0l)" height="60.3516" style="stroke: #A80036; stroke-width: 1.0;" width="10" x="1211.5" y="227.0156"/>
        <rect fill="#FFFFFF" filter="url(#f9lqnsckhql0l)" height="655.3828" style="stroke: #A80036; stroke-width: 1.0;" width="10" x="1211.5" y="403.4219"/>
        <rect fill="#FFFFFF" filter="url(#f9lqnsckhql0l)" height="147.4063" style="stroke: #A80036; stroke-width: 1.0;" width="10" x="1211.5" y="1119.5078"/>
        <rect fill="#FFFFFF" filter="url(#f9lqnsckhql0l)" height="30" style="stroke: #A80036; stroke-width: 1.0;" width="10" x="1373" y="519.125"/>
        <rect fill="#FFFFFF" filter="url(#f9lqnsckhql0l)" height="30" style="stroke: #A80036; stroke-width: 1.0;" width="10" x="1493" y="604.4766"/>
        <rect fill="#FFFFFF" filter="url(#f9lqnsckhql0l)" height="30" style="stroke: #A80036; stroke-width: 1.0;" width="10" x="1622" y="689.8281"/>
        <rect fill="#FFFFFF" filter="url(#f9lqnsckhql0l)" height="30" style="stroke: #A80036; stroke-width: 1.0;" width="10" x="1740" y="257.3672"/>
        <rect fill="#FFFFFF" filter="url(#f9lqnsckhql0l)" height="30" style="stroke: #A80036; stroke-width: 1.0;" width="10" x="1740" y="433.7734"/>
        <rect fill="#FFFFFF" filter="url(#f9lqnsckhql0l)" height="30" style="stroke: #A80036; stroke-width: 1.0;" width="10" x="1740" y="775.1797"/>
        <rect fill="#FFFFFF" filter="url(#f9lqnsckhql0l)" height="30" style="stroke: #A80036; stroke-width: 1.0;" width="10" x="1846" y="860.5313"/>
        <rect fill="#FFFFFF" filter="url(#f9lqnsckhql0l)" height="137.9219" style="stroke: #A80036; stroke-width: 1.0;" width="10" x="1967.5" y="920.8828"/>
        <rect fill="#FFFFFF" filter="url(#f9lqnsckhql0l)" height="117.0547" style="stroke: #A80036; stroke-width: 1.0;" width="10" x="1967.5" y="1149.8594"/>
        <polygon fill="#A80036" points="834.5,115.6094,844.5,119.6094,834.5,123.6094,838.5,119.6094" style="stroke: #A80036; stroke-width: 1.0;"/>
        <line style="stroke: #A80036; stroke-width: 1.0;" x1="107.5" x2="840.5" y1="119.6094" y2="119.6094"/>
        <text fill="#000000" font-family="sans-serif" font-size="13" font-weight="bold" lengthAdjust="spacingAndGlyphs" textLength="7" x="114.5" y="115.1045">1</text>
        <text fill="#000000" font-family="sans-serif" font-size="13" lengthAdjust="spacingAndGlyphs" textLength="207" x="125.5" y="115.1045">inicia a especificação de uma tarefa</text>
        <polygon fill="#A80036" points="118.5,161.9609,108.5,165.9609,118.5,169.9609,114.5,165.9609" style="stroke: #A80036; stroke-width: 1.0;"/>
        <line style="stroke: #A80036; stroke-width: 1.0; stroke-dasharray: 2.0,2.0;" x1="112.5" x2="850.5" y1="165.9609" y2="165.9609"/>
        <text fill="#000000" font-family="sans-serif" font-size="13" font-weight="bold" lengthAdjust="spacingAndGlyphs" textLength="7" x="124.5" y="153.6318">2</text>
        <text fill="#000000" font-family="sans-serif" font-size="13" lengthAdjust="spacingAndGlyphs" textLength="98" x="135.5" y="145.4561">solicita os dados</text>
        <text fill="#000000" font-family="sans-serif" font-size="13" lengthAdjust="spacingAndGlyphs" textLength="704" x="135.5" y="161.8076">(i.e. referência única por organização, designação, descrição informal e de caráter técnico, estimativa de duração e custo)</text>
        <polygon fill="#A80036" points="834.5,192.6641,844.5,196.6641,834.5,200.6641,838.5,196.6641" style="stroke: #A80036; stroke-width: 1.0;"/>
        <line style="stroke: #A80036; stroke-width: 1.0;" x1="107.5" x2="840.5" y1="196.6641" y2="196.6641"/>
        <text fill="#000000" font-family="sans-serif" font-size="13" font-weight="bold" lengthAdjust="spacingAndGlyphs" textLength="7" x="114.5" y="192.1592">3</text>
        <text fill="#000000" font-family="sans-serif" font-size="13" lengthAdjust="spacingAndGlyphs" textLength="169" x="125.5" y="192.1592">introduz os dados solicitados</text>
        <polygon fill="#A80036" points="1199.5,223.0156,1209.5,227.0156,1199.5,231.0156,1203.5,227.0156" style="stroke: #A80036; stroke-width: 1.0;"/>
        <line style="stroke: #A80036; stroke-width: 1.0;" x1="856.5" x2="1205.5" y1="227.0156" y2="227.0156"/>
        <text fill="#000000" font-family="sans-serif" font-size="13" font-weight="bold" lengthAdjust="spacingAndGlyphs" textLength="7" x="863.5" y="222.5107">4</text>
        <text fill="#000000" font-family="sans-serif" font-size="13" lengthAdjust="spacingAndGlyphs" textLength="106" x="874.5" y="222.5107">lc=getCategorias()</text>
        <polygon fill="#A80036" points="1728,253.3672,1738,257.3672,1728,261.3672,1732,257.3672" style="stroke: #A80036; stroke-width: 1.0;"/>
        <line style="stroke: #A80036; stroke-width: 1.0;" x1="1221.5" x2="1734" y1="257.3672" y2="257.3672"/>
        <text fill="#000000" font-family="sans-serif" font-size="13" font-weight="bold" lengthAdjust="spacingAndGlyphs" textLength="7" x="1228.5" y="252.8623">5</text>
        <text fill="#000000" font-family="sans-serif" font-size="13" lengthAdjust="spacingAndGlyphs" textLength="106" x="1239.5" y="252.8623">lc=getCategorias()</text>
        <polygon fill="#A80036" points="118.5,338.7188,108.5,342.7188,118.5,346.7188,114.5,342.7188" style="stroke: #A80036; stroke-width: 1.0;"/>
        <line style="stroke: #A80036; stroke-width: 1.0; stroke-dasharray: 2.0,2.0;" x1="112.5" x2="850.5" y1="342.7188" y2="342.7188"/>
        <text fill="#000000" font-family="sans-serif" font-size="13" font-weight="bold" lengthAdjust="spacingAndGlyphs" textLength="7" x="124.5" y="338.2139">6</text>
        <text fill="#000000" font-family="sans-serif" font-size="13" lengthAdjust="spacingAndGlyphs" textLength="325" x="135.5" y="338.2139">mostra a lista de categorias e pede para selecionar uma</text>
        <polygon fill="#A80036" points="834.5,369.0703,844.5,373.0703,834.5,377.0703,838.5,373.0703" style="stroke: #A80036; stroke-width: 1.0;"/>
        <line style="stroke: #A80036; stroke-width: 1.0;" x1="107.5" x2="840.5" y1="373.0703" y2="373.0703"/>
        <text fill="#000000" font-family="sans-serif" font-size="13" font-weight="bold" lengthAdjust="spacingAndGlyphs" textLength="7" x="114.5" y="368.5654">7</text>
        <text fill="#000000" font-family="sans-serif" font-size="13" lengthAdjust="spacingAndGlyphs" textLength="141" x="125.5" y="368.5654">seleciona uma categoria</text>
        <polygon fill="#A80036" points="1199.5,399.4219,1209.5,403.4219,1199.5,407.4219,1203.5,403.4219" style="stroke: #A80036; stroke-width: 1.0;"/>
        <line style="stroke: #A80036; stroke-width: 1.0;" x1="856.5" x2="1205.5" y1="403.4219" y2="403.4219"/>
        <text fill="#000000" font-family="sans-serif" font-size="13" font-weight="bold" lengthAdjust="spacingAndGlyphs" textLength="7" x="863.5" y="398.917">8</text>
        <text fill="#000000" font-family="sans-serif" font-size="13" lengthAdjust="spacingAndGlyphs" textLength="325" x="874.5" y="398.917">novaTarefa(ref,dsig,dsInf,dsTec,duracEst,custoEst,catId)</text>
        <polygon fill="#A80036" points="1728,429.7734,1738,433.7734,1728,437.7734,1732,433.7734" style="stroke: #A80036; stroke-width: 1.0;"/>
        <line style="stroke: #A80036; stroke-width: 1.0;" x1="1221.5" x2="1734" y1="433.7734" y2="433.7734"/>
        <text fill="#000000" font-family="sans-serif" font-size="13" font-weight="bold" lengthAdjust="spacingAndGlyphs" textLength="7" x="1228.5" y="429.2686">9</text>
        <text fill="#000000" font-family="sans-serif" font-size="13" lengthAdjust="spacingAndGlyphs" textLength="161" x="1239.5" y="429.2686">cat=getCategoriaById(catId)</text>
        <polygon fill="#A80036" points="1361,515.125,1371,519.125,1361,523.125,1365,519.125" style="stroke: #A80036; stroke-width: 1.0;"/>
        <line style="stroke: #A80036; stroke-width: 1.0;" x1="1221.5" x2="1367" y1="519.125" y2="519.125"/>
        <text fill="#000000" font-family="sans-serif" font-size="13" font-weight="bold" lengthAdjust="spacingAndGlyphs" textLength="14" x="1228.5" y="514.6201">10</text>
        <text fill="#000000" font-family="sans-serif" font-size="13" lengthAdjust="spacingAndGlyphs" textLength="112" x="1246.5" y="514.6201">app = getInstance()</text>
        <polygon fill="#A80036" points="1481,600.4766,1491,604.4766,1481,608.4766,1485,604.4766" style="stroke: #A80036; stroke-width: 1.0;"/>
        <line style="stroke: #A80036; stroke-width: 1.0;" x1="1221.5" x2="1487" y1="604.4766" y2="604.4766"/>
        <text fill="#000000" font-family="sans-serif" font-size="13" font-weight="bold" lengthAdjust="spacingAndGlyphs" textLength="14" x="1228.5" y="599.9717">11</text>
        <text fill="#000000" font-family="sans-serif" font-size="13" lengthAdjust="spacingAndGlyphs" textLength="158" x="1246.5" y="599.9717">sessao = getSessaoAtual()</text>
        <polygon fill="#A80036" points="1610,685.8281,1620,689.8281,1610,693.8281,1614,689.8281" style="stroke: #A80036; stroke-width: 1.0;"/>
        <line style="stroke: #A80036; stroke-width: 1.0;" x1="1221.5" x2="1616" y1="689.8281" y2="689.8281"/>
        <text fill="#000000" font-family="sans-serif" font-size="13" font-weight="bold" lengthAdjust="spacingAndGlyphs" textLength="14" x="1228.5" y="685.3232">12</text>
        <text fill="#000000" font-family="sans-serif" font-size="13" lengthAdjust="spacingAndGlyphs" textLength="160" x="1246.5" y="685.3232">email = getEmailUtilizador()</text>
        <polygon fill="#A80036" points="1728,771.1797,1738,775.1797,1728,779.1797,1732,775.1797" style="stroke: #A80036; stroke-width: 1.0;"/>
        <line style="stroke: #A80036; stroke-width: 1.0;" x1="1221.5" x2="1734" y1="775.1797" y2="775.1797"/>
        <text fill="#000000" font-family="sans-serif" font-size="13" font-weight="bold" lengthAdjust="spacingAndGlyphs" textLength="14" x="1228.5" y="770.6748">13</text>
        <text fill="#000000" font-family="sans-serif" font-size="13" lengthAdjust="spacingAndGlyphs" textLength="267" x="1246.5" y="770.6748">org = getOrganizacaoByEmailUtilizador(email)</text>
        <polygon fill="#A80036" points="1834,856.5313,1844,860.5313,1834,864.5313,1838,860.5313" style="stroke: #A80036; stroke-width: 1.0;"/>
        <line style="stroke: #A80036; stroke-width: 1.0;" x1="1221.5" x2="1840" y1="860.5313" y2="860.5313"/>
        <text fill="#000000" font-family="sans-serif" font-size="13" font-weight="bold" lengthAdjust="spacingAndGlyphs" textLength="14" x="1228.5" y="856.0264">14</text>
        <text fill="#000000" font-family="sans-serif" font-size="13" lengthAdjust="spacingAndGlyphs" textLength="121" x="1246.5" y="856.0264">rt=getRegistoTarefa()</text>
        <polygon fill="#A80036" points="1955.5,916.8828,1965.5,920.8828,1955.5,924.8828,1959.5,920.8828" style="stroke: #A80036; stroke-width: 1.0;"/>
        <line style="stroke: #A80036; stroke-width: 1.0;" x1="1221.5" x2="1961.5" y1="920.8828" y2="920.8828"/>
        <text fill="#000000" font-family="sans-serif" font-size="13" font-weight="bold" lengthAdjust="spacingAndGlyphs" textLength="14" x="1228.5" y="916.3779">15</text>
        <text fill="#000000" font-family="sans-serif" font-size="13" lengthAdjust="spacingAndGlyphs" textLength="355" x="1246.5" y="916.3779">tarefa=novaTarefa(ref,dsig,dsInf,dsTec,duracEst,custoEst,cat)</text>
        <polygon fill="#A80036" points="2297.5,947.2344,2307.5,951.2344,2297.5,955.2344,2301.5,951.2344" style="stroke: #A80036; stroke-width: 1.0;"/>
        <line style="stroke: #A80036; stroke-width: 1.0; stroke-dasharray: 2.0,2.0;" x1="1977.5" x2="2303.5" y1="951.2344" y2="951.2344"/>
        <text fill="#000000" font-family="sans-serif" font-size="13" font-weight="bold" lengthAdjust="spacingAndGlyphs" textLength="14" x="1984.5" y="946.7295">16</text>
        <text fill="#000000" font-family="sans-serif" font-size="13" lengthAdjust="spacingAndGlyphs" textLength="290" x="2002.5" y="946.7295">create(ref,dsig,dsInf,dsTec,duracEst,custoEst,cat)</text>
        <rect fill="#FEFECE" filter="url(#f9lqnsckhql0l)" height="49.2188" style="stroke: #A80036; stroke-width: 1.5;" width="60" x="2309.5" y="929.2344"/>
        <text fill="#000000" font-family="sans-serif" font-size="14" lengthAdjust="spacingAndGlyphs" textLength="37" x="2321" y="950.7676">tarefa</text>
        <text fill="#000000" font-family="sans-serif" font-size="14" lengthAdjust="spacingAndGlyphs" textLength="46" x="2316.5" y="968.377">:Tarefa</text>
        <line style="stroke: #A80036; stroke-width: 1.0;" x1="1977.5" x2="2019.5" y1="1015.8047" y2="1015.8047"/>
        <line style="stroke: #A80036; stroke-width: 1.0;" x1="2019.5" x2="2019.5" y1="1015.8047" y2="1028.8047"/>
        <line style="stroke: #A80036; stroke-width: 1.0;" x1="1978.5" x2="2019.5" y1="1028.8047" y2="1028.8047"/>
        <polygon fill="#A80036" points="1988.5,1024.8047,1978.5,1028.8047,1988.5,1032.8047,1984.5,1028.8047" style="stroke: #A80036; stroke-width: 1.0;"/>
        <text fill="#000000" font-family="sans-serif" font-size="13" font-weight="bold" lengthAdjust="spacingAndGlyphs" textLength="14" x="1984.5" y="1010.9482">17</text>
        <text fill="#000000" font-family="sans-serif" font-size="13" lengthAdjust="spacingAndGlyphs" textLength="107" x="2002.5" y="1010.9482">validaTarefa(tarefa)</text>
        <polygon fill="#A80036" points="118.5,1054.8047,108.5,1058.8047,118.5,1062.8047,114.5,1058.8047" style="stroke: #A80036; stroke-width: 1.0;"/>
        <line style="stroke: #A80036; stroke-width: 1.0; stroke-dasharray: 2.0,2.0;" x1="112.5" x2="850.5" y1="1058.8047" y2="1058.8047"/>
        <text fill="#000000" font-family="sans-serif" font-size="13" font-weight="bold" lengthAdjust="spacingAndGlyphs" textLength="14" x="124.5" y="1054.2998">18</text>
        <text fill="#000000" font-family="sans-serif" font-size="13" lengthAdjust="spacingAndGlyphs" textLength="244" x="142.5" y="1054.2998">apresenta os dados e solicita confirmação</text>
        <polygon fill="#A80036" points="834.5,1085.1563,844.5,1089.1563,834.5,1093.1563,838.5,1089.1563" style="stroke: #A80036; stroke-width: 1.0;"/>
        <line style="stroke: #A80036; stroke-width: 1.0;" x1="107.5" x2="840.5" y1="1089.1563" y2="1089.1563"/>
        <text fill="#000000" font-family="sans-serif" font-size="13" font-weight="bold" lengthAdjust="spacingAndGlyphs" textLength="14" x="114.5" y="1084.6514">19</text>
        <text fill="#000000" font-family="sans-serif" font-size="13" lengthAdjust="spacingAndGlyphs" textLength="106" x="132.5" y="1084.6514">confirma os dados</text>
        <polygon fill="#A80036" points="1199.5,1115.5078,1209.5,1119.5078,1199.5,1123.5078,1203.5,1119.5078" style="stroke: #A80036; stroke-width: 1.0;"/>
        <line style="stroke: #A80036; stroke-width: 1.0;" x1="856.5" x2="1205.5" y1="1119.5078" y2="1119.5078"/>
        <text fill="#000000" font-family="sans-serif" font-size="13" font-weight="bold" lengthAdjust="spacingAndGlyphs" textLength="14" x="863.5" y="1115.0029">20</text>
        <text fill="#000000" font-family="sans-serif" font-size="13" lengthAdjust="spacingAndGlyphs" textLength="82" x="881.5" y="1115.0029">registaTarefa()</text>
        <polygon fill="#A80036" points="1955.5,1145.8594,1965.5,1149.8594,1955.5,1153.8594,1959.5,1149.8594" style="stroke: #A80036; stroke-width: 1.0;"/>
        <line style="stroke: #A80036; stroke-width: 1.0;" x1="1221.5" x2="1961.5" y1="1149.8594" y2="1149.8594"/>
        <text fill="#000000" font-family="sans-serif" font-size="13" font-weight="bold" lengthAdjust="spacingAndGlyphs" textLength="14" x="1228.5" y="1145.3545">21</text>
        <text fill="#000000" font-family="sans-serif" font-size="13" lengthAdjust="spacingAndGlyphs" textLength="114" x="1246.5" y="1145.3545">registaTarefa(tarefa)</text>
        <line style="stroke: #A80036; stroke-width: 1.0;" x1="1977.5" x2="2019.5" y1="1180.5625" y2="1180.5625"/>
        <line style="stroke: #A80036; stroke-width: 1.0;" x1="2019.5" x2="2019.5" y1="1180.5625" y2="1193.5625"/>
        <line style="stroke: #A80036; stroke-width: 1.0;" x1="1978.5" x2="2019.5" y1="1193.5625" y2="1193.5625"/>
        <polygon fill="#A80036" points="1988.5,1189.5625,1978.5,1193.5625,1988.5,1197.5625,1984.5,1193.5625" style="stroke: #A80036; stroke-width: 1.0;"/>
        <text fill="#000000" font-family="sans-serif" font-size="13" font-weight="bold" lengthAdjust="spacingAndGlyphs" textLength="14" x="1984.5" y="1175.7061">22</text>
        <text fill="#000000" font-family="sans-serif" font-size="13" lengthAdjust="spacingAndGlyphs" textLength="107" x="2002.5" y="1175.7061">validaTarefa(tarefa)</text>
        <line style="stroke: #A80036; stroke-width: 1.0;" x1="1977.5" x2="2019.5" y1="1223.9141" y2="1223.9141"/>
        <line style="stroke: #A80036; stroke-width: 1.0;" x1="2019.5" x2="2019.5" y1="1223.9141" y2="1236.9141"/>
        <line style="stroke: #A80036; stroke-width: 1.0;" x1="1978.5" x2="2019.5" y1="1236.9141" y2="1236.9141"/>
        <polygon fill="#A80036" points="1988.5,1232.9141,1978.5,1236.9141,1988.5,1240.9141,1984.5,1236.9141" style="stroke: #A80036; stroke-width: 1.0;"/>
        <text fill="#000000" font-family="sans-serif" font-size="13" font-weight="bold" lengthAdjust="spacingAndGlyphs" textLength="14" x="1984.5" y="1219.0576">23</text>
        <text fill="#000000" font-family="sans-serif" font-size="13" lengthAdjust="spacingAndGlyphs" textLength="96" x="2002.5" y="1219.0576">addTarefa(tarefa)</text>
        <polygon fill="#A80036" points="113.5,1262.9141,103.5,1266.9141,113.5,1270.9141,109.5,1266.9141" style="stroke: #A80036; stroke-width: 1.0;"/>
        <line style="stroke: #A80036; stroke-width: 1.0; stroke-dasharray: 2.0,2.0;" x1="107.5" x2="850.5" y1="1266.9141" y2="1266.9141"/>
        <text fill="#000000" font-family="sans-serif" font-size="13" font-weight="bold" lengthAdjust="spacingAndGlyphs" textLength="14" x="119.5" y="1262.4092">24</text>
        <text fill="#000000" font-family="sans-serif" font-size="13" lengthAdjust="spacingAndGlyphs" textLength="188" x="137.5" y="1262.4092">informa do sucesso da operação</text>
        <!--
@startuml
autonumber
'hide footbox
actor "Colaborador de Organização" as ADM

participant ":EspecificarTarefaUI" as UI
participant ":EspecificarTarefaController" as CTRL
participant "AplicacaoPOT" as _APP
participant "app\n:AplicacaoPOT" as APP
participant "sessao\n:SessaoUtilizador" as SESSAO
participant ":Plataforma" as PLAT
participant "org\n:Organizacao" as ORG
participant "rt:RegistoTarefa" as RT
participant "tarefa\n:Tarefa" as TAREFA
participant "lc\n:List<Categoria>" as LIST_CAT


activate ADM
ADM -> UI : inicia a especificação de uma tarefa
activate UI
UI - -> ADM : solicita os dados \n(i.e. referência única por organização, designação, descrição informal e de caráter técnico, estimativa de duração e custo)
deactivate UI

ADM -> UI : introduz os dados solicitados
activate UI

UI -> CTRL : lc=getCategorias()
activate CTRL

CTRL -> PLAT : lc=getCategorias()
activate PLAT
|||
deactivate PLAT
deactivate CTRL

UI - -> ADM : mostra a lista de categorias e pede para selecionar uma
deactivate PLAT
deactivate UI

ADM -> UI : seleciona uma categoria
activate UI

UI -> CTRL : novaTarefa(ref,dsig,dsInf,dsTec,duracEst,custoEst,catId)
activate CTRL

CTRL -> PLAT : cat=getCategoriaById(catId)
activate PLAT
|||
deactivate PLAT

CTRL -> _APP: app = getInstance()
activate _APP
|||
deactivate _APP

CTRL -> APP: sessao = getSessaoAtual()
activate APP
|||
deactivate APP

CTRL -> SESSAO: email = getEmailUtilizador()
activate SESSAO
|||
deactivate SESSAO

CTRL -> PLAT: org = getOrganizacaoByEmailUtilizador(email)
activate PLAT
|||
deactivate PLAT

CTRL -> ORG : rt=getRegistoTarefa()
activate ORG
deactivate ORG

CTRL -> RT: tarefa=novaTarefa(ref,dsig,dsInf,dsTec,duracEst,custoEst,cat)
activate RT

RT - -> TAREFA**: create(ref,dsig,dsInf,dsTec,duracEst,custoEst,cat)
RT -> RT: validaTarefa(tarefa)

UI - -> ADM: apresenta os dados e solicita confirmação
deactivate RT
deactivate PLAT
deactivate CTRL
deactivate UI

ADM -> UI : confirma os dados
activate UI
UI -> CTRL : registaTarefa()
activate CTRL

CTRL -> RT : registaTarefa(tarefa)
activate RT

RT -> RT: validaTarefa(tarefa)
RT -> RT: addTarefa(tarefa)

UI - -> ADM : informa do sucesso da operação
deactivate RT
deactivate CTRL
deactivate UI

deactivate ADM

@enduml

PlantUML version 2017.11(Wed Apr 19 17:18:59 BST 2017)
(GPL source distribution)
Java Runtime: Java(TM) SE Runtime Environment
JVM: Java HotSpot(TM) 64-Bit Server VM
Java Version: 1.8.0_221-b11
Operating System: Windows 10
OS Version: 10.0
Default Encoding: UTF-8
Language: pt
Country: PT
-->
    </g>
</svg>
