@startuml
autonumber
'hide footbox
actor "Colaborador de Organização" as ADM

participant ":EspecificarTarefaUI" as UI
participant ":EspecificarTarefaController" as CTRL
participant "AplicacaoPOT" as _APP
participant "app\n:AplicacaoPOT" as APP
participant "sessao\n:SessaoUtilizador" as SESSAO
participant ":Plataforma" as PLAT
participant "org\n:Organizacao" as ORG
participant "rt:RegistoTarefa" as RT
participant "tarefa\n:Tarefa" as TAREFA
participant "lc\n:List<Categoria>" as LIST_CAT


activate ADM
ADM -> UI : inicia a especificação de uma tarefa
activate UI
UI --> ADM : solicita os dados \n(i.e. referência única por organização, designação, descrição informal e de caráter técnico, estimativa de duração e custo)
deactivate UI

ADM -> UI : introduz os dados solicitados
activate UI

UI -> CTRL : lc=getCategorias()
activate CTRL

CTRL -> PLAT : lc=getCategorias()
activate PLAT
|||
deactivate PLAT
deactivate CTRL

UI --> ADM : mostra a lista de categorias e pede para selecionar uma
deactivate PLAT
deactivate UI

ADM -> UI : seleciona uma categoria
activate UI

UI -> CTRL : novaTarefa(ref,dsig,dsInf,dsTec,duracEst,custoEst,catId)
activate CTRL

CTRL -> PLAT : cat=getCategoriaById(catId)
activate PLAT
|||
deactivate PLAT

CTRL -> _APP: app = getInstance()
activate _APP
|||
deactivate _APP

CTRL -> APP: sessao = getSessaoAtual()
activate APP
|||
deactivate APP

CTRL -> SESSAO: email = getEmailUtilizador()
activate SESSAO
|||
deactivate SESSAO

CTRL -> PLAT: org = getOrganizacaoByEmailUtilizador(email)
activate PLAT
|||
deactivate PLAT

CTRL -> ORG : rt=getRegistoTarefa()
activate ORG
deactivate ORG

CTRL -> RT: tarefa=novaTarefa(ref,dsig,dsInf,dsTec,duracEst,custoEst,cat)
activate RT

RT --> TAREFA**: create(ref,dsig,dsInf,dsTec,duracEst,custoEst,cat)
RT -> RT: validaTarefa(tarefa)

UI --> ADM: apresenta os dados e solicita confirmação
deactivate RT
deactivate PLAT
deactivate CTRL
deactivate UI

ADM -> UI : confirma os dados
activate UI
UI -> CTRL : registaTarefa()
activate CTRL

CTRL -> RT : registaTarefa(tarefa)
activate RT

RT -> RT: validaTarefa(tarefa)
RT -> RT: addTarefa(tarefa)

UI --> ADM : informa do sucesso da operação
deactivate RT
deactivate CTRL
deactivate UI

deactivate ADM

@enduml
