<?xml version="1.0" encoding="UTF-8"?><svg xmlns="http://www.w3.org/2000/svg" xmlns:xlink="http://www.w3.org/1999/xlink" contentScriptType="application/ecmascript" contentStyleType="text/css" height="1181px" preserveAspectRatio="none" style="width:987px;height:1181px;" version="1.1" viewBox="0 0 987 1181" width="987px" zoomAndPan="magnify">
    <defs>
        <filter height="300%" id="f1wofwv875e4b0" width="300%" x="-1" y="-1">
            <feGaussianBlur result="blurOut" stdDeviation="2.0"/>
            <feColorMatrix in="blurOut" result="blurOut2" type="matrix" values="0 0 0 0 0 0 0 0 0 0 0 0 0 0 0 0 0 0 .4 0"/>
            <feOffset dx="4.0" dy="4.0" in="blurOut2" result="blurOut3"/>
            <feBlend in="SourceGraphic" in2="blurOut3" mode="normal"/>
        </filter>
    </defs>
    <g>
        <!--class Freelancer-->
        <rect fill="#FEFECE" filter="url(#f1wofwv875e4b0)" height="117.1797" style="stroke: #A80036; stroke-width: 1.5;" width="122" x="204" y="874"/>
        <ellipse cx="232.95" cy="890" fill="#ADD1B2" rx="11" ry="11" style="stroke: #A80036; stroke-width: 1.0;"/>
        <path d="M235.7156,885.875 Q235.8719,885.6563 236.0594,885.5469 Q236.2469,885.4375 236.4656,885.4375 Q236.8406,885.4375 237.075,885.6953 Q237.3094,885.9531 237.3094,886.5625 L237.3094,888.0156 Q237.3094,888.625 237.075,888.8906 Q236.8406,889.1563 236.4656,889.1563 Q236.1219,889.1563 235.9188,888.9531 Q235.7156,888.7656 235.6063,888.25 Q235.5594,887.8906 235.3719,887.7031 Q235.0438,887.3281 234.4344,887.1094 Q233.825,886.8906 233.2,886.8906 Q232.4344,886.8906 231.8016,887.2188 Q231.1688,887.5469 230.6766,888.2969 Q230.1844,889.0469 230.1844,890.0781 L230.1844,891.1719 Q230.1844,892.4063 231.075,893.2266 Q231.9656,894.0469 233.5594,894.0469 Q234.4969,894.0469 235.1531,893.7969 Q235.5438,893.6406 235.9656,893.2031 Q236.2313,892.9375 236.3797,892.8594 Q236.5281,892.7813 236.7313,892.7813 Q237.0594,892.7813 237.3172,893.0391 Q237.575,893.2969 237.575,893.6406 Q237.575,893.9844 237.2313,894.3906 Q236.7313,894.9688 235.9344,895.2969 Q234.8563,895.75 233.5594,895.75 Q232.0438,895.75 230.8406,895.125 Q229.8563,894.625 229.1688,893.5547 Q228.4813,892.4844 228.4813,891.2031 L228.4813,890.0469 Q228.4813,888.7188 229.0984,887.5703 Q229.7156,886.4219 230.8094,885.8047 Q231.9031,885.1875 233.1375,885.1875 Q233.8719,885.1875 234.5203,885.3516 Q235.1688,885.5156 235.7156,885.875 Z "/>
        <text fill="#000000" font-family="sans-serif" font-size="12" lengthAdjust="spacingAndGlyphs" textLength="59" x="250.05" y="894.9102">Freelancer</text>
        <line style="stroke: #A80036; stroke-width: 1.5;" x1="205" x2="325" y1="906" y2="906"/>
        <text fill="#000000" font-family="sans-serif" font-size="11" lengthAdjust="spacingAndGlyphs" textLength="61" x="210" y="921.4189">-String nome</text>
        <text fill="#000000" font-family="sans-serif" font-size="11" lengthAdjust="spacingAndGlyphs" textLength="50" x="210" y="935.2549">-String NIF</text>
        <text fill="#000000" font-family="sans-serif" font-size="11" lengthAdjust="spacingAndGlyphs" textLength="110" x="210" y="949.0908">-String enderecoPostal</text>
        <text fill="#000000" font-family="sans-serif" font-size="11" lengthAdjust="spacingAndGlyphs" textLength="74" x="210" y="962.9268">-String telefone</text>
        <text fill="#000000" font-family="sans-serif" font-size="11" lengthAdjust="spacingAndGlyphs" textLength="59" x="210" y="976.7627">-String email</text>
        <line style="stroke: #A80036; stroke-width: 1.5;" x1="205" x2="325" y1="983.1797" y2="983.1797"/>
        <!--class EnderecoPostal-->
        <rect fill="#FEFECE" filter="url(#f1wofwv875e4b0)" height="89.5078" style="stroke: #A80036; stroke-width: 1.5;" width="120" x="6" y="1075.5"/>
        <ellipse cx="21" cy="1091.5" fill="#ADD1B2" rx="11" ry="11" style="stroke: #A80036; stroke-width: 1.0;"/>
        <path d="M23.7656,1087.375 Q23.9219,1087.1563 24.1094,1087.0469 Q24.2969,1086.9375 24.5156,1086.9375 Q24.8906,1086.9375 25.125,1087.1953 Q25.3594,1087.4531 25.3594,1088.0625 L25.3594,1089.5156 Q25.3594,1090.125 25.125,1090.3906 Q24.8906,1090.6563 24.5156,1090.6563 Q24.1719,1090.6563 23.9688,1090.4531 Q23.7656,1090.2656 23.6563,1089.75 Q23.6094,1089.3906 23.4219,1089.2031 Q23.0938,1088.8281 22.4844,1088.6094 Q21.875,1088.3906 21.25,1088.3906 Q20.4844,1088.3906 19.8516,1088.7188 Q19.2188,1089.0469 18.7266,1089.7969 Q18.2344,1090.5469 18.2344,1091.5781 L18.2344,1092.6719 Q18.2344,1093.9063 19.125,1094.7266 Q20.0156,1095.5469 21.6094,1095.5469 Q22.5469,1095.5469 23.2031,1095.2969 Q23.5938,1095.1406 24.0156,1094.7031 Q24.2813,1094.4375 24.4297,1094.3594 Q24.5781,1094.2813 24.7813,1094.2813 Q25.1094,1094.2813 25.3672,1094.5391 Q25.625,1094.7969 25.625,1095.1406 Q25.625,1095.4844 25.2813,1095.8906 Q24.7813,1096.4688 23.9844,1096.7969 Q22.9063,1097.25 21.6094,1097.25 Q20.0938,1097.25 18.8906,1096.625 Q17.9063,1096.125 17.2188,1095.0547 Q16.5313,1093.9844 16.5313,1092.7031 L16.5313,1091.5469 Q16.5313,1090.2188 17.1484,1089.0703 Q17.7656,1087.9219 18.8594,1087.3047 Q19.9531,1086.6875 21.1875,1086.6875 Q21.9219,1086.6875 22.5703,1086.8516 Q23.2188,1087.0156 23.7656,1087.375 Z "/>
        <text fill="#000000" font-family="sans-serif" font-size="12" lengthAdjust="spacingAndGlyphs" textLength="88" x="35" y="1096.4102">EnderecoPostal</text>
        <line style="stroke: #A80036; stroke-width: 1.5;" x1="7" x2="125" y1="1107.5" y2="1107.5"/>
        <text fill="#000000" font-family="sans-serif" font-size="11" lengthAdjust="spacingAndGlyphs" textLength="57" x="12" y="1122.9189">-String local</text>
        <text fill="#000000" font-family="sans-serif" font-size="11" lengthAdjust="spacingAndGlyphs" textLength="82" x="12" y="1136.7549">-String codPostal</text>
        <text fill="#000000" font-family="sans-serif" font-size="11" lengthAdjust="spacingAndGlyphs" textLength="83" x="12" y="1150.5908">-String localidade</text>
        <line style="stroke: #A80036; stroke-width: 1.5;" x1="7" x2="125" y1="1157.0078" y2="1157.0078"/>
        <!--class ReconhecimentoCompetencias-->
        <rect fill="#FEFECE" filter="url(#f1wofwv875e4b0)" height="89.5078" style="stroke: #A80036; stroke-width: 1.5;" width="207" x="161.5" y="1075.5"/>
        <ellipse cx="176.5" cy="1091.5" fill="#ADD1B2" rx="11" ry="11" style="stroke: #A80036; stroke-width: 1.0;"/>
        <path d="M179.2656,1087.375 Q179.4219,1087.1563 179.6094,1087.0469 Q179.7969,1086.9375 180.0156,1086.9375 Q180.3906,1086.9375 180.625,1087.1953 Q180.8594,1087.4531 180.8594,1088.0625 L180.8594,1089.5156 Q180.8594,1090.125 180.625,1090.3906 Q180.3906,1090.6563 180.0156,1090.6563 Q179.6719,1090.6563 179.4688,1090.4531 Q179.2656,1090.2656 179.1563,1089.75 Q179.1094,1089.3906 178.9219,1089.2031 Q178.5938,1088.8281 177.9844,1088.6094 Q177.375,1088.3906 176.75,1088.3906 Q175.9844,1088.3906 175.3516,1088.7188 Q174.7188,1089.0469 174.2266,1089.7969 Q173.7344,1090.5469 173.7344,1091.5781 L173.7344,1092.6719 Q173.7344,1093.9063 174.625,1094.7266 Q175.5156,1095.5469 177.1094,1095.5469 Q178.0469,1095.5469 178.7031,1095.2969 Q179.0938,1095.1406 179.5156,1094.7031 Q179.7813,1094.4375 179.9297,1094.3594 Q180.0781,1094.2813 180.2813,1094.2813 Q180.6094,1094.2813 180.8672,1094.5391 Q181.125,1094.7969 181.125,1095.1406 Q181.125,1095.4844 180.7813,1095.8906 Q180.2813,1096.4688 179.4844,1096.7969 Q178.4063,1097.25 177.1094,1097.25 Q175.5938,1097.25 174.3906,1096.625 Q173.4063,1096.125 172.7188,1095.0547 Q172.0313,1093.9844 172.0313,1092.7031 L172.0313,1091.5469 Q172.0313,1090.2188 172.6484,1089.0703 Q173.2656,1087.9219 174.3594,1087.3047 Q175.4531,1086.6875 176.6875,1086.6875 Q177.4219,1086.6875 178.0703,1086.8516 Q178.7188,1087.0156 179.2656,1087.375 Z "/>
        <text fill="#000000" font-family="sans-serif" font-size="12" lengthAdjust="spacingAndGlyphs" textLength="175" x="190.5" y="1096.4102">ReconhecimentoCompetencias</text>
        <line style="stroke: #A80036; stroke-width: 1.5;" x1="162.5" x2="367.5" y1="1107.5" y2="1107.5"/>
        <text fill="#000000" font-family="sans-serif" font-size="11" lengthAdjust="spacingAndGlyphs" textLength="50" x="167.5" y="1122.9189">-Date data</text>
        <text fill="#000000" font-family="sans-serif" font-size="11" lengthAdjust="spacingAndGlyphs" textLength="105" x="167.5" y="1136.7549">-String compTecnicas</text>
        <text fill="#000000" font-family="sans-serif" font-size="11" lengthAdjust="spacingAndGlyphs" textLength="113" x="167.5" y="1150.5908">-String grauProficiencia</text>
        <line style="stroke: #A80036; stroke-width: 1.5;" x1="162.5" x2="367.5" y1="1157.0078" y2="1157.0078"/>
        <!--class HabilitacoesAcademicas-->
        <rect fill="#FEFECE" filter="url(#f1wofwv875e4b0)" height="103.3438" style="stroke: #A80036; stroke-width: 1.5;" width="169" x="403.5" y="1069"/>
        <ellipse cx="418.5" cy="1085" fill="#ADD1B2" rx="11" ry="11" style="stroke: #A80036; stroke-width: 1.0;"/>
        <path d="M421.2656,1080.875 Q421.4219,1080.6563 421.6094,1080.5469 Q421.7969,1080.4375 422.0156,1080.4375 Q422.3906,1080.4375 422.625,1080.6953 Q422.8594,1080.9531 422.8594,1081.5625 L422.8594,1083.0156 Q422.8594,1083.625 422.625,1083.8906 Q422.3906,1084.1563 422.0156,1084.1563 Q421.6719,1084.1563 421.4688,1083.9531 Q421.2656,1083.7656 421.1563,1083.25 Q421.1094,1082.8906 420.9219,1082.7031 Q420.5938,1082.3281 419.9844,1082.1094 Q419.375,1081.8906 418.75,1081.8906 Q417.9844,1081.8906 417.3516,1082.2188 Q416.7188,1082.5469 416.2266,1083.2969 Q415.7344,1084.0469 415.7344,1085.0781 L415.7344,1086.1719 Q415.7344,1087.4063 416.625,1088.2266 Q417.5156,1089.0469 419.1094,1089.0469 Q420.0469,1089.0469 420.7031,1088.7969 Q421.0938,1088.6406 421.5156,1088.2031 Q421.7813,1087.9375 421.9297,1087.8594 Q422.0781,1087.7813 422.2813,1087.7813 Q422.6094,1087.7813 422.8672,1088.0391 Q423.125,1088.2969 423.125,1088.6406 Q423.125,1088.9844 422.7813,1089.3906 Q422.2813,1089.9688 421.4844,1090.2969 Q420.4063,1090.75 419.1094,1090.75 Q417.5938,1090.75 416.3906,1090.125 Q415.4063,1089.625 414.7188,1088.5547 Q414.0313,1087.4844 414.0313,1086.2031 L414.0313,1085.0469 Q414.0313,1083.7188 414.6484,1082.5703 Q415.2656,1081.4219 416.3594,1080.8047 Q417.4531,1080.1875 418.6875,1080.1875 Q419.4219,1080.1875 420.0703,1080.3516 Q420.7188,1080.5156 421.2656,1080.875 Z "/>
        <text fill="#000000" font-family="sans-serif" font-size="12" lengthAdjust="spacingAndGlyphs" textLength="137" x="432.5" y="1089.9102">HabilitacoesAcademicas</text>
        <line style="stroke: #A80036; stroke-width: 1.5;" x1="404.5" x2="571.5" y1="1101" y2="1101"/>
        <text fill="#000000" font-family="sans-serif" font-size="11" lengthAdjust="spacingAndGlyphs" textLength="57" x="409.5" y="1116.4189">-String grau</text>
        <text fill="#000000" font-family="sans-serif" font-size="11" lengthAdjust="spacingAndGlyphs" textLength="91" x="409.5" y="1130.2549">-String designacao</text>
        <text fill="#000000" font-family="sans-serif" font-size="11" lengthAdjust="spacingAndGlyphs" textLength="83" x="409.5" y="1144.0908">-String instituicao</text>
        <text fill="#000000" font-family="sans-serif" font-size="11" lengthAdjust="spacingAndGlyphs" textLength="68" x="409.5" y="1157.9268">-Integer media</text>
        <line style="stroke: #A80036; stroke-width: 1.5;" x1="404.5" x2="571.5" y1="1164.3438" y2="1164.3438"/>
        <!--class SessaoUtilizador-->
        <rect fill="#FEFECE" filter="url(#f1wofwv875e4b0)" height="61.8359" style="stroke: #A80036; stroke-width: 1.5;" width="126" x="128" y="751"/>
        <ellipse cx="143" cy="767" fill="#ADD1B2" rx="11" ry="11" style="stroke: #A80036; stroke-width: 1.0;"/>
        <path d="M145.7656,762.875 Q145.9219,762.6563 146.1094,762.5469 Q146.2969,762.4375 146.5156,762.4375 Q146.8906,762.4375 147.125,762.6953 Q147.3594,762.9531 147.3594,763.5625 L147.3594,765.0156 Q147.3594,765.625 147.125,765.8906 Q146.8906,766.1563 146.5156,766.1563 Q146.1719,766.1563 145.9688,765.9531 Q145.7656,765.7656 145.6563,765.25 Q145.6094,764.8906 145.4219,764.7031 Q145.0938,764.3281 144.4844,764.1094 Q143.875,763.8906 143.25,763.8906 Q142.4844,763.8906 141.8516,764.2188 Q141.2188,764.5469 140.7266,765.2969 Q140.2344,766.0469 140.2344,767.0781 L140.2344,768.1719 Q140.2344,769.4063 141.125,770.2266 Q142.0156,771.0469 143.6094,771.0469 Q144.5469,771.0469 145.2031,770.7969 Q145.5938,770.6406 146.0156,770.2031 Q146.2813,769.9375 146.4297,769.8594 Q146.5781,769.7813 146.7813,769.7813 Q147.1094,769.7813 147.3672,770.0391 Q147.625,770.2969 147.625,770.6406 Q147.625,770.9844 147.2813,771.3906 Q146.7813,771.9688 145.9844,772.2969 Q144.9063,772.75 143.6094,772.75 Q142.0938,772.75 140.8906,772.125 Q139.9063,771.625 139.2188,770.5547 Q138.5313,769.4844 138.5313,768.2031 L138.5313,767.0469 Q138.5313,765.7188 139.1484,764.5703 Q139.7656,763.4219 140.8594,762.8047 Q141.9531,762.1875 143.1875,762.1875 Q143.9219,762.1875 144.5703,762.3516 Q145.2188,762.5156 145.7656,762.875 Z "/>
        <text fill="#000000" font-family="sans-serif" font-size="12" lengthAdjust="spacingAndGlyphs" textLength="94" x="157" y="771.9102">SessaoUtilizador</text>
        <line style="stroke: #A80036; stroke-width: 1.5;" x1="129" x2="253" y1="783" y2="783"/>
        <line style="stroke: #A80036; stroke-width: 1.5;" x1="129" x2="253" y1="791" y2="791"/>
        <text fill="#000000" font-family="sans-serif" font-size="11" lengthAdjust="spacingAndGlyphs" textLength="97" x="134" y="806.4189">+getEmailUtilizador()</text>
        <!--class RegistoFreelancer-->
        <rect fill="#FEFECE" filter="url(#f1wofwv875e4b0)" height="200.1953" style="stroke: #A80036; stroke-width: 1.5;" width="376" x="313" y="490"/>
        <ellipse cx="445.75" cy="506" fill="#ADD1B2" rx="11" ry="11" style="stroke: #A80036; stroke-width: 1.0;"/>
        <path d="M448.5156,501.875 Q448.6719,501.6563 448.8594,501.5469 Q449.0469,501.4375 449.2656,501.4375 Q449.6406,501.4375 449.875,501.6953 Q450.1094,501.9531 450.1094,502.5625 L450.1094,504.0156 Q450.1094,504.625 449.875,504.8906 Q449.6406,505.1563 449.2656,505.1563 Q448.9219,505.1563 448.7188,504.9531 Q448.5156,504.7656 448.4063,504.25 Q448.3594,503.8906 448.1719,503.7031 Q447.8438,503.3281 447.2344,503.1094 Q446.625,502.8906 446,502.8906 Q445.2344,502.8906 444.6016,503.2188 Q443.9688,503.5469 443.4766,504.2969 Q442.9844,505.0469 442.9844,506.0781 L442.9844,507.1719 Q442.9844,508.4063 443.875,509.2266 Q444.7656,510.0469 446.3594,510.0469 Q447.2969,510.0469 447.9531,509.7969 Q448.3438,509.6406 448.7656,509.2031 Q449.0313,508.9375 449.1797,508.8594 Q449.3281,508.7813 449.5313,508.7813 Q449.8594,508.7813 450.1172,509.0391 Q450.375,509.2969 450.375,509.6406 Q450.375,509.9844 450.0313,510.3906 Q449.5313,510.9688 448.7344,511.2969 Q447.6563,511.75 446.3594,511.75 Q444.8438,511.75 443.6406,511.125 Q442.6563,510.625 441.9688,509.5547 Q441.2813,508.4844 441.2813,507.2031 L441.2813,506.0469 Q441.2813,504.7188 441.8984,503.5703 Q442.5156,502.4219 443.6094,501.8047 Q444.7031,501.1875 445.9375,501.1875 Q446.6719,501.1875 447.3203,501.3516 Q447.9688,501.5156 448.5156,501.875 Z "/>
        <text fill="#000000" font-family="sans-serif" font-size="12" lengthAdjust="spacingAndGlyphs" textLength="102" x="466.25" y="510.9102">RegistoFreelancer</text>
        <line style="stroke: #A80036; stroke-width: 1.5;" x1="314" x2="688" y1="522" y2="522"/>
        <line style="stroke: #A80036; stroke-width: 1.5;" x1="314" x2="688" y1="530" y2="530"/>
        <text fill="#000000" font-family="sans-serif" font-size="11" lengthAdjust="spacingAndGlyphs" textLength="242" x="319" y="545.4189">+novoEnderecoPostal(local, codPostal, localidade)</text>
        <text fill="#000000" font-family="sans-serif" font-size="11" lengthAdjust="spacingAndGlyphs" textLength="212" x="319" y="559.2549">+novoFreelancer(nome, NIF, telefone, email)</text>
        <text fill="#000000" font-family="sans-serif" font-size="11" lengthAdjust="spacingAndGlyphs" textLength="300" x="319" y="573.0908">+novoHabilitacoesAcademicas(grau, curso, instituicao, media)</text>
        <text fill="#000000" font-family="sans-serif" font-size="11" lengthAdjust="spacingAndGlyphs" textLength="118" x="319" y="586.9268">+validaHabilitacao(habs)</text>
        <text fill="#000000" font-family="sans-serif" font-size="11" lengthAdjust="spacingAndGlyphs" textLength="108" x="319" y="600.7627">+addHabilitacao(habs)</text>
        <text fill="#000000" font-family="sans-serif" font-size="11" lengthAdjust="spacingAndGlyphs" textLength="364" x="319" y="614.5986">+novoReconhecimentoCompetencias(data, grauProficiencia, competencias)</text>
        <text fill="#000000" font-family="sans-serif" font-size="11" lengthAdjust="spacingAndGlyphs" textLength="138" x="319" y="628.4346">+validaReconhecimento(rec)</text>
        <text fill="#000000" font-family="sans-serif" font-size="11" lengthAdjust="spacingAndGlyphs" textLength="128" x="319" y="642.2705">+addReconhecimento(rec)</text>
        <text fill="#000000" font-family="sans-serif" font-size="11" lengthAdjust="spacingAndGlyphs" textLength="149" x="319" y="656.1064">+registaFreelancer(freelancer)</text>
        <text fill="#000000" font-family="sans-serif" font-size="11" lengthAdjust="spacingAndGlyphs" textLength="144" x="319" y="669.9424">+validaFreelancer(freelancer)</text>
        <text fill="#000000" font-family="sans-serif" font-size="11" lengthAdjust="spacingAndGlyphs" textLength="136" x="319" y="683.7783">+addFreelancer(Freelancer)</text>
        <!--class Plataforma-->
        <rect fill="#FEFECE" filter="url(#f1wofwv875e4b0)" height="117.1797" style="stroke: #A80036; stroke-width: 1.5;" width="161" x="554.5" y="295"/>
        <ellipse cx="600.75" cy="311" fill="#ADD1B2" rx="11" ry="11" style="stroke: #A80036; stroke-width: 1.0;"/>
        <path d="M603.5156,306.875 Q603.6719,306.6563 603.8594,306.5469 Q604.0469,306.4375 604.2656,306.4375 Q604.6406,306.4375 604.875,306.6953 Q605.1094,306.9531 605.1094,307.5625 L605.1094,309.0156 Q605.1094,309.625 604.875,309.8906 Q604.6406,310.1563 604.2656,310.1563 Q603.9219,310.1563 603.7188,309.9531 Q603.5156,309.7656 603.4063,309.25 Q603.3594,308.8906 603.1719,308.7031 Q602.8438,308.3281 602.2344,308.1094 Q601.625,307.8906 601,307.8906 Q600.2344,307.8906 599.6016,308.2188 Q598.9688,308.5469 598.4766,309.2969 Q597.9844,310.0469 597.9844,311.0781 L597.9844,312.1719 Q597.9844,313.4063 598.875,314.2266 Q599.7656,315.0469 601.3594,315.0469 Q602.2969,315.0469 602.9531,314.7969 Q603.3438,314.6406 603.7656,314.2031 Q604.0313,313.9375 604.1797,313.8594 Q604.3281,313.7813 604.5313,313.7813 Q604.8594,313.7813 605.1172,314.0391 Q605.375,314.2969 605.375,314.6406 Q605.375,314.9844 605.0313,315.3906 Q604.5313,315.9688 603.7344,316.2969 Q602.6563,316.75 601.3594,316.75 Q599.8438,316.75 598.6406,316.125 Q597.6563,315.625 596.9688,314.5547 Q596.2813,313.4844 596.2813,312.2031 L596.2813,311.0469 Q596.2813,309.7188 596.8984,308.5703 Q597.5156,307.4219 598.6094,306.8047 Q599.7031,306.1875 600.9375,306.1875 Q601.6719,306.1875 602.3203,306.3516 Q602.9688,306.5156 603.5156,306.875 Z "/>
        <text fill="#000000" font-family="sans-serif" font-size="12" lengthAdjust="spacingAndGlyphs" textLength="60" x="621.25" y="315.9102">Plataforma</text>
        <line style="stroke: #A80036; stroke-width: 1.5;" x1="555.5" x2="714.5" y1="327" y2="327"/>
        <text fill="#000000" font-family="sans-serif" font-size="11" lengthAdjust="spacingAndGlyphs" textLength="91" x="560.5" y="342.4189">-String designacao</text>
        <line style="stroke: #A80036; stroke-width: 1.5;" x1="555.5" x2="714.5" y1="348.8359" y2="348.8359"/>
        <text fill="#000000" font-family="sans-serif" font-size="11" lengthAdjust="spacingAndGlyphs" textLength="117" x="560.5" y="364.2549">+getRegistoFreelancer()</text>
        <text fill="#000000" font-family="sans-serif" font-size="11" lengthAdjust="spacingAndGlyphs" textLength="123" x="560.5" y="378.0908">+getListaCompTecnicas()</text>
        <text fill="#000000" font-family="sans-serif" font-size="11" lengthAdjust="spacingAndGlyphs" textLength="149" x="560.5" y="391.9268">+AlgoritmoGeradorPassword()</text>
        <text fill="#000000" font-family="sans-serif" font-size="11" lengthAdjust="spacingAndGlyphs" textLength="124" x="560.5" y="405.7627">+getAutorizacaoFacade()</text>
        <!--class AutorizacaoFacade-->
        <rect fill="#FEFECE" filter="url(#f1wofwv875e4b0)" height="61.8359" style="stroke: #A80036; stroke-width: 1.5;" width="424" x="289" y="751"/>
        <ellipse cx="444.75" cy="767" fill="#ADD1B2" rx="11" ry="11" style="stroke: #A80036; stroke-width: 1.0;"/>
        <path d="M447.5156,762.875 Q447.6719,762.6563 447.8594,762.5469 Q448.0469,762.4375 448.2656,762.4375 Q448.6406,762.4375 448.875,762.6953 Q449.1094,762.9531 449.1094,763.5625 L449.1094,765.0156 Q449.1094,765.625 448.875,765.8906 Q448.6406,766.1563 448.2656,766.1563 Q447.9219,766.1563 447.7188,765.9531 Q447.5156,765.7656 447.4063,765.25 Q447.3594,764.8906 447.1719,764.7031 Q446.8438,764.3281 446.2344,764.1094 Q445.625,763.8906 445,763.8906 Q444.2344,763.8906 443.6016,764.2188 Q442.9688,764.5469 442.4766,765.2969 Q441.9844,766.0469 441.9844,767.0781 L441.9844,768.1719 Q441.9844,769.4063 442.875,770.2266 Q443.7656,771.0469 445.3594,771.0469 Q446.2969,771.0469 446.9531,770.7969 Q447.3438,770.6406 447.7656,770.2031 Q448.0313,769.9375 448.1797,769.8594 Q448.3281,769.7813 448.5313,769.7813 Q448.8594,769.7813 449.1172,770.0391 Q449.375,770.2969 449.375,770.6406 Q449.375,770.9844 449.0313,771.3906 Q448.5313,771.9688 447.7344,772.2969 Q446.6563,772.75 445.3594,772.75 Q443.8438,772.75 442.6406,772.125 Q441.6563,771.625 440.9688,770.5547 Q440.2813,769.4844 440.2813,768.2031 L440.2813,767.0469 Q440.2813,765.7188 440.8984,764.5703 Q441.5156,763.4219 442.6094,762.8047 Q443.7031,762.1875 444.9375,762.1875 Q445.6719,762.1875 446.3203,762.3516 Q446.9688,762.5156 447.5156,762.875 Z "/>
        <text fill="#000000" font-family="sans-serif" font-size="12" lengthAdjust="spacingAndGlyphs" textLength="104" x="465.25" y="771.9102">AutorizacaoFacade</text>
        <line style="stroke: #A80036; stroke-width: 1.5;" x1="290" x2="712" y1="783" y2="783"/>
        <line style="stroke: #A80036; stroke-width: 1.5;" x1="290" x2="712" y1="791" y2="791"/>
        <text fill="#000000" font-family="sans-serif" font-size="11" lengthAdjust="spacingAndGlyphs" textLength="412" x="295" y="806.4189">+registaUtilizadorComPapel(nomeFreelancer, emailFreelancer, pwd, ["FREELANCER"])</text>
        <!--class RegistarFreelancerController-->
        <rect fill="#FEFECE" filter="url(#f1wofwv875e4b0)" height="117.1797" style="stroke: #A80036; stroke-width: 1.5;" width="312" x="365" y="117"/>
        <ellipse cx="436.75" cy="133" fill="#ADD1B2" rx="11" ry="11" style="stroke: #A80036; stroke-width: 1.0;"/>
        <path d="M439.5156,128.875 Q439.6719,128.6563 439.8594,128.5469 Q440.0469,128.4375 440.2656,128.4375 Q440.6406,128.4375 440.875,128.6953 Q441.1094,128.9531 441.1094,129.5625 L441.1094,131.0156 Q441.1094,131.625 440.875,131.8906 Q440.6406,132.1563 440.2656,132.1563 Q439.9219,132.1563 439.7188,131.9531 Q439.5156,131.7656 439.4063,131.25 Q439.3594,130.8906 439.1719,130.7031 Q438.8438,130.3281 438.2344,130.1094 Q437.625,129.8906 437,129.8906 Q436.2344,129.8906 435.6016,130.2188 Q434.9688,130.5469 434.4766,131.2969 Q433.9844,132.0469 433.9844,133.0781 L433.9844,134.1719 Q433.9844,135.4063 434.875,136.2266 Q435.7656,137.0469 437.3594,137.0469 Q438.2969,137.0469 438.9531,136.7969 Q439.3438,136.6406 439.7656,136.2031 Q440.0313,135.9375 440.1797,135.8594 Q440.3281,135.7813 440.5313,135.7813 Q440.8594,135.7813 441.1172,136.0391 Q441.375,136.2969 441.375,136.6406 Q441.375,136.9844 441.0313,137.3906 Q440.5313,137.9688 439.7344,138.2969 Q438.6563,138.75 437.3594,138.75 Q435.8438,138.75 434.6406,138.125 Q433.6563,137.625 432.9688,136.5547 Q432.2813,135.4844 432.2813,134.2031 L432.2813,133.0469 Q432.2813,131.7188 432.8984,130.5703 Q433.5156,129.4219 434.6094,128.8047 Q435.7031,128.1875 436.9375,128.1875 Q437.6719,128.1875 438.3203,128.3516 Q438.9688,128.5156 439.5156,128.875 Z "/>
        <text fill="#000000" font-family="sans-serif" font-size="12" lengthAdjust="spacingAndGlyphs" textLength="160" x="457.25" y="137.9102">RegistarFreelancerController</text>
        <line style="stroke: #A80036; stroke-width: 1.5;" x1="366" x2="676" y1="149" y2="149"/>
        <line style="stroke: #A80036; stroke-width: 1.5;" x1="366" x2="676" y1="157" y2="157"/>
        <text fill="#000000" font-family="sans-serif" font-size="11" lengthAdjust="spacingAndGlyphs" textLength="293" x="371" y="172.4189">+novoFreelancer(nome, NIF, enderecoPostal, telefone, email)</text>
        <text fill="#000000" font-family="sans-serif" font-size="11" lengthAdjust="spacingAndGlyphs" textLength="300" x="371" y="186.2549">+novoHabilitacoesAcademicas(grau, curso, instituicao, media)</text>
        <text fill="#000000" font-family="sans-serif" font-size="11" lengthAdjust="spacingAndGlyphs" textLength="123" x="371" y="200.0908">+getListaCompTecnicas()</text>
        <text fill="#000000" font-family="sans-serif" font-size="11" lengthAdjust="spacingAndGlyphs" textLength="112" x="371" y="213.9268">+addGrauProficiencia()</text>
        <text fill="#000000" font-family="sans-serif" font-size="11" lengthAdjust="spacingAndGlyphs" textLength="99" x="371" y="227.7627">+registaFreelancer()</text>
        <!--class RegistarFreelancerUI-->
        <rect fill="#FEFECE" filter="url(#f1wofwv875e4b0)" height="48" style="stroke: #A80036; stroke-width: 1.5;" width="150" x="446" y="8"/>
        <ellipse cx="461" cy="24" fill="#ADD1B2" rx="11" ry="11" style="stroke: #A80036; stroke-width: 1.0;"/>
        <path d="M463.7656,19.875 Q463.9219,19.6563 464.1094,19.5469 Q464.2969,19.4375 464.5156,19.4375 Q464.8906,19.4375 465.125,19.6953 Q465.3594,19.9531 465.3594,20.5625 L465.3594,22.0156 Q465.3594,22.625 465.125,22.8906 Q464.8906,23.1563 464.5156,23.1563 Q464.1719,23.1563 463.9688,22.9531 Q463.7656,22.7656 463.6563,22.25 Q463.6094,21.8906 463.4219,21.7031 Q463.0938,21.3281 462.4844,21.1094 Q461.875,20.8906 461.25,20.8906 Q460.4844,20.8906 459.8516,21.2188 Q459.2188,21.5469 458.7266,22.2969 Q458.2344,23.0469 458.2344,24.0781 L458.2344,25.1719 Q458.2344,26.4063 459.125,27.2266 Q460.0156,28.0469 461.6094,28.0469 Q462.5469,28.0469 463.2031,27.7969 Q463.5938,27.6406 464.0156,27.2031 Q464.2813,26.9375 464.4297,26.8594 Q464.5781,26.7813 464.7813,26.7813 Q465.1094,26.7813 465.3672,27.0391 Q465.625,27.2969 465.625,27.6406 Q465.625,27.9844 465.2813,28.3906 Q464.7813,28.9688 463.9844,29.2969 Q462.9063,29.75 461.6094,29.75 Q460.0938,29.75 458.8906,29.125 Q457.9063,28.625 457.2188,27.5547 Q456.5313,26.4844 456.5313,25.2031 L456.5313,24.0469 Q456.5313,22.7188 457.1484,21.5703 Q457.7656,20.4219 458.8594,19.8047 Q459.9531,19.1875 461.1875,19.1875 Q461.9219,19.1875 462.5703,19.3516 Q463.2188,19.5156 463.7656,19.875 Z "/>
        <text fill="#000000" font-family="sans-serif" font-size="12" lengthAdjust="spacingAndGlyphs" textLength="118" x="475" y="28.9102">RegistarFreelancerUI</text>
        <line style="stroke: #A80036; stroke-width: 1.5;" x1="447" x2="595" y1="40" y2="40"/>
        <line style="stroke: #A80036; stroke-width: 1.5;" x1="447" x2="595" y1="48" y2="48"/>
        <!--class AlgoritmoGeradorPassword-->
        <rect fill="#FEFECE" filter="url(#f1wofwv875e4b0)" height="61.8359" style="stroke: #A80036; stroke-width: 1.5;" width="230" x="748" y="751"/>
        <ellipse cx="784.15" cy="767" fill="#B4A7E5" rx="11" ry="11" style="stroke: #A80036; stroke-width: 1.0;"/>
        <path d="M785.1031,763.6406 L785.1031,770.2969 L786.8219,770.2969 Q787.4313,770.2969 787.6969,770.5313 Q787.9625,770.7656 787.9625,771.1563 Q787.9625,771.5313 787.6969,771.7656 Q787.4313,772 786.8219,772 L781.6813,772 Q781.0719,772 780.8063,771.7656 Q780.5406,771.5313 780.5406,771.1406 Q780.5406,770.7656 780.8063,770.5313 Q781.0719,770.2969 781.6813,770.2969 L783.4,770.2969 L783.4,763.6406 L781.6813,763.6406 Q781.0719,763.6406 780.8063,763.4063 Q780.5406,763.1719 780.5406,762.7813 Q780.5406,762.4063 780.8063,762.1719 Q781.0719,761.9375 781.6813,761.9375 L786.8219,761.9375 Q787.4313,761.9375 787.6969,762.1719 Q787.9625,762.4063 787.9625,762.7813 Q787.9625,763.1719 787.6969,763.4063 Q787.4313,763.6406 786.8219,763.6406 L785.1031,763.6406 Z "/>
        <text fill="#000000" font-family="sans-serif" font-size="12" font-style="italic" lengthAdjust="spacingAndGlyphs" textLength="151" x="802.85" y="771.9102">AlgoritmoGeradorPassword</text>
        <line style="stroke: #A80036; stroke-width: 1.5;" x1="749" x2="977" y1="783" y2="783"/>
        <line style="stroke: #A80036; stroke-width: 1.5;" x1="749" x2="977" y1="791" y2="791"/>
        <text fill="#000000" font-family="sans-serif" font-size="11" lengthAdjust="spacingAndGlyphs" textLength="218" x="754" y="806.4189">+geraPwd(nomeFreelancer, emailFreelancer)</text>
        <path d="M521,56.05 C521,71.28 521,92.04 521,111.92 " fill="none" style="stroke: #A80036; stroke-width: 1.0; stroke-dasharray: 7.0,7.0;"/>
        <polygon fill="#A80036" points="521,116.95,525,107.95,521,111.95,517,107.95,521,116.95" style="stroke: #A80036; stroke-width: 1.0;"/>
        <path d="M558.328,234.129 C569.941,252.058 582.796,271.905 594.609,290.142 " fill="none" style="stroke: #A80036; stroke-width: 1.0; stroke-dasharray: 7.0,7.0;"/>
        <polygon fill="#A80036" points="597.588,294.742,596.0548,285.0132,594.8708,290.5448,589.3392,289.3607,597.588,294.742" style="stroke: #A80036; stroke-width: 1.0;"/>
        <path d="M518.198,234.291 C515.058,299.055 509.903,405.366 506.055,484.742 " fill="none" style="stroke: #A80036; stroke-width: 1.0; stroke-dasharray: 7.0,7.0;"/>
        <polygon fill="#A80036" points="505.803,489.931,510.2354,481.1359,506.0458,484.9369,502.2448,480.7473,505.803,489.931" style="stroke: #A80036; stroke-width: 1.0;"/>
        <path d="M602.048,412.165 C589.375,434.343 574.489,460.395 560.096,485.583 " fill="none" style="stroke: #A80036; stroke-width: 1.0;"/>
        <polygon fill="#A80036" points="557.603,489.945,565.5418,484.1162,560.0842,485.604,558.5963,480.1464,557.603,489.945" style="stroke: #A80036; stroke-width: 1.0;"/>
        <text fill="#000000" font-family="sans-serif" font-size="13" lengthAdjust="spacingAndGlyphs" textLength="38" x="585" y="456.4951">possui</text>
        <text fill="#000000" font-family="sans-serif" font-size="13" lengthAdjust="spacingAndGlyphs" textLength="7" x="590.6054" y="433.7954">1</text>
        <text fill="#000000" font-family="sans-serif" font-size="13" lengthAdjust="spacingAndGlyphs" textLength="7" x="554.6687" y="479.1731">1</text>
        <path d="M689.157,689.756 C729.644,711.007 769.653,732.006 801.064,748.492 " fill="none" style="stroke: #A80036; stroke-width: 1.0; stroke-dasharray: 7.0,7.0;"/>
        <polygon fill="#A80036" points="805.635,750.891,799.5258,743.1659,801.208,748.5668,795.8071,750.249,805.635,750.891" style="stroke: #A80036; stroke-width: 1.0;"/>
        <text fill="#000000" font-family="sans-serif" font-size="13" lengthAdjust="spacingAndGlyphs" textLength="7" x="696.8719" y="711.8441">1</text>
        <text fill="#000000" font-family="sans-serif" font-size="13" lengthAdjust="spacingAndGlyphs" textLength="7" x="786.0816" y="740.3731">1</text>
        <path d="M339.19,690.174 C305.051,711.098 271.353,731.751 244.738,748.064 " fill="none" style="stroke: #A80036; stroke-width: 1.0; stroke-dasharray: 7.0,7.0;"/>
        <polygon fill="#A80036" points="240.191,750.85,249.9546,749.5571,244.4539,748.2371,245.774,742.7364,240.191,750.85" style="stroke: #A80036; stroke-width: 1.0;"/>
        <text fill="#000000" font-family="sans-serif" font-size="13" lengthAdjust="spacingAndGlyphs" textLength="7" x="320.05" y="711.6189">1</text>
        <text fill="#000000" font-family="sans-serif" font-size="13" lengthAdjust="spacingAndGlyphs" textLength="7" x="242.6148" y="740.3236">1</text>
        <path d="M501,690.174 C501,710.06 501,729.702 501,745.606 " fill="none" style="stroke: #A80036; stroke-width: 1.0; stroke-dasharray: 7.0,7.0;"/>
        <polygon fill="#A80036" points="501,750.85,505,741.85,501,745.85,497,741.85,501,750.85" style="stroke: #A80036; stroke-width: 1.0;"/>
        <path d="M312.865,611.416 C223.406,631.648 124.169,671.735 69,751 C23.9419,815.737 125.852,874.311 198.946,906.213 " fill="none" style="stroke: #A80036; stroke-width: 1.0;"/>
        <polygon fill="#A80036" points="203.717,908.276,197.0432,901.0331,199.1275,906.2919,193.8687,908.3763,203.717,908.276" style="stroke: #A80036; stroke-width: 1.0;"/>
        <text fill="#000000" font-family="sans-serif" font-size="13" lengthAdjust="spacingAndGlyphs" textLength="39" x="70" y="787.4951">regista</text>
        <text fill="#000000" font-family="sans-serif" font-size="13" lengthAdjust="spacingAndGlyphs" textLength="7" x="297.7804" y="609.4804">1</text>
        <text fill="#000000" font-family="sans-serif" font-size="13" lengthAdjust="spacingAndGlyphs" textLength="7" x="188.8216" y="901.8543">1</text>
        <path d="M203.941,990.57 C176.172,1016.525 143.684,1046.891 117.213,1071.632 " fill="none" style="stroke: #A80036; stroke-width: 1.0;"/>
        <polygon fill="#A80036" points="113.353,1075.2405,122.6593,1072.0166,117.0056,1071.826,117.1961,1066.1724,113.353,1075.2405" style="stroke: #A80036; stroke-width: 1.0;"/>
        <text fill="#000000" font-family="sans-serif" font-size="13" lengthAdjust="spacingAndGlyphs" textLength="38" x="167" y="1035.4951">possui</text>
        <text fill="#000000" font-family="sans-serif" font-size="13" lengthAdjust="spacingAndGlyphs" textLength="7" x="189.0729" y="994.1779">1</text>
        <text fill="#000000" font-family="sans-serif" font-size="13" lengthAdjust="spacingAndGlyphs" textLength="7" x="113.068" y="1064.6443">1</text>
        <path d="M265,991.078 C265,1016.478 265,1046.022 265,1070.365 " fill="none" style="stroke: #A80036; stroke-width: 1.0;"/>
        <polygon fill="#A80036" points="265,1075.4772,269,1066.4772,265,1070.4772,261,1066.4772,265,1075.4772" style="stroke: #A80036; stroke-width: 1.0;"/>
        <text fill="#000000" font-family="sans-serif" font-size="13" lengthAdjust="spacingAndGlyphs" textLength="38" x="266" y="1035.4951">possui</text>
        <text fill="#000000" font-family="sans-serif" font-size="13" lengthAdjust="spacingAndGlyphs" textLength="7" x="257.5734" y="1012.6978">1</text>
        <text fill="#000000" font-family="sans-serif" font-size="13" lengthAdjust="spacingAndGlyphs" textLength="7" x="257.4422" y="1064.5888">1</text>
        <path d="M326.231,984.571 C356.34,1009.685 392.635,1039.958 423.21,1065.46 " fill="none" style="stroke: #A80036; stroke-width: 1.0;"/>
        <polygon fill="#A80036" points="427.292,1068.865,422.9426,1060.0285,423.4523,1065.6624,417.8185,1066.1721,427.292,1068.865" style="stroke: #A80036; stroke-width: 1.0;"/>
        <text fill="#000000" font-family="sans-serif" font-size="13" lengthAdjust="spacingAndGlyphs" textLength="38" x="391" y="1035.4951">possui</text>
        <text fill="#000000" font-family="sans-serif" font-size="13" lengthAdjust="spacingAndGlyphs" textLength="7" x="334.1201" y="987.4477">1</text>
        <text fill="#000000" font-family="sans-serif" font-size="13" lengthAdjust="spacingAndGlyphs" textLength="7" x="411.2628" y="1057.9745">1</text>
        <path d="M747.7,811.632 C623.873,842.382 431.419,890.174 331.018,915.106 " fill="none" style="stroke: #A80036; stroke-width: 1.0; stroke-dasharray: 7.0,7.0;"/>
        <polygon fill="#A80036" points="326.012,916.349,335.7109,918.0609,330.8645,915.1434,333.782,910.2969,326.012,916.349" style="stroke: #A80036; stroke-width: 1.0;"/>
        <text fill="#000000" font-family="sans-serif" font-size="13" lengthAdjust="spacingAndGlyphs" textLength="7" x="733.0894" y="810.5294">1</text>
        <text fill="#000000" font-family="sans-serif" font-size="13" lengthAdjust="spacingAndGlyphs" textLength="7" x="333.8744" y="910.9112">1</text>
        <path d="M665.749,412.02 C713.801,501.906 805.242,672.957 844.424,746.251 " fill="none" style="stroke: #A80036; stroke-width: 1.0; stroke-dasharray: 7.0,7.0;"/>
        <polygon fill="#A80036" points="846.928,750.935,846.2132,741.1121,844.5711,746.5254,839.1578,744.8832,846.928,750.935" style="stroke: #A80036; stroke-width: 1.0;"/>
        <text fill="#000000" font-family="sans-serif" font-size="13" lengthAdjust="spacingAndGlyphs" textLength="51" x="814" y="595.4951">recorre a</text>
        <text fill="#000000" font-family="sans-serif" font-size="13" lengthAdjust="spacingAndGlyphs" textLength="7" x="662.07" y="433.6327">1</text>
        <text fill="#000000" font-family="sans-serif" font-size="13" lengthAdjust="spacingAndGlyphs" textLength="7" x="835.6466" y="739.941">1</text>
        <!--
@startuml
skinparam classAttributeIconSize 0

class Freelancer{
  -String nome
  -String NIF
  -String enderecoPostal
  -String telefone
  -String email
}

class EnderecoPostal{
  -String local
  -String codPostal
  -String localidade
}

class ReconhecimentoCompetencias{
  -Date data
  -String compTecnicas
  -String grauProficiencia
} 

class HabilitacoesAcademicas{
  -String grau
  -String designacao
  -String instituicao
  -Integer media
}

class SessaoUtilizador {
  +getEmailUtilizador()
}

class RegistoFreelancer {
  +novoEnderecoPostal(local, codPostal, localidade)
  +novoFreelancer(nome, NIF, telefone, email)
  +novoHabilitacoesAcademicas(grau, curso, instituicao, media)
  +validaHabilitacao(habs)
  +addHabilitacao(habs)
  +novoReconhecimentoCompetencias(data, grauProficiencia, competencias)
  +validaReconhecimento(rec)
  +addReconhecimento(rec)
  +registaFreelancer(freelancer)
  +validaFreelancer(freelancer)
  +addFreelancer(Freelancer)
}

class Plataforma {
  -String designacao
  
  +getRegistoFreelancer()
  +getListaCompTecnicas()
  +AlgoritmoGeradorPassword()
  +getAutorizacaoFacade()
}

class AutorizacaoFacade {
   +registaUtilizadorComPapel(nomeFreelancer, emailFreelancer, pwd, ["FREELANCER"])
}

class RegistarFreelancerController {
   +novoFreelancer(nome, NIF, enderecoPostal, telefone, email)
   +novoHabilitacoesAcademicas(grau, curso, instituicao, media)
   +getListaCompTecnicas()
   +addGrauProficiencia()
   +registaFreelancer() 
}

class RegistarFreelancerUI {
}

interface AlgoritmoGeradorPassword{
  +geraPwd(nomeFreelancer, emailFreelancer)
}

RegistarFreelancerUI ..> RegistarFreelancerController
RegistarFreelancerController ..> Plataforma
RegistarFreelancerController ..> RegistoFreelancer
Plataforma "1" - -> "1" RegistoFreelancer : possui
RegistoFreelancer "1" ..> "1" AlgoritmoGeradorPassword
RegistoFreelancer "1" ..> "1" SessaoUtilizador
RegistoFreelancer ..> AutorizacaoFacade
RegistoFreelancer "1" - -> "1" Freelancer : regista
Freelancer "1" - -> "1" EnderecoPostal : possui
Freelancer "1" - -> "1" ReconhecimentoCompetencias : possui
Freelancer "1" - -> "1" HabilitacoesAcademicas : possui
AlgoritmoGeradorPassword "1" ..> "1" Freelancer
Plataforma "1" ..> "1" AlgoritmoGeradorPassword : recorre a
@enduml

PlantUML version 2017.11(Wed Apr 19 17:18:59 BST 2017)
(GPL source distribution)
Java Runtime: Java(TM) SE Runtime Environment
JVM: Java HotSpot(TM) 64-Bit Server VM
Java Version: 1.8.0_221-b11
Operating System: Windows 10
OS Version: 10.0
Default Encoding: UTF-8
Language: pt
Country: PT
-->
    </g>
</svg>
