@startuml
skinparam classAttributeIconSize 0
hide methods
left to right direction

class Plataforma {
  -String designacao
}

class Organizacao {
  -String nome
  -String NIF
  -String website
  -String telefone
  -String email
}

class Colaborador {
  -String nome
  -String funcao
  -String telefone
  -String email
}

class Anuncio {
  -Date inicioPeriodoPublicitacao
  -Date fimPeriodoPublicitacao
  -Date inicioPeriodoApresentacaoCandidaturas
  -Date fimPeriodoApresentacaoCandidaturas
  -Date inicioPeriodoSeriacao
  -Date fimPeriodoSeriacao
  -String tipoRegimento
}

class Tarefa{
  -String referncia
  -String designacao
  -String descInformal
  -String descCaracterTecnico
  -Inerder duracaoEst
  -Double custoEst
}

Plataforma "1" -- "*" Anuncio : possui >
Plataforma "1" -- "*" Organizacao : tem registadas >
Organizacao "1" -- "1..*" Colaborador: tem >
Colaborador "1" -- "1" Anuncio: publica >
Colaborador "0..1" -- "1" Utilizador: atua como >
Tarefa "1" -- "1" Anuncio: origina >
Organizacao "1" -- "*" Tarefa : possui >
Colaborador "1..*" -- "1" Tarefa: especifica >

@enduml
