@startuml
skinparam classAttributeIconSize 0

class PublicarTarefaUI{
}

class PublicarTarefaController{
   +List<Anuncio> getListaAnuncios()
   +novoProcessoSeriacao(refTarefa, dataHora)
   +registaAnuncio()
}

class AplicacaoPOT {
  +AplicacaoPOT getInstance()
  +SessaoUtilizador getSessaoAtual()
}

class SessaoUtilizador{
  +String getEmailUtilizador()
}

class Plataforma{
  -String designacao
  +RegistoOrganizacoes getRegistoOrganizacoes()
}

class Anuncio{
  -Date inicioPeriodoPublicitacao
  -Date fimPeriodoPublicitacao
  -Date inicioPeriodoApresentacaoCandidaturas
  -Date fimPeriodoApresentacaoCandidaturas
  -Date inicioPeriodoSeriacao
  -Date fimPeriodoSeriacao
  -String tipoRegimento
  +ProcessoSeriacao novoProcessoSeriacao(dataHora)
  +ListaCandidaturas getListaCandidaturas()
  +registarProcessoSeriacao(processoS)
  +validaProcessoSeriacao(processoS)
  +addProcessoSeriacao(processoS)
}
class RegistoAnuncios{
  +List<Anuncio> getListaAnunciosByEmailUtilizador()
  +Anuncio getAnuncioByTarefa(tarefa)
}

class RegistoOrganizacoes{
  +Organizacao getOrganizacaoByEmailUtilizador(email)
}

class Organizacao{
  -String nome
  -String NIF
  -String website
  -String telefone
  -String email
  +List<Colaborador> getListaColaboradores()
  +Colaborador getColaboradorByEmailUtilizador(email)
}

class ListaTarefas{
  +getTarefaByReferencia(refTarefa)
}

class Tarefa{
  -String referencia
  -String designcao
  -String descInformal
  -String descTecnica
  -Integer duracaoEst
  -Double custoEst
}

PublicarTarefaUI ..> PublicarTarefaController
PublicarTarefaController ..> AplicacaoPOT
PublicarTarefaController ..> SessaoUtilizador
PublicarTarefaController ..> Plataforma
PublicarTarefaController ..> Anuncio
PublicarTarefaController ..> RegistoOrganizacoes
PublicarTarefaController ..> Organizacao
PublicarTarefaController ..> ListaTarefas

Plataforma "1" ..> "1" RegistoOrganizacoes : possui 
Plataforma "1" ..> "1" RegistoAnuncios : possui
RegistoOrganizacoes "1" ..> "*" Organizacao: tem registada 
Organizacao "1" ..> "1" ListaTarefas: possui 
ListaTarefas "1" ..> "*" Tarefa: possui 
Tarefa "1" --> "1" Anuncio : origina
RegistoAnuncios "1" ..> "*" Anuncio : tem registado
@enduml
