@startuml
skinparam classAttributeIconSize 0

hide methods
left to right direction

class Plataforma {
  -String designacao
}

class Organizacao {
  -String nome
  -String NIF
  -String website
  -String telefone
  -String email
}

class Freelancer {
  -String nome
  -String NIF
  -String telefone
  -String email
}

class Anuncio {
  -Date dataInicioPublicitacaoTarefaPlataforma
  -Date dataFimPublicitacaoTarefaPlataforma
  -Date dataInicioCandidaturas
  -Date dataFimCandidaturas
  -Date dataInicioSeriacao
  -Date dataFimSeriacao
}

class Candidatura {
  -Double valorPretendido
  -Integer diasNecessarios
  -String textoApresentacao
}

class Tarefa {
  -String designacao
  -String descInformal
  -String descTecnica
  -Integer duracaoEst
  -Double custoEst
}

class Reconhecimento {
  -Date data
}

Plataforma "1" -- "*" Organizacao : tem registadas >
Plataforma "1" -- "*" Freelancer : tem/usa >
Plataforma "1" -- "*" Anuncio : possui >
Organizacao "1" -- "*" Anuncio : publica >
Organizacao "1" -- "*" Tarefa : possui >
Freelancer "1" -- "0..*" Candidatura : efetua >
Freelancer "1" -- "*" Reconhecimento : recebe >

Anuncio "1" -- "*" Candidatura : possui >
@enduml
