@startuml
autonumber
actor "Freelancer" as FL

activate FL
FL -> ":Sistema" : inicia a efetuação de candidatura
activate ":Sistema"
":Sistema" --> FL : solicita os dados \n(anúncio, valor pretendido pela realização da tarefa, \nnúmero de dias necessários para a realização da tarefa, \ntexto de apresentação/motivação)
deactivate ":Sistema"

FL -> ":Sistema" : introduz os dados solicitados
activate ":Sistema"
":Sistema" --> FL : apresenta os dados e solicita confirmação
deactivate ":Sistema"

FL -> ":Sistema" : confirma os dados
activate ":Sistema"
":Sistema" --> FL : informa do sucesso da operação
deactivate ":Sistema"

deactivate FL

@enduml
