@startuml
autonumber

actor "Colaborador" as COLAB
participant ":SeriarAnuncioUI" as UI
participant ":SeriarAnuncioController" as CTRL
participant ":Plataforma" as PLAT
participant "rorgs:RegistoOrganizacoes" as RORGS
participant "ra:Registo\nAnuncios" as RANU
participant "lstAnun:List<Anuncios>"
participant "org:Organizacao" as ORG
participant "lstColabs:ListaColaboradores" as LSTCOLABS
participant "lColabs:List<Colaborador>"
participant "colab:Colaborador" as COLABORADOR
participant "anu:Anuncio" as ANU
participant "listaCand:ListaCandidaturas" as LSTCAND
participant "lstCand:List<Candidatura>"
participant "cand:Candidatura"
participant "ps:ProcessoSeriacao" as PS
participant "class:Classificacao" as CLASS
participant "tipoReg:TipoRegimento" as TR <<interface>>
participant "lstAnunColab:List<Anuncio>" as LAC
note over of TR
 É uma instância de qualquer classe
 que implemente esta interface.
end note

COLAB -> UI : inicia o processo não automático de seriação das candidaturas
activate COLAB
activate UI

UI -> CTRL : lstAnun=getAnunciosPorSeriarNaoAutomaticos()
activate CTRL

CTRL -> PLAT: rorgs = getRegistoOrganizacoes()
activate PLAT
deactivate PLAT

CTRL -> RORGS: org = getOrganizacaoByEmailUtilizador(email)
activate RORGS
deactivate RORGS

CTRL -> ORG: lstColabs = getListaColaboradores()
activate ORG
deactivate ORG

CTRL -> LSTCOLABS: colab = getColaboradorByEmail(email)
activate LSTCOLABS
deactivate LSTCOLABS

CTRL -> PLAT : ra = getRegistoAnuncios()
activate PLAT
deactivate PLAT

CTRL -> RANU : lstAnun = getAnunciosByColab(colab)
activate RANU
deactivate RANU

CTRL -> RANU : lstAnun = getAnunciosSeriaveisNaoAutomaticos(lstAnun)
activate RANU
deactivate RANU

ref over RANU : SD_getAnunciosSeriaveisNaoAutomaticos
deactivate CTRL

UI --> COLAB: mostra os anúncios publicadas \n pelo colaborador em fase de seriação não automática \n e que ainda não foram seriados e pede-lhe para escolher um
deactivate UI


COLAB -> UI : seleciona um anúncio
activate UI

UI -> CTRL : lstCand = getCandidaturas(anuncioId)
activate CTRL

CTRL -> RANU: anu = getAnuncioPublicadoPor(colab, anuncioId)
activate RANU
deactivate RANU

CTRL -> ANU : listaCand = getListaCandidaturas()
activate ANU
deactivate ANU

CTRL -> LSTCAND : lstCand = getCandidaturas()
activate LSTCAND
deactivate LSTCAND

CTRL -> ANU : ps = novoProcessoSeriacao(colab)
activate ANU
ANU -> PS**: create(tipoReg, colab)
note right
"tipoReg" refere-se a uma instância
de TipoRegimento, aquela pelo qual
se que rege o Anúncio
end note

deactivate ANU
deactivate CTRL


loop [ até que estejam classificadas todas as candidaturas]
UI --> COLAB: mostra as candidaturas que o anúncio \n selecionado recebeu e que ainda estejam por classificar \n e solicita a escolha de uma dessas candidaturas
deactivate UI

COLAB -> UI : seleciona candidatura
activate UI

UI --> COLAB: solicita a classificação da candidatura selecionada e a respetiva justificacao
deactivate UI


COLAB -> UI : indica a classificação e introduz a justificacao
activate UI

UI -> CTRL: classifica(candId, ordem, just)
activate CTRL

CTRL -> LSTCAND: cand = getCandidatura(candId)
activate LSTCAND
deactivate LSTCAND

CTRL -> PS: addClassificacao(cand,ordem, just)
activate PS

PS -> CLASS**: class = create(cand,ordem,just)
PS -> PS: validaClassificacao(class)
PS -> PS: addClassificacao(class)
deactivate PS
deactivate CTRL
end loop

UI -> CTRL: lColabs = getColaboradores()
activate CTRL

CTRL -> LSTCOLABS : lColabs = getColaboradores()
activate LSTCOLABS
deactivate LSTCOLABS
deactivate CTRL
loop [até que estejam selecionados todos os outros colaboradores participantes]
UI --> COLAB: mostra a lista dos outros colaboradores da mesma organização (não selecionado) e \n solicita a seleção de um colaborador participante no processo de seriação
deactivate UI


COLAB -> UI : seleciona um colaborador
activate UI

UI -> CTRL: addParticipante(emailPart)
activate CTRL

CTRL -> LSTCOLABS: part = getColaboradorByEmail(emailPart)
activate LSTCOLABS
deactivate LSTCOLABS

CTRL -> PS: addParticipante(part)
activate PS
deactivate PS
deactivate CTRL
end loop

UI --> COLAB: solicita introdução de um texto de resumo do \nprocesso de seriação
deactivate UI

COLAB -> UI : introduz o dado solicitado
activate UI

UI -> CTRL: setTextoResumo(txtResumo)
activate CTRL

CTRL -> PS: setTextoResumo(txtResumo)
activate PS
deactivate PS
deactivate CTRL

UI --> COLAB: apresenta os dados, pedindo ao colaborador para confirmar
deactivate UI


COLAB -> UI : confirma
activate UI

UI -> CTRL: registaProcessoSeriacao()
activate CTRL

CTRL -> ANU: registaProcessoSeriacaoEVerificaObrigatoriedade(ps)
activate ANU

ANU -> ANU: validaProcessoSeriacao(ps)

ANU -> PS: valida()
activate PS
deactivate PS

ANU -> ANU: setProcessoSeriacao(ps)

deactivate ANU

CTRL -> ANU: obrigatoriedade = getObrigatoriedade()
activate ANU


ANU -> TR: obrigatoriedade = getObrigatoriedade()
activate TR
deactivate TR
deactivate ANU

ref over CTRL: UC10_SD_AtribuirTarefa

deactivate CTRL
UI --> COLAB: informa do sucesso da operação
deactivate UI

deactivate COLAB
@enduml
