<?xml version="1.0" encoding="UTF-8" standalone="no"?><svg xmlns="http://www.w3.org/2000/svg" xmlns:xlink="http://www.w3.org/1999/xlink" contentScriptType="application/ecmascript" contentStyleType="text/css" height="976px" preserveAspectRatio="none" style="width:2260px;height:976px;" version="1.1" viewBox="0 0 2260 976" width="2260px" zoomAndPan="magnify">
    <defs>
        <filter height="300%" id="f1dqfrt6ffaecq" width="300%" x="-1" y="-1">
            <feGaussianBlur result="blurOut" stdDeviation="2.0" />
            <feColorMatrix in="blurOut" result="blurOut2" type="matrix" values="0 0 0 0 0 0 0 0 0 0 0 0 0 0 0 0 0 0 .4 0" />
            <feOffset dx="4.0" dy="4.0" in="blurOut2" result="blurOut3" />
            <feBlend in="SourceGraphic" in2="blurOut3" mode="normal" />
        </filter>
    </defs>
    <g>
        <rect fill="#FFFFFF" filter="url(#f1dqfrt6ffaecq)" height="803.1406" style="stroke: #A80036; stroke-width: 1.0;" width="10" x="188" y="89.5703" />
        <rect fill="#FFFFFF" filter="url(#f1dqfrt6ffaecq)" height="30" style="stroke: #A80036; stroke-width: 1.0;" width="10" x="459" y="749.3984" />
        <rect fill="#FFFFFF" filter="url(#f1dqfrt6ffaecq)" height="30.3516" style="stroke: #A80036; stroke-width: 1.0;" width="10" x="562.5" y="163.2734" />
        <rect fill="#FFFFFF" filter="url(#f1dqfrt6ffaecq)" height="30" style="stroke: #A80036; stroke-width: 1.0;" width="10" x="562.5" y="421.2891" />
        <rect fill="#FFFFFF" filter="url(#f1dqfrt6ffaecq)" height="30" style="stroke: #A80036; stroke-width: 1.0;" width="10" x="697" y="240.2344" />
        <rect fill="#FFFFFF" filter="url(#f1dqfrt6ffaecq)" height="30" style="stroke: #A80036; stroke-width: 1.0;" width="10" x="859" y="300.5859" />
        <rect fill="#FFFFFF" filter="url(#f1dqfrt6ffaecq)" height="30" style="stroke: #A80036; stroke-width: 1.0;" width="10" x="1010.5" y="360.9375" />
        <rect fill="#FFFFFF" filter="url(#f1dqfrt6ffaecq)" height="30" style="stroke: #A80036; stroke-width: 1.0;" width="10" x="1010.5" y="541.9922" />
        <rect fill="#FFFFFF" filter="url(#f1dqfrt6ffaecq)" height="30" style="stroke: #A80036; stroke-width: 1.0;" width="10" x="1010.5" y="602.3438" />
        <rect fill="#FFFFFF" filter="url(#f1dqfrt6ffaecq)" height="82.9609" style="stroke: #A80036; stroke-width: 1.0;" width="10" x="1372" y="809.75" />
        <rect fill="#FFFFFF" filter="url(#f1dqfrt6ffaecq)" height="30" style="stroke: #A80036; stroke-width: 1.0;" width="10" x="1528" y="481.6406" />
        <line style="stroke: #A80036; stroke-width: 1.0; stroke-dasharray: 5.0,5.0;" x1="192.5" x2="192.5" y1="57.2188" y2="917.7109" />
        <line style="stroke: #A80036; stroke-width: 1.0; stroke-dasharray: 5.0,5.0;" x1="464" x2="464" y1="57.2188" y2="917.7109" />
        <line style="stroke: #A80036; stroke-width: 1.0; stroke-dasharray: 5.0,5.0;" x1="567" x2="567" y1="57.2188" y2="917.7109" />
        <line style="stroke: #A80036; stroke-width: 1.0; stroke-dasharray: 5.0,5.0;" x1="702" x2="702" y1="57.2188" y2="917.7109" />
        <line style="stroke: #A80036; stroke-width: 1.0; stroke-dasharray: 5.0,5.0;" x1="864" x2="864" y1="57.2188" y2="917.7109" />
        <line style="stroke: #A80036; stroke-width: 1.0; stroke-dasharray: 5.0,5.0;" x1="1015" x2="1015" y1="57.2188" y2="917.7109" />
        <line style="stroke: #A80036; stroke-width: 1.0; stroke-dasharray: 5.0,5.0;" x1="1189" x2="1189" y1="57.2188" y2="917.7109" />
        <line style="stroke: #A80036; stroke-width: 1.0; stroke-dasharray: 5.0,5.0;" x1="1377" x2="1377" y1="204.5781" y2="917.7109" />
        <line style="stroke: #A80036; stroke-width: 1.0; stroke-dasharray: 5.0,5.0;" x1="1532.5" x2="1532.5" y1="57.2188" y2="917.7109" />
        <line style="stroke: #A80036; stroke-width: 1.0; stroke-dasharray: 5.0,5.0;" x1="2194" x2="2194" y1="851.0547" y2="917.7109" />
        <rect fill="#FEFECE" filter="url(#f1dqfrt6ffaecq)" height="31.6094" style="stroke: #A80036; stroke-width: 1.5;" width="169" x="106.5" y="20.6094" /><text fill="#000000" font-family="sans-serif" font-size="14" lengthAdjust="spacingAndGlyphs" textLength="155" x="113.5" y="42.1426">:SeriarAnuncioController</text>
        <rect fill="#FEFECE" filter="url(#f1dqfrt6ffaecq)" height="31.6094" style="stroke: #A80036; stroke-width: 1.5;" width="169" x="106.5" y="916.7109" /><text fill="#000000" font-family="sans-serif" font-size="14" lengthAdjust="spacingAndGlyphs" textLength="155" x="113.5" y="938.2441">:SeriarAnuncioController</text>
        <rect fill="#FEFECE" filter="url(#f1dqfrt6ffaecq)" height="31.6094" style="stroke: #A80036; stroke-width: 1.5;" width="86" x="419" y="20.6094" /><text fill="#000000" font-family="sans-serif" font-size="14" lengthAdjust="spacingAndGlyphs" textLength="72" x="426" y="42.1426">:Plataforma</text>
        <rect fill="#FEFECE" filter="url(#f1dqfrt6ffaecq)" height="31.6094" style="stroke: #A80036; stroke-width: 1.5;" width="86" x="419" y="916.7109" /><text fill="#000000" font-family="sans-serif" font-size="14" lengthAdjust="spacingAndGlyphs" textLength="72" x="426" y="938.2441">:Plataforma</text>
        <rect fill="#FEFECE" filter="url(#f1dqfrt6ffaecq)" height="31.6094" style="stroke: #A80036; stroke-width: 1.5;" width="93" x="519" y="20.6094" /><text fill="#000000" font-family="sans-serif" font-size="14" lengthAdjust="spacingAndGlyphs" textLength="79" x="526" y="42.1426">anu:Anuncio</text>
        <rect fill="#FEFECE" filter="url(#f1dqfrt6ffaecq)" height="31.6094" style="stroke: #A80036; stroke-width: 1.5;" width="93" x="519" y="916.7109" /><text fill="#000000" font-family="sans-serif" font-size="14" lengthAdjust="spacingAndGlyphs" textLength="79" x="526" y="938.2441">anu:Anuncio</text>
        <rect fill="#FEFECE" filter="url(#f1dqfrt6ffaecq)" height="31.6094" style="stroke: #A80036; stroke-width: 1.5;" width="148" x="626" y="20.6094" /><text fill="#000000" font-family="sans-serif" font-size="14" lengthAdjust="spacingAndGlyphs" textLength="134" x="633" y="42.1426">ps:ProcessoSeriacao</text>
        <rect fill="#FEFECE" filter="url(#f1dqfrt6ffaecq)" height="31.6094" style="stroke: #A80036; stroke-width: 1.5;" width="148" x="626" y="916.7109" /><text fill="#000000" font-family="sans-serif" font-size="14" lengthAdjust="spacingAndGlyphs" textLength="134" x="633" y="938.2441">ps:ProcessoSeriacao</text>
        <rect fill="#FEFECE" filter="url(#f1dqfrt6ffaecq)" height="49.2188" style="stroke: #A80036; stroke-width: 1.5;" width="148" x="788" y="3" /><text fill="#000000" font-family="sans-serif" font-size="14" lengthAdjust="spacingAndGlyphs" textLength="134" x="795" y="24.5332">primeiraClassificacao</text><text fill="#000000" font-family="sans-serif" font-size="14" lengthAdjust="spacingAndGlyphs" textLength="87" x="818.5" y="42.1426">:Classificacao</text>
        <rect fill="#FEFECE" filter="url(#f1dqfrt6ffaecq)" height="49.2188" style="stroke: #A80036; stroke-width: 1.5;" width="148" x="788" y="916.7109" /><text fill="#000000" font-family="sans-serif" font-size="14" lengthAdjust="spacingAndGlyphs" textLength="134" x="795" y="938.2441">primeiraClassificacao</text><text fill="#000000" font-family="sans-serif" font-size="14" lengthAdjust="spacingAndGlyphs" textLength="87" x="818.5" y="955.8535">:Classificacao</text>
        <rect fill="#FEFECE" filter="url(#f1dqfrt6ffaecq)" height="31.6094" style="stroke: #A80036; stroke-width: 1.5;" width="127" x="950" y="20.6094" /><text fill="#000000" font-family="sans-serif" font-size="14" lengthAdjust="spacingAndGlyphs" textLength="113" x="957" y="42.1426">cand:Candidatura</text>
        <rect fill="#FEFECE" filter="url(#f1dqfrt6ffaecq)" height="31.6094" style="stroke: #A80036; stroke-width: 1.5;" width="127" x="950" y="916.7109" /><text fill="#000000" font-family="sans-serif" font-size="14" lengthAdjust="spacingAndGlyphs" textLength="113" x="957" y="938.2441">cand:Candidatura</text>
        <rect fill="#FEFECE" filter="url(#f1dqfrt6ffaecq)" height="31.6094" style="stroke: #A80036; stroke-width: 1.5;" width="192" x="1091" y="20.6094" /><text fill="#000000" font-family="sans-serif" font-size="14" lengthAdjust="spacingAndGlyphs" textLength="178" x="1098" y="42.1426">listaCand:ListaCandidaturas</text>
        <rect fill="#FEFECE" filter="url(#f1dqfrt6ffaecq)" height="31.6094" style="stroke: #A80036; stroke-width: 1.5;" width="192" x="1091" y="916.7109" /><text fill="#000000" font-family="sans-serif" font-size="14" lengthAdjust="spacingAndGlyphs" textLength="178" x="1098" y="938.2441">listaCand:ListaCandidaturas</text>
        <rect fill="#FEFECE" filter="url(#f1dqfrt6ffaecq)" height="31.6094" style="stroke: #A80036; stroke-width: 1.5;" width="156" x="1297" y="916.7109" /><text fill="#000000" font-family="sans-serif" font-size="14" lengthAdjust="spacingAndGlyphs" textLength="142" x="1304" y="938.2441">pa:ProcessoAtribuicao</text>
        <rect fill="#FEFECE" filter="url(#f1dqfrt6ffaecq)" height="31.6094" style="stroke: #A80036; stroke-width: 1.5;" width="97" x="1482.5" y="20.6094" /><text fill="#000000" font-family="sans-serif" font-size="14" lengthAdjust="spacingAndGlyphs" textLength="83" x="1489.5" y="42.1426">tarefa:Tarefa</text>
        <rect fill="#FEFECE" filter="url(#f1dqfrt6ffaecq)" height="31.6094" style="stroke: #A80036; stroke-width: 1.5;" width="97" x="1482.5" y="916.7109" /><text fill="#000000" font-family="sans-serif" font-size="14" lengthAdjust="spacingAndGlyphs" textLength="83" x="1489.5" y="938.2441">tarefa:Tarefa</text>
        <rect fill="#FEFECE" filter="url(#f1dqfrt6ffaecq)" height="31.6094" style="stroke: #A80036; stroke-width: 1.5;" width="114" x="2135" y="916.7109" /><text fill="#000000" font-family="sans-serif" font-size="14" lengthAdjust="spacingAndGlyphs" textLength="100" x="2142" y="938.2441">adj:Adjudicacao</text>
        <rect fill="#FFFFFF" filter="url(#f1dqfrt6ffaecq)" height="803.1406" style="stroke: #A80036; stroke-width: 1.0;" width="10" x="188" y="89.5703" />
        <rect fill="#FFFFFF" filter="url(#f1dqfrt6ffaecq)" height="30" style="stroke: #A80036; stroke-width: 1.0;" width="10" x="459" y="749.3984" />
        <rect fill="#FFFFFF" filter="url(#f1dqfrt6ffaecq)" height="30.3516" style="stroke: #A80036; stroke-width: 1.0;" width="10" x="562.5" y="163.2734" />
        <rect fill="#FFFFFF" filter="url(#f1dqfrt6ffaecq)" height="30" style="stroke: #A80036; stroke-width: 1.0;" width="10" x="562.5" y="421.2891" />
        <rect fill="#FFFFFF" filter="url(#f1dqfrt6ffaecq)" height="30" style="stroke: #A80036; stroke-width: 1.0;" width="10" x="697" y="240.2344" />
        <rect fill="#FFFFFF" filter="url(#f1dqfrt6ffaecq)" height="30" style="stroke: #A80036; stroke-width: 1.0;" width="10" x="859" y="300.5859" />
        <rect fill="#FFFFFF" filter="url(#f1dqfrt6ffaecq)" height="30" style="stroke: #A80036; stroke-width: 1.0;" width="10" x="1010.5" y="360.9375" />
        <rect fill="#FFFFFF" filter="url(#f1dqfrt6ffaecq)" height="30" style="stroke: #A80036; stroke-width: 1.0;" width="10" x="1010.5" y="541.9922" />
        <rect fill="#FFFFFF" filter="url(#f1dqfrt6ffaecq)" height="30" style="stroke: #A80036; stroke-width: 1.0;" width="10" x="1010.5" y="602.3438" />
        <rect fill="#FFFFFF" filter="url(#f1dqfrt6ffaecq)" height="82.9609" style="stroke: #A80036; stroke-width: 1.0;" width="10" x="1372" y="809.75" />
        <rect fill="#FFFFFF" filter="url(#f1dqfrt6ffaecq)" height="30" style="stroke: #A80036; stroke-width: 1.0;" width="10" x="1528" y="481.6406" />
        <ellipse cx="10.5" cy="88.8203" fill="none" rx="4" ry="4" style="stroke: #A80036; stroke-width: 1.5;" />
        <polygon fill="#A80036" points="176,85.5703,186,89.5703,176,93.5703,180,89.5703" style="stroke: #A80036; stroke-width: 1.0;" />
        <line style="stroke: #A80036; stroke-width: 1.0;" x1="15" x2="182" y1="89.5703" y2="89.5703" /><text fill="#000000" font-family="sans-serif" font-size="13" font-weight="bold" lengthAdjust="spacingAndGlyphs" textLength="7" x="18" y="84.7139">1</text><text fill="#000000" font-family="sans-serif" font-size="13" lengthAdjust="spacingAndGlyphs" textLength="147" x="29" y="84.7139">novoProcessoAtribuicao()</text>
        <line style="stroke: #A80036; stroke-width: 1.0;" x1="198" x2="240" y1="119.9219" y2="119.9219" />
        <line style="stroke: #A80036; stroke-width: 1.0;" x1="240" x2="240" y1="119.9219" y2="132.9219" />
        <line style="stroke: #A80036; stroke-width: 1.0;" x1="199" x2="240" y1="132.9219" y2="132.9219" />
        <polygon fill="#A80036" points="209,128.9219,199,132.9219,209,136.9219,205,132.9219" style="stroke: #A80036; stroke-width: 1.0;" /><text fill="#000000" font-family="sans-serif" font-size="13" font-weight="bold" lengthAdjust="spacingAndGlyphs" textLength="7" x="205" y="115.0654">2</text><text fill="#000000" font-family="sans-serif" font-size="13" lengthAdjust="spacingAndGlyphs" textLength="162" x="216" y="115.0654">dataAtribuicao = dataAtual()</text>
        <polygon fill="#A80036" points="550.5,159.2734,560.5,163.2734,550.5,167.2734,554.5,163.2734" style="stroke: #A80036; stroke-width: 1.0;" />
        <line style="stroke: #A80036; stroke-width: 1.0;" x1="198" x2="556.5" y1="163.2734" y2="163.2734" /><text fill="#000000" font-family="sans-serif" font-size="13" font-weight="bold" lengthAdjust="spacingAndGlyphs" textLength="7" x="205" y="158.417">3</text><text fill="#000000" font-family="sans-serif" font-size="13" lengthAdjust="spacingAndGlyphs" textLength="260" x="216" y="158.417">pa = novoProcessoAtribuicao(dataAtribuicao)</text>
        <polygon fill="#A80036" points="1285,189.625,1295,193.625,1285,197.625,1289,193.625" style="stroke: #A80036; stroke-width: 1.0;" />
        <line style="stroke: #A80036; stroke-width: 1.0;" x1="567.5" x2="1291" y1="193.625" y2="193.625" /><text fill="#000000" font-family="sans-serif" font-size="13" font-weight="bold" lengthAdjust="spacingAndGlyphs" textLength="7" x="574.5" y="188.7686">4</text><text fill="#000000" font-family="sans-serif" font-size="13" lengthAdjust="spacingAndGlyphs" textLength="127" x="585.5" y="188.7686">create(dataAtribuicao)</text>
        <rect fill="#FEFECE" filter="url(#f1dqfrt6ffaecq)" height="31.6094" style="stroke: #A80036; stroke-width: 1.5;" width="156" x="1297" y="171.2734" /><text fill="#000000" font-family="sans-serif" font-size="14" lengthAdjust="spacingAndGlyphs" textLength="142" x="1304" y="192.8066">pa:ProcessoAtribuicao</text>
        <polygon fill="#A80036" points="685,236.2344,695,240.2344,685,244.2344,689,240.2344" style="stroke: #A80036; stroke-width: 1.0;" />
        <line style="stroke: #A80036; stroke-width: 1.0;" x1="198" x2="691" y1="240.2344" y2="240.2344" /><text fill="#000000" font-family="sans-serif" font-size="13" font-weight="bold" lengthAdjust="spacingAndGlyphs" textLength="7" x="205" y="235.3779">5</text><text fill="#000000" font-family="sans-serif" font-size="13" lengthAdjust="spacingAndGlyphs" textLength="290" x="216" y="235.3779">primeiraClassificacao = getPrimeiraClassificacao()</text>
        <polygon fill="#A80036" points="847,296.5859,857,300.5859,847,304.5859,851,300.5859" style="stroke: #A80036; stroke-width: 1.0;" />
        <line style="stroke: #A80036; stroke-width: 1.0;" x1="198" x2="853" y1="300.5859" y2="300.5859" /><text fill="#000000" font-family="sans-serif" font-size="13" font-weight="bold" lengthAdjust="spacingAndGlyphs" textLength="7" x="205" y="295.7295">6</text><text fill="#000000" font-family="sans-serif" font-size="13" lengthAdjust="spacingAndGlyphs" textLength="178" x="216" y="295.7295">candidatura = getCandidatura()</text>
        <polygon fill="#A80036" points="998.5,356.9375,1008.5,360.9375,998.5,364.9375,1002.5,360.9375" style="stroke: #A80036; stroke-width: 1.0;" />
        <line style="stroke: #A80036; stroke-width: 1.0;" x1="198" x2="1004.5" y1="360.9375" y2="360.9375" /><text fill="#000000" font-family="sans-serif" font-size="13" font-weight="bold" lengthAdjust="spacingAndGlyphs" textLength="7" x="205" y="356.0811">7</text><text fill="#000000" font-family="sans-serif" font-size="13" lengthAdjust="spacingAndGlyphs" textLength="159" x="216" y="356.0811">freelancer = getFreelancer()</text>
        <polygon fill="#A80036" points="550.5,417.2891,560.5,421.2891,550.5,425.2891,554.5,421.2891" style="stroke: #A80036; stroke-width: 1.0;" />
        <line style="stroke: #A80036; stroke-width: 1.0;" x1="198" x2="556.5" y1="421.2891" y2="421.2891" /><text fill="#000000" font-family="sans-serif" font-size="13" font-weight="bold" lengthAdjust="spacingAndGlyphs" textLength="7" x="205" y="416.4326">8</text><text fill="#000000" font-family="sans-serif" font-size="13" lengthAdjust="spacingAndGlyphs" textLength="109" x="216" y="416.4326">tarefa = getTarefa()</text>
        <polygon fill="#A80036" points="1516,477.6406,1526,481.6406,1516,485.6406,1520,481.6406" style="stroke: #A80036; stroke-width: 1.0;" />
        <line style="stroke: #A80036; stroke-width: 1.0;" x1="198" x2="1522" y1="481.6406" y2="481.6406" /><text fill="#000000" font-family="sans-serif" font-size="13" font-weight="bold" lengthAdjust="spacingAndGlyphs" textLength="7" x="205" y="476.7842">9</text><text fill="#000000" font-family="sans-serif" font-size="13" lengthAdjust="spacingAndGlyphs" textLength="194" x="216" y="476.7842">dsTarefa = getDescricaoTecnica()</text>
        <polygon fill="#A80036" points="998.5,537.9922,1008.5,541.9922,998.5,545.9922,1002.5,541.9922" style="stroke: #A80036; stroke-width: 1.0;" />
        <line style="stroke: #A80036; stroke-width: 1.0;" x1="198" x2="1004.5" y1="541.9922" y2="541.9922" /><text fill="#000000" font-family="sans-serif" font-size="13" font-weight="bold" lengthAdjust="spacingAndGlyphs" textLength="14" x="205" y="537.1357">10</text><text fill="#000000" font-family="sans-serif" font-size="13" lengthAdjust="spacingAndGlyphs" textLength="197" x="223" y="537.1357">valorAceite = getValorPretendido()</text>
        <polygon fill="#A80036" points="998.5,598.3438,1008.5,602.3438,998.5,606.3438,1002.5,602.3438" style="stroke: #A80036; stroke-width: 1.0;" />
        <line style="stroke: #A80036; stroke-width: 1.0;" x1="198" x2="1004.5" y1="602.3438" y2="602.3438" /><text fill="#000000" font-family="sans-serif" font-size="13" font-weight="bold" lengthAdjust="spacingAndGlyphs" textLength="14" x="205" y="597.4873">11</text><text fill="#000000" font-family="sans-serif" font-size="13" lengthAdjust="spacingAndGlyphs" textLength="118" x="223" y="597.4873">nrDias = getNrDias()</text>
        <line style="stroke: #A80036; stroke-width: 1.0;" x1="198" x2="240" y1="662.6953" y2="662.6953" />
        <line style="stroke: #A80036; stroke-width: 1.0;" x1="240" x2="240" y1="662.6953" y2="675.6953" />
        <line style="stroke: #A80036; stroke-width: 1.0;" x1="199" x2="240" y1="675.6953" y2="675.6953" />
        <polygon fill="#A80036" points="209,671.6953,199,675.6953,209,679.6953,205,675.6953" style="stroke: #A80036; stroke-width: 1.0;" /><text fill="#000000" font-family="sans-serif" font-size="13" font-weight="bold" lengthAdjust="spacingAndGlyphs" textLength="14" x="205" y="657.8389">12</text><text fill="#000000" font-family="sans-serif" font-size="13" lengthAdjust="spacingAndGlyphs" textLength="229" x="223" y="657.8389">dataInicioTarefa = getDataDiaSeguinte()</text>
        <line style="stroke: #A80036; stroke-width: 1.0;" x1="198" x2="240" y1="706.0469" y2="706.0469" />
        <line style="stroke: #A80036; stroke-width: 1.0;" x1="240" x2="240" y1="706.0469" y2="719.0469" />
        <line style="stroke: #A80036; stroke-width: 1.0;" x1="199" x2="240" y1="719.0469" y2="719.0469" />
        <polygon fill="#A80036" points="209,715.0469,199,719.0469,209,723.0469,205,719.0469" style="stroke: #A80036; stroke-width: 1.0;" /><text fill="#000000" font-family="sans-serif" font-size="13" font-weight="bold" lengthAdjust="spacingAndGlyphs" textLength="14" x="205" y="701.1904">13</text><text fill="#000000" font-family="sans-serif" font-size="13" lengthAdjust="spacingAndGlyphs" textLength="195" x="223" y="701.1904">dataAdjudicacao = getDataAtual()</text>
        <polygon fill="#A80036" points="447,745.3984,457,749.3984,447,753.3984,451,749.3984" style="stroke: #A80036; stroke-width: 1.0;" />
        <line style="stroke: #A80036; stroke-width: 1.0;" x1="198" x2="453" y1="749.3984" y2="749.3984" /><text fill="#000000" font-family="sans-serif" font-size="13" font-weight="bold" lengthAdjust="spacingAndGlyphs" textLength="14" x="205" y="744.542">14</text><text fill="#000000" font-family="sans-serif" font-size="13" lengthAdjust="spacingAndGlyphs" textLength="199" x="223" y="744.542">numSeq = getNumeroSequencial()</text>
        <polygon fill="#A80036" points="1360,805.75,1370,809.75,1360,813.75,1364,809.75" style="stroke: #A80036; stroke-width: 1.0;" />
        <line style="stroke: #A80036; stroke-width: 1.0;" x1="198" x2="1366" y1="809.75" y2="809.75" /><text fill="#000000" font-family="sans-serif" font-size="13" font-weight="bold" lengthAdjust="spacingAndGlyphs" textLength="14" x="205" y="804.8936">15</text><text fill="#000000" font-family="sans-serif" font-size="13" lengthAdjust="spacingAndGlyphs" textLength="739" x="223" y="804.8936">novaAdjudicacao(org, freelancer, dsTarefa, dataInicioTarefa, nrDiasNecessarios, valorAceite, anuncio,numSeq, dataAdjudicacao)</text>
        <polygon fill="#A80036" points="2123,836.1016,2133,840.1016,2123,844.1016,2127,840.1016" style="stroke: #A80036; stroke-width: 1.0;" />
        <line style="stroke: #A80036; stroke-width: 1.0;" x1="1382" x2="2129" y1="840.1016" y2="840.1016" /><text fill="#000000" font-family="sans-serif" font-size="13" font-weight="bold" lengthAdjust="spacingAndGlyphs" textLength="14" x="1389" y="835.2451">16</text><text fill="#000000" font-family="sans-serif" font-size="13" lengthAdjust="spacingAndGlyphs" textLength="711" x="1407" y="835.2451">adj = create(org, freelancer, dsTarefa, dataInicioTarefa, nrDiasNecessarios, valorAceite, anuncio,numSeq, dataAdjudicacao)</text>
        <rect fill="#FEFECE" filter="url(#f1dqfrt6ffaecq)" height="31.6094" style="stroke: #A80036; stroke-width: 1.5;" width="114" x="2135" y="817.75" /><text fill="#000000" font-family="sans-serif" font-size="14" lengthAdjust="spacingAndGlyphs" textLength="100" x="2142" y="839.2832">adj:Adjudicacao</text>
        <line style="stroke: #A80036; stroke-width: 1.0;" x1="1382" x2="1424" y1="891.7109" y2="891.7109" />
        <line style="stroke: #A80036; stroke-width: 1.0;" x1="1424" x2="1424" y1="891.7109" y2="904.7109" />
        <line style="stroke: #A80036; stroke-width: 1.0;" x1="1377" x2="1424" y1="904.7109" y2="904.7109" />
        <polygon fill="#A80036" points="1387,900.7109,1377,904.7109,1387,908.7109,1383,904.7109" style="stroke: #A80036; stroke-width: 1.0;" /><text fill="#000000" font-family="sans-serif" font-size="13" font-weight="bold" lengthAdjust="spacingAndGlyphs" textLength="14" x="1389" y="886.8545">17</text><text fill="#000000" font-family="sans-serif" font-size="13" lengthAdjust="spacingAndGlyphs" textLength="114" x="1407" y="886.8545">setAdjudicacao(adj)</text>
        <!--MD5=[e21b3d3692a61cb972e9f9a27a00c27d]
@startuml
autonumber

participant ":SeriarAnuncioController" as CTRL
participant ":Plataforma" as PLAT
participant "anu:Anuncio" as ANU
participant "ps:ProcessoSeriacao" as PS
participant "primeiraClassificacao\n:Classificacao" as PC
participant "cand:Candidatura" as CAND
participant "listaCand:ListaCandidaturas" as LSTCAND
participant "pa:ProcessoAtribuicao" as PA
participant "tarefa:Tarefa" as TAREFA
participant "adj:Adjudicacao" as ADJ

[o-> CTRL : novoProcessoAtribuicao()
activate CTRL

CTRL -> CTRL: dataAtribuicao = dataAtual()

CTRL -> ANU: pa = novoProcessoAtribuicao(dataAtribuicao)
activate ANU

ANU -> PA**: create(dataAtribuicao)
deactivate ANU

CTRL -> PS: primeiraClassificacao = getPrimeiraClassificacao()
activate PS
deactivate PS

CTRL -> PC: candidatura = getCandidatura()
activate PC
deactivate PC

CTRL -> CAND: freelancer = getFreelancer()
activate CAND
deactivate CAND

CTRL -> ANU: tarefa = getTarefa()
activate ANU
deactivate ANU

CTRL -> TAREFA :dsTarefa = getDescricaoTecnica()
activate TAREFA
deactivate TAREFA

CTRL -> CAND: valorAceite = getValorPretendido()
activate CAND
deactivate CAND

CTRL -> CAND: nrDias = getNrDias()
activate CAND
deactivate CAND

CTRL -> CTRL: dataInicioTarefa = getDataDiaSeguinte()

CTRL -> CTRL: dataAdjudicacao = getDataAtual()

CTRL -> PLAT: numSeq = getNumeroSequencial()
activate PLAT
deactivate PLAT

CTRL -> PA: novaAdjudicacao(org, freelancer, dsTarefa, dataInicioTarefa, nrDiasNecessarios, valorAceite, anuncio,numSeq, dataAdjudicacao)
activate PA

PA -> ADJ**: adj = create(org, freelancer, dsTarefa, dataInicioTarefa, nrDiasNecessarios, valorAceite, anuncio,numSeq, dataAdjudicacao)

PA -> PA: setAdjudicacao(adj)
deactivate PA

deactivate CTRL
@enduml

PlantUML version 1.2020.02(Sun Mar 01 10:22:07 GMT 2020)
(GPL source distribution)
Java Runtime: Java(TM) SE Runtime Environment
JVM: Java HotSpot(TM) Client VM
Java Version: 1.8.0_201-b09
Operating System: Windows 10
Default Encoding: Cp1252
Language: pt
Country: PT
-->
    </g>
</svg>