<?xml version="1.0" encoding="UTF-8" standalone="no"?><svg xmlns="http://www.w3.org/2000/svg" xmlns:xlink="http://www.w3.org/1999/xlink" contentScriptType="application/ecmascript" contentStyleType="text/css" height="763px" preserveAspectRatio="none" style="width:3000px;height:763px;" version="1.1" viewBox="0 0 3000 763" width="3000px" zoomAndPan="magnify">
    <defs>
        <filter height="300%" id="f5wchpmjp1m69" width="300%" x="-1" y="-1">
            <feGaussianBlur result="blurOut" stdDeviation="2.0" />
            <feColorMatrix in="blurOut" result="blurOut2" type="matrix" values="0 0 0 0 0 0 0 0 0 0 0 0 0 0 0 0 0 0 .4 0" />
            <feOffset dx="4.0" dy="4.0" in="blurOut2" result="blurOut3" />
            <feBlend in="SourceGraphic" in2="blurOut3" mode="normal" />
        </filter>
    </defs>
    <g>
        <!--MD5=[45c085eda1c3f4134106f99137518c4e]
class SeriarAnuncioUI-->
        <rect fill="#FEFECE" filter="url(#f5wchpmjp1m69)" height="48" id="SeriarAnuncioUI" style="stroke: #A80036; stroke-width: 1.5;" width="121" x="6" y="310" />
        <ellipse cx="21" cy="326" fill="#ADD1B2" rx="11" ry="11" style="stroke: #A80036; stroke-width: 1.0;" />
        <path d="M23.7656,321.875 Q23.9219,321.6563 24.1094,321.5469 Q24.2969,321.4375 24.5156,321.4375 Q24.8906,321.4375 25.125,321.6953 Q25.3594,321.9531 25.3594,322.5625 L25.3594,324.0156 Q25.3594,324.625 25.125,324.8906 Q24.8906,325.1563 24.5156,325.1563 Q24.1719,325.1563 23.9688,324.9531 Q23.7656,324.7656 23.6563,324.25 Q23.6094,323.8906 23.4219,323.7031 Q23.0938,323.3281 22.4844,323.1094 Q21.875,322.8906 21.25,322.8906 Q20.4844,322.8906 19.8516,323.2188 Q19.2188,323.5469 18.7266,324.2969 Q18.2344,325.0469 18.2344,326.0781 L18.2344,327.1719 Q18.2344,328.4063 19.125,329.2266 Q20.0156,330.0469 21.6094,330.0469 Q22.5469,330.0469 23.2031,329.7969 Q23.5938,329.6406 24.0156,329.2031 Q24.2813,328.9375 24.4297,328.8594 Q24.5781,328.7813 24.7813,328.7813 Q25.1094,328.7813 25.3672,329.0391 Q25.625,329.2969 25.625,329.6406 Q25.625,329.9844 25.2813,330.3906 Q24.7813,330.9688 23.9844,331.2969 Q22.9063,331.75 21.6094,331.75 Q20.0938,331.75 18.8906,331.125 Q17.9063,330.625 17.2188,329.5547 Q16.5313,328.4844 16.5313,327.2031 L16.5313,326.0469 Q16.5313,324.7188 17.1484,323.5703 Q17.7656,322.4219 18.8594,321.8047 Q19.9531,321.1875 21.1875,321.1875 Q21.9219,321.1875 22.5703,321.3516 Q23.2188,321.5156 23.7656,321.875 Z " /><text fill="#000000" font-family="sans-serif" font-size="12" lengthAdjust="spacingAndGlyphs" textLength="89" x="35" y="330.9102">SeriarAnuncioUI</text>
        <line style="stroke: #A80036; stroke-width: 1.5;" x1="7" x2="126" y1="342" y2="342" />
        <line style="stroke: #A80036; stroke-width: 1.5;" x1="7" x2="126" y1="350" y2="350" />
        <!--MD5=[275fa48f777b95aba21c758391a58e25]
class SeriarAnuncioController-->
        <rect fill="#FEFECE" filter="url(#f5wchpmjp1m69)" height="158.6875" id="SeriarAnuncioController" style="stroke: #A80036; stroke-width: 1.5;" width="211" x="188" y="254.5" />
        <ellipse cx="224.6" cy="270.5" fill="#ADD1B2" rx="11" ry="11" style="stroke: #A80036; stroke-width: 1.0;" />
        <path d="M227.3656,266.375 Q227.5219,266.1563 227.7094,266.0469 Q227.8969,265.9375 228.1156,265.9375 Q228.4906,265.9375 228.725,266.1953 Q228.9594,266.4531 228.9594,267.0625 L228.9594,268.5156 Q228.9594,269.125 228.725,269.3906 Q228.4906,269.6563 228.1156,269.6563 Q227.7719,269.6563 227.5688,269.4531 Q227.3656,269.2656 227.2563,268.75 Q227.2094,268.3906 227.0219,268.2031 Q226.6938,267.8281 226.0844,267.6094 Q225.475,267.3906 224.85,267.3906 Q224.0844,267.3906 223.4516,267.7188 Q222.8188,268.0469 222.3266,268.7969 Q221.8344,269.5469 221.8344,270.5781 L221.8344,271.6719 Q221.8344,272.9063 222.725,273.7266 Q223.6156,274.5469 225.2094,274.5469 Q226.1469,274.5469 226.8031,274.2969 Q227.1938,274.1406 227.6156,273.7031 Q227.8813,273.4375 228.0297,273.3594 Q228.1781,273.2813 228.3813,273.2813 Q228.7094,273.2813 228.9672,273.5391 Q229.225,273.7969 229.225,274.1406 Q229.225,274.4844 228.8813,274.8906 Q228.3813,275.4688 227.5844,275.7969 Q226.5063,276.25 225.2094,276.25 Q223.6938,276.25 222.4906,275.625 Q221.5063,275.125 220.8188,274.0547 Q220.1313,272.9844 220.1313,271.7031 L220.1313,270.5469 Q220.1313,269.2188 220.7484,268.0703 Q221.3656,266.9219 222.4594,266.3047 Q223.5531,265.6875 224.7875,265.6875 Q225.5219,265.6875 226.1703,265.8516 Q226.8188,266.0156 227.3656,266.375 Z " /><text fill="#000000" font-family="sans-serif" font-size="12" lengthAdjust="spacingAndGlyphs" textLength="131" x="243.4" y="275.4102">SeriarAnuncioController</text>
        <line style="stroke: #A80036; stroke-width: 1.5;" x1="189" x2="398" y1="286.5" y2="286.5" />
        <line style="stroke: #A80036; stroke-width: 1.5;" x1="189" x2="398" y1="294.5" y2="294.5" /><text fill="#000000" font-family="sans-serif" font-size="11" lengthAdjust="spacingAndGlyphs" textLength="199" x="194" y="309.9189">+getAnunciosPorSeriarNaoAutomaticos()</text><text fill="#000000" font-family="sans-serif" font-size="11" lengthAdjust="spacingAndGlyphs" textLength="139" x="194" y="323.7549">+getCandidaturas(anuncioId)</text><text fill="#000000" font-family="sans-serif" font-size="11" lengthAdjust="spacingAndGlyphs" textLength="128" x="194" y="337.5908">+classifica(candId, ordem)</text><text fill="#000000" font-family="sans-serif" font-size="11" lengthAdjust="spacingAndGlyphs" textLength="100" x="194" y="351.4268">+getColaboradores()</text><text fill="#000000" font-family="sans-serif" font-size="11" lengthAdjust="spacingAndGlyphs" textLength="131" x="194" y="365.2627">+addParticipante(emailPart)</text><text fill="#000000" font-family="sans-serif" font-size="11" lengthAdjust="spacingAndGlyphs" textLength="136" x="194" y="379.0986">+registaProcessoSeriacao()</text><text fill="#000000" font-family="sans-serif" font-size="11" lengthAdjust="spacingAndGlyphs" textLength="108" x="194" y="392.9346">+getDataDiaSeguinte()</text><text fill="#000000" font-family="sans-serif" font-size="11" lengthAdjust="spacingAndGlyphs" textLength="91" x="194" y="406.7705">+getDataDiaAtual()</text>
        <!--MD5=[ecaed46f78f8cfe1e9ce18477649be18]
class Plataforma-->
        <rect fill="#FEFECE" filter="url(#f5wchpmjp1m69)" height="103.3438" id="Plataforma" style="stroke: #A80036; stroke-width: 1.5;" width="145" x="460" y="282.5" />
        <ellipse cx="498.85" cy="298.5" fill="#ADD1B2" rx="11" ry="11" style="stroke: #A80036; stroke-width: 1.0;" />
        <path d="M501.6156,294.375 Q501.7719,294.1563 501.9594,294.0469 Q502.1469,293.9375 502.3656,293.9375 Q502.7406,293.9375 502.975,294.1953 Q503.2094,294.4531 503.2094,295.0625 L503.2094,296.5156 Q503.2094,297.125 502.975,297.3906 Q502.7406,297.6563 502.3656,297.6563 Q502.0219,297.6563 501.8188,297.4531 Q501.6156,297.2656 501.5063,296.75 Q501.4594,296.3906 501.2719,296.2031 Q500.9438,295.8281 500.3344,295.6094 Q499.725,295.3906 499.1,295.3906 Q498.3344,295.3906 497.7016,295.7188 Q497.0688,296.0469 496.5766,296.7969 Q496.0844,297.5469 496.0844,298.5781 L496.0844,299.6719 Q496.0844,300.9063 496.975,301.7266 Q497.8656,302.5469 499.4594,302.5469 Q500.3969,302.5469 501.0531,302.2969 Q501.4438,302.1406 501.8656,301.7031 Q502.1313,301.4375 502.2797,301.3594 Q502.4281,301.2813 502.6313,301.2813 Q502.9594,301.2813 503.2172,301.5391 Q503.475,301.7969 503.475,302.1406 Q503.475,302.4844 503.1313,302.8906 Q502.6313,303.4688 501.8344,303.7969 Q500.7563,304.25 499.4594,304.25 Q497.9438,304.25 496.7406,303.625 Q495.7563,303.125 495.0688,302.0547 Q494.3813,300.9844 494.3813,299.7031 L494.3813,298.5469 Q494.3813,297.2188 494.9984,296.0703 Q495.6156,294.9219 496.7094,294.3047 Q497.8031,293.6875 499.0375,293.6875 Q499.7719,293.6875 500.4203,293.8516 Q501.0688,294.0156 501.6156,294.375 Z " /><text fill="#000000" font-family="sans-serif" font-size="12" lengthAdjust="spacingAndGlyphs" textLength="60" x="518.15" y="303.4102">Plataforma</text>
        <line style="stroke: #A80036; stroke-width: 1.5;" x1="461" x2="604" y1="314.5" y2="314.5" /><text fill="#000000" font-family="sans-serif" font-size="11" lengthAdjust="spacingAndGlyphs" textLength="91" x="466" y="329.9189">-String designacao</text>
        <line style="stroke: #A80036; stroke-width: 1.5;" x1="461" x2="604" y1="336.3359" y2="336.3359" /><text fill="#000000" font-family="sans-serif" font-size="11" lengthAdjust="spacingAndGlyphs" textLength="133" x="466" y="351.7549">+getRegistoOrganizacoes()</text><text fill="#000000" font-family="sans-serif" font-size="11" lengthAdjust="spacingAndGlyphs" textLength="111" x="466" y="365.5908">+getRegistoAnuncios()</text><text fill="#000000" font-family="sans-serif" font-size="11" lengthAdjust="spacingAndGlyphs" textLength="119" x="466" y="379.4268">+getNumeroSequencial()</text>
        <!--MD5=[548bd8e9f0dc9261535ca7b7174ac939]
class RegistoOrganizacoes-->
        <rect fill="#FEFECE" filter="url(#f5wchpmjp1m69)" height="61.8359" id="RegistoOrganizacoes" style="stroke: #A80036; stroke-width: 1.5;" width="208" x="752.5" y="103" />
        <ellipse cx="793.15" cy="119" fill="#ADD1B2" rx="11" ry="11" style="stroke: #A80036; stroke-width: 1.0;" />
        <path d="M795.9156,114.875 Q796.0719,114.6563 796.2594,114.5469 Q796.4469,114.4375 796.6656,114.4375 Q797.0406,114.4375 797.275,114.6953 Q797.5094,114.9531 797.5094,115.5625 L797.5094,117.0156 Q797.5094,117.625 797.275,117.8906 Q797.0406,118.1563 796.6656,118.1563 Q796.3219,118.1563 796.1188,117.9531 Q795.9156,117.7656 795.8063,117.25 Q795.7594,116.8906 795.5719,116.7031 Q795.2438,116.3281 794.6344,116.1094 Q794.025,115.8906 793.4,115.8906 Q792.6344,115.8906 792.0016,116.2188 Q791.3688,116.5469 790.8766,117.2969 Q790.3844,118.0469 790.3844,119.0781 L790.3844,120.1719 Q790.3844,121.4063 791.275,122.2266 Q792.1656,123.0469 793.7594,123.0469 Q794.6969,123.0469 795.3531,122.7969 Q795.7438,122.6406 796.1656,122.2031 Q796.4313,121.9375 796.5797,121.8594 Q796.7281,121.7813 796.9313,121.7813 Q797.2594,121.7813 797.5172,122.0391 Q797.775,122.2969 797.775,122.6406 Q797.775,122.9844 797.4313,123.3906 Q796.9313,123.9688 796.1344,124.2969 Q795.0563,124.75 793.7594,124.75 Q792.2438,124.75 791.0406,124.125 Q790.0563,123.625 789.3688,122.5547 Q788.6813,121.4844 788.6813,120.2031 L788.6813,119.0469 Q788.6813,117.7188 789.2984,116.5703 Q789.9156,115.4219 791.0094,114.8047 Q792.1031,114.1875 793.3375,114.1875 Q794.0719,114.1875 794.7203,114.3516 Q795.3688,114.5156 795.9156,114.875 Z " /><text fill="#000000" font-family="sans-serif" font-size="12" lengthAdjust="spacingAndGlyphs" textLength="119" x="812.85" y="123.9102">RegistoOrganizacoes</text>
        <line style="stroke: #A80036; stroke-width: 1.5;" x1="753.5" x2="959.5" y1="135" y2="135" />
        <line style="stroke: #A80036; stroke-width: 1.5;" x1="753.5" x2="959.5" y1="143" y2="143" /><text fill="#000000" font-family="sans-serif" font-size="11" lengthAdjust="spacingAndGlyphs" textLength="196" x="758.5" y="158.4189">+getOrganizacaoByEmailUtilizador(email)</text>
        <!--MD5=[a7dddfa65532da486ef518ad0cedfd89]
class RegistoAnuncios-->
        <rect fill="#FEFECE" filter="url(#f5wchpmjp1m69)" height="103.3438" id="RegistoAnuncios" style="stroke: #A80036; stroke-width: 1.5;" width="335" x="689" y="348.5" />
        <ellipse cx="805.25" cy="364.5" fill="#ADD1B2" rx="11" ry="11" style="stroke: #A80036; stroke-width: 1.0;" />
        <path d="M808.0156,360.375 Q808.1719,360.1563 808.3594,360.0469 Q808.5469,359.9375 808.7656,359.9375 Q809.1406,359.9375 809.375,360.1953 Q809.6094,360.4531 809.6094,361.0625 L809.6094,362.5156 Q809.6094,363.125 809.375,363.3906 Q809.1406,363.6563 808.7656,363.6563 Q808.4219,363.6563 808.2188,363.4531 Q808.0156,363.2656 807.9063,362.75 Q807.8594,362.3906 807.6719,362.2031 Q807.3438,361.8281 806.7344,361.6094 Q806.125,361.3906 805.5,361.3906 Q804.7344,361.3906 804.1016,361.7188 Q803.4688,362.0469 802.9766,362.7969 Q802.4844,363.5469 802.4844,364.5781 L802.4844,365.6719 Q802.4844,366.9063 803.375,367.7266 Q804.2656,368.5469 805.8594,368.5469 Q806.7969,368.5469 807.4531,368.2969 Q807.8438,368.1406 808.2656,367.7031 Q808.5313,367.4375 808.6797,367.3594 Q808.8281,367.2813 809.0313,367.2813 Q809.3594,367.2813 809.6172,367.5391 Q809.875,367.7969 809.875,368.1406 Q809.875,368.4844 809.5313,368.8906 Q809.0313,369.4688 808.2344,369.7969 Q807.1563,370.25 805.8594,370.25 Q804.3438,370.25 803.1406,369.625 Q802.1563,369.125 801.4688,368.0547 Q800.7813,366.9844 800.7813,365.7031 L800.7813,364.5469 Q800.7813,363.2188 801.3984,362.0703 Q802.0156,360.9219 803.1094,360.3047 Q804.2031,359.6875 805.4375,359.6875 Q806.1719,359.6875 806.8203,359.8516 Q807.4688,360.0156 808.0156,360.375 Z " /><text fill="#000000" font-family="sans-serif" font-size="12" lengthAdjust="spacingAndGlyphs" textLength="94" x="825.75" y="369.4102">RegistoAnuncios</text>
        <line style="stroke: #A80036; stroke-width: 1.5;" x1="690" x2="1023" y1="380.5" y2="380.5" />
        <line style="stroke: #A80036; stroke-width: 1.5;" x1="690" x2="1023" y1="388.5" y2="388.5" /><text fill="#000000" font-family="sans-serif" font-size="11" lengthAdjust="spacingAndGlyphs" textLength="225" x="695" y="403.9189">+getAnunciosPorSeriarNaoAutomaticos(colab)</text><text fill="#000000" font-family="sans-serif" font-size="11" lengthAdjust="spacingAndGlyphs" textLength="209" x="695" y="417.7549">+getAnuncioPublicadoPor(colab, anuncioId)</text><text fill="#000000" font-family="sans-serif" font-size="11" lengthAdjust="spacingAndGlyphs" textLength="173" x="695" y="431.5908">+getAnunciosByColaborador(colab)</text><text fill="#000000" font-family="sans-serif" font-size="11" lengthAdjust="spacingAndGlyphs" textLength="323" x="695" y="445.4268">+getAnunciosSeriaveisNaoAutomaticos(listaAnunciosColaborador)</text>
        <!--MD5=[807977ceb130c090ed5febfb6de2bdea]
class Organizacao-->
        <rect fill="#FEFECE" filter="url(#f5wchpmjp1m69)" height="131.0156" id="Organizacao" style="stroke: #A80036; stroke-width: 1.5;" width="135" x="1212" y="26.5" />
        <ellipse cx="1242.3" cy="42.5" fill="#ADD1B2" rx="11" ry="11" style="stroke: #A80036; stroke-width: 1.0;" />
        <path d="M1245.0656,38.375 Q1245.2219,38.1563 1245.4094,38.0469 Q1245.5969,37.9375 1245.8156,37.9375 Q1246.1906,37.9375 1246.425,38.1953 Q1246.6594,38.4531 1246.6594,39.0625 L1246.6594,40.5156 Q1246.6594,41.125 1246.425,41.3906 Q1246.1906,41.6563 1245.8156,41.6563 Q1245.4719,41.6563 1245.2688,41.4531 Q1245.0656,41.2656 1244.9563,40.75 Q1244.9094,40.3906 1244.7219,40.2031 Q1244.3938,39.8281 1243.7844,39.6094 Q1243.175,39.3906 1242.55,39.3906 Q1241.7844,39.3906 1241.1516,39.7188 Q1240.5188,40.0469 1240.0266,40.7969 Q1239.5344,41.5469 1239.5344,42.5781 L1239.5344,43.6719 Q1239.5344,44.9063 1240.425,45.7266 Q1241.3156,46.5469 1242.9094,46.5469 Q1243.8469,46.5469 1244.5031,46.2969 Q1244.8938,46.1406 1245.3156,45.7031 Q1245.5813,45.4375 1245.7297,45.3594 Q1245.8781,45.2813 1246.0813,45.2813 Q1246.4094,45.2813 1246.6672,45.5391 Q1246.925,45.7969 1246.925,46.1406 Q1246.925,46.4844 1246.5813,46.8906 Q1246.0813,47.4688 1245.2844,47.7969 Q1244.2063,48.25 1242.9094,48.25 Q1241.3938,48.25 1240.1906,47.625 Q1239.2063,47.125 1238.5188,46.0547 Q1237.8313,44.9844 1237.8313,43.7031 L1237.8313,42.5469 Q1237.8313,41.2188 1238.4484,40.0703 Q1239.0656,38.9219 1240.1594,38.3047 Q1241.2531,37.6875 1242.4875,37.6875 Q1243.2219,37.6875 1243.8703,37.8516 Q1244.5188,38.0156 1245.0656,38.375 Z " /><text fill="#000000" font-family="sans-serif" font-size="12" lengthAdjust="spacingAndGlyphs" textLength="69" x="1259.7" y="47.4102">Organizacao</text>
        <line style="stroke: #A80036; stroke-width: 1.5;" x1="1213" x2="1346" y1="58.5" y2="58.5" /><text fill="#000000" font-family="sans-serif" font-size="11" lengthAdjust="spacingAndGlyphs" textLength="61" x="1218" y="73.9189">-String nome</text><text fill="#000000" font-family="sans-serif" font-size="11" lengthAdjust="spacingAndGlyphs" textLength="50" x="1218" y="87.7549">-String NIF</text><text fill="#000000" font-family="sans-serif" font-size="11" lengthAdjust="spacingAndGlyphs" textLength="74" x="1218" y="101.5908">-String website</text><text fill="#000000" font-family="sans-serif" font-size="11" lengthAdjust="spacingAndGlyphs" textLength="74" x="1218" y="115.4268">-String telefone</text><text fill="#000000" font-family="sans-serif" font-size="11" lengthAdjust="spacingAndGlyphs" textLength="59" x="1218" y="129.2627">-String email</text>
        <line style="stroke: #A80036; stroke-width: 1.5;" x1="1213" x2="1346" y1="135.6797" y2="135.6797" /><text fill="#000000" font-family="sans-serif" font-size="11" lengthAdjust="spacingAndGlyphs" textLength="123" x="1218" y="151.0986">+getListaColaboradores()</text>
        <!--MD5=[b68e9dcbea6113d6a9f07fad964dd27a]
class ListaColaboradores-->
        <rect fill="#FEFECE" filter="url(#f5wchpmjp1m69)" height="75.6719" id="ListaColaboradores" style="stroke: #A80036; stroke-width: 1.5;" width="161" x="1617.5" y="54" />
        <ellipse cx="1641.05" cy="70" fill="#ADD1B2" rx="11" ry="11" style="stroke: #A80036; stroke-width: 1.0;" />
        <path d="M1643.8156,65.875 Q1643.9719,65.6563 1644.1594,65.5469 Q1644.3469,65.4375 1644.5656,65.4375 Q1644.9406,65.4375 1645.175,65.6953 Q1645.4094,65.9531 1645.4094,66.5625 L1645.4094,68.0156 Q1645.4094,68.625 1645.175,68.8906 Q1644.9406,69.1563 1644.5656,69.1563 Q1644.2219,69.1563 1644.0188,68.9531 Q1643.8156,68.7656 1643.7063,68.25 Q1643.6594,67.8906 1643.4719,67.7031 Q1643.1438,67.3281 1642.5344,67.1094 Q1641.925,66.8906 1641.3,66.8906 Q1640.5344,66.8906 1639.9016,67.2188 Q1639.2688,67.5469 1638.7766,68.2969 Q1638.2844,69.0469 1638.2844,70.0781 L1638.2844,71.1719 Q1638.2844,72.4063 1639.175,73.2266 Q1640.0656,74.0469 1641.6594,74.0469 Q1642.5969,74.0469 1643.2531,73.7969 Q1643.6438,73.6406 1644.0656,73.2031 Q1644.3313,72.9375 1644.4797,72.8594 Q1644.6281,72.7813 1644.8313,72.7813 Q1645.1594,72.7813 1645.4172,73.0391 Q1645.675,73.2969 1645.675,73.6406 Q1645.675,73.9844 1645.3313,74.3906 Q1644.8313,74.9688 1644.0344,75.2969 Q1642.9563,75.75 1641.6594,75.75 Q1640.1438,75.75 1638.9406,75.125 Q1637.9563,74.625 1637.2688,73.5547 Q1636.5813,72.4844 1636.5813,71.2031 L1636.5813,70.0469 Q1636.5813,68.7188 1637.1984,67.5703 Q1637.8156,66.4219 1638.9094,65.8047 Q1640.0031,65.1875 1641.2375,65.1875 Q1641.9719,65.1875 1642.6203,65.3516 Q1643.2688,65.5156 1643.8156,65.875 Z " /><text fill="#000000" font-family="sans-serif" font-size="12" lengthAdjust="spacingAndGlyphs" textLength="110" x="1656.95" y="74.9102">ListaColaboradores</text>
        <line style="stroke: #A80036; stroke-width: 1.5;" x1="1618.5" x2="1777.5" y1="86" y2="86" />
        <line style="stroke: #A80036; stroke-width: 1.5;" x1="1618.5" x2="1777.5" y1="94" y2="94" /><text fill="#000000" font-family="sans-serif" font-size="11" lengthAdjust="spacingAndGlyphs" textLength="100" x="1623.5" y="109.4189">+getColaboradores()</text><text fill="#000000" font-family="sans-serif" font-size="11" lengthAdjust="spacingAndGlyphs" textLength="149" x="1623.5" y="123.2549">+getColaboradorByEmail(email)</text>
        <!--MD5=[ac8682ea5466d223e49472789fb200d2]
class Colaborador-->
        <rect fill="#FEFECE" filter="url(#f5wchpmjp1m69)" height="103.3438" id="Colaborador" style="stroke: #A80036; stroke-width: 1.5;" width="101" x="2272.5" y="111.5" />
        <ellipse cx="2287.5" cy="127.5" fill="#ADD1B2" rx="11" ry="11" style="stroke: #A80036; stroke-width: 1.0;" />
        <path d="M2290.2656,123.375 Q2290.4219,123.1563 2290.6094,123.0469 Q2290.7969,122.9375 2291.0156,122.9375 Q2291.3906,122.9375 2291.625,123.1953 Q2291.8594,123.4531 2291.8594,124.0625 L2291.8594,125.5156 Q2291.8594,126.125 2291.625,126.3906 Q2291.3906,126.6563 2291.0156,126.6563 Q2290.6719,126.6563 2290.4688,126.4531 Q2290.2656,126.2656 2290.1563,125.75 Q2290.1094,125.3906 2289.9219,125.2031 Q2289.5938,124.8281 2288.9844,124.6094 Q2288.375,124.3906 2287.75,124.3906 Q2286.9844,124.3906 2286.3516,124.7188 Q2285.7188,125.0469 2285.2266,125.7969 Q2284.7344,126.5469 2284.7344,127.5781 L2284.7344,128.6719 Q2284.7344,129.9063 2285.625,130.7266 Q2286.5156,131.5469 2288.1094,131.5469 Q2289.0469,131.5469 2289.7031,131.2969 Q2290.0938,131.1406 2290.5156,130.7031 Q2290.7813,130.4375 2290.9297,130.3594 Q2291.0781,130.2813 2291.2813,130.2813 Q2291.6094,130.2813 2291.8672,130.5391 Q2292.125,130.7969 2292.125,131.1406 Q2292.125,131.4844 2291.7813,131.8906 Q2291.2813,132.4688 2290.4844,132.7969 Q2289.4063,133.25 2288.1094,133.25 Q2286.5938,133.25 2285.3906,132.625 Q2284.4063,132.125 2283.7188,131.0547 Q2283.0313,129.9844 2283.0313,128.7031 L2283.0313,127.5469 Q2283.0313,126.2188 2283.6484,125.0703 Q2284.2656,123.9219 2285.3594,123.3047 Q2286.4531,122.6875 2287.6875,122.6875 Q2288.4219,122.6875 2289.0703,122.8516 Q2289.7188,123.0156 2290.2656,123.375 Z " /><text fill="#000000" font-family="sans-serif" font-size="12" lengthAdjust="spacingAndGlyphs" textLength="69" x="2301.5" y="132.4102">Colaborador</text>
        <line style="stroke: #A80036; stroke-width: 1.5;" x1="2273.5" x2="2372.5" y1="143.5" y2="143.5" /><text fill="#000000" font-family="sans-serif" font-size="11" lengthAdjust="spacingAndGlyphs" textLength="61" x="2278.5" y="158.9189">-String nome</text><text fill="#000000" font-family="sans-serif" font-size="11" lengthAdjust="spacingAndGlyphs" textLength="69" x="2278.5" y="172.7549">-String funcao</text><text fill="#000000" font-family="sans-serif" font-size="11" lengthAdjust="spacingAndGlyphs" textLength="74" x="2278.5" y="186.5908">-String telefone</text><text fill="#000000" font-family="sans-serif" font-size="11" lengthAdjust="spacingAndGlyphs" textLength="59" x="2278.5" y="200.4268">-String email</text>
        <line style="stroke: #A80036; stroke-width: 1.5;" x1="2273.5" x2="2372.5" y1="206.8438" y2="206.8438" />
        <!--MD5=[d0e9f237fb3c72e1245c36c562ad52c4]
class TipoRegimento-->
        <rect fill="#FEFECE" filter="url(#f5wchpmjp1m69)" height="89.5078" id="TipoRegimento" style="stroke: #A80036; stroke-width: 1.5;" width="130" x="2258" y="555" />
        <ellipse cx="2278.85" cy="571" fill="#ADD1B2" rx="11" ry="11" style="stroke: #A80036; stroke-width: 1.0;" />
        <path d="M2281.6156,566.875 Q2281.7719,566.6563 2281.9594,566.5469 Q2282.1469,566.4375 2282.3656,566.4375 Q2282.7406,566.4375 2282.975,566.6953 Q2283.2094,566.9531 2283.2094,567.5625 L2283.2094,569.0156 Q2283.2094,569.625 2282.975,569.8906 Q2282.7406,570.1563 2282.3656,570.1563 Q2282.0219,570.1563 2281.8188,569.9531 Q2281.6156,569.7656 2281.5063,569.25 Q2281.4594,568.8906 2281.2719,568.7031 Q2280.9438,568.3281 2280.3344,568.1094 Q2279.725,567.8906 2279.1,567.8906 Q2278.3344,567.8906 2277.7016,568.2188 Q2277.0688,568.5469 2276.5766,569.2969 Q2276.0844,570.0469 2276.0844,571.0781 L2276.0844,572.1719 Q2276.0844,573.4063 2276.975,574.2266 Q2277.8656,575.0469 2279.4594,575.0469 Q2280.3969,575.0469 2281.0531,574.7969 Q2281.4438,574.6406 2281.8656,574.2031 Q2282.1313,573.9375 2282.2797,573.8594 Q2282.4281,573.7813 2282.6313,573.7813 Q2282.9594,573.7813 2283.2172,574.0391 Q2283.475,574.2969 2283.475,574.6406 Q2283.475,574.9844 2283.1313,575.3906 Q2282.6313,575.9688 2281.8344,576.2969 Q2280.7563,576.75 2279.4594,576.75 Q2277.9438,576.75 2276.7406,576.125 Q2275.7563,575.625 2275.0688,574.5547 Q2274.3813,573.4844 2274.3813,572.2031 L2274.3813,571.0469 Q2274.3813,569.7188 2274.9984,568.5703 Q2275.6156,567.4219 2276.7094,566.8047 Q2277.8031,566.1875 2279.0375,566.1875 Q2279.7719,566.1875 2280.4203,566.3516 Q2281.0688,566.5156 2281.6156,566.875 Z " /><text fill="#000000" font-family="sans-serif" font-size="12" lengthAdjust="spacingAndGlyphs" textLength="85" x="2294.15" y="575.9102">TipoRegimento</text>
        <line style="stroke: #A80036; stroke-width: 1.5;" x1="2259" x2="2387" y1="587" y2="587" /><text fill="#000000" font-family="sans-serif" font-size="11" lengthAdjust="spacingAndGlyphs" textLength="91" x="2264" y="602.4189">-String designacao</text><text fill="#000000" font-family="sans-serif" font-size="11" lengthAdjust="spacingAndGlyphs" textLength="118" x="2264" y="616.2549">-String descricaoRegras</text>
        <line style="stroke: #A80036; stroke-width: 1.5;" x1="2259" x2="2387" y1="622.6719" y2="622.6719" /><text fill="#000000" font-family="sans-serif" font-size="11" lengthAdjust="spacingAndGlyphs" textLength="106" x="2264" y="638.0908">+getObrigatoriedade()</text>
        <!--MD5=[1f687b5315377fe49fca59b457947463]
class Freelancer-->
        <rect fill="#FEFECE" filter="url(#f5wchpmjp1m69)" height="103.3438" id="Freelancer" style="stroke: #A80036; stroke-width: 1.5;" width="91" x="2898" y="327.5" />
        <ellipse cx="2913" cy="343.5" fill="#ADD1B2" rx="11" ry="11" style="stroke: #A80036; stroke-width: 1.0;" />
        <path d="M2915.7656,339.375 Q2915.9219,339.1563 2916.1094,339.0469 Q2916.2969,338.9375 2916.5156,338.9375 Q2916.8906,338.9375 2917.125,339.1953 Q2917.3594,339.4531 2917.3594,340.0625 L2917.3594,341.5156 Q2917.3594,342.125 2917.125,342.3906 Q2916.8906,342.6563 2916.5156,342.6563 Q2916.1719,342.6563 2915.9688,342.4531 Q2915.7656,342.2656 2915.6563,341.75 Q2915.6094,341.3906 2915.4219,341.2031 Q2915.0938,340.8281 2914.4844,340.6094 Q2913.875,340.3906 2913.25,340.3906 Q2912.4844,340.3906 2911.8516,340.7188 Q2911.2188,341.0469 2910.7266,341.7969 Q2910.2344,342.5469 2910.2344,343.5781 L2910.2344,344.6719 Q2910.2344,345.9063 2911.125,346.7266 Q2912.0156,347.5469 2913.6094,347.5469 Q2914.5469,347.5469 2915.2031,347.2969 Q2915.5938,347.1406 2916.0156,346.7031 Q2916.2813,346.4375 2916.4297,346.3594 Q2916.5781,346.2813 2916.7813,346.2813 Q2917.1094,346.2813 2917.3672,346.5391 Q2917.625,346.7969 2917.625,347.1406 Q2917.625,347.4844 2917.2813,347.8906 Q2916.7813,348.4688 2915.9844,348.7969 Q2914.9063,349.25 2913.6094,349.25 Q2912.0938,349.25 2910.8906,348.625 Q2909.9063,348.125 2909.2188,347.0547 Q2908.5313,345.9844 2908.5313,344.7031 L2908.5313,343.5469 Q2908.5313,342.2188 2909.1484,341.0703 Q2909.7656,339.9219 2910.8594,339.3047 Q2911.9531,338.6875 2913.1875,338.6875 Q2913.9219,338.6875 2914.5703,338.8516 Q2915.2188,339.0156 2915.7656,339.375 Z " /><text fill="#000000" font-family="sans-serif" font-size="12" lengthAdjust="spacingAndGlyphs" textLength="59" x="2927" y="348.4102">Freelancer</text>
        <line style="stroke: #A80036; stroke-width: 1.5;" x1="2899" x2="2988" y1="359.5" y2="359.5" /><text fill="#000000" font-family="sans-serif" font-size="11" lengthAdjust="spacingAndGlyphs" textLength="61" x="2904" y="374.9189">-String nome</text><text fill="#000000" font-family="sans-serif" font-size="11" lengthAdjust="spacingAndGlyphs" textLength="50" x="2904" y="388.7549">-String NIF</text><text fill="#000000" font-family="sans-serif" font-size="11" lengthAdjust="spacingAndGlyphs" textLength="74" x="2904" y="402.5908">-String telefone</text><text fill="#000000" font-family="sans-serif" font-size="11" lengthAdjust="spacingAndGlyphs" textLength="59" x="2904" y="416.4268">-String email</text>
        <line style="stroke: #A80036; stroke-width: 1.5;" x1="2899" x2="2988" y1="422.8438" y2="422.8438" />
        <!--MD5=[19db0db7353a4bf63eefc676e5ba9b80]
class Anuncio-->
        <rect fill="#FEFECE" filter="url(#f5wchpmjp1m69)" height="241.7031" id="Anuncio" style="stroke: #A80036; stroke-width: 1.5;" width="215" x="1172" y="371" />
        <ellipse cx="1253.25" cy="387" fill="#ADD1B2" rx="11" ry="11" style="stroke: #A80036; stroke-width: 1.0;" />
        <path d="M1256.0156,382.875 Q1256.1719,382.6563 1256.3594,382.5469 Q1256.5469,382.4375 1256.7656,382.4375 Q1257.1406,382.4375 1257.375,382.6953 Q1257.6094,382.9531 1257.6094,383.5625 L1257.6094,385.0156 Q1257.6094,385.625 1257.375,385.8906 Q1257.1406,386.1563 1256.7656,386.1563 Q1256.4219,386.1563 1256.2188,385.9531 Q1256.0156,385.7656 1255.9063,385.25 Q1255.8594,384.8906 1255.6719,384.7031 Q1255.3438,384.3281 1254.7344,384.1094 Q1254.125,383.8906 1253.5,383.8906 Q1252.7344,383.8906 1252.1016,384.2188 Q1251.4688,384.5469 1250.9766,385.2969 Q1250.4844,386.0469 1250.4844,387.0781 L1250.4844,388.1719 Q1250.4844,389.4063 1251.375,390.2266 Q1252.2656,391.0469 1253.8594,391.0469 Q1254.7969,391.0469 1255.4531,390.7969 Q1255.8438,390.6406 1256.2656,390.2031 Q1256.5313,389.9375 1256.6797,389.8594 Q1256.8281,389.7813 1257.0313,389.7813 Q1257.3594,389.7813 1257.6172,390.0391 Q1257.875,390.2969 1257.875,390.6406 Q1257.875,390.9844 1257.5313,391.3906 Q1257.0313,391.9688 1256.2344,392.2969 Q1255.1563,392.75 1253.8594,392.75 Q1252.3438,392.75 1251.1406,392.125 Q1250.1563,391.625 1249.4688,390.5547 Q1248.7813,389.4844 1248.7813,388.2031 L1248.7813,387.0469 Q1248.7813,385.7188 1249.3984,384.5703 Q1250.0156,383.4219 1251.1094,382.8047 Q1252.2031,382.1875 1253.4375,382.1875 Q1254.1719,382.1875 1254.8203,382.3516 Q1255.4688,382.5156 1256.0156,382.875 Z " /><text fill="#000000" font-family="sans-serif" font-size="12" lengthAdjust="spacingAndGlyphs" textLength="44" x="1273.75" y="391.9102">Anuncio</text>
        <line style="stroke: #A80036; stroke-width: 1.5;" x1="1173" x2="1386" y1="403" y2="403" /><text fill="#000000" font-family="sans-serif" font-size="11" lengthAdjust="spacingAndGlyphs" textLength="119" x="1178" y="418.4189">-Date dtInicioPublicitacao</text><text fill="#000000" font-family="sans-serif" font-size="11" lengthAdjust="spacingAndGlyphs" textLength="111" x="1178" y="432.2549">-Date dtFimPublicitacao</text><text fill="#000000" font-family="sans-serif" font-size="11" lengthAdjust="spacingAndGlyphs" textLength="120" x="1178" y="446.0908">-Date dtInicioCandidatura</text><text fill="#000000" font-family="sans-serif" font-size="11" lengthAdjust="spacingAndGlyphs" textLength="112" x="1178" y="459.9268">-Date dtFimCandidatura</text><text fill="#000000" font-family="sans-serif" font-size="11" lengthAdjust="spacingAndGlyphs" textLength="105" x="1178" y="473.7627">-Date dtInicioSeriacao</text><text fill="#000000" font-family="sans-serif" font-size="11" lengthAdjust="spacingAndGlyphs" textLength="97" x="1178" y="487.5986">-Date dtFimSeriacao</text>
        <line style="stroke: #A80036; stroke-width: 1.5;" x1="1173" x2="1386" y1="494.0156" y2="494.0156" /><text fill="#000000" font-family="sans-serif" font-size="11" lengthAdjust="spacingAndGlyphs" textLength="116" x="1178" y="509.4346">+getListaCandidaturas()</text><text fill="#000000" font-family="sans-serif" font-size="11" lengthAdjust="spacingAndGlyphs" textLength="153" x="1178" y="523.2705">+novoProcessoSeriacao(colab)</text><text fill="#000000" font-family="sans-serif" font-size="11" lengthAdjust="spacingAndGlyphs" textLength="148" x="1178" y="537.1064">+registaProcessoSeriacao(ps)</text><text fill="#000000" font-family="sans-serif" font-size="11" lengthAdjust="spacingAndGlyphs" textLength="141" x="1178" y="550.9424">-validaProcessoSeriacao(ps)</text><text fill="#000000" font-family="sans-serif" font-size="11" lengthAdjust="spacingAndGlyphs" textLength="128" x="1178" y="564.7783">-setProcessoSeriacao(ps)</text><text fill="#000000" font-family="sans-serif" font-size="11" lengthAdjust="spacingAndGlyphs" textLength="61" x="1178" y="578.6143">+getTarefa()</text><text fill="#000000" font-family="sans-serif" font-size="11" lengthAdjust="spacingAndGlyphs" textLength="203" x="1178" y="592.4502">+novoProcessoAtribuicao(dataAtribuicao)</text><text fill="#000000" font-family="sans-serif" font-size="11" lengthAdjust="spacingAndGlyphs" textLength="68" x="1178" y="606.2861">+getTipoReg()</text>
        <!--MD5=[ced2a86ae8bdfec1c757b7c305a75b1d]
class ListaCandidaturas-->
        <rect fill="#FEFECE" filter="url(#f5wchpmjp1m69)" height="75.6719" id="ListaCandidaturas" style="stroke: #A80036; stroke-width: 1.5;" width="134" x="1949.5" y="666" />
        <ellipse cx="1964.5" cy="682" fill="#ADD1B2" rx="11" ry="11" style="stroke: #A80036; stroke-width: 1.0;" />
        <path d="M1967.2656,677.875 Q1967.4219,677.6563 1967.6094,677.5469 Q1967.7969,677.4375 1968.0156,677.4375 Q1968.3906,677.4375 1968.625,677.6953 Q1968.8594,677.9531 1968.8594,678.5625 L1968.8594,680.0156 Q1968.8594,680.625 1968.625,680.8906 Q1968.3906,681.1563 1968.0156,681.1563 Q1967.6719,681.1563 1967.4688,680.9531 Q1967.2656,680.7656 1967.1563,680.25 Q1967.1094,679.8906 1966.9219,679.7031 Q1966.5938,679.3281 1965.9844,679.1094 Q1965.375,678.8906 1964.75,678.8906 Q1963.9844,678.8906 1963.3516,679.2188 Q1962.7188,679.5469 1962.2266,680.2969 Q1961.7344,681.0469 1961.7344,682.0781 L1961.7344,683.1719 Q1961.7344,684.4063 1962.625,685.2266 Q1963.5156,686.0469 1965.1094,686.0469 Q1966.0469,686.0469 1966.7031,685.7969 Q1967.0938,685.6406 1967.5156,685.2031 Q1967.7813,684.9375 1967.9297,684.8594 Q1968.0781,684.7813 1968.2813,684.7813 Q1968.6094,684.7813 1968.8672,685.0391 Q1969.125,685.2969 1969.125,685.6406 Q1969.125,685.9844 1968.7813,686.3906 Q1968.2813,686.9688 1967.4844,687.2969 Q1966.4063,687.75 1965.1094,687.75 Q1963.5938,687.75 1962.3906,687.125 Q1961.4063,686.625 1960.7188,685.5547 Q1960.0313,684.4844 1960.0313,683.2031 L1960.0313,682.0469 Q1960.0313,680.7188 1960.6484,679.5703 Q1961.2656,678.4219 1962.3594,677.8047 Q1963.4531,677.1875 1964.6875,677.1875 Q1965.4219,677.1875 1966.0703,677.3516 Q1966.7188,677.5156 1967.2656,677.875 Z " /><text fill="#000000" font-family="sans-serif" font-size="12" lengthAdjust="spacingAndGlyphs" textLength="102" x="1978.5" y="686.9102">ListaCandidaturas</text>
        <line style="stroke: #A80036; stroke-width: 1.5;" x1="1950.5" x2="2082.5" y1="698" y2="698" />
        <line style="stroke: #A80036; stroke-width: 1.5;" x1="1950.5" x2="2082.5" y1="706" y2="706" /><text fill="#000000" font-family="sans-serif" font-size="11" lengthAdjust="spacingAndGlyphs" textLength="93" x="1955.5" y="721.4189">+getCandidaturas()</text><text fill="#000000" font-family="sans-serif" font-size="11" lengthAdjust="spacingAndGlyphs" textLength="119" x="1955.5" y="735.2549">+getCandidatura(candId)</text>
        <!--MD5=[475c5b924ed41035684e2831311827d2]
class Candidatura-->
        <rect fill="#FEFECE" filter="url(#f5wchpmjp1m69)" height="158.6875" id="Candidatura" style="stroke: #A80036; stroke-width: 1.5;" width="128" x="2634" y="402.5" />
        <ellipse cx="2661.6" cy="418.5" fill="#ADD1B2" rx="11" ry="11" style="stroke: #A80036; stroke-width: 1.0;" />
        <path d="M2664.3656,414.375 Q2664.5219,414.1563 2664.7094,414.0469 Q2664.8969,413.9375 2665.1156,413.9375 Q2665.4906,413.9375 2665.725,414.1953 Q2665.9594,414.4531 2665.9594,415.0625 L2665.9594,416.5156 Q2665.9594,417.125 2665.725,417.3906 Q2665.4906,417.6563 2665.1156,417.6563 Q2664.7719,417.6563 2664.5688,417.4531 Q2664.3656,417.2656 2664.2563,416.75 Q2664.2094,416.3906 2664.0219,416.2031 Q2663.6938,415.8281 2663.0844,415.6094 Q2662.475,415.3906 2661.85,415.3906 Q2661.0844,415.3906 2660.4516,415.7188 Q2659.8188,416.0469 2659.3266,416.7969 Q2658.8344,417.5469 2658.8344,418.5781 L2658.8344,419.6719 Q2658.8344,420.9063 2659.725,421.7266 Q2660.6156,422.5469 2662.2094,422.5469 Q2663.1469,422.5469 2663.8031,422.2969 Q2664.1938,422.1406 2664.6156,421.7031 Q2664.8813,421.4375 2665.0297,421.3594 Q2665.1781,421.2813 2665.3813,421.2813 Q2665.7094,421.2813 2665.9672,421.5391 Q2666.225,421.7969 2666.225,422.1406 Q2666.225,422.4844 2665.8813,422.8906 Q2665.3813,423.4688 2664.5844,423.7969 Q2663.5063,424.25 2662.2094,424.25 Q2660.6938,424.25 2659.4906,423.625 Q2658.5063,423.125 2657.8188,422.0547 Q2657.1313,420.9844 2657.1313,419.7031 L2657.1313,418.5469 Q2657.1313,417.2188 2657.7484,416.0703 Q2658.3656,414.9219 2659.4594,414.3047 Q2660.5531,413.6875 2661.7875,413.6875 Q2662.5219,413.6875 2663.1703,413.8516 Q2663.8188,414.0156 2664.3656,414.375 Z " /><text fill="#000000" font-family="sans-serif" font-size="12" lengthAdjust="spacingAndGlyphs" textLength="68" x="2678.4" y="423.4102">Candidatura</text>
        <line style="stroke: #A80036; stroke-width: 1.5;" x1="2635" x2="2761" y1="434.5" y2="434.5" /><text fill="#000000" font-family="sans-serif" font-size="11" lengthAdjust="spacingAndGlyphs" textLength="108" x="2640" y="449.9189">-Date dataCandidatura</text><text fill="#000000" font-family="sans-serif" font-size="11" lengthAdjust="spacingAndGlyphs" textLength="115" x="2640" y="463.7549">-Double valorPretendido</text><text fill="#000000" font-family="sans-serif" font-size="11" lengthAdjust="spacingAndGlyphs" textLength="71" x="2640" y="477.5908">-Integer nrDias</text><text fill="#000000" font-family="sans-serif" font-size="11" lengthAdjust="spacingAndGlyphs" textLength="116" x="2640" y="491.4268">-String txtApresentacao</text><text fill="#000000" font-family="sans-serif" font-size="11" lengthAdjust="spacingAndGlyphs" textLength="96" x="2640" y="505.2627">-String txtMotivacao</text>
        <line style="stroke: #A80036; stroke-width: 1.5;" x1="2635" x2="2761" y1="511.6797" y2="511.6797" /><text fill="#000000" font-family="sans-serif" font-size="11" lengthAdjust="spacingAndGlyphs" textLength="81" x="2640" y="527.0986">+getFreelancer()</text><text fill="#000000" font-family="sans-serif" font-size="11" lengthAdjust="spacingAndGlyphs" textLength="74" x="2640" y="540.9346">+getValorPret()</text><text fill="#000000" font-family="sans-serif" font-size="11" lengthAdjust="spacingAndGlyphs" textLength="90" x="2640" y="554.7705">+getNumDiasNec()</text>
        <!--MD5=[716bba0e94eea125d5a66a891f2c3c34]
class Classificacao-->
        <rect fill="#FEFECE" filter="url(#f5wchpmjp1m69)" height="75.6719" id="Classificacao" style="stroke: #A80036; stroke-width: 1.5;" width="142" x="2252" y="444" />
        <ellipse cx="2282.75" cy="460" fill="#ADD1B2" rx="11" ry="11" style="stroke: #A80036; stroke-width: 1.0;" />
        <path d="M2285.5156,455.875 Q2285.6719,455.6563 2285.8594,455.5469 Q2286.0469,455.4375 2286.2656,455.4375 Q2286.6406,455.4375 2286.875,455.6953 Q2287.1094,455.9531 2287.1094,456.5625 L2287.1094,458.0156 Q2287.1094,458.625 2286.875,458.8906 Q2286.6406,459.1563 2286.2656,459.1563 Q2285.9219,459.1563 2285.7188,458.9531 Q2285.5156,458.7656 2285.4063,458.25 Q2285.3594,457.8906 2285.1719,457.7031 Q2284.8438,457.3281 2284.2344,457.1094 Q2283.625,456.8906 2283,456.8906 Q2282.2344,456.8906 2281.6016,457.2188 Q2280.9688,457.5469 2280.4766,458.2969 Q2279.9844,459.0469 2279.9844,460.0781 L2279.9844,461.1719 Q2279.9844,462.4063 2280.875,463.2266 Q2281.7656,464.0469 2283.3594,464.0469 Q2284.2969,464.0469 2284.9531,463.7969 Q2285.3438,463.6406 2285.7656,463.2031 Q2286.0313,462.9375 2286.1797,462.8594 Q2286.3281,462.7813 2286.5313,462.7813 Q2286.8594,462.7813 2287.1172,463.0391 Q2287.375,463.2969 2287.375,463.6406 Q2287.375,463.9844 2287.0313,464.3906 Q2286.5313,464.9688 2285.7344,465.2969 Q2284.6563,465.75 2283.3594,465.75 Q2281.8438,465.75 2280.6406,465.125 Q2279.6563,464.625 2278.9688,463.5547 Q2278.2813,462.4844 2278.2813,461.2031 L2278.2813,460.0469 Q2278.2813,458.7188 2278.8984,457.5703 Q2279.5156,456.4219 2280.6094,455.8047 Q2281.7031,455.1875 2282.9375,455.1875 Q2283.6719,455.1875 2284.3203,455.3516 Q2284.9688,455.5156 2285.5156,455.875 Z " /><text fill="#000000" font-family="sans-serif" font-size="12" lengthAdjust="spacingAndGlyphs" textLength="75" x="2300.25" y="464.9102">Classificacao</text>
        <line style="stroke: #A80036; stroke-width: 1.5;" x1="2253" x2="2393" y1="476" y2="476" /><text fill="#000000" font-family="sans-serif" font-size="11" lengthAdjust="spacingAndGlyphs" textLength="64" x="2258" y="491.4189">-Integer lugar</text>
        <line style="stroke: #A80036; stroke-width: 1.5;" x1="2253" x2="2393" y1="497.8359" y2="497.8359" /><text fill="#000000" font-family="sans-serif" font-size="11" lengthAdjust="spacingAndGlyphs" textLength="130" x="2258" y="513.2549">Classificacao(cand,ordem)</text>
        <!--MD5=[aca0f236260d30190baee83e33cc7802]
class ProcessoSeriacao-->
        <rect fill="#FEFECE" filter="url(#f5wchpmjp1m69)" height="158.6875" id="ProcessoSeriacao" style="stroke: #A80036; stroke-width: 1.5;" width="183" x="1606.5" y="253.5" />
        <ellipse cx="1643.55" cy="269.5" fill="#ADD1B2" rx="11" ry="11" style="stroke: #A80036; stroke-width: 1.0;" />
        <path d="M1646.3156,265.375 Q1646.4719,265.1563 1646.6594,265.0469 Q1646.8469,264.9375 1647.0656,264.9375 Q1647.4406,264.9375 1647.675,265.1953 Q1647.9094,265.4531 1647.9094,266.0625 L1647.9094,267.5156 Q1647.9094,268.125 1647.675,268.3906 Q1647.4406,268.6563 1647.0656,268.6563 Q1646.7219,268.6563 1646.5188,268.4531 Q1646.3156,268.2656 1646.2063,267.75 Q1646.1594,267.3906 1645.9719,267.2031 Q1645.6438,266.8281 1645.0344,266.6094 Q1644.425,266.3906 1643.8,266.3906 Q1643.0344,266.3906 1642.4016,266.7188 Q1641.7688,267.0469 1641.2766,267.7969 Q1640.7844,268.5469 1640.7844,269.5781 L1640.7844,270.6719 Q1640.7844,271.9063 1641.675,272.7266 Q1642.5656,273.5469 1644.1594,273.5469 Q1645.0969,273.5469 1645.7531,273.2969 Q1646.1438,273.1406 1646.5656,272.7031 Q1646.8313,272.4375 1646.9797,272.3594 Q1647.1281,272.2813 1647.3313,272.2813 Q1647.6594,272.2813 1647.9172,272.5391 Q1648.175,272.7969 1648.175,273.1406 Q1648.175,273.4844 1647.8313,273.8906 Q1647.3313,274.4688 1646.5344,274.7969 Q1645.4563,275.25 1644.1594,275.25 Q1642.6438,275.25 1641.4406,274.625 Q1640.4563,274.125 1639.7688,273.0547 Q1639.0813,271.9844 1639.0813,270.7031 L1639.0813,269.5469 Q1639.0813,268.2188 1639.6984,267.0703 Q1640.3156,265.9219 1641.4094,265.3047 Q1642.5031,264.6875 1643.7375,264.6875 Q1644.4719,264.6875 1645.1203,264.8516 Q1645.7688,265.0156 1646.3156,265.375 Z " /><text fill="#000000" font-family="sans-serif" font-size="12" lengthAdjust="spacingAndGlyphs" textLength="102" x="1662.45" y="274.4102">ProcessoSeriacao</text>
        <line style="stroke: #A80036; stroke-width: 1.5;" x1="1607.5" x2="1788.5" y1="285.5" y2="285.5" /><text fill="#000000" font-family="sans-serif" font-size="11" lengthAdjust="spacingAndGlyphs" textLength="103" x="1612.5" y="300.9189">-Date dataRealizacao</text>
        <line style="stroke: #A80036; stroke-width: 1.5;" x1="1607.5" x2="1788.5" y1="307.3359" y2="307.3359" /><text fill="#000000" font-family="sans-serif" font-size="11" lengthAdjust="spacingAndGlyphs" textLength="171" x="1612.5" y="322.7549">+ProcessoSeriacao(tipoReg, colab)</text><text fill="#000000" font-family="sans-serif" font-size="11" lengthAdjust="spacingAndGlyphs" textLength="154" x="1612.5" y="336.5908">+addClassificacao(cand,ordem)</text><text fill="#000000" font-family="sans-serif" font-size="11" lengthAdjust="spacingAndGlyphs" textLength="131" x="1612.5" y="350.4268">-validaClassificacao(class)</text><text fill="#000000" font-family="sans-serif" font-size="11" lengthAdjust="spacingAndGlyphs" textLength="121" x="1612.5" y="364.2627">-addClassificacao(class)</text><text fill="#000000" font-family="sans-serif" font-size="11" lengthAdjust="spacingAndGlyphs" textLength="107" x="1612.5" y="378.0986">+addParticipante(part)</text><text fill="#000000" font-family="sans-serif" font-size="11" lengthAdjust="spacingAndGlyphs" textLength="42" x="1612.5" y="391.9346">+valida()</text><text fill="#000000" font-family="sans-serif" font-size="11" lengthAdjust="spacingAndGlyphs" textLength="132" x="1612.5" y="405.7705">+getPrimeiraClassificacao()</text>
        <!--MD5=[8bc17582e55ad67b52a8caaa08816a5d]
class ProcessoAtribuicao-->
        <rect fill="#FEFECE" filter="url(#f5wchpmjp1m69)" height="117.1797" id="ProcessoAtribuicao" style="stroke: #A80036; stroke-width: 1.5;" width="400" x="1498" y="447.5" />
        <ellipse cx="1640.25" cy="463.5" fill="#ADD1B2" rx="11" ry="11" style="stroke: #A80036; stroke-width: 1.0;" />
        <path d="M1643.0156,459.375 Q1643.1719,459.1563 1643.3594,459.0469 Q1643.5469,458.9375 1643.7656,458.9375 Q1644.1406,458.9375 1644.375,459.1953 Q1644.6094,459.4531 1644.6094,460.0625 L1644.6094,461.5156 Q1644.6094,462.125 1644.375,462.3906 Q1644.1406,462.6563 1643.7656,462.6563 Q1643.4219,462.6563 1643.2188,462.4531 Q1643.0156,462.2656 1642.9063,461.75 Q1642.8594,461.3906 1642.6719,461.2031 Q1642.3438,460.8281 1641.7344,460.6094 Q1641.125,460.3906 1640.5,460.3906 Q1639.7344,460.3906 1639.1016,460.7188 Q1638.4688,461.0469 1637.9766,461.7969 Q1637.4844,462.5469 1637.4844,463.5781 L1637.4844,464.6719 Q1637.4844,465.9063 1638.375,466.7266 Q1639.2656,467.5469 1640.8594,467.5469 Q1641.7969,467.5469 1642.4531,467.2969 Q1642.8438,467.1406 1643.2656,466.7031 Q1643.5313,466.4375 1643.6797,466.3594 Q1643.8281,466.2813 1644.0313,466.2813 Q1644.3594,466.2813 1644.6172,466.5391 Q1644.875,466.7969 1644.875,467.1406 Q1644.875,467.4844 1644.5313,467.8906 Q1644.0313,468.4688 1643.2344,468.7969 Q1642.1563,469.25 1640.8594,469.25 Q1639.3438,469.25 1638.1406,468.625 Q1637.1563,468.125 1636.4688,467.0547 Q1635.7813,465.9844 1635.7813,464.7031 L1635.7813,463.5469 Q1635.7813,462.2188 1636.3984,461.0703 Q1637.0156,459.9219 1638.1094,459.3047 Q1639.2031,458.6875 1640.4375,458.6875 Q1641.1719,458.6875 1641.8203,458.8516 Q1642.4688,459.0156 1643.0156,459.375 Z " /><text fill="#000000" font-family="sans-serif" font-size="12" lengthAdjust="spacingAndGlyphs" textLength="107" x="1660.75" y="468.4102">ProcessoAtribuicao</text>
        <line style="stroke: #A80036; stroke-width: 1.5;" x1="1499" x2="1897" y1="479.5" y2="479.5" /><text fill="#000000" font-family="sans-serif" font-size="11" lengthAdjust="spacingAndGlyphs" textLength="103" x="1504" y="494.9189">-Data dataRealizacao</text>
        <line style="stroke: #A80036; stroke-width: 1.5;" x1="1499" x2="1897" y1="501.3359" y2="501.3359" /><text fill="#000000" font-family="sans-serif" font-size="11" lengthAdjust="spacingAndGlyphs" textLength="183" x="1504" y="516.7549">+ProcessoAtribuicao(dataRealizacao)</text><text fill="#000000" font-family="sans-serif" font-size="11" lengthAdjust="spacingAndGlyphs" textLength="388" x="1504" y="530.5908">+novaAdjudicacao(org,freelancer,dsTarefa,dataInicioTarefa,nrDiasNecessarios,</text><text fill="#000000" font-family="sans-serif" font-size="11" lengthAdjust="spacingAndGlyphs" textLength="226" x="1504" y="544.4268">valorAceite,anuncio,numSeq,dataAdjudicacao)</text><text fill="#000000" font-family="sans-serif" font-size="11" lengthAdjust="spacingAndGlyphs" textLength="103" x="1504" y="558.2627">+setAdjudicacao(adj)</text>
        <!--MD5=[5d1ab724c50d81e7fd2e67537350aa20]
class Adjudicacao-->
        <rect fill="#FEFECE" filter="url(#f5wchpmjp1m69)" height="158.6875" id="Adjudicacao" style="stroke: #A80036; stroke-width: 1.5;" width="376" x="2135" y="249.5" />
        <ellipse cx="2285.25" cy="265.5" fill="#ADD1B2" rx="11" ry="11" style="stroke: #A80036; stroke-width: 1.0;" />
        <path d="M2288.0156,261.375 Q2288.1719,261.1563 2288.3594,261.0469 Q2288.5469,260.9375 2288.7656,260.9375 Q2289.1406,260.9375 2289.375,261.1953 Q2289.6094,261.4531 2289.6094,262.0625 L2289.6094,263.5156 Q2289.6094,264.125 2289.375,264.3906 Q2289.1406,264.6563 2288.7656,264.6563 Q2288.4219,264.6563 2288.2188,264.4531 Q2288.0156,264.2656 2287.9063,263.75 Q2287.8594,263.3906 2287.6719,263.2031 Q2287.3438,262.8281 2286.7344,262.6094 Q2286.125,262.3906 2285.5,262.3906 Q2284.7344,262.3906 2284.1016,262.7188 Q2283.4688,263.0469 2282.9766,263.7969 Q2282.4844,264.5469 2282.4844,265.5781 L2282.4844,266.6719 Q2282.4844,267.9063 2283.375,268.7266 Q2284.2656,269.5469 2285.8594,269.5469 Q2286.7969,269.5469 2287.4531,269.2969 Q2287.8438,269.1406 2288.2656,268.7031 Q2288.5313,268.4375 2288.6797,268.3594 Q2288.8281,268.2813 2289.0313,268.2813 Q2289.3594,268.2813 2289.6172,268.5391 Q2289.875,268.7969 2289.875,269.1406 Q2289.875,269.4844 2289.5313,269.8906 Q2289.0313,270.4688 2288.2344,270.7969 Q2287.1563,271.25 2285.8594,271.25 Q2284.3438,271.25 2283.1406,270.625 Q2282.1563,270.125 2281.4688,269.0547 Q2280.7813,267.9844 2280.7813,266.7031 L2280.7813,265.5469 Q2280.7813,264.2188 2281.3984,263.0703 Q2282.0156,261.9219 2283.1094,261.3047 Q2284.2031,260.6875 2285.4375,260.6875 Q2286.1719,260.6875 2286.8203,260.8516 Q2287.4688,261.0156 2288.0156,261.375 Z " /><text fill="#000000" font-family="sans-serif" font-size="12" lengthAdjust="spacingAndGlyphs" textLength="67" x="2305.75" y="270.4102">Adjudicacao</text>
        <line style="stroke: #A80036; stroke-width: 1.5;" x1="2136" x2="2510" y1="281.5" y2="281.5" /><text fill="#000000" font-family="sans-serif" font-size="11" lengthAdjust="spacingAndGlyphs" textLength="95" x="2141" y="296.9189">-Double valorAceite</text><text fill="#000000" font-family="sans-serif" font-size="11" lengthAdjust="spacingAndGlyphs" textLength="110" x="2141" y="310.7549">-Date dataAdjudicacao</text><text fill="#000000" font-family="sans-serif" font-size="11" lengthAdjust="spacingAndGlyphs" textLength="106" x="2141" y="324.5908">-Date dataInicioTarefa</text><text fill="#000000" font-family="sans-serif" font-size="11" lengthAdjust="spacingAndGlyphs" textLength="79" x="2141" y="338.4268">-Integer numSeq</text><text fill="#000000" font-family="sans-serif" font-size="11" lengthAdjust="spacingAndGlyphs" textLength="132" x="2141" y="352.2627">-Integer nrDiasNecessarios</text><text fill="#000000" font-family="sans-serif" font-size="11" lengthAdjust="spacingAndGlyphs" textLength="79" x="2141" y="366.0986">-String dsTarefa</text>
        <line style="stroke: #A80036; stroke-width: 1.5;" x1="2136" x2="2510" y1="372.5156" y2="372.5156" /><text fill="#000000" font-family="sans-serif" font-size="11" lengthAdjust="spacingAndGlyphs" textLength="364" x="2141" y="387.9346">+Adjudicacao(org,freelancer,dsTarefa,dataInicioTarefa,nrDiasNecessarios,</text><text fill="#000000" font-family="sans-serif" font-size="11" lengthAdjust="spacingAndGlyphs" textLength="226" x="2141" y="401.7705">valorAceite,anuncio,numSeq,dataAdjudicacao)</text>
        <!--MD5=[27c2d4bbe9f7b9d3b0ea2797cc54308a]
class Tarefa-->
        <rect fill="#FEFECE" filter="url(#f5wchpmjp1m69)" height="61.8359" id="Tarefa" style="stroke: #A80036; stroke-width: 1.5;" width="128" x="2634" y="127" />
        <ellipse cx="2676.45" cy="143" fill="#ADD1B2" rx="11" ry="11" style="stroke: #A80036; stroke-width: 1.0;" />
        <path d="M2679.2156,138.875 Q2679.3719,138.6563 2679.5594,138.5469 Q2679.7469,138.4375 2679.9656,138.4375 Q2680.3406,138.4375 2680.575,138.6953 Q2680.8094,138.9531 2680.8094,139.5625 L2680.8094,141.0156 Q2680.8094,141.625 2680.575,141.8906 Q2680.3406,142.1563 2679.9656,142.1563 Q2679.6219,142.1563 2679.4188,141.9531 Q2679.2156,141.7656 2679.1063,141.25 Q2679.0594,140.8906 2678.8719,140.7031 Q2678.5438,140.3281 2677.9344,140.1094 Q2677.325,139.8906 2676.7,139.8906 Q2675.9344,139.8906 2675.3016,140.2188 Q2674.6688,140.5469 2674.1766,141.2969 Q2673.6844,142.0469 2673.6844,143.0781 L2673.6844,144.1719 Q2673.6844,145.4063 2674.575,146.2266 Q2675.4656,147.0469 2677.0594,147.0469 Q2677.9969,147.0469 2678.6531,146.7969 Q2679.0438,146.6406 2679.4656,146.2031 Q2679.7313,145.9375 2679.8797,145.8594 Q2680.0281,145.7813 2680.2313,145.7813 Q2680.5594,145.7813 2680.8172,146.0391 Q2681.075,146.2969 2681.075,146.6406 Q2681.075,146.9844 2680.7313,147.3906 Q2680.2313,147.9688 2679.4344,148.2969 Q2678.3563,148.75 2677.0594,148.75 Q2675.5438,148.75 2674.3406,148.125 Q2673.3563,147.625 2672.6688,146.5547 Q2671.9813,145.4844 2671.9813,144.2031 L2671.9813,143.0469 Q2671.9813,141.7188 2672.5984,140.5703 Q2673.2156,139.4219 2674.3094,138.8047 Q2675.4031,138.1875 2676.6375,138.1875 Q2677.3719,138.1875 2678.0203,138.3516 Q2678.6688,138.5156 2679.2156,138.875 Z " /><text fill="#000000" font-family="sans-serif" font-size="12" lengthAdjust="spacingAndGlyphs" textLength="35" x="2696.55" y="147.9102">Tarefa</text>
        <line style="stroke: #A80036; stroke-width: 1.5;" x1="2635" x2="2761" y1="159" y2="159" />
        <line style="stroke: #A80036; stroke-width: 1.5;" x1="2635" x2="2761" y1="167" y2="167" /><text fill="#000000" font-family="sans-serif" font-size="11" lengthAdjust="spacingAndGlyphs" textLength="116" x="2640" y="182.4189">+getDescricaoTecnica()</text>
        <!--MD5=[0b8c11e89e8561660fecfc719ed33ad4]
class ListaTarefas-->
        <rect fill="#FEFECE" filter="url(#f5wchpmjp1m69)" height="48" id="ListaTarefas" style="stroke: #A80036; stroke-width: 1.5;" width="101" x="1966" y="8" />
        <ellipse cx="1981" cy="24" fill="#ADD1B2" rx="11" ry="11" style="stroke: #A80036; stroke-width: 1.0;" />
        <path d="M1983.7656,19.875 Q1983.9219,19.6563 1984.1094,19.5469 Q1984.2969,19.4375 1984.5156,19.4375 Q1984.8906,19.4375 1985.125,19.6953 Q1985.3594,19.9531 1985.3594,20.5625 L1985.3594,22.0156 Q1985.3594,22.625 1985.125,22.8906 Q1984.8906,23.1563 1984.5156,23.1563 Q1984.1719,23.1563 1983.9688,22.9531 Q1983.7656,22.7656 1983.6563,22.25 Q1983.6094,21.8906 1983.4219,21.7031 Q1983.0938,21.3281 1982.4844,21.1094 Q1981.875,20.8906 1981.25,20.8906 Q1980.4844,20.8906 1979.8516,21.2188 Q1979.2188,21.5469 1978.7266,22.2969 Q1978.2344,23.0469 1978.2344,24.0781 L1978.2344,25.1719 Q1978.2344,26.4063 1979.125,27.2266 Q1980.0156,28.0469 1981.6094,28.0469 Q1982.5469,28.0469 1983.2031,27.7969 Q1983.5938,27.6406 1984.0156,27.2031 Q1984.2813,26.9375 1984.4297,26.8594 Q1984.5781,26.7813 1984.7813,26.7813 Q1985.1094,26.7813 1985.3672,27.0391 Q1985.625,27.2969 1985.625,27.6406 Q1985.625,27.9844 1985.2813,28.3906 Q1984.7813,28.9688 1983.9844,29.2969 Q1982.9063,29.75 1981.6094,29.75 Q1980.0938,29.75 1978.8906,29.125 Q1977.9063,28.625 1977.2188,27.5547 Q1976.5313,26.4844 1976.5313,25.2031 L1976.5313,24.0469 Q1976.5313,22.7188 1977.1484,21.5703 Q1977.7656,20.4219 1978.8594,19.8047 Q1979.9531,19.1875 1981.1875,19.1875 Q1981.9219,19.1875 1982.5703,19.3516 Q1983.2188,19.5156 1983.7656,19.875 Z " /><text fill="#000000" font-family="sans-serif" font-size="12" lengthAdjust="spacingAndGlyphs" textLength="69" x="1995" y="28.9102">ListaTarefas</text>
        <line style="stroke: #A80036; stroke-width: 1.5;" x1="1967" x2="2066" y1="40" y2="40" />
        <line style="stroke: #A80036; stroke-width: 1.5;" x1="1967" x2="2066" y1="48" y2="48" />
        <!--MD5=[b83c3f10011fabf06242fbd8b132b538]
link SeriarAnuncioUI to SeriarAnuncioController-->
        <path d="M127.205,334 C144.222,334 163.324,334 182.337,334 " fill="none" id="SeriarAnuncioUI-&gt;SeriarAnuncioController" style="stroke: #A80036; stroke-width: 1.0; stroke-dasharray: 7.0,7.0;" />
        <polygon fill="#A80036" points="187.695,334,178.695,330,182.695,334,178.695,338,187.695,334" style="stroke: #A80036; stroke-width: 1.0;" />
        <!--MD5=[32f0d5beb7aa7986a0551d9177e7d40e]
link SeriarAnuncioController to Plataforma-->
        <path d="M399.142,334 C417.684,334 436.685,334 454.295,334 " fill="none" id="SeriarAnuncioController-&gt;Plataforma" style="stroke: #A80036; stroke-width: 1.0; stroke-dasharray: 7.0,7.0;" />
        <polygon fill="#A80036" points="459.714,334,450.714,330,454.714,334,450.714,338,459.714,334" style="stroke: #A80036; stroke-width: 1.0;" />
        <!--MD5=[f474418f0299e5a3deeeaebedb6f44d3]
link Plataforma to RegistoOrganizacoes-->
        <path d="M605.362,289.365 C664.496,252.636 747.055,201.357 800.888,167.921 " fill="none" id="Plataforma-&gt;RegistoOrganizacoes" style="stroke: #A80036; stroke-width: 1.0;" />
        <polygon fill="#A80036" points="805.359,165.144,795.6033,166.4957,801.1119,167.7826,799.825,173.2911,805.359,165.144" style="stroke: #A80036; stroke-width: 1.0;" /><text fill="#000000" font-family="sans-serif" font-size="13" lengthAdjust="spacingAndGlyphs" textLength="22" x="636" y="253.4951">tem</text><text fill="#000000" font-family="sans-serif" font-size="13" lengthAdjust="spacingAndGlyphs" textLength="7" x="613.2368" y="299.0825">1</text><text fill="#000000" font-family="sans-serif" font-size="13" lengthAdjust="spacingAndGlyphs" textLength="7" x="787.6016" y="186.3963">1</text>
        <!--MD5=[463821f61fd53759657c2ac769a7e835]
link Plataforma to RegistoAnuncios-->
        <path d="M605.22,351.373 C615.206,353.671 625.349,355.941 635,358 C650.801,361.371 667.268,364.752 683.771,368.051 " fill="none" id="Plataforma-&gt;RegistoAnuncios" style="stroke: #A80036; stroke-width: 1.0;" />
        <polygon fill="#A80036" points="688.892,369.073,680.8474,363.391,683.9884,368.0957,679.2838,371.2367,688.892,369.073" style="stroke: #A80036; stroke-width: 1.0;" /><text fill="#000000" font-family="sans-serif" font-size="13" lengthAdjust="spacingAndGlyphs" textLength="22" x="636" y="354.4951">tem</text><text fill="#000000" font-family="sans-serif" font-size="13" lengthAdjust="spacingAndGlyphs" textLength="7" x="613.0802" y="367.4851">1</text><text fill="#000000" font-family="sans-serif" font-size="13" lengthAdjust="spacingAndGlyphs" textLength="7" x="674.1387" y="381.5294">1</text>
        <!--MD5=[7846c904d139ffad2e5d1ca294d8e188]
link RegistoOrganizacoes to Organizacao-->
        <path d="M960.758,123.699 C1037.04,116.089 1138.96,105.921 1206.56,99.177 " fill="none" id="RegistoOrganizacoes-&gt;Organizacao" style="stroke: #A80036; stroke-width: 1.0;" />
        <polygon fill="#A80036" points="1211.78,98.656,1202.4251,95.5762,1206.8051,99.1561,1203.2252,103.5361,1211.78,98.656" style="stroke: #A80036; stroke-width: 1.0;" /><text fill="#000000" font-family="sans-serif" font-size="13" lengthAdjust="spacingAndGlyphs" textLength="86" x="1055" y="102.4951">tem registadas</text><text fill="#000000" font-family="sans-serif" font-size="13" lengthAdjust="spacingAndGlyphs" textLength="7" x="968.3347" y="137.0505">1</text><text fill="#000000" font-family="sans-serif" font-size="13" lengthAdjust="spacingAndGlyphs" textLength="5" x="1199.0997" y="113.7725">*</text>
        <!--MD5=[2903b91671052adea6f5e59eb6d59b42]
link RegistoAnuncios to Anuncio-->
        <path d="M1024.19,436.427 C1072.08,446.891 1123.13,458.047 1166.83,467.597 " fill="none" id="RegistoAnuncios-&gt;Anuncio" style="stroke: #A80036; stroke-width: 1.0;" />
        <polygon fill="#A80036" points="1171.85,468.693,1163.9157,462.858,1166.9661,467.622,1162.2021,470.6723,1171.85,468.693" style="stroke: #A80036; stroke-width: 1.0;" /><text fill="#000000" font-family="sans-serif" font-size="13" lengthAdjust="spacingAndGlyphs" textLength="48" x="1074" y="439.4951">publicita</text><text fill="#000000" font-family="sans-serif" font-size="13" lengthAdjust="spacingAndGlyphs" textLength="7" x="1031.947" y="451.9354">1</text><text fill="#000000" font-family="sans-serif" font-size="13" lengthAdjust="spacingAndGlyphs" textLength="5" x="1159.1051" y="481.1346">*</text>
        <!--MD5=[ebf28f708ced3fa17ddc18f977b4c30e]
link Organizacao to ListaColaboradores-->
        <path d="M1347.42,92 C1419.42,92 1534.11,92 1612.33,92 " fill="none" id="Organizacao-&gt;ListaColaboradores" style="stroke: #A80036; stroke-width: 1.0;" />
        <polygon fill="#A80036" points="1617.43,92,1608.43,88,1612.43,92,1608.43,96,1617.43,92" style="stroke: #A80036; stroke-width: 1.0;" /><text fill="#000000" font-family="sans-serif" font-size="13" lengthAdjust="spacingAndGlyphs" textLength="22" x="1431.5" y="88.4951">tem</text><text fill="#000000" font-family="sans-serif" font-size="13" lengthAdjust="spacingAndGlyphs" textLength="7" x="1354.7852" y="106.3374">1</text><text fill="#000000" font-family="sans-serif" font-size="13" lengthAdjust="spacingAndGlyphs" textLength="7" x="1602.4171" y="106.29">1</text>
        <!--MD5=[fe36d68e6ccc9fbcf1b4b1ecbcfd2a3f]
link Organizacao to ListaTarefas-->
        <path d="M1347.3,70.714 C1389.93,58.233 1446.63,43.647 1498,37 C1665.47,15.332 1865.97,22.785 1960.74,28.278 " fill="none" id="Organizacao-&gt;ListaTarefas" style="stroke: #A80036; stroke-width: 1.0;" />
        <polygon fill="#A80036" points="1966,28.588,1957.2562,24.0553,1961.009,28.288,1956.7762,32.0408,1966,28.588" style="stroke: #A80036; stroke-width: 1.0;" /><text fill="#000000" font-family="sans-serif" font-size="13" lengthAdjust="spacingAndGlyphs" textLength="22" x="1431.5" y="37.4951">tem</text><text fill="#000000" font-family="sans-serif" font-size="13" lengthAdjust="spacingAndGlyphs" textLength="7" x="1355.0984" y="82.7743">1</text><text fill="#000000" font-family="sans-serif" font-size="13" lengthAdjust="spacingAndGlyphs" textLength="7" x="1951.0688" y="42.7828">1</text>
        <!--MD5=[7260d47c0614ffa35e1bdddecdc2d005]
link ListaColaboradores to Colaborador-->
        <path d="M1778.54,101.064 C1906.89,115.692 2156.47,144.136 2267.02,156.735 " fill="none" id="ListaColaboradores-&gt;Colaborador" style="stroke: #A80036; stroke-width: 1.0;" />
        <polygon fill="#A80036" points="2272.18,157.322,2263.6818,152.344,2267.2111,156.7648,2262.7903,160.2942,2272.18,157.322" style="stroke: #A80036; stroke-width: 1.0;" /><text fill="#000000" font-family="sans-serif" font-size="13" lengthAdjust="spacingAndGlyphs" textLength="22" x="2005.5" y="115.4951">tem</text><text fill="#000000" font-family="sans-serif" font-size="13" lengthAdjust="spacingAndGlyphs" textLength="7" x="1786.5501" y="116.2179">1</text><text fill="#000000" font-family="sans-serif" font-size="13" lengthAdjust="spacingAndGlyphs" textLength="20" x="2244.3874" y="171.1151">1..*</text>
        <!--MD5=[d258da2d5a47e4c990d61ccbbbe86ed7]
link ListaTarefas to Tarefa-->
        <path d="M2067.12,34.837 C2156.76,40.711 2351.19,56.886 2511,94 C2550.79,103.241 2594,117.819 2628.76,130.729 " fill="none" id="ListaTarefas-&gt;Tarefa" style="stroke: #A80036; stroke-width: 1.0;" />
        <polygon fill="#A80036" points="2633.82,132.621,2626.7989,125.7142,2629.1387,130.8644,2623.9884,133.2042,2633.82,132.621" style="stroke: #A80036; stroke-width: 1.0;" /><text fill="#000000" font-family="sans-serif" font-size="13" lengthAdjust="spacingAndGlyphs" textLength="22" x="2312" y="36.4951">tem</text><text fill="#000000" font-family="sans-serif" font-size="13" lengthAdjust="spacingAndGlyphs" textLength="7" x="2075.0689" y="49.9496">1</text><text fill="#000000" font-family="sans-serif" font-size="13" lengthAdjust="spacingAndGlyphs" textLength="5" x="2621.1101" y="144.1365">*</text>
        <!--MD5=[3fb03004f687adcfc695220fdd65ad26]
link Anuncio to TipoRegimento-->
        <path d="M1387.15,557.131 C1421.32,574.612 1460.14,591.117 1498,600 C1771.22,664.1 2109.57,629.96 2252.79,610.502 " fill="none" id="Anuncio-&gt;TipoRegimento" style="stroke: #A80036; stroke-width: 1.0;" />
        <polygon fill="#A80036" points="2257.8,609.816,2248.3365,607.0881,2252.8472,610.5017,2249.4336,615.0125,2257.8,609.816" style="stroke: #A80036; stroke-width: 1.0;" /><text fill="#000000" font-family="sans-serif" font-size="13" lengthAdjust="spacingAndGlyphs" textLength="65" x="1665.5" y="596.4951">rege-se por</text><text fill="#000000" font-family="sans-serif" font-size="13" lengthAdjust="spacingAndGlyphs" textLength="5" x="1394.8949" y="575.7909">*</text><text fill="#000000" font-family="sans-serif" font-size="13" lengthAdjust="spacingAndGlyphs" textLength="7" x="2242.8566" y="625.4199">1</text>
        <!--MD5=[0a535575571876f6213287bf563a867d]
link Anuncio to Colaborador-->
        <path d="M1352.76,370.95 C1389.58,320.42 1439.08,266.483 1498,236 C1632.62,166.35 2105.45,161.928 2267.23,162.521 " fill="none" id="Anuncio-&gt;Colaborador" style="stroke: #A80036; stroke-width: 1.0;" />
        <polygon fill="#A80036" points="2272.39,162.542,2263.4015,158.5163,2267.39,162.5277,2263.3786,166.5163,2272.39,162.542" style="stroke: #A80036; stroke-width: 1.0;" /><text fill="#000000" font-family="sans-serif" font-size="13" lengthAdjust="spacingAndGlyphs" textLength="77" x="1659.5" y="167.4951">publicado por</text><text fill="#000000" font-family="sans-serif" font-size="13" lengthAdjust="spacingAndGlyphs" textLength="5" x="1352.2931" y="360.1986">*</text><text fill="#000000" font-family="sans-serif" font-size="13" lengthAdjust="spacingAndGlyphs" textLength="7" x="2257.4426" y="158.7954">1</text>
        <!--MD5=[936379bbb1fbe67f1148bc2fdcd3e3c1]
link Anuncio to ListaCandidaturas-->
        <path d="M1356.33,613.079 C1373.88,632.476 1394.2,650.0652 1417,662 C1588.64,751.8298 1826.78,733.3041 1944.2,716.4514 " fill="none" id="Anuncio-&gt;ListaCandidaturas" style="stroke: #A80036; stroke-width: 1.0;" />
        <polygon fill="#A80036" points="1949.36,715.7013,1939.8808,713.0282,1944.4113,716.4157,1941.0238,720.9462,1949.36,715.7013" style="stroke: #A80036; stroke-width: 1.0;" /><text fill="#000000" font-family="sans-serif" font-size="13" lengthAdjust="spacingAndGlyphs" textLength="46" x="1419.5" y="658.4951">recebeu</text><text fill="#000000" font-family="sans-serif" font-size="13" lengthAdjust="spacingAndGlyphs" textLength="7" x="1353.5694" y="634.0552">1</text><text fill="#000000" font-family="sans-serif" font-size="13" lengthAdjust="spacingAndGlyphs" textLength="7" x="1934.6338" y="731.3884">1</text>
        <!--MD5=[b3c62d3bd372a34b7ee6d6af17619677]
link ListaCandidaturas to Candidatura-->
        <path d="M2083.87,716.063 C2182.25,730.6965 2370.27,746.0303 2511,681 C2564.54,656.2582 2610.06,608.388 2642.67,565.798 " fill="none" id="ListaCandidaturas-&gt;Candidatura" style="stroke: #A80036; stroke-width: 1.0;" />
        <polygon fill="#A80036" points="2645.79,561.694,2637.1644,566.4478,2642.7686,565.6778,2643.5385,571.2821,2645.79,561.694" style="stroke: #A80036; stroke-width: 1.0;" /><text fill="#000000" font-family="sans-serif" font-size="13" lengthAdjust="spacingAndGlyphs" textLength="22" x="2312" y="677.4951">tem</text><text fill="#000000" font-family="sans-serif" font-size="13" lengthAdjust="spacingAndGlyphs" textLength="7" x="2091.6214" y="731.7897">1</text><text fill="#000000" font-family="sans-serif" font-size="13" lengthAdjust="spacingAndGlyphs" textLength="5" x="2636.0884" y="582.7539">*</text>
        <!--MD5=[02d330b3691aaed85c2b7230cc23c1df]
link Anuncio to ProcessoSeriacao-->
        <path d="M1387.22,451.26 C1453.34,426.017 1537.55,393.87 1601.47,369.467 " fill="none" id="Anuncio-&gt;ProcessoSeriacao" style="stroke: #A80036; stroke-width: 1.0;" />
        <polygon fill="#A80036" points="1606.43,367.576,1596.595,367.0533,1601.7596,369.3613,1599.4515,374.5259,1606.43,367.576" style="stroke: #A80036; stroke-width: 1.0;" /><text fill="#000000" font-family="sans-serif" font-size="13" lengthAdjust="spacingAndGlyphs" textLength="49" x="1418" y="418.4951">espoleta</text><text fill="#000000" font-family="sans-serif" font-size="13" lengthAdjust="spacingAndGlyphs" textLength="7" x="1395.0402" y="462.4759">1</text><text fill="#000000" font-family="sans-serif" font-size="13" lengthAdjust="spacingAndGlyphs" textLength="22" x="1576.577" y="384.3563">0..1</text>
        <!--MD5=[b6f7c6f48377175abd4e6e8cc5d4c110]
link Anuncio to ProcessoAtribuicao-->
        <path d="M1387.22,495.587 C1419.49,496.672 1456.08,497.902 1492.51,499.126 " fill="none" id="Anuncio-&gt;ProcessoAtribuicao" style="stroke: #A80036; stroke-width: 1.0;" />
        <polygon fill="#A80036" points="1497.88,499.307,1489.0102,495.0261,1492.8825,499.1498,1488.7587,503.0221,1497.88,499.307" style="stroke: #A80036; stroke-width: 1.0;" /><text fill="#000000" font-family="sans-serif" font-size="13" lengthAdjust="spacingAndGlyphs" textLength="49" x="1418" y="492.4951">espoleta</text><text fill="#000000" font-family="sans-serif" font-size="13" lengthAdjust="spacingAndGlyphs" textLength="7" x="1395.0402" y="509.9196">1</text><text fill="#000000" font-family="sans-serif" font-size="13" lengthAdjust="spacingAndGlyphs" textLength="22" x="1468.2929" y="512.8522">0..1</text>
        <!--MD5=[a66e767a4304f5fa76db98d7839a7a61]
link Candidatura to Freelancer-->
        <path d="M2762.02,455.341 C2802.75,438.113 2855.01,416.009 2892.8,400.023 " fill="none" id="Candidatura-&gt;Freelancer" style="stroke: #A80036; stroke-width: 1.0;" />
        <polygon fill="#A80036" points="2897.8,397.908,2887.9525,397.7464,2893.1982,399.8635,2891.0812,405.1092,2897.8,397.908" style="stroke: #A80036; stroke-width: 1.0;" /><text fill="#000000" font-family="sans-serif" font-size="13" lengthAdjust="spacingAndGlyphs" textLength="74" x="2793" y="408.4951">realizada por</text><text fill="#000000" font-family="sans-serif" font-size="13" lengthAdjust="spacingAndGlyphs" textLength="5" x="2770.1271" y="466.6025">*</text><text fill="#000000" font-family="sans-serif" font-size="13" lengthAdjust="spacingAndGlyphs" textLength="7" x="2882.9588" y="415.6922">1</text>
        <!--MD5=[577fefe1351fe0f89ea5388d9641a019]
link ProcessoSeriacao to TipoRegimento-->
        <path d="M1789.56,364.642 C1826.01,380.398 1866.73,402.121 1898,430 C1916.5,446.491 1907.76,462.699 1928,477 C1993.95,523.6 2030.87,485.974 2105,518 C2119.71,524.355 2120.6,530.971 2135,538 C2172.51,556.306 2216.74,571.247 2252.77,581.872 " fill="none" id="ProcessoSeriacao-&gt;TipoRegimento" style="stroke: #A80036; stroke-width: 1.0;" />
        <polygon fill="#A80036" points="2257.57,583.277,2250.068,576.8958,2252.774,581.8635,2247.8063,584.5695,2257.57,583.277" style="stroke: #A80036; stroke-width: 1.0;" /><text fill="#000000" font-family="sans-serif" font-size="13" lengthAdjust="spacingAndGlyphs" textLength="175" x="1929" y="473.4951">decorre em concordância com</text><text fill="#000000" font-family="sans-serif" font-size="13" lengthAdjust="spacingAndGlyphs" textLength="5" x="1797.6433" y="364.1974">*</text><text fill="#000000" font-family="sans-serif" font-size="13" lengthAdjust="spacingAndGlyphs" textLength="7" x="2243.0308" y="595.8642">1</text>
        <!--MD5=[d8cba5363504d1c2665cc78c5e9b9c32]
link ProcessoSeriacao to Colaborador-->
        <path d="M1789.52,310.234 C1871.94,289.299 1996.91,257.042 2105,227 C2160.39,211.606 2223.37,192.895 2267.16,179.691 " fill="none" id="ProcessoSeriacao-&gt;Colaborador" style="stroke: #A80036; stroke-width: 1.0;" />
        <polygon fill="#A80036" points="2272.14,178.19,2262.3686,176.9574,2267.3527,179.6329,2264.6772,184.617,2272.14,178.19" style="stroke: #A80036; stroke-width: 1.0;" /><text fill="#000000" font-family="sans-serif" font-size="13" lengthAdjust="spacingAndGlyphs" textLength="74" x="1979.5" y="223.4951">realizado por</text><text fill="#000000" font-family="sans-serif" font-size="13" lengthAdjust="spacingAndGlyphs" textLength="7" x="1797.3888" y="322.5338">1</text><text fill="#000000" font-family="sans-serif" font-size="13" lengthAdjust="spacingAndGlyphs" textLength="20" x="2244.3423" y="194.6568">1..*</text>
        <!--MD5=[52bd50d7906bad09d4dfcc260d1229dc]
link ProcessoSeriacao to Classificacao-->
        <path d="M1789.77,369.649 C1831.37,385.363 1881.63,402.857 1928,415 C2037.19,443.597 2166.71,462.905 2246.63,473.181 " fill="none" id="ProcessoSeriacao-&gt;Classificacao" style="stroke: #A80036; stroke-width: 1.0;" />
        <polygon fill="#A80036" points="2251.82,473.845,2243.3943,468.7452,2246.8597,473.2164,2242.3885,476.6818,2251.82,473.845" style="stroke: #A80036; stroke-width: 1.0;" /><text fill="#000000" font-family="sans-serif" font-size="13" lengthAdjust="spacingAndGlyphs" textLength="39" x="1997" y="411.4951">resulta</text><text fill="#000000" font-family="sans-serif" font-size="13" lengthAdjust="spacingAndGlyphs" textLength="7" x="1797.3618" y="386.7285">1</text><text fill="#000000" font-family="sans-serif" font-size="13" lengthAdjust="spacingAndGlyphs" textLength="5" x="2239.2218" y="487.3592">*</text>
        <!--MD5=[7d06a2927183570e13ebe5ea47997a17]
link ProcessoAtribuicao to Adjudicacao-->
        <path d="M1870.93,447.27 C1880.37,441.935 1889.47,436.185 1898,430 C1915.14,417.576 1909.68,403.616 1928,393 C1988.33,358.032 2062.11,340.666 2129.45,332.466 " fill="none" id="ProcessoAtribuicao-&gt;Adjudicacao" style="stroke: #A80036; stroke-width: 1.0;" />
        <polygon fill="#A80036" points="2134.69,331.844,2125.2752,328.9525,2129.7261,332.4438,2126.2348,336.8947,2134.69,331.844" style="stroke: #A80036; stroke-width: 1.0;" /><text fill="#000000" font-family="sans-serif" font-size="13" lengthAdjust="spacingAndGlyphs" textLength="39" x="1997" y="332.4951">resulta</text><text fill="#000000" font-family="sans-serif" font-size="13" lengthAdjust="spacingAndGlyphs" textLength="7" x="1884.5793" y="436.6429">1</text><text fill="#000000" font-family="sans-serif" font-size="13" lengthAdjust="spacingAndGlyphs" textLength="7" x="2120.1974" y="345.7757">1</text>
        <!--MD5=[5b004714f110506f35a1f92cf330b1c6]
link ProcessoAtribuicao to TipoRegimento-->
        <path d="M1898.26,536.065 C2019.91,554.419 2167.91,576.751 2252.92,589.577 " fill="none" id="ProcessoAtribuicao-&gt;TipoRegimento" style="stroke: #A80036; stroke-width: 1.0;" />
        <polygon fill="#A80036" points="2257.92,590.332,2249.6142,585.0392,2252.9755,589.5891,2248.4256,592.9504,2257.92,590.332" style="stroke: #A80036; stroke-width: 1.0;" /><text fill="#000000" font-family="sans-serif" font-size="13" lengthAdjust="spacingAndGlyphs" textLength="175" x="1929" y="537.4951">decorre em concordância com</text><text fill="#000000" font-family="sans-serif" font-size="13" lengthAdjust="spacingAndGlyphs" textLength="5" x="1906.1803" y="551.0504">*</text><text fill="#000000" font-family="sans-serif" font-size="13" lengthAdjust="spacingAndGlyphs" textLength="7" x="2242.9904" y="585.833">1</text>
        <!--MD5=[471b8c6ff5fcf31b4b6fb9b4f947344d]
link Classificacao to Candidatura-->
        <path d="M2394.16,482 C2461.41,482 2562.28,482 2628.85,482 " fill="none" id="Classificacao-&gt;Candidatura" style="stroke: #A80036; stroke-width: 1.0;" />
        <polygon fill="#A80036" points="2633.99,482,2624.99,478,2628.99,482,2624.99,486,2633.99,482" style="stroke: #A80036; stroke-width: 1.0;" /><text fill="#000000" font-family="sans-serif" font-size="13" lengthAdjust="spacingAndGlyphs" textLength="61" x="2542" y="478.4951">referente a</text><text fill="#000000" font-family="sans-serif" font-size="13" lengthAdjust="spacingAndGlyphs" textLength="22" x="2401.9909" y="496.29">0..1</text><text fill="#000000" font-family="sans-serif" font-size="13" lengthAdjust="spacingAndGlyphs" textLength="7" x="2619.1842" y="496.4585">1</text>
        <!--MD5=[c33cd5cc003d16907b06244bdccbdbb1]
link Adjudicacao to Freelancer-->
        <path d="M2511.25,344.137 C2643.28,354.811 2810.65,368.341 2892.64,374.969 " fill="none" id="Adjudicacao-&gt;Freelancer" style="stroke: #A80036; stroke-width: 1.0;" />
        <polygon fill="#A80036" points="2897.91,375.396,2889.2588,370.6889,2892.926,374.996,2888.6189,378.6632,2897.91,375.396" style="stroke: #A80036; stroke-width: 1.0;" /><text fill="#000000" font-family="sans-serif" font-size="13" lengthAdjust="spacingAndGlyphs" textLength="60" x="2668" y="350.4951">atribuída a</text><text fill="#000000" font-family="sans-serif" font-size="13" lengthAdjust="spacingAndGlyphs" textLength="5" x="2519.2973" y="358.6222">*</text><text fill="#000000" font-family="sans-serif" font-size="13" lengthAdjust="spacingAndGlyphs" textLength="7" x="2883.0863" y="389.5924">1</text>
        <!--MD5=[dc8d3ccda9fb415963781bcbef841798]
link Adjudicacao to Tarefa-->
        <path d="M2497.67,249.382 C2544.24,228.032 2591.88,206.19 2628.91,189.216 " fill="none" id="Adjudicacao-&gt;Tarefa" style="stroke: #A80036; stroke-width: 1.0;" />
        <polygon fill="#A80036" points="2633.83,186.959,2623.9818,187.0767,2629.2855,189.0441,2627.3181,194.3478,2633.83,186.959" style="stroke: #A80036; stroke-width: 1.0;" /><text fill="#000000" font-family="sans-serif" font-size="13" lengthAdjust="spacingAndGlyphs" textLength="61" x="2542" y="199.4951">referente a</text><text fill="#000000" font-family="sans-serif" font-size="13" lengthAdjust="spacingAndGlyphs" textLength="7" x="2506.9846" y="238.5577">1</text><text fill="#000000" font-family="sans-serif" font-size="13" lengthAdjust="spacingAndGlyphs" textLength="7" x="2619.0057" y="204.7573">1</text>
        <!--MD5=[78fb5693fff70c1fc1cd19d59f3faf1b]
@startuml
skinparam classAttributeIconSize 0
left to right direction

class SeriarAnuncioUI {}

class SeriarAnuncioController
{
    +getAnunciosPorSeriarNaoAutomaticos()
    +getCandidaturas(anuncioId)
    +classifica(candId, ordem)
    +getColaboradores()
    +addParticipante(emailPart)
    +registaProcessoSeriacao()
    +getDataDiaSeguinte()
    +getDataDiaAtual()
}

class Plataforma {
    -String designacao
    +getRegistoOrganizacoes()
    +getRegistoAnuncios()
    +getNumeroSequencial()
}

class RegistoOrganizacoes {
    +getOrganizacaoByEmailUtilizador(email)
}

class RegistoAnuncios {
    +getAnunciosPorSeriarNaoAutomaticos(colab)
    +getAnuncioPublicadoPor(colab, anuncioId)
    +getAnunciosByColaborador(colab)
    +getAnunciosSeriaveisNaoAutomaticos(listaAnunciosColaborador)
}

class Organizacao {
    -String nome
    -String NIF
    -String website
    -String telefone
    -String email
    +getListaColaboradores()
}

class ListaColaboradores {
    +getColaboradores()
    +getColaboradorByEmail(email)
}

class Colaborador {
    -String nome
    -String funcao
    -String telefone
    -String email
}

class TipoRegimento
{
    -String designacao
    -String descricaoRegras
    +getObrigatoriedade()
}


class Freelancer {
    -String nome
    -String NIF
    -String telefone
    -String email
}

class Anuncio
{
    -Date dtInicioPublicitacao
    -Date dtFimPublicitacao
    -Date dtInicioCandidatura
    -Date dtFimCandidatura
    -Date dtInicioSeriacao
    -Date dtFimSeriacao
    +getListaCandidaturas()
    +novoProcessoSeriacao(colab)
    +registaProcessoSeriacao(ps)
    -validaProcessoSeriacao(ps)
    -setProcessoSeriacao(ps)
    +getTarefa()
    +novoProcessoAtribuicao(dataAtribuicao)
    +getTipoReg()
}

class ListaCandidaturas
{
    +getCandidaturas()
    +getCandidatura(candId)
}
class Candidatura
{
    -Date dataCandidatura
    -Double valorPretendido
    -Integer nrDias
    -String txtApresentacao
    -String txtMotivacao
    +getFreelancer()
    +getValorPret()
    +getNumDiasNec()
}

class Classificacao
{
    -Integer lugar
    Classificacao(cand,ordem)
}

class ProcessoSeriacao
{
    -Date dataRealizacao
    +ProcessoSeriacao(tipoReg, colab)
    +addClassificacao(cand,ordem)
    -validaClassificacao(class)
    -addClassificacao(class)
    +addParticipante(part)
    +valida()
    +getPrimeiraClassificacao()
}

class ProcessoAtribuicao
{
    -Data dataRealizacao
    +ProcessoAtribuicao(dataRealizacao)
    +novaAdjudicacao(org,freelancer,dsTarefa,dataInicioTarefa,nrDiasNecessarios,
     valorAceite,anuncio,numSeq,dataAdjudicacao)
    +setAdjudicacao(adj)
}

class Adjudicacao
{
    -Double valorAceite
    -Date dataAdjudicacao
    -Date dataInicioTarefa
    -Integer numSeq
    -Integer nrDiasNecessarios
    -String dsTarefa
    +Adjudicacao(org,freelancer,dsTarefa,dataInicioTarefa,nrDiasNecessarios,
     valorAceite,anuncio,numSeq,dataAdjudicacao)
}

class Tarefa{
    +getDescricaoTecnica()
}



SeriarAnuncioUI ..> SeriarAnuncioController
SeriarAnuncioController ..> Plataforma
Plataforma "1" - -> "1" RegistoOrganizacoes : tem
Plataforma "1" - -> "1" RegistoAnuncios : tem

RegistoOrganizacoes "1" - -> "*" Organizacao : tem registadas
RegistoAnuncios "1" - -> "*" Anuncio : publicita

Organizacao "1" - -> "1" ListaColaboradores: tem
Organizacao "1" - -> "1" ListaTarefas: tem

ListaColaboradores "1" - -> "1..*" Colaborador: tem
ListaTarefas "1" - -> "*" Tarefa: tem

Anuncio "*" - -> "1" TipoRegimento: rege-se por
Anuncio "*" - -> "1" Colaborador: publicado por
Anuncio "1" - -> "1" ListaCandidaturas: recebeu
ListaCandidaturas "1" - -> "*" Candidatura: tem
Anuncio "1" - -> "0..1" ProcessoSeriacao: espoleta
Anuncio "1" - -> "0..1" ProcessoAtribuicao: espoleta


Candidatura "*" - -> "1"  Freelancer: realizada por

ProcessoSeriacao "*" - -> "1" TipoRegimento: decorre em concordância com
ProcessoSeriacao "1" - -> "1..*" Colaborador: realizado por
ProcessoSeriacao "1" - -> "*" Classificacao: resulta

ProcessoAtribuicao "1" - -> "1" Adjudicacao: resulta
ProcessoAtribuicao "*" - -> "1" TipoRegimento: decorre em concordância com

Classificacao "0..1" - -> "1" Candidatura: referente a

Adjudicacao "*" - -> "1" Freelancer: atribuída a
Adjudicacao "1" - -> "1" Tarefa: referente a

@enduml

PlantUML version 1.2020.02(Sun Mar 01 10:22:07 GMT 2020)
(GPL source distribution)
Java Runtime: Java(TM) SE Runtime Environment
JVM: Java HotSpot(TM) Client VM
Java Version: 1.8.0_201-b09
Operating System: Windows 10
Default Encoding: Cp1252
Language: pt
Country: PT
-->
    </g>
</svg>